Mandatory;Pressed;Strength;BeginingTime;TimeSaved;EndTime;Comment;Emotion;
0;0;0;33600.0;581671200;33774.1180038;581671374.118004;33720.0;581671320;;neutral/A mental activity/mental;
1;0;0;35185.0814641;581672785.081464;35378.6744599;581672978.67446;35425.081465;581673025.081465;;neutral/A physical activity/sport;
