54744.54
0.0;0.968794345855713
0.953170061111,0.953168630599976
1.87509012222,0.921917259693146
2.79701018333,0.921917259693146
3.70329999924,0.906291484832764
4.56271004677,0.859414339065552
5.40650010109,0.843788623809814
6.23466014862,0.828162908554077
7.10969996452,0.875040054321289
7.93787002563,0.828162908554077
8.82853007317,0.890665829181671
9.78170013428,0.953168630599976
10.703619957,0.921917259693146
11.6567900181,0.953168630599976
12.6412100792,0.98442006111145
13.5475001335,0.906291484832764
14.4537899494,0.906291484832764
15.3288300037,0.875040054321289
16.1257400513,0.796911478042603
16.9070301056,0.781285762786865
17.7664401531,0.859414339065552
18.6883599758,0.921917259693146
19.6571500301,0.968794345855713
20.6103200912,0.953168630599976
21.5322401524,0.921917259693146
22.4385299683,0.906291484832764
23.3604500294,0.921917259693146
24.2511100769,0.890665829181671
25.1261501312,0.875040054321289
55.6431801319,0.828162908554077
56.4713401794,0.828162908554077
57.3151299953,0.843788623809814
58.1745400429,0.859414339065552
59.0183300972,0.843788623809814
59.9246201515,0.906291484832764
60.7996599674,0.875040054321289
61.6747000217,0.875040054321289
62.6122500896,0.937542915344238
63.549790144,0.937542915344238
64.4404499531,0.890665829181671
65.3623700142,0.921917259693146
66.3311700821,0.968794345855713
67.2999601364,0.968794345855713
68.3000099659,1.00004577636719
69.284430027,0.98442006111145
70.2375900745,0.953168630599976
71.1438901424,0.906291484832764
72.0345499516,0.890665829181671
72.9408400059,0.906291484832764
73.800260067,0.859414339065552
74.6596701145,0.859414339065552
75.5972101688,0.937542915344238
76.4878799915,0.890665829181671
77.4098000526,0.921917259693146
78.347340107,0.937542915344238
79.2380101681,0.890665829181671
80.113049984,0.875040054321289
350.500420094,0.843788623809814
351.469220161,0.968794345855713
355.485030174,0.828162908554077
356.344439983,0.859414339065552
357.250730038,0.906291484832764
358.375780106,1.12505149841309
359.297700167,0.921917259693146
367.079310179,0.796911478042603
367.969969988,0.890665829181671
368.829390049,0.859414339065552
369.735680103,0.906291484832764
370.563840151,0.828162908554077
371.345129967,0.781285762786865
372.360800028,1.01567149162292
373.110830069,0.750034332275391
373.876490116,0.765660047531128
374.75153017,0.875040054321289
375.610949993,0.859414339065552
376.360980034,0.750034332275391
385.955170155,0.796911478042603
386.89270997,0.937542915344238
392.049200058,0.750034332275391
392.861740112,0.81253719329834
393.768030167,0.906291484832764
394.486809969,0.718782901763916
395.361850023,0.875040054321289
396.252520084,0.890665829181671
397.080680132,0.828162908554077
397.861969948,0.781285762786865
487.131680012,0.953168630599976
488.131720066,1.00004577636719
489.03801012,0.906291484832764
489.819300175,0.781285762786865
490.709969997,0.890665829181671
491.553750038,0.843788623809814
492.460050106,0.906291484832764
493.506970167,1.0469229221344
494.46013999,0.953168630599976
495.428930044,0.968794345855713
496.444600105,1.01567149162292
497.272770166,0.828162908554077
572.58871007,0.843788623809814
573.448130131,0.859414339065552
574.229410172,0.781285762786865
575.135699987,0.906291484832764
575.979490042,0.843788623809814
576.776410103,0.796911478042603
577.651450157,0.875040054321289
578.526489973,0.875040054321289
579.354650021,0.828162908554077
580.339070082,0.98442006111145
584.604890108,0.859414339065552
585.558060169,0.953168630599976
596.683570147,0.890665829181671
597.621109962,0.937542915344238
598.605530024,0.98442006111145
612.23115015,0.843788623809814
613.090569973,0.859414339065552
613.903100014,0.81253719329834
614.762520075,0.859414339065552
619.075220108,0.921917259693146
619.762750149,0.687531471252441
626.91933012,0.906291484832764
627.919370174,1.00004577636719
628.966289997,1.0469229221344
629.872590065,0.906291484832764
948.027770042,0.953168630599976
948.949690104,0.921917259693146
949.809110165,0.859414339065552
1038.46941018,0.718782901763916
1039.2507,0.781285762786865
1040.26637006,1.01567149162292
1195.21096015,0.765660047531128
1195.94536996,0.734408617019653
1196.75791001,0.81253719329834
1197.58607006,0.828162908554077
1198.42986012,0.843788623809814
1199.28927016,0.859414339065552
1200.16430998,0.875040054321289
1201.03935003,0.875040054321289
1206.18022013,0.828162908554077
1207.03963017,0.859414339065552
1230.86884999,0.890665829181671
1231.75951004,0.890665829181671
1232.60330009,0.843788623809814
1233.44709015,0.843788623809814
1234.33774996,0.890665829181671
1248.63528013,0.953168630599976
1249.65094995,1.01567149162292
1250.66663003,1.01567149162292
1700.40596008,0.796911478042603
1701.21850014,0.81253719329834
1702.04666018,0.828162908554077
1702.87483001,0.828162908554077
1703.64049006,0.765660047531128
1704.57803011,0.937542915344238
1860.88206005,0.484397172927856
1861.30395007,0.421894311904907
1861.7102201,0.40626859664917
2017.45173001,0.531274318695068
2018.04550004,0.593777179718018
2018.49865007,0.453145742416382
2029.51478004,0.781285762786865
2048.04688001,0.562525749206543
2105.37763,0.796911478042603
2106.06516004,0.687531471252441
2106.87769008,0.81253719329834
2109.84658003,0.515648603439331
2163.25527,0.81253719329834
2164.08344007,0.828162908554077
2164.95848012,0.875040054321289
2165.77101016,0.81253719329834
2166.61479998,0.843788623809814
2167.42734003,0.81253719329834
2267.83819008,0.546900033950806
2517.4589901,0.906291484832764
2518.34965014,0.890665829181671
2519.27156997,0.921917259693146
2520.14661002,0.875040054321289
2523.72490001,0.843788623809814
2524.56869006,0.843788623809814
2525.44373012,0.875040054321289
2583.64952016,1.03129720687866
2584.41517997,0.765660047531128
2611.94769001,0.609402894973755
2612.63522005,0.687531471252441
2645.49609995,0.781285762786865
2646.44927001,0.953168630599976
2675.88811016,0.890665829181671
2680.79459,0.81253719329834
2681.73213005,0.937542915344238
2682.65405011,0.921917259693146
2871.10018015,0.921917259693146
2871.86583996,0.765660047531128
2872.72525001,0.859414339065552
2873.56904006,0.843788623809814
2874.41283011,0.843788623809814
2875.27224016,0.859414339065552
2876.08477998,0.81253719329834
2876.92857003,0.843788623809814
2877.81923008,0.890665829181671
2878.70990014,0.890665829181671
2879.63181996,0.921917259693146
2880.55373001,0.921917259693146
2916.24287009,0.828162908554077
2917.07103014,0.828162908554077
3051.84282017,0.890665829181671
3052.70223999,0.859414339065552
3053.57728004,0.875040054321289
3054.46794009,0.890665829181671
3055.38986015,0.921917259693146
3056.23364997,0.843788623809814
3057.24932003,1.01567149162292
3058.03061008,0.781285762786865
3058.89002013,0.859414339065552
3059.70255995,0.81253719329834
3060.68698001,0.98442006111145
3061.51514006,0.828162908554077
3062.32768011,0.81253719329834
3063.18709016,0.859414339065552
3064.06212997,0.875040054321289
3064.81217003,0.750034332275391
3065.70283008,0.890665829181671
3066.53100014,0.828162908554077
3067.31228018,0.781285762786865
3068.18731999,0.875040054321289
3068.89048004,0.703157186508179
3076.85959005,0.81253719329834
3077.60963011,0.750034332275391
3078.31279016,0.703157186508179
3079.04718995,0.734408617019653
3079.84411001,0.796911478042603
3080.59414005,0.750034332275391
3081.37543011,0.781285762786865
3082.12546015,0.750034332275391
3082.93799996,0.81253719329834
3083.68803,0.750034332275391
3084.45369005,0.765660047531128
3085.23498011,0.781285762786865
3085.96939015,0.734408617019653
3086.71941996,0.750034332275391
3160.83219004,0.906291484832764
3161.70723009,0.875040054321289
3162.56664014,0.859414339065552
3163.44167995,0.875040054321289
3164.22297001,0.781285762786865
3170.41075015,0.875040054321289
3171.28578997,0.875040054321289
3172.17646003,0.890665829181671
3172.92649007,0.750034332275391
3176.39540005,0.828162908554077
3177.25481009,0.859414339065552
3178.14548016,0.890665829181671
3185.14580011,0.890665829181671
3186.05209017,0.906291484832764
3186.91150999,0.859414339065552
3187.81780005,0.906291484832764
3188.73972011,0.921917259693146
3189.67726016,0.937542915344238
3190.66167998,0.98442006111145
3191.64610004,0.98442006111145
3192.59927011,0.953168630599976
3193.58369017,0.98442006111145
3194.52122998,0.937542915344238
3206.16238999,0.718782901763916
3207.00618005,0.843788623809814
3207.8030901,0.796911478042603
3208.56875014,0.765660047531128
3209.36565995,0.796911478042603
3210.22507,0.859414339065552
3211.10011005,0.875040054321289
3212.02203012,0.921917259693146
3212.94395018,0.921917259693146
3213.83460999,0.890665829181671
3214.69403005,0.859414339065552
3215.58469009,0.890665829181671
3216.42848015,0.843788623809814
3217.30351996,0.875040054321289
3218.05356002,0.750034332275391
3218.94422007,0.890665829181671
3219.72551012,0.781285762786865
3220.52242017,0.796911478042603
3221.22557998,0.703157186508179
3222.08499002,0.859414339065552
3222.85065007,0.765660047531128
3223.61631012,0.765660047531128
3224.30384016,0.687531471252441
3231.92919016,0.921917259693146
3232.85110998,0.921917259693146
3233.75740004,0.906291484832764
3234.6480701,0.890665829181671
3235.55436015,0.906291484832764
3236.49189997,0.937542915344238
3237.49195004,1.00004577636719
3238.4451201,0.953168630599976
3239.46079016,1.01567149162292
3240.46082997,1.00004577636719
3241.44525003,0.98442006111145
3242.4609201,1.01567149162292
3243.44534016,0.98442006111145
3244.41413999,0.968794345855713
3245.41418004,1.00004577636719
3246.3986001,0.98442006111145
3247.38302016,0.98442006111145
3248.38306999,1.00004577636719
3249.33624005,0.953168630599976
3250.25816011,0.921917259693146
3251.14882016,0.890665829181671
3252.07073998,0.921917259693146
3252.96140003,0.890665829181671
3253.85207009,0.890665829181671
3254.83649015,0.98442006111145
3255.85215998,1.01567149162292
3256.80533004,0.953168630599976
3257.6960001,0.890665829181671
3258.61791015,0.921917259693146
3259.43044996,0.81253719329834
3260.21174002,0.781285762786865
3261.02427006,0.81253719329834
3261.86806011,0.843788623809814
3262.86811018,1.00004577636719
3263.82128,0.953168630599976
3264.79007006,0.968794345855713
3265.74324012,0.953168630599976
3266.71203017,0.968794345855713
3267.69645,0.98442006111145
3268.52462006,0.828162908554077
3269.22777009,0.703157186508179
3284.11908007,0.937542915344238
4166.56573009,1.01567149162292
4428.99961019,0.81253719329834
4944.80447006,0.906291484832764
4967.50864005,0.921917259693146
4968.3368001,0.828162908554077
4969.41498017,1.07817435264587
5095.20198011,0.765660047531128
5096.12390018,0.921917259693146
5109.32763004,0.796911478042603
5219.94207001,0.796911478042603
5771.57668996,0.98442006111145
5772.56111002,0.98442006111145
5913.38005996,0.828162908554077
5921.16166997,0.843788623809814
6919.53549004,0.906291484832764
6920.5980401,1.06254863739014
7645.16246009,0.765660047531128
7646.13125014,0.968794345855713
7933.45690012,0.718782901763916
7934.34757018,0.890665829181671
8231.89244008,0.765660047531128
8392.41541004,0.671905755996704
8393.2592001,0.843788623809814
8574.97064018,0.609402894973755
8805.71557999,0.906291484832764
8806.49687004,0.781285762786865
8807.30940008,0.81253719329834
8808.10631013,0.796911478042603
8808.99697995,0.890665829181671
8809.68450999,0.687531471252441
8810.27829003,0.593777179718018
9153.57525015,0.734408617019653
9154.29403996,0.718782901763916
9155.09095001,0.796911478042603
9221.39086008,0.718782901763916
9222.12527013,0.734408617019653
9222.92218018,0.796911478042603
9223.57845998,0.656280040740967
9224.29724002,0.718782901763916
9225.06290007,0.765660047531128
9225.70356011,0.640654325485229
9226.53172016,0.828162908554077
9227.31299996,0.781285762786865
9228.04741001,0.734408617019653
9228.78182006,0.734408617019653
9229.59436011,0.81253719329834
9237.0009501,0.750034332275391
9237.73536015,0.734408617019653
9238.65726995,0.921917259693146
9266.95544004,0.609402894973755
9267.7679801,0.81253719329834
9268.43989015,0.671905755996704
9269.23679996,0.796911478042603
9269.97121,0.734408617019653
9270.78374004,0.81253719329834
9271.5806601,0.796911478042603
9272.31506014,0.734408617019653
9273.06509995,0.750034332275391
9278.98724008,0.828162908554077
9298.80065012,0.734408617019653
9299.61319017,0.81253719329834
9300.30071998,0.687531471252441
9301.08201003,0.781285762786865
9301.80079007,0.718782901763916
9305.81660008,0.828162908554077
9306.58226013,0.765660047531128
9307.33229017,0.750034332275391
9308.14482999,0.81253719329834
9308.81673002,0.671905755996704
9309.64490008,0.828162908554077
9310.53556013,0.890665829181671
9311.26997018,0.734408617019653
9312.20750999,0.937542915344238
9313.00443006,0.796911478042603
9313.8325901,0.828162908554077
9314.66075015,0.828162908554077
9315.52016997,0.859414339065552
9593.26726007,0.734408617019653
9594.01729012,0.750034332275391
9624.08117008,0.781285762786865
9651.01990008,0.718782901763916
9651.73868012,0.718782901763916
9652.45746017,0.718782901763916
9653.12936997,0.671905755996704
9653.87940001,0.750034332275391
9654.58256006,0.703157186508179
9655.2700901,0.687531471252441
9682.41196012,0.656280040740967
9755.88407016,0.796911478042603
9756.63410997,0.750034332275391
9779.51015997,0.796911478042603
9780.41645002,0.906291484832764
9781.29149008,0.875040054321289
9782.15090013,0.859414339065552
9783.05719018,0.906291484832764
9783.90098,0.843788623809814
9784.86978006,0.968794345855713
9785.69794011,0.828162908554077
9802.72996998,0.921917259693146
9803.57376003,0.843788623809814
10256.15697,0.437520027160645
10256.7507501,0.593777179718018
10257.3601501,0.609402894973755
10257.9539301,0.593777179718018
10376.9281301,0.531274318695068
10377.5375302,0.609402894973755
10378.0063,0.468771457672119
10378.4907,0.484397172927856
10515.6376002,0.531274318695068
10516.23138,0.593777179718018
10516.95016,0.718782901763916
10525.8880701,0.671905755996704
10543.49825,0.687531471252441
10658.23788,0.687531471252441
10658.87853,0.640654325485229
10702.9899302,0.703157186508179
10703.67746,0.687531471252441
10704.33374,0.656280040740967
10762.02388,0.57815146446228
10762.7270401,0.703157186508179
10763.3676901,0.640654325485229
10763.9927201,0.625028610229492
10764.6021202,0.609402894973755
10765.32091,0.718782901763916
10765.91468,0.593777179718018
10830.12075,0.765660047531128
10830.93328,0.81253719329834
10831.71457,0.781285762786865
10852.8249102,0.750034332275391
10853.76245,0.937542915344238
10877.01352,0.609402894973755
10877.63855,0.625028610229492
10878.2635801,0.625028610229492
10878.9042301,0.640654325485229
10879.6230102,0.718782901763916
10880.31054,0.687531471252441
10880.91995,0.609402894973755
10881.60748,0.687531471252441
10882.3106401,0.703157186508179
10956.0327601,0.656280040740967
10956.67342,0.640654325485229
10957.28282,0.609402894973755
10957.97035,0.687531471252441
10958.6266301,0.656280040740967
10959.2047801,0.57815146446228
10959.9391901,0.734408617019653
10964.51752,0.687531471252441
10965.1738,0.656280040740967
10965.81446,0.640654325485229
10966.5019901,0.687531471252441
10967.1426401,0.640654325485229
10967.6895401,0.546900033950806
10968.42395,0.734408617019653
10969.08023,0.656280040740967
10969.78339,0.703157186508179
10972.90853,0.671905755996704
10973.56481,0.656280040740967
10974.1742201,0.609402894973755
10974.8773701,0.703157186508179
10975.5024002,0.625028610229492
10976.18993,0.687531471252441
10980.08074,0.640654325485229
11082.6479301,0.500022888183594
11083.1948302,0.546900033950806
11083.77298,0.57815146446228
11084.36676,0.593777179718018
11084.88241,0.515648603439331
12630.51566,0.437520027160645
12630.9531801,0.437520027160645
12634.7814801,0.671905755996704
12719.1134701,0.562525749206543
12814.43033,0.703157186508179
12815.1491101,0.718782901763916
12815.8678901,0.718782901763916
12816.4773002,0.609402894973755
12817.21171,0.734408617019653
13333.1884501,0.765660047531128
13333.9384801,0.750034332275391
13334.76665,0.828162908554077
13335.48543,0.718782901763916
13336.25109,0.765660047531128
13337.0011201,0.750034332275391
13337.6730301,0.671905755996704
13338.4699402,0.796911478042603
13353.2206202,0.562525749206543
13353.83002,0.609402894973755
13354.40817,0.57815146446228
13355.00195,0.593777179718018
13355.5957301,0.593777179718018
13599.1850002,0.750034332275391
13599.85691,0.671905755996704
13811.16345,0.718782901763916
14000.1877301,0.781285762786865
14000.9377701,0.750034332275391
14001.6565502,0.718782901763916
14044.0959902,0.671905755996704
14044.7679,0.671905755996704
14045.47105,0.703157186508179
14046.1742101,0.703157186508179
14046.9555001,0.781285762786865
14047.6586502,0.703157186508179
14048.31493,0.656280040740967
14049.03372,0.718782901763916
14049.62749,0.593777179718018
14050.3775301,0.750034332275391
14051.0025601,0.625028610229492
14051.6275902,0.625028610229492
14057.5497301,0.81253719329834
14058.3310201,0.781285762786865
14059.1591802,0.828162908554077
14088.8324101,0.703157186508179
14105.92695,0.828162908554077
14120.4119802,0.640654325485229
14121.14639,0.734408617019653
14121.84955,0.703157186508179
14122.53708,0.687531471252441
14123.2089901,0.671905755996704
14123.9902701,0.781285762786865
14836.6791501,0.781285762786865
14837.5541902,0.875040054321289
14838.21047,0.656280040740967
14848.7734501,0.781285762786865
14849.4609802,0.687531471252441
14850.19539,0.734408617019653
14850.9298,0.734408617019653
14851.6642101,0.734408617019653
14852.5548701,0.890665829181671
14853.3205302,0.765660047531128
14854.02369,0.703157186508179
14854.74247,0.718782901763916
14855.6643901,0.921917259693146
14856.3519201,0.687531471252441
14857.0863302,0.734408617019653
14857.94574,0.859414339065552
14861.47716,0.734408617019653
14862.05531,0.57815146446228
14875.4778001,1.07817435264587
14876.61847,1.14067721366882
15522.6949201,0.781285762786865
15530.6640401,0.81253719329834
15531.4140701,0.750034332275391
15532.1016002,0.687531471252441
