53500.08444
32.000000; 32.000000; 32.000000
44;19;-40
48;18;-34
50;15;-32
43;18;-33
44;24;-33
49;19;-28
48;14;-34
55;14;-24
59;18;-25
55;11;-33
57;5;-27
65;9;-18
71;-3;-13
66;-4;-27
55;1;-26
61;2;-27
55;3;-19
52;-1;-24
60;0;-30
59;1;-18
52;-1;-26
59;9;-19
64;1;-30
56;3;-26
52;-7;-35
59;4;-31
65;5;-26
49;3;-30
51;2;-26
58;6;-30
52;7;-32
49;3;-36
61;4;-29
52;6;-30
52;6;-32
51;7;-36
46;14;-33
50;3;-29
69;-5;-38
51;-8;-32
43;13;-41
44;25;-41
46;18;-24
52;-6;-39
51;3;-35
53;9;-32
45;2;-43
56;-7;-35
73;6;-35
45;5;-35
46;8;-34
57;11;-22
60;10;-24
54;12;-24
56;14;-22
68;12;-10
68;7;-16
55;16;-16
61;18;-13
70;11;-7
48;16;-18
47;19;-19
66;23;1
67;28;-1
61;26;-4
59;28;1
56;20;0
57;11;9
53;21;5
66;30;16
67;30;16
52;20;6
51;18;6
38;33;-3
33;32;-9
36;30;-19
78;65;-19
57;31;-18
48;30;-16
44;42;-22
46;33;-21
43;36;-23
38;38;-24
37;38;-24
42;37;-15
36;41;-25
11;44;-30
45;42;-22
39;40;-23
31;46;-31
36;40;-25
46;49;-26
34;43;-26
28;47;-31
37;43;-33
37;46;-32
32;41;-32
37;43;-26
35;44;-29
32;52;-33
36;53;-31
35;47;-35
22;49;-28
39;44;-21
34;44;-23
36;48;-23
33;51;-23
34;52;-16
33;37;-23
22;61;-21
32;56;-22
31;51;-21
24;52;-21
27;53;-23
36;52;-18
41;54;-24
32;48;-16
28;50;-13
40;48;-13
37;51;-9
38;48;-10
32;43;-6
35;52;-4
33;47;-2
40;48;-7
-3;45;-7
6;52;-17
27;42;-42
49;107;-16
50;72;-34
35;33;-19
32;54;-24
22;57;-24
9;51;6
19;62;-20
27;47;-13
44;87;-22
45;46;-10
13;65;-21
34;59;-13
32;68;-11
34;54;-20
33;43;-13
19;49;-11
37;47;-2
33;46;-5
25;44;-9
26;53;-9
28;50;-12
27;62;-16
31;62;-19
35;58;-13
27;59;-11
29;53;-8
25;50;-6
13;71;-3
25;73;-2
70;36;1
54;40;-16
-6;57;-2
-23;65;-27
50;50;-54
-14;66;-22
15;59;-20
1;61;-31
43;64;-34
1;59;-28
10;48;-37
18;59;-32
18;51;-28
17;55;-30
18;59;-30
19;55;-28
13;52;-27
18;54;-26
16;56;-24
15;54;-23
12;56;-22
16;56;-23
13;58;-24
11;56;-22
10;58;-23
10;58;-26
12;59;-24
4;58;-22
9;59;-25
0;56;-31
20;55;-25
29;56;-21
7;60;-22
9;59;-24
11;55;-24
11;60;-23
15;56;-24
19;53;-24
20;50;-22
20;59;-22
16;56;-24
16;55;-21
19;56;-21
23;53;-20
19;56;-20
26;61;-19
24;48;-19
19;54;-16
22;55;-16
14;58;-17
21;63;-17
32;57;-14
8;66;-15
15;65;-12
15;57;-12
23;58;-11
18;64;-11
17;71;-11
36;59;-12
1;38;-16
-5;49;-18
18;90;3
32;85;-33
22;51;-14
41;55;-14
44;52;-14
31;46;-4
-28;53;-6
62;67;7
82;31;12
34;35;-14
28;51;-7
57;67;16
36;36;-18
25;50;-5
64;47;-3
-3;58;-6
22;52;24
34;11;19
-26;104;18
18;43;18
18;55;23
12;62;26
15;62;24
23;47;28
22;55;26
19;59;24
17;62;22
33;53;26
29;57;23
25;55;25
26;54;26
29;52;25
19;55;21
13;55;18
8;58;15
11;59;14
16;59;15
15;61;15
17;59;15
19;61;11
22;55;11
34;50;6
30;50;4
6;78;-10
-36;75;-35
-5;96;-30
20;34;9
-28;78;-29
16;59;-16
16;63;-20
14;81;-29
26;80;-25
26;52;-13
48;34;-9
46;48;-21
53;54;-18
71;33;10
46;54;-13
42;44;-1
35;39;-5
28;36;-10
24;41;-18
28;45;-16
23;48;-18
39;49;-21
44;50;-21
50;53;-20
37;47;-22
47;45;-23
39;40;-22
38;41;-18
45;45;-21
37;39;-22
60;54;-18
44;43;-20
33;47;-24
32;44;-22
32;50;-26
36;49;-28
30;50;-32
25;47;-30
26;49;-30
27;49;-33
28;46;-31
27;52;-29
16;55;-18
12;16;-25
22;88;-41
31;29;-10
-8;67;-29
-5;80;-25
27;55;-22
28;62;-22
11;65;-20
11;54;-18
12;61;-24
21;69;-21
17;66;-20
5;65;-21
3;62;-23
12;56;-17
10;62;-15
9;62;-15
5;71;-14
23;55;-19
36;127;17
42;15;-33
-15;46;-14
-9;78;-11
30;77;-1
30;58;-5
29;27;-2
12;54;-11
29;52;-17
33;84;-6
25;69;-8
36;45;-10
49;54;-5
10;64;-11
11;55;-9
35;48;-4
26;59;-4
27;60;-5
25;52;-5
28;50;-5
18;59;-7
11;60;-8
-1;51;-16
-1;46;-24
19;90;-15
-12;47;-40
-4;46;-55
83;43;-7
71;71;-4
18;52;-15
-2;37;-31
48;79;-25
15;46;-23
40;54;-21
30;47;-17
35;52;-14
39;56;-14
36;57;-11
34;47;-6
26;54;-4
32;55;-4
28;53;-1
24;58;4
28;47;-4
31;66;8
36;64;-5
38;52;1
38;37;4
27;54;4
24;52;3
24;52;4
26;57;6
37;68;11
38;69;13
27;58;13
21;51;14
23;41;19
26;40;24
29;40;26
30;39;29
29;35;33
24;22;40
17;16;40
7;13;46
12;6;61
33;-10;82
78;2;94
57;-5;77
43;4;46
35;8;40
29;10;38
33;15;38
42;17;42
47;14;42
51;10;44
49;10;43
46;10;42
45;11;41
45;11;41
45;10;42
45;10;43
47;11;43
46;10;42
45;10;42
44;10;42
45;10;42
45;10;42
44;11;43
45;10;43
44;11;43
45;10;42
46;10;42
46;10;43
46;10;42
45;10;42
45;10;42
45;10;42
45;10;43
46;10;43
46;10;42
45;10;42
45;10;42
45;10;42
45;10;42
47;11;42
48;11;43
50;11;44
51;11;48
54;8;50
52;5;57
52;7;59
43;11;59
37;13;58
25;19;55
19;21;54
9;26;51
7;31;48
9;37;40
16;40;34
18;44;30
18;54;18
17;54;15
14;53;9
15;54;8
18;52;4
29;51;-1
38;51;-2
48;46;-4
45;46;-5
42;47;-5
44;47;-4
52;49;0
51;46;-2
41;45;-1
37;48;-3
38;49;-2
43;52;-3
45;53;-2
44;52;-4
39;49;-5
37;49;-6
37;46;-5
40;46;-5
43;49;-6
44;48;-5
40;48;-5
39;48;-5
42;47;-5
41;51;-6
38;51;-7
37;48;-7
39;50;-6
40;47;-4
37;48;-5
34;47;-4
36;48;-5
41;51;-6
39;48;-6
40;48;-7
41;48;-9
41;48;-10
41;47;-11
42;48;-10
40;48;-10
40;48;-10
42;47;-9
39;48;-9
38;48;-9
41;48;-8
41;48;-9
39;48;-10
39;48;-10
41;48;-10
41;48;-10
39;47;-10
40;48;-10
41;48;-10
41;48;-10
40;47;-10
41;47;-8
41;48;-7
41;47;-7
41;47;-7
39;48;-7
42;47;-9
43;46;-9
39;48;-10
40;49;-10
38;47;-9
39;48;-9
40;48;-8
40;47;-5
39;49;-6
40;48;-5
40;47;-5
42;47;-5
43;47;-5
42;47;-4
41;47;-3
42;47;-3
43;47;-3
42;47;-3
43;47;-4
44;47;-3
44;47;-3
43;47;-3
41;46;-3
41;46;-2
43;47;0
44;47;1
44;47;2
42;48;5
44;46;6
37;44;4
37;48;7
44;48;12
46;49;12
40;48;9
38;49;10
36;49;11
36;48;14
37;48;15
41;46;17
42;46;17
40;44;16
40;44;18
43;41;20
42;44;21
43;45;22
39;47;20
38;47;20
36;47;20
37;47;22
41;47;21
39;47;21
37;47;22
35;46;24
34;46;24
34;45;25
35;46;25
36;46;25
37;46;25
37;46;24
36;46;25
36;46;25
37;46;25
37;46;25
36;45;26
36;45;26
37;46;26
37;45;26
35;45;26
34;46;27
34;46;27
35;46;27
35;46;27
35;46;26
34;46;26
34;46;26
34;46;26
34;46;26
35;46;26
35;46;26
35;46;26
35;46;27
36;47;28
37;49;30
39;58;34
38;61;34
34;59;35
34;65;33
38;64;30
34;51;25
32;46;19
49;42;9
57;39;9
46;30;4
38;20;-1
35;17;-2
42;15;-8
50;19;-13
53;19;-14
51;20;-16
51;26;-20
54;27;-20
59;29;-19
53;31;-19
52;30;-21
56;30;-19
54;30;-19
46;2;-34
59;36;-7
53;39;-24
59;18;-17
60;8;-19
57;33;-19
51;32;-15
52;26;-16
48;28;-14
50;26;-17
53;23;-18
56;30;-18
49;30;-20
55;35;-20
52;25;-22
52;26;-21
48;30;-22
46;34;-22
54;30;-21
54;29;-22
52;32;-24
48;29;-24
45;32;-25
52;33;-27
51;32;-26
51;33;-25
47;34;-26
44;29;-24
47;32;-25
46;32;-26
47;31;-24
40;31;-25
45;32;-28
46;33;-29
44;32;-27
45;33;-28
44;33;-31
43;34;-30
42;34;-31
42;33;-32
42;34;-33
39;34;-33
39;34;-34
38;35;-34
37;35;-34
38;36;-35
36;35;-35
37;36;-34
37;36;-34
38;36;-33
36;36;-31
37;33;-40
44;39;-29
46;38;-28
49;35;-26
41;34;-29
46;34;-25
44;36;-23
45;36;-23
44;37;-23
46;38;-23
44;37;-22
46;38;-22
45;37;-22
45;38;-22
44;38;-21
46;40;-20
45;39;-20
45;39;-20
46;39;-19
46;39;-19
46;38;-19
46;38;-19
46;37;-18
46;37;-18
46;38;-19
47;38;-19
46;38;-19
46;37;-19
46;38;-19
47;38;-19
47;37;-19
47;37;-19
48;37;-19
48;38;-21
44;35;-20
44;40;-19
48;36;-19
45;37;-19
48;36;-21
47;39;-22
45;38;-22
45;37;-23
41;41;-23
42;42;-28
41;36;-25
43;37;-25
51;37;-25
52;35;-24
50;36;-24
41;34;-26
42;34;-26
44;34;-25
44;35;-26
45;35;-28
45;36;-28
45;35;-27
46;35;-27
46;35;-27
44;35;-26
44;35;-26
44;36;-27
41;36;-27
42;37;-27
43;37;-28
42;37;-28
43;37;-28
43;37;-28
43;37;-27
43;37;-27
43;37;-26
42;37;-26
42;37;-27
42;37;-27
43;38;-27
