27.7281999588
0.0;0.437520027160645
167.804559946,0.781285762786865
229.807399988,0.765660047531128
230.666810036,0.859414339065552
231.44810009,0.781285762786865
274.075050116,1.03129720687866
274.903209925,0.828162908554077
466.990129948,0.562525749206543
474.006070137,0.671905755996704
507.554490089,0.687531471252441
726.720770121,0.515648603439331
730.799080133,0.921917259693146
731.455359936,0.656280040740967
744.862220049,0.625028610229492
859.914360046,0.687531471252441
872.461810112,0.718782901763916
873.19622016,0.734408617019653
873.961879969,0.765660047531128
874.727540016,0.765660047531128
875.430700064,0.703157186508179
876.211990118,0.781285762786865
876.993270159,0.781285762786865
877.758929968,0.765660047531128
878.540220022,0.781285762786865
879.36838007,0.828162908554077
880.196540117,0.828162908554077
880.946579933,0.750034332275391
881.759109974,0.81253719329834
882.431020021,0.671905755996704
907.916559935,0.828162908554077
914.713750124,0.843788623809814
915.479409933,0.765660047531128
916.245069981,0.765660047531128
917.041980028,0.796911478042603
929.323790073,0.687531471252441
929.933190107,0.609402894973755
930.620729923,0.687531471252441
931.402009964,0.781285762786865
932.073920012,0.671905755996704
1106.36315012,0.98442006111145
1113.37909007,1.0469229221344
1114.39476013,1.01567149162292
1205.38330007,1.03129720687866
1206.38335013,1.00004577636719
1207.41464996,1.03129720687866
1233.93147993,0.625028610229492
1234.43150997,0.500022888183594
1235.07216001,0.640654325485229
1240.4317801,0.593777179718018
1240.94743013,0.515648603439331
1241.49432993,0.546900033950806
1251.54167008,0.609402894973755
1323.09182,0.546900033950806
1323.66997004,0.57815146446228
1324.27937007,0.609402894973755
1324.8262701,0.546900033950806
1325.52943015,0.703157186508179
1326.07632995,0.546900033950806
1326.71697998,0.640654325485229
1327.32638001,0.609402894973755
1327.92016006,0.593777179718018
1328.5139401,0.593777179718018
1329.07646012,0.562525749206543
1329.73273993,0.656280040740967
1330.24838996,0.515648603439331
1330.87342,0.625028610229492
1331.45157003,0.57815146446228
1332.09223008,0.640654325485229
1332.67038012,0.57815146446228
1333.31103015,0.640654325485229
1333.99856997,0.687531471252441
1334.65485001,0.656280040740967
1335.26425004,0.609402894973755
1335.95178008,0.687531471252441
1336.62369013,0.671905755996704
1344.92093992,0.609402894973755
1345.51471996,0.593777179718018
1346.15537,0.640654325485229
1346.79603004,0.640654325485229
1349.65552998,0.57815146446228
1350.35869002,0.703157186508179
1353.9526,0.546900033950806
1354.51513004,0.562525749206543
1355.18704009,0.671905755996704
1355.84332013,0.656280040740967
1356.37459016,0.531274318695068
1356.99961996,0.625028610229492
1357.6559,0.656280040740967
1358.21842003,0.562525749206543
1358.85908008,0.640654325485229
1362.40612006,0.625028610229492
1362.9842701,0.57815146446228
1370.43773007,0.640654325485229
1375.42234015,0.718782901763916
1375.98485994,0.562525749206543
1383.11019015,0.656280040740967
1383.67270994,0.562525749206543
1384.20398998,0.531274318695068
1384.79777002,0.593777179718018
1389.65736008,0.687531471252441
1390.21989012,0.562525749206543
1393.98569012,0.687531471252441
1394.53259015,0.546900033950806
1395.17323995,0.640654325485229
1395.75138998,0.57815146446228
1396.32954001,0.57815146446228
1396.92332006,0.593777179718018
1397.5171001,0.593777179718018
1398.06400013,0.546900033950806
1398.64214993,0.57815146446228
1399.28279996,0.640654325485229
1399.92346001,0.640654325485229
1400.53286004,0.609402894973755
1401.15789008,0.625028610229492
1404.87681007,0.625028610229492
1405.48621011,0.609402894973755
1406.03311014,0.546900033950806
1406.65813994,0.625028610229492
1407.15815997,0.500022888183594
1411.25209999,0.593777179718018
1411.84588003,0.593777179718018
1412.43966007,0.593777179718018
1413.12719011,0.687531471252441
1417.36176014,0.625028610229492
1420.84629011,0.562525749206543
1421.44007015,0.593777179718018
1422.00258994,0.562525749206543
1422.65886998,0.656280040740967
1425.78401995,0.734408617019653
1431.79992008,0.593777179718018
1432.34682012,0.546900033950806
1432.94059014,0.593777179718018
1433.51874995,0.57815146446228
1434.06564999,0.546900033950806
1434.62817001,0.562525749206543
1435.19070005,0.562525749206543
1435.72197008,0.531274318695068
1436.31575012,0.593777179718018
1436.81577015,0.500022888183594
1437.36266994,0.546900033950806
1437.89394999,0.531274318695068
1438.48772001,0.593777179718018
1445.26927996,0.609402894973755
1445.84744,0.57815146446228
1446.42559004,0.57815146446228
1451.22268009,0.609402894973755
1451.84771013,0.625028610229492
1452.39460993,0.546900033950806
1452.94150996,0.546900033950806
1453.58216,0.640654325485229
1454.06656003,0.484397172927856
1454.62909007,0.562525749206543
1455.1603601,0.531274318695068
1455.75414014,0.593777179718018
1456.26978993,0.515648603439331
1456.87918997,0.609402894973755
1457.48859,0.609402894973755
1458.05112004,0.562525749206543
1458.70740008,0.656280040740967
1459.34805012,0.640654325485229
1463.55137014,0.625028610229492
1464.08263993,0.531274318695068
1464.66079998,0.57815146446228
1465.25457001,0.593777179718018
1465.80147004,0.546900033950806
1466.37963009,0.57815146446228
1466.95778012,0.57815146446228
1467.53593016,0.57815146446228
1468.00469995,0.468771457672119
1471.03609014,0.609402894973755
1471.62986994,0.593777179718018
1472.19238997,0.562525749206543
1472.80179,0.609402894973755
1473.34869003,0.546900033950806
1477.34888005,0.546900033950806
1477.94265008,0.593777179718018
1478.53643012,0.593777179718018
1479.13020992,0.593777179718018
1479.81773996,0.687531471252441
1484.56796002,0.546900033950806
1485.20861006,0.640654325485229
1488.09937,0.640654325485229
1488.69315004,0.593777179718018
1489.33380008,0.640654325485229
1489.97446012,0.640654325485229
1490.61511016,0.640654325485229
1491.19325995,0.57815146446228
1491.78704,0.593777179718018
1492.36519003,0.57815146446228
1492.95897007,0.593777179718018
1493.5371201,0.57815146446228
1494.20902014,0.671905755996704
1494.80279994,0.593777179718018
1495.34969997,0.546900033950806
1495.91223001,0.562525749206543
1496.58413005,0.671905755996704
1501.63124013,0.640654325485229
1502.22501993,0.593777179718018
1502.75628996,0.531274318695068
1503.33443999,0.57815146446228
1504.05322003,0.718782901763916
1506.75646996,0.531274318695068
1507.33462,0.57815146446228
1507.85027003,0.515648603439331
1508.44405007,0.593777179718018
1531.58573008,0.703157186508179
1532.14826012,0.562525749206543
1559.39951015,0.515648603439331
1559.96202993,0.562525749206543
1560.47767997,0.515648603439331
1561.05583,0.57815146446228
1561.66524005,0.609402894973755
1562.24339008,0.57815146446228
1562.89967012,0.656280040740967
1563.50907016,0.609402894973755
1564.11846995,0.609402894973755
1564.71224999,0.593777179718018
1565.36853004,0.656280040740967
1566.05606008,0.687531471252441
1569.36871004,0.546900033950806
1569.86874008,0.500022888183594
1570.50939012,0.640654325485229
1571.05629015,0.546900033950806
1571.57193995,0.515648603439331
1578.49413013,0.640654325485229
1579.16603994,0.671905755996704
1579.77543998,0.609402894973755
1580.36922002,0.593777179718018
1581.02550006,0.656280040740967
1598.87005997,0.734408617019653
1599.57322001,0.703157186508179
1600.21388006,0.640654325485229
1724.95395994,0.625028610229492
1725.62586999,0.671905755996704
1726.31340003,0.687531471252441
1726.98530006,0.671905755996704
1730.78235006,0.781285762786865
1731.57926011,0.796911478042603
1732.23554015,0.656280040740967
1732.87619996,0.640654325485229
1733.51684999,0.640654325485229
1734.14188004,0.625028610229492
1734.79816008,0.656280040740967
1735.48569012,0.687531471252441
1736.18884993,0.703157186508179
1736.95450997,0.765660047531128
1737.61079001,0.656280040740967
