75844.52
0.0;0.828162908554077
43.4238698483,0.843788623809814
44.3301599026,0.906291484832764
45.1270699501,0.796911478042603
65.1279900074,0.968794345855713
65.9873998165,0.859414339065552
76.6285099983,0.98442006111145
88.082159996,0.750034332275391
88.7228200436,0.640654325485229
89.2853398323,0.562525749206543
93.6449198723,0.81253719329834
94.426199913,0.781285762786865
95.2699899673,0.843788623809814
95.9575200081,0.687531471252441
96.832559824,0.875040054321289
97.7388498783,0.906291484832764
98.7232699394,0.98442006111145
99.520179987,0.796911478042603
100.363970041,0.843788623809814
101.317139864,0.953168630599976
102.192179918,0.875040054321289
107.458050013,0.968794345855713
108.442469835,0.98442006111145
109.254999876,0.81253719329834
110.317549944,1.06254863739014
148.506799936,0.890665829181671
149.366219997,0.859414339065552
150.428760052,1.06254863739014
151.288179874,0.859414339065552
152.178839922,0.890665829181671
152.897629976,0.718782901763916
153.741420031,0.843788623809814
154.69457984,0.953168630599976
155.678999901,0.98442006111145
156.460289955,0.781285762786865
157.304080009,0.843788623809814
158.366629839,1.06254863739014
159.226039886,0.859414339065552
160.304219961,1.07817435264587
161.335510015,1.03129720687866
169.851529837,0.937542915344238
170.757819891,0.906291484832764
195.915220022,0.828162908554077
196.727759838,0.81253719329834
197.493419886,0.765660047531128
198.290329933,0.796911478042603
199.134119987,0.843788623809814
200.056040049,0.921917259693146
200.962329865,0.906291484832764
201.931119919,0.968794345855713
202.806159973,0.875040054321289
203.712450027,0.906291484832764
204.60311985,0.890665829181671
205.431279898,0.828162908554077
206.400079966,0.968794345855713
207.259490013,0.859414339065552
208.134529829,0.875040054321289
209.009569883,0.875040054321289
209.900239944,0.890665829181671
210.806529999,0.906291484832764
211.728449821,0.921917259693146
212.603489876,0.875040054321289
222.744570017,1.00004577636719
223.682119846,0.937542915344238
232.495019913,0.921917259693146
233.32317996,0.828162908554077
234.370110035,1.0469229221344
235.276399851,0.906291484832764
236.198319912,0.921917259693146
236.917099953,0.718782901763916
241.761070013,0.703157186508179
242.448599815,0.687531471252441
243.136129856,0.687531471252441
247.698839903,0.875040054321289
248.573879957,0.875040054321289
249.402050018,0.828162908554077
250.167709827,0.765660047531128
251.027119875,0.859414339065552
251.870909929,0.843788623809814
252.683449984,0.81253719329834
253.558490038,0.875040054321289
264.699620008,0.890665829181671
265.605909824,0.906291484832764
266.512199879,0.906291484832764
267.355989933,0.843788623809814
268.199779987,0.843788623809814
269.074820042,0.875040054321289
269.965489864,0.890665829181671
270.809269905,0.843788623809814
271.746819973,0.937542915344238
272.621860027,0.875040054321289
273.481269836,0.859414339065552
274.387559891,0.906291484832764
275.309479952,0.921917259693146
276.215770006,0.906291484832764
284.700539827,0.875040054321289
293.32592988,0.906291484832764
294.200969934,0.875040054321289
321.717859983,0.81253719329834
322.577270031,0.859414339065552
323.467939854,0.890665829181671
324.249219894,0.781285762786865
329.671339989,0.921917259693146
330.483880043,0.81253719329834
331.390169859,0.906291484832764
332.28083992,0.890665829181671
333.171499968,0.890665829181671
334.077800035,0.906291484832764
334.968459845,0.890665829181671
335.843499899,0.875040054321289
365.407359838,0.750034332275391
366.282399893,0.875040054321289
372.98582983,0.828162908554077
373.798359871,0.81253719329834
374.579649925,0.781285762786865
375.329679966,0.750034332275391
376.126600027,0.796911478042603
376.892259836,0.765660047531128
377.611039877,0.718782901763916
378.407949924,0.796911478042603
379.376739979,0.968794345855713
380.17366004,0.796911478042603
388.799049854,0.796911478042603
389.736589909,0.937542915344238
395.893129826,1.01567149162292
433.722980022,0.890665829181671
434.660529852,0.937542915344238
435.519939899,0.859414339065552
436.410609961,0.890665829181671
437.395030022,0.98442006111145
438.223189831,0.828162908554077
785.317199945,0.656280040740967
786.12974,0.81253719329834
919.385839939,0.687531471252441
920.245249987,0.859414339065552
921.042160034,0.796911478042603
921.85469985,0.81253719329834
922.557859898,0.703157186508179
923.354769945,0.796911478042603
924.057929993,0.703157186508179
924.870460033,0.81253719329834
925.495489836,0.625028610229492
926.151769876,0.656280040740967
926.823679924,0.671905755996704
935.527199984,0.625028610229492
936.167860031,0.640654325485229
936.871009827,0.703157186508179
937.527289867,0.656280040740967
938.246079922,0.718782901763916
939.027359962,0.781285762786865
939.79302001,0.765660047531128
940.636809826,0.843788623809814
971.872619867,0.640654325485229
972.732029915,0.859414339065552
1025.34380984,0.781285762786865
1026.31260991,0.968794345855713
1109.08202004,0.656280040740967
1109.73829985,0.656280040740967
1110.44145989,0.703157186508179
1111.14461994,0.703157186508179
1111.86339998,0.718782901763916
1112.64468002,0.781285762786865
1113.51971984,0.875040054321289
1122.27011991,0.718782901763916
1122.94202995,0.671905755996704
1123.67644,0.734408617019653
1124.52022982,0.843788623809814
1125.16087985,0.640654325485229
1125.9265399,0.765660047531128
1126.66094995,0.734408617019653
1127.36410999,0.703157186508179
1136.42701983,0.765660047531128
1137.14580989,0.718782901763916
1137.77082992,0.625028610229492
1138.53648996,0.765660047531128
1215.47751999,0.703157186508179
1216.13380003,0.656280040740967
1216.82132983,0.687531471252441
1217.58698988,0.765660047531128
1218.32139993,0.734408617019653
1285.05883002,0.734408617019653
1307.29421997,0.81253719329834
1308.07551003,0.781285762786865
1308.85678983,0.781285762786865
1309.59119987,0.734408617019653
1358.03092003,0.671905755996704
1373.12536001,0.765660047531128
1373.87538981,0.750034332275391
1374.75042987,0.875040054321289
1375.59421992,0.843788623809814
1401.37664986,0.671905755996704
1402.1110599,0.734408617019653
1402.79858994,0.687531471252441
1403.48611999,0.687531471252441
1404.18928003,0.703157186508179
1404.92368984,0.734408617019653
1405.61121988,0.687531471252441
1406.28312993,0.671905755996704
1406.97065997,0.687531471252441
1407.65819001,0.687531471252441
1408.29884005,0.640654325485229
1408.92386985,0.625028610229492
1409.64264989,0.718782901763916
1410.28330994,0.640654325485229
1410.95520997,0.671905755996704
1411.58024001,0.625028610229492
1412.17402005,0.593777179718018
1412.95530987,0.781285762786865
1413.79908991,0.843788623809814
1414.40849996,0.609402894973755
1415.11164999,0.703157186508179
1415.89294004,0.781285762786865
1416.56484985,0.671905755996704
1417.25237989,0.687531471252441
1417.97115993,0.718782901763916
1418.67431998,0.703157186508179
1419.37747002,0.703157186508179
1420.09625983,0.718782901763916
1420.73690987,0.640654325485229
1421.59632993,0.859414339065552
1422.28385997,0.687531471252441
1423.09640002,0.81253719329834
1423.84642982,0.750034332275391
1424.75271988,0.906291484832764
1435.30007982,0.781285762786865
1436.11261988,0.81253719329834
1440.4096899,0.843788623809814
1454.01969004,0.859414339065552
1454.80096984,0.781285762786865
1455.6603899,0.859414339065552
1456.55104995,0.890665829181671
1457.51985002,0.968794345855713
1458.37925982,0.859414339065552
1468.75474,0.921917259693146
1469.70790005,0.953168630599976
1470.64544988,0.937542915344238
1471.37985992,0.734408617019653
1472.20801997,0.828162908554077
1472.97368002,0.765660047531128
1473.67683983,0.703157186508179
1474.45811987,0.781285762786865
1475.17689991,0.718782901763916
1475.97381997,0.796911478042603
1476.78635001,0.81253719329834
1477.69263983,0.906291484832764
1478.6301899,0.937542915344238
1479.56772995,0.937542915344238
1480.41152,0.843788623809814
1481.33343983,0.921917259693146
1482.09909987,0.765660047531128
1482.86475992,0.765660047531128
1483.53665996,0.671905755996704
1484.25544,0.718782901763916
1485.02110004,0.765660047531128
1485.66175985,0.640654325485229
1529.49188995,0.859414339065552
1530.39818001,0.906291484832764
1531.33571982,0.937542915344238
1532.10137987,0.765660047531128
1532.92954993,0.828162908554077
1533.75770998,0.828162908554077
1534.53900003,0.781285762786865
1535.41403985,0.875040054321289
1536.3203299,0.906291484832764
1537.33599997,1.01567149162292
1538.11729002,0.781285762786865
1539.10170984,0.98442006111145
1539.92986989,0.828162908554077
1540.80490994,0.875040054321289
1541.55493999,0.750034332275391
1542.44561005,0.890665829181671
1551.24288988,0.921917259693146
1607.24545002,0.609402894973755
1607.83922982,0.593777179718018
1614.38639998,0.98442006111145
1615.30832005,0.921917259693146
1616.24585986,0.937542915344238
1617.10527992,0.859414339065552
1618.05843997,0.953168630599976
1619.07412004,1.01567149162292
1623.48056984,0.953168630599976
1633.32476997,0.828162908554077
1668.54513001,0.828162908554077
1669.46704984,0.921917259693146
1670.21707988,0.750034332275391
1671.01398993,0.796911478042603
1671.93590999,0.921917259693146
1672.67032003,0.734408617019653
1673.46722984,0.796911478042603
1674.2172699,0.750034332275391
1674.96729994,0.750034332275391
1675.88922,0.921917259693146
1676.70175004,0.81253719329834
1677.62366986,0.921917259693146
1678.57683992,0.953168630599976
1679.45187998,0.875040054321289
1680.40505004,0.953168630599976
1685.7959199,0.921917259693146
1686.78033996,0.98442006111145
1687.65538001,0.875040054321289
1695.82763004,0.921917259693146
1696.67141986,0.843788623809814
1697.59333992,0.921917259693146
1698.53087997,0.937542915344238
1699.43717003,0.906291484832764
1700.29657984,0.859414339065552
1701.26537991,0.968794345855713
1713.12529993,0.718782901763916
1713.85970998,0.734408617019653
1714.68787003,0.828162908554077
1715.32851982,0.640654325485229
1716.12542987,0.796911478042603
1716.76608992,0.640654325485229
1717.57862997,0.81253719329834
1727.68845987,0.875040054321289
1728.53224993,0.843788623809814
1729.37603998,0.843788623809814
1730.25108004,0.875040054321289
1731.18861985,0.937542915344238
1732.01678991,0.828162908554077
1732.95432997,0.937542915344238
1734.04813004,1.09380006790161
1734.82940984,0.781285762786865
1745.14239001,0.906291484832764
1746.04867983,0.906291484832764
1747.03309989,0.98442006111145
1747.95501995,0.921917259693146
1752.00207996,0.81253719329834
1752.86149001,0.859414339065552
1753.62714982,0.765660047531128
1770.86230993,0.968794345855713
1771.64359999,0.781285762786865
1772.53427005,0.890665829181671
1773.48742986,0.953168630599976
1774.20621991,0.718782901763916
1775.14375997,0.937542915344238
1776.23756003,1.09380006790161
1777.03446984,0.796911478042603
1778.06576991,1.03129720687866
1800.01989985,0.937542915344238
1800.94181991,0.921917259693146
1801.76997995,0.828162908554077
1802.64502001,0.875040054321289
1803.47317982,0.828162908554077
1804.25446987,0.781285762786865
1805.11387992,0.859414339065552
1805.94204998,0.828162908554077
1806.81709003,0.875040054321289
1807.64524984,0.828162908554077
1808.4890399,0.843788623809814
1809.53595996,1.0469229221344
1815.45810986,0.765660047531128
1816.2550199,0.796911478042603
1817.13005996,0.875040054321289
1817.98947001,0.859414339065552
1818.77075982,0.781285762786865
1819.52078986,0.750034332275391
1820.25519991,0.734408617019653
1820.98960996,0.734408617019653
1821.77089,0.781285762786865
1822.61468005,0.843788623809814
1823.50534987,0.890665829181671
1824.39600992,0.890665829181671
1825.20854998,0.81253719329834
1825.95859003,0.750034332275391
1826.69298983,0.734408617019653
1827.44302988,0.750034332275391
1828.19305992,0.750034332275391
1828.94309998,0.750034332275391
1829.66188002,0.718782901763916
1830.41191983,0.750034332275391
1831.14631987,0.734408617019653
1831.88072991,0.734408617019653
1832.61513996,0.734408617019653
1833.31830001,0.703157186508179
1834.03708005,0.718782901763916
1834.75585985,0.718782901763916
1835.4902699,0.734408617019653
1836.24030995,0.750034332275391
1836.94345999,0.703157186508179
1837.64662004,0.703157186508179
1838.38102984,0.734408617019653
1839.09980989,0.718782901763916
1839.88109994,0.781285762786865
1840.66237998,0.781285762786865
1841.38117003,0.718782901763916
1842.11557984,0.734408617019653
1908.14984989,0.656280040740967
1908.86862993,0.718782901763916
1920.82229996,0.750034332275391
1921.74422002,0.921917259693146
1950.76116991,0.656280040740967
1951.60495996,0.843788623809814
1958.93341994,0.937542915344238
1959.87097001,0.937542915344238
1960.79287982,0.921917259693146
1961.62104988,0.828162908554077
1962.46482992,0.843788623809814
1963.35549998,0.890665829181671
1964.29304004,0.937542915344238
1965.19932985,0.906291484832764
1966.10562992,0.906291484832764
1967.01191998,0.906291484832764
1967.91821003,0.906291484832764
1968.82449985,0.906291484832764
1969.71516991,0.890665829181671
1970.57457995,0.859414339065552
1971.38712001,0.81253719329834
1972.23090982,0.843788623809814
1978.85620999,0.828162908554077
1979.80937982,0.953168630599976
1980.73129988,0.921917259693146
1981.60633993,0.875040054321289
1982.49699998,0.890665829181671
1983.38767004,0.890665829181671
1984.30957985,0.921917259693146
1985.1846199,0.875040054321289
1986.07528996,0.890665829181671
1986.91908002,0.843788623809814
1987.79411983,0.875040054321289
1988.63790989,0.843788623809814
1989.51294994,0.875040054321289
1990.38799,0.875040054321289
1991.21615005,0.828162908554077
1992.05993986,0.843788623809814
1992.87247992,0.81253719329834
1993.66938996,0.796911478042603
1994.35692,0.687531471252441
1995.07570004,0.718782901763916
1995.81010985,0.734408617019653
1996.6070199,0.796911478042603
1997.49768996,0.890665829181671
1998.23210001,0.734408617019653
1999.12275982,0.890665829181671
1999.91966987,0.796911478042603
2000.66970992,0.750034332275391
2001.38848996,0.718782901763916
2002.16978002,0.781285762786865
2002.88855982,0.718782901763916
2003.59171987,0.703157186508179
2004.2948699,0.703157186508179
2005.02927995,0.734408617019653
2005.93557,0.906291484832764
2014.01407003,0.859414339065552
2014.85785985,0.843788623809814
2015.63913989,0.781285762786865
2016.38917994,0.750034332275391
2017.10795999,0.718782901763916
2017.84237003,0.734408617019653
2018.57677984,0.734408617019653
2019.35805988,0.781285762786865
2020.17059994,0.81253719329834
2020.95188999,0.781285762786865
2021.68630004,0.734408617019653
2022.54570985,0.859414339065552
2023.4207499,0.875040054321289
2024.34266996,0.921917259693146
2025.23333001,0.890665829181671
2026.15524983,0.921917259693146
2027.0459199,0.890665829181671
2027.88969994,0.843788623809814
2028.70223999,0.81253719329834
2029.51478004,0.81253719329834
2030.28043985,0.765660047531128
2031.0460999,0.765660047531128
2031.76487994,0.718782901763916
2032.56178999,0.796911478042603
2033.48371005,0.921917259693146
2034.42124987,0.937542915344238
2035.28066993,0.859414339065552
2036.15570998,0.875040054321289
2036.96825004,0.81253719329834
2037.76515985,0.796911478042603
2038.49956989,0.734408617019653
2039.18709993,0.687531471252441
2039.89024997,0.703157186508179
2040.60904002,0.718782901763916
2041.32781982,0.718782901763916
2042.10910988,0.781285762786865
2042.84350991,0.734408617019653
2043.67167997,0.828162908554077
2044.43734002,0.765660047531128
2045.17174983,0.734408617019653
2045.99990988,0.828162908554077
2046.71868992,0.718782901763916
2047.48434997,0.765660047531128
2048.21876001,0.734408617019653
2048.96878982,0.750034332275391
2049.70319986,0.734408617019653
2050.40635991,0.703157186508179
2051.15638995,0.750034332275391
2051.8908,0.734408617019653
2052.56271005,0.671905755996704
2053.23460984,0.671905755996704
2053.93776989,0.703157186508179
2054.73467994,0.796911478042603
2055.50033998,0.765660047531128
2056.39101005,0.890665829181671
2057.32854986,0.937542915344238
2058.10983992,0.781285762786865
2058.84424996,0.734408617019653
2059.60991001,0.765660047531128
2060.28181005,0.671905755996704
2061.00059986,0.718782901763916
2061.76625991,0.765660047531128
2062.59441996,0.828162908554077
2063.39133,0.796911478042603
2064.20386982,0.81253719329834
2065.12577987,0.921917259693146
2066.03207994,0.906291484832764
2066.92273998,0.890665829181671
2067.68840003,0.765660047531128
2068.48530984,0.796911478042603
2069.25096989,0.765660047531128
2070.03225994,0.781285762786865
2070.79791999,0.765660047531128
2071.53233004,0.734408617019653
2072.29798985,0.765660047531128
2073.00113988,0.703157186508179
2073.73554993,0.734408617019653
2074.43870997,0.703157186508179
2075.06374002,0.625028610229492
2075.73564005,0.671905755996704
2076.50129986,0.765660047531128
2077.1263299,0.625028610229492
2077.79823995,0.671905755996704
2078.51701999,0.718782901763916
2079.26706004,0.750034332275391
2080.01708984,0.750034332275391
2080.76711988,0.750034332275391
2081.56403995,0.796911478042603
2082.29844999,0.734408617019653
2082.98598003,0.687531471252441
2083.73600984,0.750034332275391
2084.47041988,0.734408617019653
2085.22044992,0.750034332275391
2085.98610997,0.765660047531128
2086.75177002,0.765660047531128
2087.47055984,0.718782901763916
2088.25183988,0.781285762786865
2089.00187993,0.750034332275391
2089.72065997,0.718782901763916
2090.42382002,0.703157186508179
2095.14277983,0.671905755996704
2095.83030987,0.687531471252441
2096.53346992,0.703157186508179
2097.23662996,0.703157186508179
2097.93979001,0.703157186508179
2098.59607005,0.656280040740967
2099.28359985,0.687531471252441
2100.1117599,0.828162908554077
2100.87741995,0.765660047531128
2101.68996,0.81253719329834
2102.42437005,0.734408617019653
2103.14314985,0.718782901763916
2103.86192989,0.718782901763916
2104.59633994,0.734408617019653
2105.36199999,0.765660047531128
2106.09641004,0.734408617019653
2106.83081985,0.734408617019653
2107.58084989,0.750034332275391
2108.29963994,0.718782901763916
2109.01841998,0.718782901763916
2109.75283003,0.734408617019653
2110.47160983,0.718782901763916
2111.22163987,0.750034332275391
2111.94042993,0.718782901763916
2112.67483997,0.734408617019653
2113.40924001,0.734408617019653
2114.03427005,0.625028610229492
2114.72179985,0.687531471252441
2115.4249599,0.703157186508179
2116.14373994,0.718782901763916
2116.87814999,0.734408617019653
2117.56568003,0.687531471252441
2118.19070983,0.625028610229492
2118.86261988,0.671905755996704
2119.59702992,0.734408617019653
2120.30017996,0.703157186508179
2124.81602001,0.765660047531128
2125.65979981,0.843788623809814
2126.42545986,0.765660047531128
2127.15986991,0.734408617019653
2127.97240996,0.81253719329834
2128.72245002,0.750034332275391
2129.44122982,0.718782901763916
2130.25376987,0.81253719329834
2131.12880993,0.875040054321289
2132.01946998,0.890665829181671
2132.87889004,0.859414339065552
2133.62891984,0.750034332275391
2134.36332989,0.734408617019653
2135.06648993,0.703157186508179
2135.78526998,0.718782901763916
2136.36342001,0.57815146446228
2137.03532982,0.671905755996704
2137.72285986,0.687531471252441
2142.48869991,0.875040054321289
2143.30123997,0.81253719329834
2144.09815001,0.796911478042603
2147.00452995,0.718782901763916
2147.89520001,0.890665829181671
2148.81710982,0.921917259693146
2149.72340989,0.906291484832764
2150.58281994,0.859414339065552
2151.44224,0.859414339065552
2152.28602004,0.843788623809814
2153.05167985,0.765660047531128
2153.8173399,0.765660047531128
2154.56737995,0.750034332275391
2155.25490999,0.687531471252441
2155.97369003,0.718782901763916
2156.70809984,0.734408617019653
2157.41125989,0.703157186508179
2158.20816994,0.796911478042603
2159.05195999,0.843788623809814
2162.52086997,0.703157186508179
2163.17715001,0.656280040740967
2163.92718005,0.750034332275391
2164.73971987,0.81253719329834
2165.63037992,0.890665829181671
2166.44291997,0.81253719329834
2167.23983002,0.796911478042603
2167.97423983,0.734408617019653
2168.78677988,0.81253719329834
2169.48993993,0.703157186508179
2170.23996997,0.750034332275391
2171.08376002,0.843788623809814
2172.06817985,0.98442006111145
2172.95883989,0.890665829181671
2173.88075995,0.921917259693146
2174.80268002,0.921917259693146
2175.69334984,0.890665829181671
2176.56838989,0.875040054321289
2177.44342995,0.875040054321289
2178.27158999,0.828162908554077
2179.06850004,0.796911478042603
2179.81852984,0.750034332275391
2180.5685699,0.750034332275391
2181.39672995,0.828162908554077
2182.33427,0.937542915344238
2183.28743982,0.953168630599976
2184.19372988,0.906291484832764
2185.05314994,0.859414339065552
2185.89693999,0.843788623809814
2186.72510004,0.828162908554077
2187.53763986,0.81253719329834
2188.3345499,0.796911478042603
2189.10020995,0.765660047531128
2189.85023999,0.750034332275391
2190.63153005,0.781285762786865
2191.41280985,0.781285762786865
2192.33472991,0.921917259693146
2193.25664997,0.921917259693146
2194.11606002,0.859414339065552
2194.95984983,0.843788623809814
2195.8505199,0.890665829181671
2196.66305995,0.81253719329834
2197.39745998,0.734408617019653
2198.24125004,0.843788623809814
2198.99128985,0.750034332275391
2199.71006989,0.718782901763916
2200.42884994,0.718782901763916
2201.11637998,0.687531471252441
2201.78829002,0.671905755996704
2202.52269983,0.734408617019653
2203.30397987,0.781285762786865
2204.00713992,0.703157186508179
2204.69466996,0.687531471252441
2205.44471002,0.750034332275391
2206.05411005,0.609402894973755
2206.75726986,0.703157186508179
2207.4760499,0.718782901763916
2208.17920995,0.703157186508179
2208.86673999,0.687531471252441
2209.55427003,0.687531471252441
2210.28867984,0.734408617019653
2211.02308989,0.734408617019653
2211.77311993,0.750034332275391
2212.52315998,0.750034332275391
2213.24194002,0.718782901763916
2213.94509983,0.703157186508179
2214.61699986,0.671905755996704
2215.35140991,0.734408617019653
2216.17956996,0.828162908554077
2217.03899002,0.859414339065552
2217.89839983,0.859414339065552
2218.77343988,0.875040054321289
2219.55472994,0.781285762786865
2220.24225998,0.687531471252441
2220.97667003,0.734408617019653
2221.67982984,0.703157186508179
2222.35172987,0.671905755996704
2223.05488992,0.703157186508179
2223.85179996,0.796911478042603
2224.80497003,0.953168630599976
2225.66437984,0.859414339065552
2226.50816989,0.843788623809814
2227.33632994,0.828162908554077
2228.11761999,0.781285762786865
2228.89891005,0.781285762786865
2229.61768985,0.718782901763916
2230.33646989,0.718782901763916
2231.05524993,0.718782901763916
2231.93028998,0.875040054321289
2232.94596982,1.01567149162292
2233.80537987,0.859414339065552
2234.72729993,0.921917259693146
2235.61795998,0.890665829181671
2236.39925003,0.781285762786865
2237.16490984,0.765660047531128
2237.83680987,0.671905755996704
2238.47746992,0.640654325485229
2239.07124996,0.593777179718018
2239.75878,0.687531471252441
2240.36818004,0.609402894973755
2247.16536999,0.890665829181671
2248.05603004,0.890665829181671
2248.89981985,0.843788623809814
2249.7279799,0.828162908554077
2250.58739996,0.859414339065552
2251.47806001,0.890665829181671
2252.38435984,0.906291484832764
2253.27501988,0.890665829181671
2254.05630994,0.781285762786865
2254.96259999,0.906291484832764
2255.79076004,0.828162908554077
2256.60329986,0.81253719329834
2257.3377099,0.734408617019653
2258.04085994,0.703157186508179
2258.69713998,0.656280040740967
2259.35342002,0.656280040740967
2260.08782983,0.734408617019653
2264.72866988,0.875040054321289
2265.60370994,0.875040054321289
2266.43186998,0.828162908554077
2267.24441004,0.81253719329834
2268.05694985,0.81253719329834
2268.83822989,0.781285762786865
2269.61951995,0.781285762786865
2270.35393,0.734408617019653
2271.10396004,0.750034332275391
2271.83836985,0.734408617019653
2272.60402989,0.765660047531128
2273.41656995,0.81253719329834
2274.19784999,0.781285762786865
2274.94789004,0.750034332275391
2275.69791985,0.750034332275391
2276.46357989,0.765660047531128
2277.24486995,0.781285762786865
2277.96364999,0.718782901763916
2278.68243003,0.718782901763916
2279.36996984,0.687531471252441
2280.10436988,0.734408617019653
2280.82315993,0.718782901763916
2281.52630997,0.703157186508179
2282.22947001,0.703157186508179
2282.96387982,0.734408617019653
2283.66703987,0.703157186508179
2284.37018991,0.703157186508179
2285.08897996,0.718782901763916
2285.76087999,0.671905755996704
2286.44841003,0.687531471252441
2287.12031984,0.671905755996704
2287.9016099,0.781285762786865
2288.71413994,0.81253719329834
2289.49542999,0.781285762786865
2290.22984004,0.734408617019653
2290.96424985,0.734408617019653
2291.68302989,0.718782901763916
2292.46431994,0.781285762786865
2293.22997999,0.765660047531128
2293.93313003,0.703157186508179
2294.76129985,0.828162908554077
2295.57382989,0.81253719329834
2296.38636994,0.81253719329834
2297.15202999,0.765660047531128
2297.88644004,0.734408617019653
2298.60521984,0.718782901763916
2299.3865099,0.781285762786865
2300.24591994,0.859414339065552
2301.16784,0.921917259693146
2302.05850005,0.890665829181671
2302.90228987,0.843788623809814
2303.65232992,0.750034332275391
2304.57423997,0.921917259693146
2305.27740002,0.703157186508179
2306.04305983,0.765660047531128
2306.82434988,0.781285762786865
2307.59000993,0.765660047531128
2308.35566998,0.765660047531128
2309.12133002,0.765660047531128
2310.01198983,0.890665829181671
2310.9495399,0.937542915344238
2311.79332995,0.843788623809814
2312.60585999,0.81253719329834
2313.37152004,0.765660047531128
2314.12155986,0.750034332275391
2314.8715899,0.750034332275391
2315.60599995,0.734408617019653
2316.32477999,0.718782901763916
2317.05919003,0.734408617019653
2317.82484984,0.765660047531128
2318.6686399,0.843788623809814
2319.49679995,0.828162908554077
2320.29370999,0.796911478042603
2321.04375005,0.750034332275391
2321.77815986,0.734408617019653
2322.48130989,0.703157186508179
2323.16884995,0.687531471252441
2323.91887999,0.750034332275391
2324.59079003,0.671905755996704
2325.29393983,0.703157186508179
2326.02834988,0.734408617019653
2326.76275992,0.734408617019653
2327.52841997,0.765660047531128
2328.37221003,0.843788623809814
2329.18474984,0.81253719329834
2329.93477988,0.750034332275391
2330.68480992,0.750034332275391
2331.45046997,0.765660047531128
2332.23176003,0.781285762786865
2332.96616983,0.734408617019653
2333.74744987,0.781285762786865
2334.55998993,0.81253719329834
2335.41940999,0.859414339065552
2336.21632004,0.796911478042603
2337.02885985,0.81253719329834
2337.74763989,0.718782901763916
2338.51329994,0.765660047531128
2339.26332998,0.750034332275391
2340.01337004,0.750034332275391
2340.79464984,0.781285762786865
2341.6228199,0.828162908554077
2342.43534994,0.81253719329834
2343.21664,0.781285762786865
2343.95105004,0.734408617019653
2344.62294984,0.671905755996704
2345.32610989,0.703157186508179
2346.16989994,0.843788623809814
2347.07618999,0.906291484832764
2347.93560004,0.859414339065552
2348.85751987,0.921917259693146
2349.74818993,0.890665829181671
2350.60759997,0.859414339065552
2351.48264003,0.875040054321289
2352.31079984,0.828162908554077
2353.18583989,0.875040054321289
2354.06087995,0.875040054321289
2354.90467,0.843788623809814
2355.74845982,0.843788623809814
2356.57661986,0.828162908554077
2357.38915992,0.81253719329834
2358.15481997,0.765660047531128
2363.24880981,0.750034332275391
2364.04571986,0.796911478042603
2364.7957499,0.750034332275391
2365.57703996,0.781285762786865
2366.32707,0.750034332275391
2367.12398005,0.796911478042603
2367.93651986,0.81253719329834
2368.74905992,0.81253719329834
2369.54596996,0.796911478042603
2370.31163001,0.765660047531128
2371.03041005,0.718782901763916
2371.71793985,0.687531471252441
2372.4210999,0.703157186508179
2373.09300995,0.671905755996704
2373.76490998,0.671905755996704
2374.46807003,0.703157186508179
2375.17122984,0.703157186508179
2375.84312987,0.671905755996704
2376.49940991,0.656280040740967
2377.20256996,0.703157186508179
2378.04636002,0.843788623809814
2378.96826982,0.921917259693146
2379.79643989,0.828162908554077
2380.60897994,0.81253719329834
2381.39025998,0.781285762786865
2382.17155004,0.781285762786865
2382.90595984,0.734408617019653
2383.65598989,0.750034332275391
2384.43727994,0.781285762786865
2385.35918999,0.921917259693146
2386.31236005,0.953168630599976
2387.21864986,0.906291484832764
2388.14056993,0.921917259693146
2388.95310998,0.81253719329834
2389.81252003,0.859414339065552
2390.60942984,0.796911478042603
2391.40633988,0.796911478042603
2392.14074993,0.734408617019653
2392.90640998,0.765660047531128
2393.64082003,0.734408617019653
2394.53148985,0.890665829181671
2395.4221499,0.890665829181671
2396.32843995,0.906291484832764
2397.20348001,0.875040054321289
2398.03164983,0.828162908554077
2398.82855988,0.796911478042603
2399.62546992,0.796911478042603
2400.39112997,0.765660047531128
2401.09429002,0.703157186508179
2401.82869983,0.734408617019653
2402.54747987,0.718782901763916
2403.29750991,0.750034332275391
2404.07879996,0.781285762786865
2404.86009002,0.781285762786865
2405.68824983,0.828162908554077
2406.50078988,0.81253719329834
2407.32894993,0.828162908554077
2408.12585998,0.796911478042603
2408.89152002,0.765660047531128
2409.65717983,0.765660047531128
2410.39158988,0.734408617019653
2411.14161992,0.750034332275391
2411.87602997,0.734408617019653
2412.65732002,0.781285762786865
2413.45422983,0.796911478042603
2414.23550987,0.781285762786865
2414.95429993,0.718782901763916
2415.65744996,0.703157186508179
2416.37624002,0.718782901763916
2417.09501982,0.718782901763916
2417.75129986,0.656280040740967
2418.4388299,0.687531471252441
2419.07948995,0.640654325485229
2419.89201999,0.81253719329834
2420.65768003,0.765660047531128
2421.39208984,0.734408617019653
2422.1733799,0.781285762786865
2422.98590994,0.81253719329834
2423.78283,0.796911478042603
2424.53286004,0.750034332275391
2425.18913984,0.656280040740967
2425.87666988,0.687531471252441
2426.62670994,0.750034332275391
2427.25173998,0.625028610229492
2428.03302002,0.781285762786865
2428.86117983,0.828162908554077
2429.7674799,0.906291484832764
2430.65813994,0.890665829181671
2437.34594989,0.750034332275391
2438.08035994,0.734408617019653
2438.75225997,0.671905755996704
2439.47104001,0.718782901763916
2440.14294982,0.671905755996704
2440.84610987,0.703157186508179
2441.68989992,0.843788623809814
2442.68993998,1.00004577636719
2443.54936004,0.859414339065552
2444.45564985,0.906291484832764
2445.3463099,0.890665829181671
2446.15884995,0.81253719329834
2447.00264001,0.843788623809814
2447.81517982,0.81253719329834
2448.59645987,0.781285762786865
2449.33086991,0.734408617019653
2450.06527996,0.734408617019653
2450.76844001,0.703157186508179
2451.50284982,0.734408617019653
2452.31537986,0.81253719329834
2453.28417993,0.968794345855713
2454.17483997,0.890665829181671
2455.06551003,0.890665829181671
2455.97179985,0.906291484832764
2456.8312099,0.859414339065552
2457.61249995,0.781285762786865
2458.42504001,0.81253719329834
2459.23757005,0.81253719329834
2459.97197986,0.734408617019653
2460.7376399,0.765660047531128
2461.55017996,0.81253719329834
2462.50335002,0.953168630599976
2463.40963984,0.906291484832764
2464.31592989,0.906291484832764
2465.20659995,0.890665829181671
2466.05039001,0.843788623809814
2466.92542982,0.875040054321289
2467.75358987,0.828162908554077
2468.58174992,0.828162908554077
2469.36303997,0.781285762786865
2470.20683002,0.843788623809814
2470.98810983,0.781285762786865
2471.81626987,0.828162908554077
2472.59755993,0.781285762786865
2473.42571998,0.828162908554077
2474.23826003,0.81253719329834
2475.09767985,0.859414339065552
2479.67600989,0.750034332275391
2480.36353993,0.687531471252441
2481.17607999,0.81253719329834
2481.89486003,0.718782901763916
2482.66051984,0.765660047531128
2483.44180989,0.781285762786865
2484.28559995,0.843788623809814
2493.11412001,0.843788623809814
2501.14574003,0.765660047531128
2501.81764984,0.671905755996704
2502.52080989,0.703157186508179
2503.20833993,0.687531471252441
2504.00524998,0.796911478042603
2504.67715001,0.671905755996704
2505.41155982,0.734408617019653
2506.17721987,0.765660047531128
2507.06788993,0.890665829181671
2507.73978996,0.671905755996704
2508.50545001,0.765660047531128
2509.23985982,0.734408617019653
2509.92738986,0.687531471252441
2510.5524199,0.625028610229492
2511.20869994,0.656280040740967
2511.89622998,0.687531471252441
2541.05381989,0.906291484832764
2541.85072994,0.796911478042603
2542.71015,0.859414339065552
2543.39768004,0.687531471252441
2544.21020985,0.81253719329834
2544.97586989,0.765660047531128
2545.85090995,0.875040054321289
2546.77283001,0.921917259693146
2547.64786983,0.875040054321289
2548.49165988,0.843788623809814
2549.25731993,0.765660047531128
2550.30423999,1.0469229221344
2555.47634983,0.781285762786865
2578.36802983,0.609402894973755
2579.11805987,0.750034332275391
2583.61826992,0.98442006111145
2584.58705997,0.968794345855713
2585.57148004,0.98442006111145
2586.49339986,0.921917259693146
2587.39968991,0.906291484832764
2588.44660997,1.0469229221344
2589.35291004,0.906291484832764
2622.27628994,0.718782901763916
2622.99506998,0.718782901763916
2623.69823003,0.703157186508179
2624.44825983,0.750034332275391
2625.18266988,0.734408617019653
2625.93269992,0.750034332275391
2626.72961998,0.796911478042603
2627.54215002,0.81253719329834
2638.23013997,0.81253719329834
2641.65216994,0.687531471252441
2642.40221,0.750034332275391
2643.10537004,0.703157186508179
2643.77726984,0.671905755996704
2644.51167989,0.734408617019653
2645.19920993,0.687531471252441
2645.83986998,0.640654325485229
2646.46489,0.625028610229492
2647.10555005,0.640654325485229
2647.77744985,0.671905755996704
2652.12139988,0.81253719329834
2652.94956994,0.828162908554077
2653.71522999,0.765660047531128
2654.44964004,0.734408617019653
2655.16841984,0.718782901763916
2655.91844988,0.750034332275391
2656.82473993,0.906291484832764
2657.82479,1.00004577636719
2658.63732982,0.81253719329834
2659.60611987,0.968794345855713
2660.57491994,0.968794345855713
2673.18487,0.734408617019653
2673.93490005,0.750034332275391
2674.62242985,0.687531471252441
2675.48184991,0.859414339065552
2680.18518996,0.859414339065552
2681.02898002,0.843788623809814
2681.84150982,0.81253719329834
2682.60716987,0.765660047531128
2683.45095992,0.843788623809814
2684.46662998,1.01567149162292
2685.41980004,0.953168630599976
2686.38859987,0.968794345855713
2687.26363993,0.875040054321289
2688.15429997,0.890665829181671
2688.98247004,0.828162908554077
2689.85750985,0.875040054321289
2690.6544199,0.796911478042603
2691.46694994,0.81253719329834
2692.20135999,0.734408617019653
2693.10765004,0.906291484832764
2694.09206986,0.98442006111145
2695.02961993,0.937542915344238
2695.90465999,0.875040054321289
2696.74845004,0.843788623809814
2697.54535985,0.796911478042603
2698.3110199,0.765660047531128
2699.07667994,0.765660047531128
2699.87358999,0.796911478042603
2700.63925004,0.765660047531128
2701.49865985,0.859414339065552
2702.42057991,0.921917259693146
2703.37374997,0.953168630599976
2704.32692003,0.953168630599976
2705.17070985,0.843788623809814
2705.9988699,0.828162908554077
2706.78015995,0.781285762786865
2707.56143999,0.781285762786865
2708.29585004,0.734408617019653
2709.04587984,0.750034332275391
2709.8271699,0.781285762786865
2710.68657994,0.859414339065552
2711.49912,0.81253719329834
2712.45228982,0.953168630599976
2713.45233989,1.00004577636719
2714.42112994,0.968794345855713
2715.17115998,0.750034332275391
2715.96808004,0.796911478042603
2716.73373985,0.765660047531128
2717.45251989,0.718782901763916
2718.18692994,0.734408617019653
2718.93695998,0.750034332275391
2719.71825004,0.781285762786865
2720.49952984,0.781285762786865
2721.3276999,0.828162908554077
2722.18710995,0.859414339065552
2723.01526999,0.828162908554077
2723.74968004,0.734408617019653
2724.54658985,0.796911478042603
2725.29662991,0.750034332275391
2725.99978995,0.703157186508179
2726.71856999,0.718782901763916
2727.35922003,0.640654325485229
2728.03112984,0.671905755996704
2728.68740988,0.656280040740967
2729.45306993,0.765660047531128
2738.81287003,0.859414339065552
2739.75040984,0.937542915344238
2740.6723299,0.921917259693146
2741.54736996,0.875040054321289
2742.40679002,0.859414339065552
2743.26619983,0.859414339065552
2744.14123988,0.875040054321289
2745.03190994,0.890665829181671
2745.9382,0.906291484832764
2746.81324005,0.875040054321289
2747.75077987,0.937542915344238
2748.64144993,0.890665829181671
2749.53210998,0.890665829181671
2750.36028004,0.828162908554077
2751.14155984,0.781285762786865
2751.93846989,0.796911478042603
2752.76663995,0.828162908554077
2753.64168,0.875040054321289
2754.50109005,0.859414339065552
2755.43862987,0.937542915344238
2756.32929993,0.890665829181671
2757.23558998,0.906291484832764
2758.09500003,0.859414339065552
2758.84503984,0.750034332275391
2759.67319989,0.828162908554077
2760.47010994,0.796911478042603
2761.32953,0.859414339065552
2762.11081004,0.781285762786865
2762.93897986,0.828162908554077
2763.7515099,0.81253719329834
2764.62654996,0.875040054321289
2765.70473003,1.07817435264587
2766.72039986,1.01567149162292
2770.32993984,0.859414339065552
2771.2206099,0.890665829181671
2772.12689996,0.906291484832764
2772.93943,0.81253719329834
2773.75196981,0.81253719329834
2774.58012986,0.828162908554077
2775.39266992,0.81253719329834
2776.26770997,0.875040054321289
2777.09587002,0.828162908554077
2777.93965983,0.843788623809814
2778.78344989,0.843788623809814
2779.58035994,0.796911478042603
2780.39289999,0.81253719329834
2781.22106004,0.828162908554077
2782.08047986,0.859414339065552
2782.98676991,0.906291484832764
2783.72117996,0.734408617019653
2784.54934001,0.828162908554077
2785.36187983,0.81253719329834
2786.15878987,0.796911478042603
2786.92444992,0.765660047531128
2787.64322996,0.718782901763916
2788.34639001,0.703157186508179
2789.06517005,0.718782901763916
2789.81520987,0.750034332275391
2790.64336991,0.828162908554077
2791.45590997,0.81253719329834
2792.28407001,0.828162908554077
2793.04972982,0.765660047531128
2793.76850986,0.718782901763916
2794.48729992,0.718782901763916
2795.19044995,0.703157186508179
2795.89361,0.703157186508179
2796.67489982,0.781285762786865
2797.54993987,0.875040054321289
2798.44059992,0.890665829181671
2799.28438997,0.843788623809814
2800.09693003,0.81253719329834
2800.90945983,0.81253719329834
2801.65949988,0.750034332275391
2802.45640993,0.796911478042603
2803.28456998,0.828162908554077
2804.15961003,0.875040054321289
2805.05027986,0.890665829181671
2805.9409399,0.890665829181671
2806.72222996,0.781285762786865
2807.47226,0.750034332275391
2808.23792005,0.765660047531128
2809.00357985,0.765660047531128
2809.81611991,0.81253719329834
2810.64427996,0.828162908554077
2811.55058002,0.906291484832764
2812.44123983,0.890665829181671
2813.26939988,0.828162908554077
2814.06631994,0.796911478042603
2814.80072999,0.734408617019653
2815.56639004,0.765660047531128
2816.34766984,0.781285762786865
2817.16020989,0.81253719329834
2818.05086994,0.890665829181671
2818.95717001,0.906291484832764
2819.84782982,0.890665829181671
2820.61348987,0.765660047531128
2821.36352992,0.750034332275391
2822.03542995,0.671905755996704
2822.80109,0.765660047531128
2823.58237982,0.781285762786865
2824.36365986,0.781285762786865
2825.11369991,0.750034332275391
2825.89497995,0.781285762786865
2826.66064,0.765660047531128
2827.48880982,0.828162908554077
2828.30133986,0.81253719329834
2829.17637992,0.875040054321289
2829.84828997,0.671905755996704
2830.69208002,0.843788623809814
2831.42648983,0.734408617019653
2832.17651987,0.750034332275391
2832.86404991,0.687531471252441
2833.55157995,0.687531471252441
2834.31724,0.765660047531128
2838.83307981,0.828162908554077
2839.66123986,0.828162908554077
2840.50502992,0.843788623809814
2841.34881997,0.843788623809814
2842.16135001,0.81253719329834
2843.02076983,0.859414339065552
2843.94267988,0.921917259693146
2844.84897995,0.906291484832764
2845.75527,0.906291484832764
2846.59905982,0.843788623809814
2847.47409987,0.875040054321289
2848.31787992,0.843788623809814
2849.11479998,0.796911478042603
2849.91171002,0.796911478042603
2850.72423983,0.81253719329834
2851.55240989,0.828162908554077
2852.38056993,0.828162908554077
2853.17747998,0.796911478042603
2853.91189003,0.734408617019653
2854.74004984,0.828162908554077
2855.61508989,0.875040054321289
2856.53700995,0.921917259693146
2857.42768002,0.890665829181671
2858.31833982,0.890665829181671
2859.17775989,0.859414339065552
2859.94341993,0.765660047531128
2860.72469997,0.781285762786865
2861.45911002,0.734408617019653
2862.22476983,0.765660047531128
2863.05292988,0.828162908554077
2863.83421993,0.781285762786865
2864.67800999,0.843788623809814
2865.56867003,0.890665829181671
2866.42808986,0.859414339065552
2867.2874999,0.859414339065552
2868.13128996,0.843788623809814
2869.02196002,0.890665829181671
2869.77198982,0.750034332275391
2870.61577988,0.843788623809814
2871.28768992,0.671905755996704
2872.03771996,0.750034332275391
2872.81901002,0.781285762786865
2873.58466983,0.765660047531128
2874.35032988,0.765660047531128
2875.13160992,0.781285762786865
2875.92851996,0.796911478042603
2876.72543001,0.796911478042603
2877.52234983,0.796911478042603
2878.27237988,0.750034332275391
2879.08491993,0.81253719329834
2879.86619997,0.781285762786865
2880.60061002,0.734408617019653
2881.28813982,0.687531471252441
2881.97566986,0.687531471252441
2882.66320992,0.687531471252441
2883.38198996,0.718782901763916
2884.19453001,0.81253719329834
2885.10081983,0.906291484832764
2896.63259983,0.828162908554077
2897.38262987,0.750034332275391
2898.19516993,0.81253719329834
2899.05457997,0.859414339065552
2899.94525003,0.890665829181671
2900.77340984,0.828162908554077
2901.6171999,0.843788623809814
2902.47660995,0.859414339065552
2903.28915,0.81253719329834
2904.10168982,0.81253719329834
2904.86734986,0.765660047531128
2905.5861299,0.718782901763916
2906.30490994,0.718782901763916
2906.99245,0.687531471252441
2907.69560003,0.703157186508179
2908.44563985,0.750034332275391
2909.2894299,0.843788623809814
2910.19571996,0.906291484832764
2911.05513,0.859414339065552
2911.91454983,0.859414339065552
2912.71145988,0.796911478042603
2913.49273992,0.781285762786865
2914.24277997,0.750034332275391
2914.96156001,0.718782901763916
2915.64909005,0.687531471252441
2916.33661985,0.687531471252441
2916.99289989,0.656280040740967
2917.68042994,0.687531471252441
2918.41483998,0.734408617019653
2922.80567002,0.81253719329834
2923.54007983,0.734408617019653
2924.27448988,0.734408617019653
2925.04014993,0.765660047531128
2925.74329996,0.703157186508179
2926.54021001,0.796911478042603
2927.36837983,0.828162908554077
2928.38404989,1.01567149162292
2929.35283995,0.968794345855713
2930.30601001,0.953168630599976
2931.22792983,0.921917259693146
2932.11859989,0.890665829181671
2932.97800994,0.859414339065552
2933.77491999,0.796911478042603
2934.55621004,0.781285762786865
2935.29061985,0.734408617019653
2936.04064989,0.750034332275391
2936.75942993,0.718782901763916
2937.52508998,0.765660047531128
2938.40013003,0.875040054321289
2939.29079986,0.890665829181671
2940.1814599,0.890665829181671
2941.10337996,0.921917259693146
2941.91592002,0.81253719329834
2942.93158984,1.01567149162292
2946.24424005,0.640654325485229
2946.85363984,0.609402894973755
2947.52554989,0.671905755996704
2948.11932993,0.593777179718018
2948.88498998,0.765660047531128
2954.08834982,0.843788623809814
2954.85400987,0.765660047531128
2955.63529992,0.781285762786865
2956.43220997,0.796911478042603
2957.13537002,0.703157186508179
2957.93227983,0.796911478042603
2958.71355987,0.781285762786865
2959.51046991,0.796911478042603
2960.33863997,0.828162908554077
2961.07305002,0.734408617019653
2961.76057982,0.687531471252441
2962.49498987,0.734408617019653
2963.18251991,0.687531471252441
2963.85441995,0.671905755996704
2964.60446,0.750034332275391
2965.35449004,0.750034332275391
2966.19827986,0.843788623809814
2967.07331991,0.875040054321289
2967.88585997,0.81253719329834
2968.72965002,0.843788623809814
2969.54217982,0.81253719329834
2970.26096988,0.718782901763916
2971.01099992,0.750034332275391
2971.76102996,0.750034332275391
2972.51107001,0.750034332275391
2973.24547982,0.734408617019653
2974.04238987,0.796911478042603
2974.85492992,0.81253719329834
2975.69871998,0.843788623809814
2976.43312001,0.734408617019653
2977.23003983,0.796911478042603
2977.98006988,0.750034332275391
2978.77697992,0.796911478042603
2979.52701998,0.750034332275391
2980.27705002,0.750034332275391
2981.01145983,0.734408617019653
2981.74586987,0.734408617019653
2982.51152992,0.765660047531128
2983.27718997,0.765660047531128
2984.04285002,0.765660047531128
2984.79287982,0.750034332275391
2985.57416987,0.781285762786865
2986.32419991,0.750034332275391
2987.05860996,0.734408617019653
2987.76177001,0.703157186508179
2988.46492004,0.703157186508179
2989.16807985,0.703157186508179
2989.91811991,0.750034332275391
2990.63689995,0.718782901763916
2991.37131,0.734408617019653
2992.09009004,0.718782901763916
2992.84011984,0.750034332275391
2993.54327989,0.703157186508179
2994.19955993,0.656280040740967
2994.88708997,0.687531471252441
2995.55900002,0.671905755996704
2996.18402982,0.625028610229492
2996.88717985,0.703157186508179
2997.6528399,0.765660047531128
2998.46537995,0.81253719329834
2999.29355001,0.828162908554077
3000.10607982,0.81253719329834
3000.85611987,0.750034332275391
3001.59052992,0.734408617019653
3002.29367995,0.703157186508179
3002.99684,0.703157186508179
3003.73125005,0.734408617019653
3004.43440986,0.703157186508179
3005.2625699,0.828162908554077
3006.05947995,0.796911478042603
3006.90327001,0.843788623809814
3007.76267982,0.859414339065552
3008.55958986,0.796911478042603
3009.32524991,0.765660047531128
3010.10653996,0.781285762786865
3010.87220001,0.765660047531128
3011.68473983,0.81253719329834
3012.51289988,0.828162908554077
3013.38793993,0.875040054321289
3014.13796997,0.750034332275391
3014.96614003,0.828162908554077
3025.13847995,0.671905755996704
3025.81037998,0.671905755996704
3026.52917004,0.718782901763916
3027.18544984,0.656280040740967
3027.95110989,0.765660047531128
3028.70113993,0.750034332275391
3029.54492998,0.843788623809814
3034.06076002,0.81253719329834
3034.99829984,0.937542915344238
3038.38908005,0.734408617019653
3039.20161986,0.81253719329834
3043.77995992,0.843788623809814
3044.56123996,0.781285762786865
3045.32690001,0.765660047531128
3046.06130981,0.734408617019653
3046.78008986,0.718782901763916
3047.4832499,0.703157186508179
3048.13952994,0.656280040740967
3048.81143999,0.671905755996704
3049.53022003,0.718782901763916
3050.31150985,0.781285762786865
3051.1396699,0.828162908554077
3051.93657994,0.796911478042603
3052.73348999,0.796911478042603
3053.57728004,0.843788623809814
3054.32730985,0.750034332275391
3055.09296989,0.765660047531128
3055.82737994,0.734408617019653
3056.56178999,0.734408617019653
3057.26495004,0.703157186508179
3057.96810985,0.703157186508179
3058.71813989,0.750034332275391
3059.45254993,0.734408617019653
3060.17132998,0.718782901763916
3060.87449002,0.703157186508179
3061.54638982,0.671905755996704
3062.23392987,0.687531471252441
3062.90582991,0.671905755996704
3068.04668999,0.875040054321289
3068.87485003,0.828162908554077
3069.68738985,0.81253719329834
3070.4686799,0.781285762786865
3071.21870995,0.750034332275391
3071.89061999,0.671905755996704
3072.67190003,0.781285762786865
3073.53131986,0.859414339065552
3074.46885991,0.937542915344238
3075.39077997,0.921917259693146
3076.29707003,0.906291484832764
3077.14085984,0.843788623809814
3077.92213988,0.781285762786865
3078.64092994,0.718782901763916
3079.40658998,0.765660047531128
3083.01612997,0.718782901763916
3083.75054002,0.734408617019653
3084.51619983,0.765660047531128
3085.26622987,0.750034332275391
3086.01625991,0.750034332275391
3086.78191996,0.765660047531128
3087.50071001,0.718782901763916
3088.32886982,0.828162908554077
3089.04764986,0.718782901763916
3089.81330991,0.765660047531128
3090.57896996,0.765660047531128
3091.37588,0.796911478042603
3092.18841982,0.81253719329834
3092.95407987,0.765660047531128
3093.73536992,0.781285762786865
3094.45414996,0.718782901763916
3095.18856001,0.734408617019653
3095.93859005,0.750034332275391
3096.73550987,0.796911478042603
3097.56366992,0.828162908554077
3098.32932997,0.765660047531128
3099.12624002,0.796911478042603
3099.87626982,0.750034332275391
3100.68880987,0.81253719329834
3101.67322993,0.98442006111145
3105.1265099,0.718782901763916
3105.82966995,0.703157186508179
3106.50158,0.671905755996704
3107.20473003,0.703157186508179
3107.86100984,0.656280040740967
3108.53291988,0.671905755996704
3109.26732993,0.734408617019653
3110.11111999,0.843788623809814
3111.03303003,0.921917259693146
3111.84556985,0.81253719329834
3112.6737299,0.828162908554077
3113.47064996,0.796911478042603
3114.25193,0.781285762786865
3115.00196981,0.750034332275391
3115.75199986,0.750034332275391
3116.5176599,0.765660047531128
3117.28331995,0.765660047531128
3118.09586,0.81253719329834
3118.97089982,0.875040054321289
3119.93968987,0.968794345855713
3120.78347993,0.843788623809814
3121.61163998,0.828162908554077
3122.37730002,0.765660047531128
3130.92456985,0.781285762786865
3131.64334989,0.718782901763916
3132.34650993,0.703157186508179
3133.06528997,0.718782901763916
3133.78408003,0.718782901763916
3134.54973984,0.765660047531128
3135.31539989,0.765660047531128
3136.06542993,0.750034332275391
3144.06579995,0.734408617019653
3144.78457999,0.718782901763916
3145.50336003,0.718782901763916
3146.23776984,0.734408617019653
3146.89404988,0.656280040740967
3147.56595993,0.671905755996704
3148.28473997,0.718782901763916
3148.97227001,0.687531471252441
3149.72230983,0.750034332275391
3150.50358987,0.781285762786865
3151.22236991,0.718782901763916
3152.00365996,0.781285762786865
3152.81620002,0.81253719329834
3160.25404,0.765660047531128
3161.00407004,0.750034332275391
3161.72284985,0.718782901763916
3162.4416399,0.718782901763916
3163.11353993,0.671905755996704
3163.80106997,0.687531471252441
3164.48861003,0.687531471252441
3165.19175982,0.703157186508179
3165.95741987,0.765660047531128
3166.73870993,0.781285762786865
3167.61374998,0.875040054321289
3168.48879004,0.875040054321289
3169.36382985,0.875040054321289
3170.20761991,0.843788623809814
3170.95764995,0.750034332275391
3171.70769,0.750034332275391
3172.42647004,0.718782901763916
3173.20775986,0.781285762786865
3174.0984199,0.890665829181671
3174.95783997,0.859414339065552
3175.84850001,0.890665829181671
3176.73916984,0.890665829181671
3177.66107988,0.921917259693146
3178.55174994,0.890665829181671
3179.39554,0.843788623809814
3180.20807981,0.81253719329834
3180.98935986,0.781285762786865
3181.7550199,0.765660047531128
3182.52067995,0.765660047531128
3183.27072001,0.750034332275391
3184.06762981,0.796911478042603
3188.61470985,0.843788623809814
3192.55238986,0.703157186508179
3193.2711699,0.718782901763916
3193.97432995,0.703157186508179
3194.77124,0.796911478042603
3195.58378005,0.81253719329834
3196.47444987,0.890665829181671
3197.25572991,0.781285762786865
3198.16201997,0.906291484832764
3198.95893002,0.796911478042603
3199.81834984,0.859414339065552
3200.58400989,0.765660047531128
3201.38091993,0.796911478042603
3202.11532998,0.734408617019653
3202.86536002,0.750034332275391
3203.61539984,0.750034332275391
3204.36542988,0.750034332275391
3205.22484994,0.859414339065552
3206.06862998,0.843788623809814
3206.83429003,0.765660047531128
3207.61557984,0.781285762786865
3208.34998989,0.734408617019653
3209.10001993,0.750034332275391
3209.83442998,0.734408617019653
3210.56884003,0.734408617019653
3211.33449984,0.765660047531128
3212.10015988,0.765660047531128
3212.88144994,0.781285762786865
3213.66272998,0.781285762786865
3214.42839003,0.765660047531128
3215.22529984,0.796911478042603
3215.94408989,0.718782901763916
3216.66286993,0.718782901763916
3217.36602998,0.703157186508179
3218.08481002,0.718782901763916
3218.83483982,0.750034332275391
3219.53799987,0.703157186508179
3220.28803992,0.750034332275391
3220.99118996,0.703157186508179
3221.7256,0.734408617019653
3222.42876005,0.703157186508179
3223.10065985,0.671905755996704
3223.83506989,0.734408617019653
3224.55385995,0.718782901763916
3225.30388999,0.750034332275391
3226.06955004,0.765660047531128
3226.75707984,0.687531471252441
3227.49148989,0.734408617019653
3228.24151993,0.750034332275391
3228.99155998,0.750034332275391
3229.75722003,0.765660047531128
3230.47599983,0.718782901763916
3231.24165988,0.765660047531128
3231.99169993,0.750034332275391
3232.75735998,0.765660047531128
3233.52302003,0.765660047531128
3234.27304983,0.750034332275391
3234.99182987,0.718782901763916
3235.74186993,0.750034332275391
3236.52314997,0.781285762786865
3237.33569002,0.81253719329834
3238.22635984,0.890665829181671
3239.08576989,0.859414339065552
3239.92955995,0.843788623809814
3240.72646999,0.796911478042603
3241.50776005,0.781285762786865
3242.28903985,0.781285762786865
3243.0546999,0.765660047531128
3243.75785995,0.703157186508179
3244.52351999,0.765660047531128
3245.28918004,0.765660047531128
3246.19546986,0.906291484832764
3247.17988992,0.98442006111145
3248.02367997,0.843788623809814
3248.91435003,0.890665829181671
3249.75812984,0.843788623809814
3250.53941989,0.781285762786865
3251.32070994,0.781285762786865
3252.03948998,0.718782901763916
3252.78952003,0.750034332275391
3253.49267983,0.703157186508179
3254.30521989,0.81253719329834
3255.11774993,0.81253719329834
3255.91466999,0.796911478042603
3256.82096004,0.906291484832764
3257.75849986,0.937542915344238
3258.60228992,0.843788623809814
3259.43044996,0.828162908554077
3260.24299002,0.81253719329834
3261.02427983,0.781285762786865
3261.78993988,0.765660047531128
3262.57121992,0.781285762786865
3263.32125998,0.750034332275391
3264.10254002,0.781285762786865
3264.91507983,0.81253719329834
3265.71198988,0.796911478042603
3266.61827993,0.906291484832764
3267.49331999,0.875040054321289
3268.35274005,0.859414339065552
3269.13401985,0.781285762786865
3269.88405991,0.750034332275391
3270.64971995,0.765660047531128
3271.44663,0.796911478042603
3272.25916004,0.81253719329834
3273.04044986,0.781285762786865
3273.86860991,0.828162908554077
3274.83740997,0.968794345855713
3275.75932002,0.921917259693146
3276.60310984,0.843788623809814
3277.44689989,0.843788623809814
3278.16567993,0.718782901763916
3278.90008998,0.734408617019653
3279.61888003,0.718782901763916
3280.36890984,0.750034332275391
3281.08768988,0.718782901763916
3281.85334992,0.765660047531128
3282.63463998,0.781285762786865
3283.47843003,0.843788623809814
3284.27533984,0.796911478042603
3285.07224989,0.796911478042603
3285.83790994,0.765660047531128
3286.61919999,0.781285762786865
3287.32235003,0.703157186508179
3288.08800983,0.765660047531128
3288.80679989,0.718782901763916
3289.54120994,0.734408617019653
3290.25998998,0.718782901763916
3291.01002002,0.750034332275391
3291.71317983,0.703157186508179
3292.44758987,0.734408617019653
3293.13511992,0.687531471252441
3293.85389996,0.718782901763916
3294.58831,0.734408617019653
3295.32272005,0.734408617019653
3296.02587986,0.703157186508179
3296.7759099,0.750034332275391
3297.46343994,0.687531471252441
3298.11971998,0.656280040740967
3298.76038003,0.640654325485229
3299.38540983,0.625028610229492
3300.05730987,0.671905755996704
3300.72921991,0.671905755996704
3301.36986995,0.640654325485229
3302.10427999,0.734408617019653
3302.76056004,0.656280040740967
3303.51058984,0.750034332275391
3304.32312989,0.81253719329834
3305.19816995,0.875040054321289
3306.10446,0.906291484832764
3306.93262982,0.828162908554077
3307.74515986,0.81253719329834
3308.51081991,0.765660047531128
3309.27647996,0.765660047531128
3310.02652001,0.750034332275391
3310.83905983,0.81253719329834
3311.66721988,0.828162908554077
3312.44849992,0.781285762786865
3313.19853997,0.750034332275391
3314.05795002,0.859414339065552
3314.96423984,0.906291484832764
3315.83927989,0.875040054321289
3316.68306994,0.843788623809814
3317.54249001,0.859414339065552
3318.37064981,0.828162908554077
3319.12067986,0.750034332275391
3319.8863399,0.765660047531128
3320.63637996,0.750034332275391
3321.35516,0.718782901763916
3322.08957005,0.734408617019653
3322.87085986,0.781285762786865
3323.69901991,0.828162908554077
3324.43342996,0.734408617019653
3325.10532999,0.671905755996704
3325.82412004,0.718782901763916
3326.55851984,0.734408617019653
3327.3554399,0.796911478042603
3328.16796994,0.81253719329834
3328.98051,0.81253719329834
3329.73055005,0.750034332275391
3330.46494985,0.734408617019653
3331.2149899,0.750034332275391
3331.94939995,0.734408617019653
3332.73067999,0.781285762786865
3333.48072004,0.750034332275391
3334.26199985,0.781285762786865
3335.09016991,0.828162908554077
3335.90269995,0.81253719329834
3336.63710999,0.734408617019653
3337.37152004,0.734408617019653
3338.05904984,0.687531471252441
3338.8403399,0.781285762786865
3339.60599995,0.765660047531128
3340.40290999,0.796911478042603
3341.24670005,0.843788623809814
3342.01235986,0.765660047531128
3342.8248899,0.81253719329834
3343.63742995,0.81253719329834
3344.44997001,0.81253719329834
3345.21562982,0.765660047531128
3345.93440986,0.718782901763916
3346.6531899,0.718782901763916
3347.34072995,0.687531471252441
3348.09075999,0.750034332275391
3348.90330005,0.81253719329834
3349.71582985,0.81253719329834
3350.5283699,0.81253719329834
3351.29402995,0.765660047531128
3352.10657001,0.81253719329834
3352.85660005,0.750034332275391
3364.95090985,0.718782901763916
3365.6853199,0.734408617019653
3370.29489994,0.937542915344238
3371.12305999,0.828162908554077
3371.91998005,0.796911478042603
3372.71688986,0.796911478042603
3373.4044199,0.687531471252441
3374.18570995,0.781285762786865
3374.90448999,0.718782901763916
3375.70140004,0.796911478042603
3376.49830985,0.796911478042603
3377.12333989,0.625028610229492
3377.85774994,0.734408617019653
3378.59215999,0.734408617019653
3379.29531002,0.703157186508179
3389.68640995,0.765660047531128
3390.57708001,0.890665829181671
3398.49932003,0.687531471252441
3399.26497984,0.765660047531128
3399.84312987,0.57815146446228
3400.51503992,0.671905755996704
3401.28069997,0.765660047531128
3402.04636002,0.765660047531128
3407.59347987,0.718782901763916
3413.375,0.875040054321289
3414.29691982,0.921917259693146
3415.09382987,0.796911478042603
3415.84385991,0.750034332275391
3416.50013995,0.656280040740967
3417.2033,0.703157186508179
3417.85958004,0.656280040740967
3418.59398985,0.734408617019653
3419.26588988,0.671905755996704
3420.09405994,0.828162908554077
3420.92221999,0.828162908554077
3421.82851005,0.906291484832764
3422.78167987,0.953168630599976
3428.17254996,0.671905755996704
3428.82883,0.656280040740967
3429.53199005,0.703157186508179
3430.34452987,0.81253719329834
3431.29768991,0.953168630599976
3432.18835998,0.890665829181671
3433.07903004,0.890665829181671
3433.98531985,0.906291484832764
3434.79784989,0.81253719329834
3435.59476995,0.796911478042603
3436.3448,0.750034332275391
3437.01671004,0.671905755996704
3437.64172983,0.625028610229492
3438.29800987,0.656280040740967
3438.98554993,0.687531471252441
3439.65744996,0.671905755996704
3440.36061001,0.703157186508179
3441.14189005,0.781285762786865
3445.86085987,0.98442006111145
3446.79839993,0.937542915344238
3455.39254999,1.20318007469177
3463.25228,0.859414339065552
3464.06482005,0.81253719329834
3464.86172986,0.796911478042603
3465.6117599,0.750034332275391
3466.37741995,0.765660047531128
3467.11183,0.734408617019653
3467.84624004,0.734408617019653
3468.58064985,0.734408617019653
3469.33067989,0.750034332275391
3470.11196995,0.781285762786865
3470.87763,0.765660047531128
3471.65892005,0.781285762786865
3472.45582986,0.796911478042603
3473.25273991,0.796911478042603
3474.00276995,0.750034332275391
3474.72156,0.718782901763916
3475.42471004,0.703157186508179
3476.12786984,0.703157186508179
3476.84664989,0.718782901763916
3477.53418994,0.687531471252441
3478.23733997,0.703157186508179
3478.98738003,0.750034332275391
3479.76865983,0.781285762786865
3480.51869988,0.750034332275391
3481.20622993,0.687531471252441
3481.86250997,0.656280040740967
3482.59692001,0.734408617019653
3483.33132982,0.734408617019653
3484.05010986,0.718782901763916
3489.59723997,0.859414339065552
3490.44103003,0.843788623809814
3491.30043983,0.859414339065552
3492.12859988,0.828162908554077
3493.06614995,0.937542915344238
3497.01944995,0.906291484832764
3497.86324,0.843788623809814
3498.62890005,0.765660047531128
3499.39455986,0.765660047531128
3500.12896991,0.734408617019653
3500.86337996,0.734408617019653
3501.66029,0.796911478042603
3502.44157982,0.781285762786865
3503.28535986,0.843788623809814
3504.00414991,0.718782901763916
3504.76980996,0.765660047531128
3505.55109,0.781285762786865
3506.36362982,0.81253719329834
3507.22303987,0.859414339065552
3508.03557992,0.81253719329834
3508.81686997,0.781285762786865
3509.59815001,0.781285762786865
3510.34818983,0.750034332275391
3511.05133986,0.703157186508179
3511.80137992,0.750034332275391
3512.55140996,0.750034332275391
3513.36395001,0.81253719329834
3514.20773983,0.843788623809814
3515.03589988,0.828162908554077
3515.83280993,0.796911478042603
3516.61409998,0.781285762786865
3517.34851003,0.734408617019653
3518.08291984,0.734408617019653
3518.81732988,0.734408617019653
3519.59860992,0.781285762786865
3520.48927999,0.890665829181671
3521.34869003,0.859414339065552
3522.17684984,0.828162908554077
3522.94250989,0.765660047531128
3523.67691994,0.734408617019653
3524.36444998,0.687531471252441
3525.11449003,0.750034332275391
3525.88014984,0.765660047531128
3526.70830989,0.828162908554077
3527.48959994,0.781285762786865
3528.22400999,0.734408617019653
3529.03654003,0.81253719329834
3529.67719984,0.640654325485229
3535.30244994,0.875040054321289
3536.14624,0.843788623809814
3536.95878005,0.81253719329834
3537.72443986,0.765660047531128
3538.42759991,0.703157186508179
3539.14637995,0.718782901763916
3543.69345999,0.81253719329834
3544.52163005,0.828162908554077
3545.36541986,0.843788623809814
3546.16232991,0.796911478042603
3546.92798996,0.765660047531128
3547.75615001,0.828162908554077
3548.52180982,0.765660047531128
3549.30309987,0.781285762786865
3550.14687991,0.843788623809814
3550.95941997,0.81253719329834
3551.83446002,0.875040054321289
3552.52198982,0.687531471252441
3553.33452988,0.81253719329834
3554.19393992,0.859414339065552
3555.03772998,0.843788623809814
3555.89715004,0.859414339065552
3556.75655985,0.859414339065552
3557.6003499,0.843788623809814
3558.38163996,0.781285762786865
3559.17855,0.796911478042603
3559.97545981,0.796911478042603
3560.75673985,0.781285762786865
3561.50677991,0.750034332275391
3562.27243996,0.765660047531128
3563.14748001,0.875040054321289
3563.80376005,0.656280040740967
3564.61629987,0.81253719329834
3565.36632991,0.750034332275391
3566.11636996,0.750034332275391
3566.85077,0.734408617019653
3572.50727987,0.718782901763916
3573.21043992,0.703157186508179
3573.86671996,0.656280040740967
3574.53863001,0.671905755996704
3575.17928004,0.640654325485229
3575.89805984,0.718782901763916
3576.6480999,0.750034332275391
3582.35148001,0.750034332275391
3583.11713982,0.765660047531128
3583.80466986,0.687531471252441
3584.52345991,0.718782901763916
3585.28911996,0.765660047531128
3586.19541001,0.906291484832764
3587.02356982,0.828162908554077
3587.89860988,0.875040054321289
3588.69551992,0.796911478042603
3589.44555998,0.750034332275391
3590.17997003,0.734408617019653
3590.94562984,0.765660047531128
3591.64877987,0.703157186508179
3592.46131992,0.81253719329834
3593.08634996,0.625028610229492
3593.77388,0.687531471252441
3594.41453981,0.640654325485229
3595.10206985,0.687531471252441
3595.77396989,0.671905755996704
3596.50837994,0.734408617019653
3597.13340998,0.625028610229492
3597.83657002,0.703157186508179
3598.57097983,0.734408617019653
3599.25850987,0.687531471252441
3599.96165991,0.703157186508179
3600.71169996,0.750034332275391
3601.44611001,0.734408617019653
3602.19614005,0.750034332275391
3602.86804986,0.671905755996704
3603.69620991,0.828162908554077
3604.33685994,0.640654325485229
3605.0244,0.687531471252441
3605.72755003,0.703157186508179
3606.38382983,0.656280040740967
3607.08698988,0.703157186508179
3607.80576992,0.718782901763916
3608.66518998,0.859414339065552
3609.43085003,0.765660047531128
3610.16525984,0.734408617019653
3610.91528988,0.750034332275391
3611.63406992,0.718782901763916
3612.27472997,0.640654325485229
3612.96226001,0.687531471252441
3613.64979005,0.687531471252441
3614.24356985,0.593777179718018
3614.9779799,0.734408617019653
3615.69675994,0.718782901763916
3616.44678998,0.750034332275391
3617.19683003,0.750034332275391
3617.91560984,0.718782901763916
3618.66564989,0.750034332275391
3619.36879992,0.703157186508179
3620.08758998,0.718782901763916
3620.83762002,0.750034332275391
3621.58764982,0.750034332275391
3622.33768988,0.750034332275391
3623.16584992,0.828162908554077
3623.99400997,0.828162908554077
3624.77530003,0.781285762786865
3625.54095984,0.765660047531128
3626.29098988,0.750034332275391
3627.02539992,0.734408617019653
3627.77543998,0.750034332275391
3633.30693984,0.781285762786865
3634.10384989,0.796911478042603
3634.80700994,0.703157186508179
3635.51016998,0.703157186508179
3648.65138984,0.625028610229492
3649.38579988,0.734408617019653
3650.08895993,0.703157186508179
3650.80773997,0.718782901763916
3651.58903003,0.781285762786865
3661.24571991,0.765660047531128
3662.15200996,0.906291484832764
3662.83954,0.687531471252441
3663.73020983,0.890665829181671
3664.44898987,0.718782901763916
3665.35527992,0.906291484832764
3670.60552001,0.828162908554077
3671.40242982,0.796911478042603
3672.24621987,0.843788623809814
3673.01187992,0.765660047531128
3673.74628997,0.734408617019653
3674.41820002,0.671905755996704
3675.19947982,0.781285762786865
3675.99638987,0.796911478042603
3676.87142992,0.875040054321289
3677.84022999,0.968794345855713
3678.76215005,0.921917259693146
3679.71531987,0.953168630599976
3680.54347992,0.828162908554077
3681.37163997,0.828162908554077
3682.26231003,0.890665829181671
3683.10609984,0.843788623809814
3683.96550989,0.859414339065552
3684.74679995,0.781285762786865
3685.48119998,0.734408617019653
3686.21561003,0.734408617019653
3686.93439984,0.718782901763916
3687.70005989,0.765660047531128
3688.55946994,0.859414339065552
3689.52825999,0.968794345855713
3690.49705982,0.968794345855713
3691.43459988,0.937542915344238
3692.34088993,0.906291484832764
3693.27844,0.937542915344238
3694.05972004,0.781285762786865
3694.87225986,0.81253719329834
3695.68479991,0.81253719329834
3696.48170996,0.796911478042603
3697.21612,0.734408617019653
3702.74761987,0.781285762786865
3703.56015992,0.81253719329834
3704.35706997,0.796911478042603
3705.16961002,0.81253719329834
3705.87275982,0.703157186508179
3706.57591987,0.703157186508179
3711.73240995,0.921917259693146
3712.62307,0.890665829181671
3713.51373982,0.890665829181671
3714.27939987,0.765660047531128
3715.02942991,0.750034332275391
3715.70133996,0.671905755996704
3716.43575001,0.734408617019653
3717.17015004,0.734408617019653
3717.96706986,0.796911478042603
3718.81084991,0.843788623809814
3719.76401997,0.953168630599976
3720.65469003,0.890665829181671
3721.52972984,0.875040054321289
3722.38913989,0.859414339065552
3723.27980995,0.890665829181671
3724.12360001,0.843788623809814
3724.93613982,0.81253719329834
3725.79554987,0.859414339065552
3726.52995992,0.734408617019653
3727.34249997,0.81253719329834
3728.17066002,0.828162908554077
3728.96756983,0.796911478042603
3729.78010988,0.81253719329834
3730.54576993,0.765660047531128
3737.10856986,0.765660047531128
3737.87422991,0.765660047531128
3738.60863996,0.734408617019653
3739.35867,0.750034332275391
3739.95245004,0.593777179718018
3740.76497984,0.81253719329834
3741.5618999,0.796911478042603
3742.32755995,0.765660047531128
3743.07758999,0.750034332275391
3743.81200004,0.734408617019653
3744.60890985,0.796911478042603
3745.35893989,0.750034332275391
3746.09334993,0.734408617019653
3746.84338999,0.750034332275391
3747.67155004,0.828162908554077
3748.57783985,0.906291484832764
3749.3434999,0.765660047531128
3750.12478995,0.781285762786865
3750.9217,0.796911478042603
3751.56235003,0.640654325485229
3752.24988985,0.687531471252441
3752.95303988,0.703157186508179
3760.42212987,0.796911478042603
3761.18778992,0.765660047531128
3761.98470998,0.796911478042603
3762.71911001,0.734408617019653
3763.48476982,0.765660047531128
3764.14104986,0.656280040740967
3764.85983992,0.718782901763916
3765.62549996,0.765660047531128
3783.26692986,0.843788623809814
3784.12633991,0.859414339065552
3785.00137997,0.875040054321289
3785.87642002,0.875040054321289
3786.73583984,0.859414339065552
3787.6421299,0.906291484832764
3788.50153995,0.859414339065552
3789.42346001,0.921917259693146
3790.37662983,0.953168630599976
3791.26729989,0.890665829181671
3792.17358994,0.906291484832764
3793.11113,0.937542915344238
3793.97054982,0.859414339065552
3794.79870987,0.828162908554077
3795.64249992,0.843788623809814
3796.45502996,0.81253719329834
3797.28320003,0.828162908554077
3798.17385983,0.890665829181671
3828.97214985,0.906291484832764
3829.92531991,0.953168630599976
3830.84722996,0.921917259693146
3831.76915002,0.921917259693146
3832.73793983,0.968794345855713
3833.6442399,0.906291484832764
3834.59740996,0.953168630599976
3835.47245002,0.875040054321289
3836.44123983,0.968794345855713
3837.37877989,0.937542915344238
3838.31632996,0.937542915344238
3839.23824,0.921917259693146
3840.22265983,0.98442006111145
3857.50469995,0.937542915344238
3858.52038002,1.01567149162292
3864.19250989,0.921917259693146
3865.08317995,0.890665829181671
3865.95822001,0.875040054321289
3866.84887981,0.890665829181671
3867.70829988,0.859414339065552
3868.67708993,0.968794345855713
3869.67714,1.00004577636719
3886.16226983,0.750034332275391
3887.02167988,0.859414339065552
3946.72754002,1.00004577636719
3982.35416985,0.890665829181671
3983.18232989,0.828162908554077
3984.05736995,0.875040054321289
3996.66732001,0.781285762786865
3997.55798984,0.890665829181671
3998.24551988,0.687531471252441
4025.82490993,0.890665829181671
4026.79369998,0.968794345855713
4027.82500005,1.03129720687866
4028.80941987,0.98442006111145
4029.77820992,0.968794345855713
4030.68450999,0.906291484832764
4031.66892982,0.98442006111145
4032.70021987,1.03129720687866
4033.66901994,0.968794345855713
4034.63780999,0.968794345855713
4035.62222981,0.98442006111145
4036.60664988,0.98442006111145
4037.51293993,0.906291484832764
4038.41922998,0.906291484832764
4039.41928005,1.00004577636719
4040.38806987,0.968794345855713
4041.26310992,0.875040054321289
4042.23190999,0.968794345855713
4043.15383005,0.921917259693146
4044.01323986,0.859414339065552
4044.87264991,0.859414339065552
4045.74769998,0.875040054321289
4046.60711002,0.859414339065552
4047.46651983,0.859414339065552
4048.29468989,0.828162908554077
4049.29472995,1.00004577636719
4126.75139999,0.968794345855713
4127.76706982,1.01567149162292
4129.0171299,1.25005722045898
4135.22054005,1.03129720687866
4136.11120987,0.890665829181671
4137.07999992,0.968794345855713
4138.15816998,1.07817435264587
4139.09571981,0.937542915344238
4140.14263988,1.0469229221344
4141.28331995,1.14067721366882
4145.79914999,1.0469229221344
4151.44002986,0.890665829181671
4152.44007993,1.00004577636719
4153.58076,1.14067721366882
4157.92470002,0.968794345855713
4158.76848984,0.843788623809814
4159.5966599,0.828162908554077
4165.90944982,0.843788623809814
4166.80010986,0.890665829181671
4167.76890993,0.968794345855713
4168.65956998,0.890665829181671
4169.64399004,0.98442006111145
4176.87870002,0.890665829181671
4177.75373983,0.875040054321289
4178.72252989,0.968794345855713
4184.30091,0.906291484832764
4185.17595005,0.875040054321289
4185.97285986,0.796911478042603
4186.83227992,0.859414339065552
4187.72293997,0.890665829181671
4188.70736003,0.98442006111145
4189.62927985,0.921917259693146
4202.23922992,0.953168630599976
4203.27052999,1.03129720687866
4207.67698002,0.937542915344238
4208.56764984,0.890665829181671
4209.6770699,1.10942578315735
4221.14634991,1.06254863739014
4234.25632,0.828162908554077
4239.78782988,0.937542915344238
4240.78786993,1.00004577636719
4241.78792,1.00004577636719
4242.75670981,0.968794345855713
4243.66299987,0.906291484832764
4244.66304994,1.00004577636719
4245.63183999,0.968794345855713
4246.58501005,0.953168630599976
4247.58505988,1.00004577636719
4248.52259994,0.937542915344238
4249.44452,0.921917259693146
4271.64865994,0.875040054321289
4272.4612,0.81253719329834
4273.33623981,0.875040054321289
4274.14876986,0.81253719329834
4274.99255991,0.843788623809814
4275.89884996,0.906291484832764
4281.32097983,0.828162908554077
4282.11788988,0.796911478042603
4282.91479993,0.796911478042603
4283.63357997,0.718782901763916
4284.38362002,0.750034332275391
4285.21177983,0.828162908554077
4286.08681989,0.875040054321289
4319.24459004,0.734408617019653
4320.08837986,0.843788623809814
4348.94906998,0.796911478042603
4349.76161003,0.81253719329834
4350.74602985,0.98442006111145
4375.23152995,0.859414339065552
4383.48189998,0.81253719329834
4384.49758005,1.01567149162292
4385.46636987,0.968794345855713
4386.34140992,0.875040054321289
4387.06018996,0.718782901763916
4390.90411997,0.859414339065552
4391.79478002,0.890665829181671
4392.62294984,0.828162908554077
4393.51360989,0.890665829181671
4394.38864994,0.875040054321289
4395.43558002,1.0469229221344
4396.37311983,0.937542915344238
4397.18565989,0.81253719329834
4398.10756993,0.921917259693146
4398.95135999,0.843788623809814
4399.77953005,0.828162908554077
4400.68581986,0.906291484832764
4401.42022991,0.734408617019653
4402.40464997,0.98442006111145
4403.37344003,0.968794345855713
4404.32660985,0.953168630599976
4405.40477991,1.07817435264587
4406.23294997,0.828162908554077
4422.51494002,0.859414339065552
4423.48373985,0.968794345855713
4424.49940991,1.01567149162292
4425.51507998,1.01567149162292
4426.39012003,0.875040054321289
4427.37453985,0.98442006111145
4428.40583992,1.03129720687866
4429.31212997,0.906291484832764
4430.21842003,0.906291484832764
4431.09345984,0.875040054321289
4432.01537991,0.921917259693146
4437.81252003,0.890665829181671
4438.67192984,0.859414339065552
4439.7032299,1.03129720687866
4440.53138995,0.828162908554077
4441.48456001,0.953168630599976
4442.40647984,0.921917259693146
4443.37526989,0.968794345855713
4444.29718995,0.921917259693146
4445.14098001,0.843788623809814
4446.14101982,1.00004577636719
4447.26606989,1.12505149841309
4451.51626992,0.875040054321289
4452.48505998,0.968794345855713
4453.36010003,0.875040054321289
4454.20388985,0.843788623809814
4455.15705991,0.953168630599976
4456.04772997,0.890665829181671
4456.96964002,0.921917259693146
4457.82905984,0.859414339065552
4464.43874002,0.781285762786865
4465.17314005,0.734408617019653
4476.92367983,0.937542915344238
4477.86121988,0.937542915344238
4492.01812005,0.906291484832764
4543.87986994,1.06254863739014
4544.73929,0.859414339065552
4545.62995005,0.890665829181671
4566.89654994,0.968794345855713
4567.70908999,0.81253719329834
4579.39712,0.953168630599976
4580.30340981,0.906291484832764
4581.06906986,0.765660047531128
4581.92848992,0.859414339065552
4582.81914997,0.890665829181671
4583.58481002,0.765660047531128
4584.49110985,0.906291484832764
4585.47552991,0.98442006111145
4590.16323996,0.98442006111145
4591.00703001,0.843788623809814
4591.88206983,0.875040054321289
4592.69460988,0.81253719329834
4593.52276993,0.828162908554077
4594.31967998,0.796911478042603
4594.97596002,0.656280040740967
4746.71727991,0.656280040740967
4775.40609002,1.0469229221344
4776.48426986,1.07817435264587
4777.51556993,1.03129720687866
4778.53123999,1.01567149162292
4779.50003004,0.968794345855713
4780.50007987,1.00004577636719
4781.53136992,1.03129720687866
4782.5158,0.98442006111145
4783.53146982,1.01567149162292
4784.57838988,1.0469229221344
4785.56280994,0.98442006111145
4786.56286001,1.00004577636719
4799.79783988,0.937542915344238
4822.42386985,0.921917259693146
4839.73715997,0.765660047531128
4840.61220002,0.875040054321289
4841.69037986,1.07817435264587
4851.59707999,0.953168630599976
4852.53462982,0.937542915344238
4853.45653987,0.921917259693146
4854.34720993,0.890665829181671
4873.50432992,0.859414339065552
4874.39499998,0.890665829181671
4875.30129004,0.906291484832764
4876.20757985,0.906291484832764
4899.88053989,1.06254863739014
4900.86495996,0.98442006111145
4901.83376002,0.968794345855713
4908.30279994,0.81253719329834
4933.25706983,0.937542915344238
4934.19460988,0.937542915344238
4935.14777994,0.953168630599976
4936.11658001,0.968794345855713
4936.94473982,0.828162908554077
4937.85102987,0.906291484832764
4938.77294993,0.921917259693146
4939.60110998,0.828162908554077
4940.53865004,0.937542915344238
4941.55431986,1.01567149162292
4942.53873992,0.98442006111145
4943.60128999,1.06254863739014
4944.66383982,1.06254863739014
4945.66388988,1.00004577636719
4946.66392994,1.00004577636719
4947.6171,0.953168630599976
4948.57026982,0.953168630599976
4949.57031989,1.00004577636719
4950.50785995,0.937542915344238
4951.47665,0.968794345855713
4952.49232984,1.01567149162292
4953.44548988,0.953168630599976
4954.46116996,1.01567149162292
4955.49246001,1.03129720687866
4956.43000984,0.937542915344238
4957.4456799,1.01567149162292
4958.41446996,0.968794345855713
4959.36764002,0.953168630599976
4960.36768985,1.00004577636719
4961.3364799,0.968794345855713
4962.38339996,1.0469229221344
4963.39907002,1.01567149162292
4964.33661985,0.937542915344238
4971.05568004,0.953168630599976
4971.97758985,0.921917259693146
4972.91513991,0.937542915344238
4973.83704996,0.921917259693146
4974.71209002,0.875040054321289
4975.71213984,1.00004577636719
4976.72780991,1.01567149162292
4977.66534996,0.937542915344238
4978.68102002,1.01567149162292
4979.64981985,0.968794345855713
4980.55610991,0.906291484832764
4981.49364996,0.937542915344238
5004.35406995,0.875040054321289
5005.18224001,0.828162908554077
5006.04164982,0.859414339065552
5006.90106988,0.859414339065552
5007.82297993,0.921917259693146
5008.80739999,0.98442006111145
5009.71369004,0.906291484832764
5010.69810987,0.98442006111145
5011.76065993,1.06254863739014
5016.43274999,1.03129720687866
5017.41717005,0.98442006111145
5018.38596988,0.968794345855713
5019.33913994,0.953168630599976
5020.26104999,0.921917259693146
5021.19859982,0.937542915344238
5022.15175986,0.953168630599976
5023.05805993,0.906291484832764
5024.02684999,0.968794345855713
5033.23039985,0.468771457672119
5039.46506,0.859414339065552
5040.32447004,0.859414339065552
5061.71607995,0.921917259693146
5067.38820982,0.921917259693146
5068.29449987,0.906291484832764
5069.20078993,0.906291484832764
5070.09145999,0.890665829181671
5070.99775004,0.906291484832764
5071.95091987,0.953168630599976
5072.87283993,0.921917259693146
5073.77912998,0.906291484832764
5074.76355004,0.98442006111145
5075.65420985,0.890665829181671
5076.52924991,0.875040054321289
5088.90481997,0.843788623809814
5089.81111002,0.906291484832764
5090.68614984,0.875040054321289
5091.6549499,0.968794345855713
5092.65498996,1.00004577636719
5093.60816002,0.953168630599976
5094.51444983,0.906291484832764
5095.4051199,0.890665829181671
5096.29577994,0.890665829181671
5097.13957,0.843788623809814
5097.99898982,0.859414339065552
5098.87402987,0.875040054321289
5099.74906993,0.875040054321289
5100.63972998,0.890665829181671
5101.57727003,0.937542915344238
5102.46793985,0.890665829181671
5103.57736993,1.10942578315735
5104.48365998,0.906291484832764
5112.99967003,0.500022888183594
5113.43718982,0.437520027160645
5113.81220984,0.375017166137695
5119.60934997,0.875040054321289
5120.64065003,1.03129720687866
5121.64068985,1.00004577636719
5122.59385991,0.953168630599976
5123.64077997,1.0469229221344
5124.64083004,1.00004577636719
5125.45336986,0.81253719329834
5126.29715991,0.843788623809814
5127.10968995,0.81253719329834
5127.82848001,0.718782901763916
5149.67322993,0.750034332275391
5150.42325997,0.750034332275391
5151.34518003,0.921917259693146
5152.23583984,0.890665829181671
5153.1108799,0.875040054321289
5153.89216995,0.781285762786865
5154.82971001,0.937542915344238
5155.56411982,0.734408617019653
5161.18937993,0.906291484832764
5162.04878998,0.859414339065552
5162.84570003,0.796911478042603
5170.62731004,0.875040054321289
5171.45546985,0.828162908554077
5172.37738991,0.921917259693146
5173.25242996,0.875040054321289
5174.12747002,0.875040054321289
5175.01813984,0.890665829181671
5175.76816988,0.750034332275391
5176.58070993,0.81253719329834
5177.40886998,0.828162908554077
5178.23703003,0.828162908554077
5179.11206985,0.875040054321289
5180.03398991,0.921917259693146
5180.97152996,0.937542915344238
5181.97158003,1.00004577636719
5182.97162986,1.00004577636719
5183.92478991,0.953168630599976
5184.87795997,0.953168630599976
5185.83113003,0.953168630599976
5186.73741984,0.906291484832764
5187.6905899,0.953168630599976
5188.65938997,0.968794345855713
5189.59693003,0.937542915344238
5190.56571984,0.968794345855713
5191.69076991,1.12505149841309
5196.20660996,0.921917259693146
5201.95686984,0.937542915344238
5202.9100399,0.953168630599976
5203.91007996,1.00004577636719
5204.89450002,0.98442006111145
5205.84766984,0.953168630599976
5206.81646991,0.968794345855713
5207.83213997,1.01567149162292
5208.78531003,0.953168630599976
5209.76972985,0.98442006111145
5210.6291399,0.859414339065552
5239.94298005,0.671905755996704
5240.69301987,0.750034332275391
5241.34929991,0.656280040740967
5242.03682995,0.687531471252441
5242.70874,0.671905755996704
5247.56833005,0.906291484832764
5248.56837988,1.00004577636719
5249.39653993,0.828162908554077
5250.19344997,0.796911478042603
5261.78772998,0.81253719329834
5262.63152003,0.843788623809814
5263.49093986,0.859414339065552
5264.36597991,0.875040054321289
5265.22538996,0.859414339065552
5266.08481002,0.859414339065552
5283.58560991,0.953168630599976
5284.53876996,0.953168630599976
5285.41381001,0.875040054321289
5286.27322984,0.859414339065552
5306.61790991,0.765660047531128
5307.43044996,0.81253719329834
5319.24348998,0.859414339065552
5319.93102002,0.687531471252441
5325.33751988,1.00004577636719
5326.38443995,1.0469229221344
5350.99494004,0.890665829181671
5533.05014992,0.890665829181671
5533.95643997,0.906291484832764
5534.92524004,0.968794345855713
5535.92527986,1.00004577636719
5554.23862004,0.718782901763916
5555.09802985,0.859414339065552
5555.94181991,0.843788623809814
5556.76998997,0.828162908554077
5557.64503002,0.875040054321289
5558.55131984,0.906291484832764
5559.41072989,0.859414339065552
5560.31701994,0.906291484832764
5561.16080999,0.843788623809814
5572.34881997,0.750034332275391
5573.09886003,0.750034332275391
5573.91139984,0.81253719329834
5574.7864399,0.875040054321289
5575.66147995,0.875040054321289
5576.47400999,0.81253719329834
5577.23967004,0.765660047531128
5578.00532985,0.765660047531128
5578.70848989,0.703157186508179
5579.42726994,0.718782901763916
5580.14605999,0.718782901763916
5580.91172004,0.765660047531128
5585.38066983,0.734408617019653
5596.64680982,0.890665829181671
5597.67810988,1.03129720687866
5598.49064994,0.81253719329834
5599.47507,0.98442006111145
5605.47533989,0.781285762786865
5606.35037994,0.875040054321289
5612.52253985,0.781285762786865
5613.2881999,0.765660047531128
5614.03822994,0.750034332275391
5617.63214993,0.703157186508179
5618.42905998,0.796911478042603
5619.22597003,0.796911478042603
5619.89787984,0.671905755996704
5620.72603989,0.828162908554077
5621.50731993,0.781285762786865
5622.31985998,0.81253719329834
5623.10115004,0.781285762786865
5623.96055984,0.859414339065552
5624.8043499,0.843788623809814
5625.63250995,0.828162908554077
5626.52318001,0.890665829181671
5627.39821982,0.875040054321289
5628.25762987,0.859414339065552
5629.19517994,0.937542915344238
5630.10146999,0.906291484832764
5630.99213004,0.890665829181671
5631.82029986,0.828162908554077
5632.61720991,0.796911478042603
5633.46099997,0.843788623809814
5634.21103001,0.750034332275391
5635.11731982,0.906291484832764
5636.21111989,1.09380006790161
5637.02365994,0.81253719329834
5638.00808001,0.98442006111145
5638.89874983,0.890665829181671
5639.82065988,0.921917259693146
5640.74257994,0.921917259693146
6167.01666999,0.750034332275391
