51201.57178
32.000000; 32.000000; 32.000000
-58;4;29
-58;4;29
-58;4;29
-58;4;29
-58;4;29
-58;4;28
-58;4;28
-57;4;29
-58;4;29
-58;4;29
-58;4;29
-58;4;28
-58;4;28
-58;4;29
-58;4;29
-57;4;29
-58;4;29
-58;4;28
-58;4;29
-57;4;29
-58;4;29
-58;4;29
-58;4;29
-58;4;29
-58;4;29
-57;4;29
-57;4;29
-58;4;29
-58;4;29
-58;4;29
-58;4;29
-58;5;29
-58;4;29
-58;4;28
-58;4;29
-58;4;29
-57;4;29
-58;4;29
-58;4;28
-58;4;29
-58;4;29
-58;4;29
-58;4;29
-58;4;29
-58;4;29
-58;4;29
-58;4;29
-58;4;29
-58;4;29
-58;5;29
-58;4;29
-58;4;29
-58;4;29
-58;4;30
-58;4;29
-58;4;29
-58;4;29
-58;4;29
-58;4;29
-58;4;29
-58;4;29
-58;4;29
-58;4;29
-58;4;30
-58;4;30
-57;4;30
-58;4;29
-58;4;29
-58;3;29
-57;4;29
-57;4;29
-58;5;30
-58;4;29
-58;3;29
-58;3;29
-58;4;29
-58;4;29
-58;4;28
-58;4;28
-58;4;28
-58;4;28
-58;4;28
-58;5;28
-58;5;29
-58;4;29
-58;4;28
-58;4;28
-58;4;28
-58;4;28
-58;4;29
-58;4;28
-58;4;28
-58;4;29
-58;4;28
-58;4;28
-58;4;28
-58;4;29
-58;5;29
-58;4;29
-58;4;29
-58;4;28
-58;4;29
-58;4;29
-58;4;29
-58;4;28
-58;4;29
-58;4;28
-58;4;29
-58;4;29
-58;4;28
-58;4;28
-58;4;28
-58;4;29
-58;4;29
-58;4;28
-58;4;28
-58;4;28
-58;4;28
-58;4;28
-58;4;29
-58;4;29
-58;4;29
-58;4;28
-58;4;29
-58;4;28
-58;4;28
-58;4;28
-58;4;29
-58;4;28
-58;4;28
-58;4;28
-58;4;28
-58;4;29
-58;4;28
-59;4;28
-59;4;28
-58;4;28
-59;4;28
-59;4;28
-58;4;27
-58;4;28
-58;4;28
-59;4;27
-59;4;26
-59;4;28
-57;3;29
-58;3;26
-58;2;27
-58;6;29
-58;5;29
-57;5;30
-57;5;29
-57;6;29
-59;4;29
-58;4;29
-59;4;29
-57;4;30
-58;4;28
-59;4;26
-57;4;30
-57;4;30
-60;3;29
-59;4;29
-59;6;28
-54;5;31
-56;6;31
-52;7;33
-53;9;32
-55;8;33
-57;9;32
-60;10;29
-62;10;28
-60;10;24
-55;11;29
-55;12;30
-55;13;32
-53;12;34
-53;11;36
-53;10;36
-52;7;37
-53;4;39
-53;5;39
-52;6;37
-52;7;37
-51;8;38
-53;9;36
-55;8;35
-55;7;35
-55;6;36
-53;6;37
-53;6;37
-52;7;38
-52;7;37
-53;6;38
-53;5;39
-51;6;38
-51;6;38
-52;6;39
-52;6;38
-52;6;38
-52;6;38
-52;6;38
-52;6;38
-52;6;38
-52;6;38
-52;6;38
-52;6;38
-52;6;38
-52;7;38
-52;6;38
-53;6;38
-52;6;38
-52;6;39
-52;7;38
-51;7;38
-52;7;38
-52;6;38
-52;6;38
-52;6;38
-52;6;39
-52;6;38
-52;7;38
-52;6;38
-52;6;38
-52;6;38
-51;6;39
-52;6;38
-51;6;39
-52;6;38
-52;6;38
-50;6;39
-52;6;38
-52;6;39
-50;7;39
-52;7;37
-53;7;37
-51;5;39
-52;6;38
-52;6;38
-52;6;37
-52;6;39
-52;6;38
-52;6;38
-52;5;39
-52;5;38
-52;5;38
-52;6;38
-52;6;39
-52;6;38
-52;5;39
-52;5;38
-52;5;38
-52;5;38
-52;5;39
-52;6;38
-51;6;38
-52;6;38
-52;5;38
-52;5;38
-52;6;38
-52;6;39
-52;5;38
-52;5;38
-52;6;38
-52;6;38
-52;6;38
-52;6;38
-52;6;38
-52;6;38
-52;6;38
-52;5;38
-52;5;39
-52;6;38
-52;6;38
-52;6;38
-52;6;38
-52;6;38
-52;6;38
-52;6;38
-52;6;38
-52;6;38
-52;6;38
-52;6;38
-52;6;38
-52;6;38
-52;6;39
-52;6;38
-52;6;38
-52;6;38
-52;6;38
-52;6;38
-52;6;38
-52;6;38
-52;6;38
-52;6;38
-52;6;39
-52;6;38
-52;6;38
-52;6;38
-52;6;38
-52;6;38
-52;6;39
-52;6;38
-52;5;38
-52;5;38
-53;6;37
-52;6;39
-52;6;39
-51;5;39
-50;5;39
-52;5;39
-51;5;39
-51;5;39
-51;6;39
-51;5;39
-52;5;39
-52;5;38
-52;5;39
-51;5;39
-51;5;39
-51;5;40
-51;5;39
-51;5;39
-51;5;39
-52;5;39
-51;5;39
-51;5;39
-51;5;39
-51;5;39
-51;5;39
-51;5;39
-51;5;39
-51;5;39
-51;5;39
-51;4;40
-51;5;39
-51;5;39
-51;5;39
-51;5;39
-51;5;39
-51;5;39
-52;5;39
-51;5;39
-51;5;39
-52;5;39
-51;5;39
-52;5;39
-50;5;39
-51;5;39
-52;5;39
-51;5;40
-51;5;39
-52;5;38
-52;5;38
-51;5;39
-52;5;39
-51;5;39
-51;6;39
-51;5;39
-52;5;38
-53;5;39
-50;4;40
-52;5;38
-52;6;38
-53;6;39
-51;8;39
-53;9;38
-53;9;38
-51;8;37
-52;8;36
-50;8;37
-52;8;36
-51;8;38
-52;8;37
-53;10;35
-54;11;34
-53;10;35
-55;9;36
-54;7;34
-54;6;35
-55;7;35
-57;6;35
-56;6;34
-57;6;35
-55;5;36
-55;7;33
-57;9;29
-57;9;31
-54;8;33
-54;7;33
-56;7;33
-55;8;32
-56;9;33
-53;7;35
-52;7;35
-59;6;29
-56;8;32
-53;6;32
-56;6;31
-57;6;34
-56;5;34
-57;5;32
-56;6;34
-55;6;34
-58;7;33
-57;7;31
-58;8;31
-55;8;30
-55;10;32
-53;11;34
-56;10;33
-56;14;35
-57;14;35
-59;12;28
-66;8;27
-57;7;28
-56;9;26
-57;5;27
-54;-1;28
-53;-8;25
-52;-9;34
-53;-9;37
-60;-1;33
-57;-1;35
-58;3;39
-57;4;38
-54;7;33
-53;7;32
-53;6;31
-57;5;31
-61;3;31
-58;2;31
-55;2;32
-57;2;32
-58;2;32
-55;2;33
-55;2;35
-56;3;33
-58;4;31
-56;4;32
-55;2;35
-55;1;34
-55;1;34
-54;1;35
-55;2;34
-55;2;34
-55;2;34
-54;2;35
-54;2;35
-54;1;35
-54;1;35
-55;2;35
-54;1;35
-54;1;35
-54;1;35
-54;1;36
-54;1;35
-54;1;36
-53;1;36
-54;1;35
-54;1;35
-54;1;37
-53;1;36
-54;1;36
-54;1;36
-53;1;37
-52;1;37
-54;1;37
-53;1;36
-54;1;35
-54;1;35
-53;1;36
-53;1;36
-54;1;37
-53;1;37
-53;1;37
-54;1;37
-53;2;38
-54;2;36
-55;2;35
-55;1;35
-54;1;36
-53;1;36
-53;1;37
-53;1;37
-54;2;36
-54;2;36
-53;2;37
-53;1;37
-53;1;37
-53;1;37
-53;1;36
-54;2;36
-53;1;36
-54;1;36
-53;1;36
-54;1;36
-54;2;36
-54;1;36
-54;1;36
-53;1;36
-53;1;36
-54;1;36
-54;1;36
-53;1;37
-53;1;37
-54;1;37
-53;1;37
-53;1;37
-53;1;37
-53;1;37
-52;1;37
-53;1;37
-54;1;37
-53;1;37
-53;1;37
-52;1;38
-53;1;37
-53;1;37
-53;2;37
-53;2;37
-53;1;38
-53;1;37
-53;2;38
-52;2;38
-52;1;38
-52;1;37
-52;2;38
-52;2;38
-52;2;38
-52;2;38
-52;2;39
-52;2;38
-52;2;38
-52;2;39
-52;2;38
-52;2;38
-52;2;39
-52;2;39
-52;2;38
-52;2;39
-52;2;38
-52;2;40
-51;2;39
-52;2;39
-51;2;39
-52;2;39
-51;2;39
-50;2;40
-51;2;41
-51;2;40
-50;2;40
-51;2;40
-51;2;40
-50;2;40
-51;3;40
-51;2;40
-51;2;40
-50;2;41
-50;2;41
-50;3;40
-51;2;40
-49;2;42
-52;2;39
-52;2;40
-51;2;40
-49;3;41
-49;2;42
-49;2;42
-52;2;39
-53;1;39
-52;2;40
-50;3;39
-50;3;41
-47;1;43
-47;0;44
-53;1;40
-50;1;41
-50;2;40
-51;4;39
-48;2;42
-47;0;44
-49;1;43
-50;1;40
-50;2;40
-52;4;39
-50;2;41
-46;0;44
-53;0;39
-48;2;41
-52;4;38
-49;3;41
-46;0;46
-41;-1;46
-54;2;44
-48;1;42
-57;4;30
-56;6;29
-54;3;31
-51;-1;39
-56;0;40
-46;1;43
-49;2;41
-54;3;37
-55;2;36
-54;1;36
-52;1;39
-51;1;41
-52;1;40
-53;1;40
-50;2;39
-50;3;39
-50;5;37
-53;5;36
-52;2;38
-52;0;39
-50;0;41
-49;1;42
-51;1;40
-50;2;40
-52;2;39
-51;4;40
-51;5;36
-52;4;37
-51;4;40
-53;3;39
-50;2;41
-50;1;40
-50;2;40
-51;2;39
-53;2;38
-53;2;38
-52;2;39
-51;1;39
-51;1;39
-52;2;39
-51;2;39
-52;1;39
-51;1;39
-52;1;39
-51;2;40
-51;1;39
-52;2;39
-52;2;38
-51;1;39
-52;1;39
-52;1;39
-51;1;39
