Mandatory;Pressed;Strength;BeginingTime;TimeSaved;EndTime;Comment;Emotion;
1;1;0;38046.7020679;587291646.702068;38213.583225;587291813.583225;38346.7021251;587291946.702125;;neutral/A mental activity/mental;
1;0;1;39317.5551128;587292917.555113;40801.241827;587294401.241827;39557.555115;587293157.555115;;4/3/object/Love;
1;1;0;45044.7524581;587298644.752458;45205.2672329;587298805.267233;45344.75246;587298944.75246;;neutral/A mental activity/mental;
1;1;0;52642.970134;587306242.970134;52805.2221789;587306405.222179;52942.97016;587306542.97016;;neutral/A mental activity/mental;
1;1;0;62376.9211969;587315976.921197;62546.4362111;587316146.436211;62676.9212241;587316276.921224;;neutral/A mental activity/mental;
