36062.16873
0.0;0.718782901763916
0.765660047531,0.765660047531128
1.48444986343,0.718782901763916
2.29697990417,0.81253719329834
3.03138995171,0.734408617019653
3.73454999924,0.703157186508179
4.50021004677,0.765660047531128
5.25024008751,0.750034332275391
5.98464989662,0.734408617019653
6.64092993736,0.656280040740967
7.34408998489,0.703157186508179
8.04725003242,0.703157186508179
8.70353007317,0.656280040740967
9.3754298687,0.671905755996704
10.125469923,0.750034332275391
10.7817499638,0.656280040740967
11.4848999977,0.703157186508179
12.2193100452,0.734408617019653
12.9380998611,0.718782901763916
13.6412498951,0.703157186508179
14.4069099426,0.765660047531128
15.2975800037,0.890665829181671
20.1728000641,0.687531471252441
29.8451199532,0.656280040740967
30.5638999939,0.718782901763916
31.1420500278,0.57815146446228
31.7827100754,0.640654325485229
32.5483698845,0.765660047531128
33.1890199184,0.640654325485229
33.9078099728,0.718782901763916
34.6265900135,0.718782901763916
39.1424200535,0.81253719329834
39.8612000942,0.718782901763916
40.6893699169,0.828162908554077
41.4550299644,0.765660047531128
42.1738100052,0.718782901763916
42.8300900459,0.656280040740967
43.5957500935,0.765660047531128
44.2832798958,0.687531471252441
45.0176899433,0.734408617019653
45.7989699841,0.781285762786865
46.5021300316,0.703157186508179
47.2521700859,0.750034332275391
47.9865698814,0.734408617019653
48.8147399426,0.828162908554077
49.5960199833,0.781285762786865
50.3460600376,0.750034332275391
51.1117200851,0.765660047531128
51.7836198807,0.671905755996704
52.502409935,0.718782901763916
53.2211899757,0.718782901763916
53.8931000233,0.671905755996704
54.5962500572,0.703157186508179
55.2994098663,0.703157186508179
55.9713199139,0.671905755996704
56.6432199478,0.671905755996704
57.3619999886,0.718782901763916
58.0495400429,0.687531471252441
58.7995700836,0.750034332275391
59.6433598995,0.843788623809814
60.4558999538,0.81253719329834
61.2215600014,0.765660047531128
62.0184700489,0.796911478042603
62.7685000896,0.750034332275391
63.4404098988,0.671905755996704
64.1123099327,0.671905755996704
64.831099987,0.718782901763916
65.565500021,0.734408617019653
66.3936700821,0.828162908554077
67.0655698776,0.671905755996704
67.8156099319,0.750034332275391
68.5812699795,0.765660047531128
69.3000500202,0.718782901763916
70.0813400745,0.781285762786865
70.8938698769,0.81253719329834
71.6751599312,0.781285762786865
72.4564399719,0.781285762786865
73.1752300262,0.718782901763916
73.894010067,0.718782901763916
74.6596698761,0.765660047531128
75.3940799236,0.734408617019653
76.1441099644,0.750034332275391
76.8941500187,0.750034332275391
77.6441800594,0.750034332275391
78.3004598618,0.656280040740967
79.0504999161,0.750034332275391
79.8005299568,0.750034332275391
80.4880599976,0.687531471252441
81.3318500519,0.843788623809814
82.1756398678,0.843788623809814
83.0037999153,0.828162908554077
83.7694599628,0.765660047531128
84.6132500172,0.843788623809814
85.3945400715,0.781285762786865
86.1601998806,0.765660047531128
86.8320999146,0.671905755996704
87.5821399689,0.750034332275391
88.2852900028,0.703157186508179
88.9415700436,0.656280040740967
89.6291100979,0.687531471252441
90.4728899002,0.843788623809814
91.2072999477,0.734408617019653
92.1448500156,0.937542915344238
93.05114007,0.906291484832764
93.8636698723,0.81253719329834
94.7543399334,0.890665829181671
95.5981299877,0.843788623809814
102.723459959,0.734408617019653
103.426609993,0.703157186508179
104.129770041,0.703157186508179
104.801680088,0.671905755996704
105.52045989,0.718782901763916
106.192359924,0.671905755996704
106.864269972,0.671905755996704
107.536180019,0.671905755996704
108.301840067,0.765660047531128
108.895610094,0.593777179718018
109.630019903,0.734408617019653
110.301929951,0.671905755996704
114.442739964,0.656280040740967
115.114650011,0.671905755996704
115.942810059,0.828162908554077
116.599089861,0.656280040740967
117.380379915,0.781285762786865
118.114779949,0.734408617019653
118.817939997,0.703157186508179
119.489850044,0.671905755996704
120.193010092,0.703157186508179
120.896159887,0.703157186508179
121.661819935,0.765660047531128
122.318099976,0.656280040740967
122.990010023,0.671905755996704
123.708790064,0.718782901763916
128.568389893,0.750034332275391
129.255919933,0.687531471252441
129.943449974,0.687531471252441
130.615360022,0.671905755996704
131.318510056,0.703157186508179
132.006049871,0.687531471252441
132.756079912,0.750034332275391
133.537369967,0.781285762786865
134.318650007,0.781285762786865
135.146810055,0.828162908554077
135.974979877,0.828162908554077
136.662509918,0.687531471252441
137.475049973,0.81253719329834
138.24071002,0.765660047531128
138.959490061,0.718782901763916
139.631390095,0.671905755996704
140.350179911,0.718782901763916
141.068959951,0.718782901763916
141.787739992,0.718782901763916
142.506530046,0.718782901763916
143.256560087,0.750034332275391
144.069099903,0.81253719329834
145.022269964,0.953168630599976
148.553679943,0.750034332275391
149.256839991,0.703157186508179
149.991240025,0.734408617019653
150.694400072,0.703157186508179
151.397559881,0.703157186508179
152.116339922,0.718782901763916
152.819499969,0.703157186508179
153.522660017,0.703157186508179
154.210190058,0.687531471252441
154.928970098,0.718782901763916
155.663379908,0.734408617019653
156.382159948,0.718782901763916
157.116569996,0.734408617019653
157.772850037,0.656280040740967
158.444760084,0.671905755996704
159.163539886,0.718782901763916
159.882319927,0.718782901763916
160.647979975,0.765660047531128
161.366760015,0.718782901763916
162.069920063,0.703157186508179
162.804329872,0.734408617019653
163.53873992,0.734408617019653
164.22626996,0.687531471252441
164.991930008,0.765660047531128
165.820090055,0.828162908554077
166.570129871,0.750034332275391
167.351409912,0.781285762786865
168.273329973,0.921917259693146
169.304630041,1.03129720687866
178.351919889,0.921917259693146
179.211329937,0.859414339065552
180.070749998,0.859414339065552
180.914530039,0.843788623809814
181.695820093,0.781285762786865
182.414599895,0.718782901763916
183.117759943,0.703157186508179
183.883419991,0.765660047531128
184.602200031,0.718782901763916
185.336610079,0.734408617019653
186.102269888,0.765660047531128
186.805429935,0.703157186508179
187.539839983,0.734408617019653
188.289870024,0.750034332275391
189.039910078,0.750034332275391
189.69618988,0.656280040740967
190.493099928,0.796911478042603
191.227509975,0.734408617019653
191.993170023,0.765660047531128
192.711950064,0.718782901763916
193.508859873,0.796911478042603
194.27451992,0.765660047531128
194.962049961,0.687531471252441
195.743340015,0.781285762786865
196.462120056,0.718782901763916
197.118400097,0.656280040740967
197.884059906,0.765660047531128
198.540339947,0.656280040740967
199.212249994,0.671905755996704
199.931030035,0.718782901763916
200.618560076,0.687531471252441
201.384219885,0.765660047531128
202.056129932,0.671905755996704
202.743659973,0.687531471252441
203.462440014,0.718782901763916
204.181220055,0.718782901763916
204.821879864,0.640654325485229
205.525039911,0.703157186508179
206.243819952,0.718782901763916
206.962599993,0.718782901763916
207.63451004,0.671905755996704
208.337660074,0.703157186508179
209.05644989,0.718782901763916
209.712729931,0.656280040740967
210.462759972,0.750034332275391
211.150290012,0.687531471252441
211.85345006,0.703157186508179
224.057130098,0.640654325485229
224.775919914,0.718782901763916
225.510329962,0.734408617019653
226.354110003,0.843788623809814
227.213530064,0.859414339065552
228.05731988,0.843788623809814
228.86984992,0.81253719329834
229.823019981,0.953168630599976
233.26067996,0.687531471252441
233.995090008,0.734408617019653
234.713870049,0.718782901763916
235.432659864,0.718782901763916
236.120189905,0.687531471252441
236.823339939,0.703157186508179
237.573379993,0.750034332275391
238.354660034,0.781285762786865
239.167200089,0.81253719329834
239.948489904,0.781285762786865
240.745399952,0.796911478042603
241.464179993,0.718782901763916
242.19859004,0.734408617019653
242.917370081,0.718782901763916
243.667409897,0.750034332275391
244.354939938,0.687531471252441
245.073719978,0.718782901763916
245.839380026,0.765660047531128
246.62067008,0.781285762786865
247.355079889,0.734408617019653
248.07385993,0.718782901763916
248.792639971,0.718782901763916
254.058510065,0.750034332275391
254.808539867,0.750034332275391
255.558579922,0.750034332275391
256.292979956,0.734408617019653
256.996140003,0.703157186508179
257.668050051,0.671905755996704
258.386830091,0.718782901763916
259.058739901,0.671905755996704
259.746269941,0.687531471252441
260.433799982,0.687531471252441
261.152580023,0.718782901763916
261.840110064,0.687531471252441
262.558899879,0.718782901763916
263.21517992,0.656280040740967
263.933959961,0.718782901763916
264.605870008,0.671905755996704
265.293400049,0.687531471252441
266.01218009,0.718782901763916
266.777839899,0.765660047531128
267.52786994,0.750034332275391
268.309159994,0.781285762786865
269.074820042,0.765660047531128
269.840480089,0.765660047531128
270.559259892,0.718782901763916
271.262419939,0.703157186508179
271.98119998,0.718782901763916
272.653110027,0.671905755996704
273.325010061,0.671905755996704
274.012549877,0.687531471252441
274.731329918,0.718782901763916
275.465739965,0.734408617019653
276.200150013,0.734408617019653
277.028310061,0.828162908554077
277.840849876,0.81253719329834
278.590879917,0.750034332275391
279.262789965,0.671905755996704
280.137830019,0.875040054321289
280.840980053,0.703157186508179
281.637899876,0.796911478042603
282.403559923,0.765660047531128
283.122339964,0.718782901763916
283.825500011,0.703157186508179
284.544280052,0.718782901763916
285.216180086,0.671905755996704
285.903719902,0.687531471252441
286.591249943,0.687531471252441
287.231899977,0.640654325485229
287.903810024,0.671905755996704
288.622590065,0.718782901763916
289.325749874,0.703157186508179
297.998019934,0.656280040740967
302.32633996,0.687531471252441
303.029500008,0.703157186508179
303.826410055,0.796911478042603
304.498319864,0.671905755996704
305.295229912,0.796911478042603
305.967129946,0.671905755996704
306.639039993,0.671905755996704
307.326570034,0.687531471252441
308.029730082,0.703157186508179
308.686009884,0.656280040740967
309.373539925,0.687531471252441
310.092319965,0.718782901763916
310.826730013,0.734408617019653
311.56114006,0.734408617019653
312.26429987,0.703157186508179
313.01432991,0.750034332275391
313.717489958,0.703157186508179
314.467519999,0.750034332275391
315.233180046,0.765660047531128
315.967590094,0.734408617019653
316.74887991,0.781285762786865
317.46765995,0.718782901763916
318.202069998,0.734408617019653
318.920850039,0.718782901763916
319.670890093,0.750034332275391
320.389669895,0.718782901763916
321.124079943,0.734408617019653
321.85848999,0.734408617019653
322.561640024,0.703157186508179
323.280430079,0.718782901763916
323.999209881,0.718782901763916
324.686739922,0.687531471252441
325.436769962,0.750034332275391
326.155560017,0.718782901763916
326.905590057,0.750034332275391
327.686879873,0.781285762786865
328.436909914,0.750034332275391
329.140069962,0.703157186508179
329.843230009,0.703157186508179
330.546380043,0.703157186508179
331.249540091,0.703157186508179
331.968319893,0.718782901763916
332.67147994,0.703157186508179
339.671799898,0.703157186508179
345.890840054,0.750034332275391
346.672120094,0.781285762786865
347.344029903,0.671905755996704
348.062809944,0.718782901763916
348.719089985,0.656280040740967
349.437870026,0.718782901763916
353.859950066,0.796911478042603
354.672489882,0.81253719329834
355.469399929,0.796911478042603
356.266309977,0.796911478042603
357.031970024,0.765660047531128
357.688250065,0.656280040740967
358.422659874,0.734408617019653
359.266449928,0.843788623809814
359.875849962,0.609402894973755
360.625890017,0.750034332275391
361.329040051,0.703157186508179
362.079079866,0.750034332275391
363.016619921,0.937542915344238
372.673310041,0.625028610229492
373.298340082,0.625028610229492
373.876489878,0.57815146446228
374.517149925,0.640654325485229
375.173429966,0.656280040740967
375.87658,0.703157186508179
376.610990047,0.734408617019653
377.392279863,0.781285762786865
378.173559904,0.781285762786865
378.970479965,0.796911478042603
379.751760006,0.781285762786865
380.439290047,0.687531471252441
381.189329863,0.750034332275391
381.908109903,0.718782901763916
382.580019951,0.671905755996704
383.267549992,0.687531471252441
384.001960039,0.734408617019653
384.736360073,0.734408617019653
385.455149889,0.718782901763916
386.252059937,0.796911478042603
386.986469984,0.734408617019653
387.767750025,0.781285762786865
388.392780066,0.625028610229492
392.533600092,0.671905755996704
393.189879894,0.656280040740967
393.861779928,0.671905755996704
394.518059969,0.656280040740967
395.252470016,0.734408617019653
395.986880064,0.734408617019653
396.783789873,0.796911478042603
397.580699921,0.796911478042603
398.346359968,0.765660047531128
399.112020016,0.765660047531128
399.815180063,0.703157186508179
400.518339872,0.703157186508179
401.237119913,0.718782901763916
401.971529961,0.734408617019653
402.690310001,0.718782901763916
403.362220049,0.671905755996704
404.065370083,0.703157186508179
404.752909899,0.687531471252441
405.487309933,0.734408617019653
406.19046998,0.703157186508179
406.940510035,0.750034332275391
407.690540075,0.750034332275391
408.424949884,0.734408617019653
414.550230026,0.718782901763916
415.19088006,0.640654325485229
415.940919876,0.750034332275391
432.816689968,0.703157186508179
433.551100016,0.734408617019653
434.269880056,0.718782901763916
435.019919872,0.750034332275391
435.707449913,0.687531471252441
436.394979954,0.687531471252441
437.098140001,0.703157186508179
437.785670042,0.687531471252441
438.52008009,0.734408617019653
439.191979885,0.671905755996704
439.926389933,0.734408617019653
440.62954998,0.703157186508179
441.285830021,0.656280040740967
441.973360062,0.687531471252441
442.645269871,0.671905755996704
443.317169905,0.671905755996704
444.004699945,0.687531471252441
444.707859993,0.703157186508179
454.489559889,0.671905755996704
455.17708993,0.687531471252441
455.86461997,0.687531471252441
456.599030018,0.734408617019653
457.270930052,0.671905755996704
457.974089861,0.703157186508179
458.692869902,0.718782901763916
459.380409956,0.687531471252441
460.146070004,0.765660047531128
460.833600044,0.687531471252441
461.552380085,0.718782901763916
462.208659887,0.656280040740967
462.833689928,0.625028610229492
463.552469969,0.718782901763916
464.20875001,0.656280040740967
464.927540064,0.718782901763916
465.740069866,0.81253719329834
466.599489927,0.859414339065552
467.287019968,0.687531471252441
468.037050009,0.750034332275391
473.068530083,0.781285762786865
473.834189892,0.765660047531128
474.568599939,0.734408617019653
475.318639994,0.750034332275391
476.053040028,0.734408617019653
476.756200075,0.703157186508179
477.474979877,0.718782901763916
478.193769932,0.718782901763916
478.896919966,0.703157186508179
479.600080013,0.703157186508179
480.287610054,0.687531471252441
481.00639987,0.718782901763916
481.678299904,0.671905755996704
482.381459951,0.703157186508179
483.100239992,0.718782901763916
483.80340004,0.703157186508179
484.49093008,0.687531471252441
485.19408989,0.703157186508179
485.897239923,0.703157186508179
486.584779978,0.687531471252441
487.350440025,0.765660047531128
488.069220066,0.718782901763916
488.850509882,0.781285762786865
489.553659916,0.703157186508179
490.30369997,0.750034332275391
490.991230011,0.687531471252441
491.710010052,0.718782901763916
492.428790092,0.718782901763916
493.100699902,0.671905755996704
493.710099936,0.609402894973755
