26304.3009601
0.0;0.81253719329834
0.750030040741,0.750034332275391
1.39067983627,0.640654325485229
2.20321989059,0.81253719329834
2.93762993813,0.734408617019653
6.31277990341,0.718782901763916
7.03156995773,0.718782901763916
7.75034999847,0.718782901763916
8.46913003922,0.718782901763916
9.23478984833,0.765660047531128
10.0317099094,0.796911478042603
10.7661099434,0.734408617019653
11.4223899841,0.656280040740967
12.1099300385,0.687531471252441
12.8755898476,0.765660047531128
13.5787398815,0.703157186508179
51.9554998875,0.843788623809814
52.752409935,0.796911478042603
53.7055799961,0.953168630599976
67.0499398708,0.750034332275391
67.7687199116,0.718782901763916
68.4406299591,0.671905755996704
69.1125299931,0.671905755996704
69.8313200474,0.718782901763916
74.1283898354,0.671905755996704
74.8784198761,0.750034332275391
75.45656991,0.57815146446228
76.0659799576,0.609402894973755
80.6599400043,0.687531471252441
81.2380900383,0.57815146446228
86.4258298874,0.828162908554077
93.4730198383,0.703157186508179
94.1449298859,0.671905755996704
94.8168399334,0.671905755996704
95.5356199741,0.718782901763916
100.020200014,0.625028610229492
100.738980055,0.718782901763916
101.567149878,0.828162908554077
176.664330006,0.843788623809814
180.258249998,0.687531471252441
181.102040052,0.843788623809814
181.695809841,0.593777179718018
182.414599895,0.718782901763916
183.211509943,0.796911478042603
183.914659977,0.703157186508179
189.789929867,0.687531471252441
203.946830034,0.671905755996704
204.649989843,0.703157186508179
205.337519884,0.687531471252441
206.087549925,0.750034332275391
206.743829966,0.656280040740967
207.446990013,0.703157186508179
208.134520054,0.687531471252441
208.868929863,0.734408617019653
209.618969917,0.750034332275391
210.400249958,0.781285762786865
211.103410006,0.703157186508179
211.806570053,0.703157186508179
212.572229862,0.765660047531128
213.306629896,0.734408617019653
214.08791995,0.781285762786865
214.775449991,0.687531471252441
215.478610039,0.703157186508179
216.259899855,0.781285762786865
216.978679895,0.718782901763916
217.79121995,0.81253719329834
218.494369984,0.703157186508179
219.197530031,0.703157186508179
219.916309834,0.718782901763916
220.619469881,0.703157186508179
221.338249922,0.718782901763916
222.010159969,0.671905755996704
222.63519001,0.625028610229492
223.291470051,0.656280040740967
223.916499853,0.625028610229492
224.729029894,0.81253719329834
225.354059935,0.625028610229492
226.010339975,0.656280040740967
226.635370016,0.625028610229492
227.322899818,0.687531471252441
227.963559866,0.640654325485229
228.6354599,0.671905755996704
229.197989941,0.562525749206543
530.821169853,0.687531471252441
531.571199894,0.750034332275391
532.336859941,0.765660047531128
546.384379864,0.687531471252441
547.025039911,0.640654325485229
547.681319952,0.656280040740967
548.368849993,0.687531471252441
549.072000027,0.703157186508179
549.790789843,0.718782901763916
550.431439877,0.640654325485229
551.087719917,0.656280040740967
551.728379965,0.640654325485229
552.384660006,0.656280040740967
558.072419882,0.750034332275391
558.838079929,0.765660047531128
559.52560997,0.687531471252441
560.275640011,0.750034332275391
560.91629982,0.640654325485229
561.541329861,0.625028610229492
562.135099888,0.593777179718018
562.744509935,0.609402894973755
563.369529963,0.625028610229492
564.057070017,0.687531471252441
564.807099819,0.750034332275391
565.604009867,0.796911478042603
588.480059862,0.718782901763916
589.198839903,0.718782901763916
589.948879957,0.750034332275391
590.652029991,0.703157186508179
591.433320045,0.781285762786865
592.198979855,0.765660047531128
592.964639902,0.765660047531128
593.69904995,0.734408617019653
594.38657999,0.687531471252441
595.136610031,0.750034332275391
595.77726984,0.640654325485229
596.386669874,0.609402894973755
597.089829922,0.703157186508179
601.699409962,0.781285762786865
697.92256999,0.671905755996704
698.578850031,0.656280040740967
699.28200984,0.703157186508179
700.078919888,0.796911478042603
700.719569921,0.640654325485229
708.688689947,0.859414339065552
709.469969988,0.781285762786865
710.173130035,0.703157186508179
710.954409838,0.781285762786865
711.813829899,0.859414339065552
718.392249823,0.843788623809814
719.298549891,0.906291484832764
720.189209938,0.890665829181671
721.111129999,0.921917259693146
739.861989975,0.906291484832764
740.799530029,0.937542915344238
741.737069845,0.937542915344238
742.502729893,0.765660047531128
743.393399954,0.890665829181671
744.221560001,0.828162908554077
745.065349817,0.843788623809814
745.846639872,0.781285762786865
746.659169912,0.81253719329834
747.502959967,0.843788623809814
748.362380028,0.859414339065552
749.128039837,0.765660047531128
749.924949884,0.796911478042603
750.753109932,0.828162908554077
751.612529993,0.859414339065552
752.487570047,0.875040054321289
753.253229856,0.765660047531128
754.081389904,0.828162908554077
754.878299952,0.796911478042603
755.722090006,0.843788623809814
756.534629822,0.81253719329834
757.206529856,0.671905755996704
758.01906991,0.81253719329834
758.800349951,0.781285762786865
759.691020012,0.890665829181671
760.581689835,0.890665829181671
761.409849882,0.828162908554077
762.14425993,0.734408617019653
762.909919977,0.765660047531128
763.675580025,0.765660047531128
764.472489834,0.796911478042603
765.285029888,0.81253719329834
766.035059929,0.750034332275391
766.738219976,0.703157186508179
767.535130024,0.796911478042603
768.34766984,0.81253719329834
769.222709894,0.875040054321289
776.129269838,0.843788623809814
777.098069906,0.968794345855713
782.410809994,0.765660047531128
783.176470041,0.765660047531128
784.00462985,0.828162908554077
816.568619967,0.718782901763916
817.318660021,0.750034332275391
844.319890022,0.796911478042603
845.101179838,0.781285762786865
845.944969893,0.843788623809814
846.866889954,0.921917259693146
847.741930008,0.875040054321289
851.007699966,0.796911478042603
851.867110014,0.859414339065552
852.67964983,0.81253719329834
853.460939884,0.781285762786865
854.289099932,0.828162908554077
855.148509979,0.859414339065552
856.07043004,0.921917259693146
856.945469856,0.875040054321289
857.758009911,0.81253719329834
858.648679972,0.890665829181671
859.539340019,0.890665829181671
860.430009842,0.890665829181671
861.258169889,0.828162908554077
862.023829937,0.765660047531128
862.820739985,0.796911478042603
863.664530039,0.843788623809814
864.445819855,0.781285762786865
865.195849895,0.750034332275391
866.086519957,0.890665829181671
866.945930004,0.859414339065552
867.867849827,0.921917259693146
868.633509874,0.765660047531128
869.430419922,0.796911478042603
870.196079969,0.765660047531128
870.992990017,0.796911478042603
871.711769819,0.718782901763916
872.414929867,0.703157186508179
873.086839914,0.671905755996704
873.789989948,0.703157186508179
874.524399996,0.734408617019653
875.290060043,0.765660047531128
876.243229866,0.953168630599976
877.165149927,0.921917259693146
878.024559975,0.859414339065552
878.821470022,0.796911478042603
879.649639845,0.828162908554077
880.493419886,0.843788623809814
881.415339947,0.921917259693146
885.618659973,0.953168630599976
886.446820021,0.828162908554077
887.24372983,0.796911478042603
888.056269884,0.81253719329834
888.915689945,0.859414339065552
935.40218997,0.843788623809814
944.230720043,0.796911478042603
945.105759859,0.875040054321289
945.902669907,0.796911478042603
987.607699871,0.828162908554077
988.420239925,0.81253719329834
989.26402998,0.843788623809814
990.107820034,0.843788623809814
990.95160985,0.843788623809814
1004.70223999,0.875040054321289
1005.57728004,0.875040054321289
1006.32730985,0.750034332275391
1029.50024986,0.796911478042603
1030.3127799,0.81253719329834
1038.98504996,0.781285762786865
1039.76634002,0.781285762786865
1095.00323987,0.906291484832764
1124.14520001,0.890665829181671
1124.95773983,0.81253719329834
1125.81714988,0.859414339065552
1126.64531994,0.828162908554077
1127.50472999,0.859414339065552
1128.34852004,0.843788623809814
1129.14542985,0.796911478042603
1129.9423399,0.796911478042603
1130.83300996,0.890665829181671
1131.67680001,0.843788623809814
1132.48933983,0.81253719329834
1133.28624988,0.796911478042603
1134.19253993,0.906291484832764
1135.00507998,0.81253719329834
1135.72386003,0.718782901763916
1136.55201983,0.828162908554077
1137.36455989,0.81253719329834
1155.74039984,0.765660047531128
1156.39667988,0.656280040740967
1175.61630988,0.843788623809814
1176.52259994,0.906291484832764
1177.52265,1.00004577636719
1178.47581983,0.953168630599976
1186.55430984,0.953168630599976
1187.55435991,1.00004577636719
1188.53877997,0.98442006111145
1189.50757003,0.968794345855713
1190.35135984,0.843788623809814
1216.63381004,0.937542915344238
1217.43071985,0.796911478042603
1221.32152987,0.671905755996704
1236.29095984,0.921917259693146
1237.11911988,0.828162908554077
1237.99415994,0.875040054321289
1238.91608,0.921917259693146
1281.37115002,0.875040054321289
1394.64195991,0.656280040740967
1395.31386995,0.671905755996704
1395.95451999,0.640654325485229
1436.03447986,0.98442006111145
1436.8938899,0.859414339065552
1437.97206998,1.07817435264587
1451.64456987,0.781285762786865
1452.47272992,0.828162908554077
1483.42726994,0.81253719329834
1484.28669,0.859414339065552
1485.05235004,0.765660047531128
1486.02113986,0.968794345855713
1490.13070989,0.81253719329834
1497.03726983,0.843788623809814
1512.49109983,1.00004577636719
1513.36613989,0.875040054321289
1514.25680995,0.890665829181671
1515.13185,0.875040054321289
1516.06938982,0.937542915344238
1517.03818989,0.968794345855713
1517.91322994,0.875040054321289
1518.78827,0.875040054321289
1519.56955004,0.781285762786865
1520.35083985,0.781285762786865
1521.28837991,0.937542915344238
1522.22592998,0.937542915344238
1529.17936993,0.859414339065552
1530.07002997,0.890665829181671
1530.99195004,0.921917259693146
1531.91386986,0.921917259693146
1532.82015991,0.906291484832764
1533.74207997,0.921917259693146
1534.66399002,0.921917259693146
1535.58590984,0.921917259693146
1536.4609499,0.875040054321289
1537.36723995,0.906291484832764
1538.35166001,0.98442006111145
1539.30482984,0.953168630599976
1540.1642499,0.859414339065552
1540.97677994,0.81253719329834
1541.8362,0.859414339065552
1542.78936982,0.953168630599976
1543.68002987,0.890665829181671
1544.53944993,0.859414339065552
1545.43010998,0.890665829181671
1546.39891005,0.968794345855713
1547.35207987,0.953168630599976
1548.24273992,0.890665829181671
1549.11777997,0.875040054321289
1550.02407002,0.906291484832764
1550.91473985,0.890665829181671
1551.7897799,0.875040054321289
1552.63356996,0.843788623809814
1553.47736001,0.843788623809814
1566.00917983,0.921917259693146
1566.89983988,0.890665829181671
1567.74362993,0.843788623809814
1568.58741999,0.843788623809814
1569.43121004,0.843788623809814
1570.35312986,0.921917259693146
1571.19691992,0.843788623809814
1572.00944996,0.81253719329834
1572.91575003,0.906291484832764
1573.83765984,0.921917259693146
1574.6970799,0.859414339065552
1575.49398994,0.796911478042603
1576.33778,0.843788623809814
1577.16594005,0.828162908554077
1578.02534986,0.859414339065552
1578.82226992,0.796911478042603
1579.63479996,0.81253719329834
1580.49422002,0.859414339065552
1581.36925983,0.875040054321289
1582.18178988,0.81253719329834
1583.04120994,0.859414339065552
1583.94749999,0.906291484832764
1584.83817005,0.890665829181671
1585.68194985,0.843788623809814
1586.49448991,0.81253719329834
1587.29139996,0.796911478042603
1592.52602005,0.859414339065552
1593.35417986,0.828162908554077
1594.35422993,1.00004577636719
1595.13550997,0.781285762786865
1595.86992002,0.734408617019653
1596.71370983,0.843788623809814
1597.52624989,0.81253719329834
1598.41690993,0.890665829181671
1599.21381998,0.796911478042603
1600.02636003,0.81253719329834
1600.85451984,0.828162908554077
1601.6983099,0.843788623809814
1602.37021995,0.671905755996704
1603.18276,0.81253719329834
1604.04217005,0.859414339065552
1604.91720986,0.875040054321289
1605.69849992,0.781285762786865
1639.84067988,0.828162908554077
1640.57508993,0.734408617019653
1641.37199998,0.796911478042603
2099.64297986,0.937542915344238
2100.3617599,0.718782901763916
2101.28367996,0.921917259693146
2102.15872002,0.875040054321289
2191.30342984,0.765660047531128
2200.92886996,0.750034332275391
2201.81953001,0.890665829181671
2202.64769983,0.828162908554077
2203.50710988,0.859414339065552
2204.28839993,0.781285762786865
2205.10092998,0.81253719329834
2205.94472003,0.843788623809814
2206.72600985,0.781285762786865
2207.6010499,0.875040054321289
2213.38256001,0.81253719329834
2214.22634983,0.843788623809814
2214.99200988,0.765660047531128
2246.88409996,0.81253719329834
2247.77476001,0.890665829181671
2248.58729982,0.81253719329834
2249.41545987,0.828162908554077
2250.24361992,0.828162908554077
2268.82259989,0.81253719329834
2276.7292099,0.781285762786865
2283.90140986,0.781285762786865
2284.71394992,0.81253719329834
2285.54211998,0.828162908554077
2286.41716003,0.875040054321289
2299.7302599,0.781285762786865
2300.46466994,0.734408617019653
2306.18367982,0.81253719329834
2310.16823983,0.81253719329834
2310.98077989,0.81253719329834
2311.74643993,0.765660047531128
2312.51209998,0.765660047531128
2313.38714004,0.875040054321289
2314.30905986,0.921917259693146
2315.15284991,0.843788623809814
2315.98100996,0.828162908554077
2316.79355001,0.81253719329834
2317.59045982,0.796911478042603
2318.48111987,0.890665829181671
2319.27802992,0.796911478042603
2320.07494998,0.796911478042603
2320.87186003,0.796911478042603
2328.52846003,0.828162908554077
2329.37224984,0.843788623809814
2330.20040989,0.828162908554077
2331.01294994,0.81253719329834
2331.85674,0.843788623809814
2332.73178005,0.875040054321289
2339.48207998,0.875040054321289
2340.48213005,1.00004577636719
2344.32605982,0.781285762786865
2345.13858986,0.81253719329834
2345.99800992,0.859414339065552
2346.91991997,0.921917259693146
2383.31221986,0.843788623809814
2384.0934999,0.781285762786865
2384.93728995,0.843788623809814
2385.7967,0.859414339065552
2400.43799996,0.828162908554077
2401.28179002,0.843788623809814
2460.59699988,0.796911478042603
2461.39390993,0.796911478042603
2462.23769999,0.843788623809814
2462.98774004,0.750034332275391
2463.72214985,0.734408617019653
2464.50342989,0.781285762786865
2465.26908994,0.765660047531128
2466.03474998,0.765660047531128
2466.78479004,0.750034332275391
2545.10086989,0.843788623809814
2546.00715995,0.906291484832764
2546.86658001,0.859414339065552
2547.72598982,0.859414339065552
2762.00142002,0.859414339065552
2762.86083984,0.859414339065552
2850.20859003,0.859414339065552
2851.11487985,0.906291484832764
2908.78938985,0.843788623809814
2909.61755991,0.828162908554077
2910.50821996,0.890665829181671
2911.46139002,0.953168630599976
2912.33642983,0.875040054321289
2913.21146989,0.875040054321289
2914.08650994,0.875040054321289
2915.02405,0.937542915344238
2915.97721982,0.953168630599976
2916.93038988,0.953168630599976
2952.58826995,0.781285762786865
2953.38519001,0.796911478042603
2954.24459982,0.859414339065552
2955.16651988,0.921917259693146
2955.99467993,0.828162908554077
2956.77596998,0.781285762786865
2957.55725002,0.781285762786865
2958.36978984,0.81253719329834
2959.22919989,0.859414339065552
2960.10423994,0.875040054321289
2960.97927999,0.875040054321289
2961.80744982,0.828162908554077
2962.63560987,0.828162908554077
2963.47939992,0.843788623809814
2964.37005997,0.890665829181671
2965.26073003,0.890665829181671
2966.13576984,0.875040054321289
2966.9795599,0.843788623809814
2967.87021995,0.890665829181671
2968.72964001,0.859414339065552
2969.55780005,0.828162908554077
2970.43283987,0.875040054321289
2971.33912992,0.906291484832764
2972.18291998,0.843788623809814
2972.99546003,0.81253719329834
2973.83924985,0.843788623809814
2974.6986599,0.859414339065552
2975.62057996,0.921917259693146
2976.44874001,0.828162908554077
2977.30815983,0.859414339065552
3033.49822998,0.656280040740967
3043.29554987,0.81253719329834
3050.90526986,0.703157186508179
3055.01483989,0.781285762786865
3059.35878992,0.703157186508179
3060.07756996,0.718782901763916
3060.81198001,0.734408617019653
3061.67138982,0.859414339065552
3062.65580988,0.98442006111145
3063.62460995,0.968794345855713
3064.60903001,0.98442006111145
3065.59344983,0.98442006111145
3066.62473989,1.03129720687866
3067.59353995,0.968794345855713
3068.49983001,0.906291484832764
3069.39049983,0.890665829181671
3070.29678988,0.906291484832764
3107.75162983,0.593777179718018
3108.32977986,0.57815146446228
3108.9548099,0.625028610229492
3109.56420994,0.609402894973755
3260.39924002,0.906291484832764
3261.24302983,0.843788623809814
3262.08681989,0.843788623809814
3262.82122993,0.734408617019653
3263.68063998,0.859414339065552
3272.30603004,0.796911478042603
3273.18106985,0.875040054321289
3274.13423991,0.953168630599976
3275.04052997,0.906291484832764
3275.88432002,0.843788623809814
3276.74373984,0.859414339065552
3277.6187799,0.875040054321289
3278.43131995,0.81253719329834
3279.25948,0.828162908554077
3280.11889005,0.859414339065552
3281.02517986,0.906291484832764
3281.79083991,0.765660047531128
3282.65025997,0.859414339065552
3283.47842002,0.828162908554077
3284.33783984,0.859414339065552
3285.13474989,0.796911478042603
3428.25066996,0.625028610229492
3480.14366984,0.875040054321289
3526.03639984,0.781285762786865
3527.0051899,0.968794345855713
3527.98960996,0.98442006111145
3562.41305995,0.81253719329834
3563.44436002,1.03129720687866
3568.53833985,0.890665829181671
3569.64776993,1.10942578315735
3577.80438995,0.875040054321289
3578.78881001,0.98442006111145
3579.72635984,0.937542915344238
3580.67952991,0.953168630599976
3587.32044983,1.09380006790161
3588.3361299,1.01567149162292
3589.16428995,0.828162908554077
3590.03933001,0.875040054321289
3591.07062984,1.03129720687866
3591.97691989,0.906291484832764
3592.86757994,0.890665829181671
3593.77386999,0.906291484832764
3594.74266982,0.968794345855713
3595.50832987,0.765660047531128
3596.36773992,0.859414339065552
3597.25840998,0.890665829181671
3598.24283004,0.98442006111145
3599.08661985,0.843788623809814
3599.89914989,0.81253719329834
3600.63355994,0.734408617019653
3604.02433991,0.796911478042603
3604.85250998,0.828162908554077
3605.74317002,0.890665829181671
3636.05706,0.921917259693146
3637.08835983,1.03129720687866
3637.86963987,0.781285762786865
3645.9950099,1.00004577636719
3646.85442996,0.859414339065552
3647.72947001,0.875040054321289
3648.62013984,0.890665829181671
3649.54204988,0.921917259693146
3650.52646995,0.98442006111145
3671.99620986,0.859414339065552
3672.8399899,0.843788623809814
3673.63690996,0.796911478042603
3674.48069,0.843788623809814
3675.38698983,0.906291484832764
3676.35577989,0.968794345855713
3677.27769995,0.921917259693146
3678.21524,0.937542915344238
3679.02777982,0.81253719329834
3679.88718987,0.859414339065552
3680.79347992,0.906291484832764
3681.73102999,0.937542915344238
3682.65294003,0.921917259693146
3683.52797985,0.875040054321289
3684.41864991,0.890665829181671
3685.34056997,0.921917259693146
3686.15310001,0.81253719329834
3687.13751984,0.98442006111145
3687.98130989,0.843788623809814
3688.95010996,0.968794345855713
3689.87202001,0.921917259693146
3690.74705982,0.875040054321289
3691.62209988,0.875040054321289
3692.49713993,0.875040054321289
3693.41905999,0.921917259693146
3694.26285005,0.843788623809814
3695.12225986,0.859414339065552
3696.02855992,0.906291484832764
3696.96609998,0.937542915344238
3697.79426003,0.828162908554077
3698.68492985,0.890665829181671
3699.4193399,0.734408617019653
3700.16936994,0.750034332275391
3700.98190999,0.81253719329834
3701.77882004,0.796911478042603
3702.56009984,0.781285762786865
3703.4195199,0.859414339065552
3704.35705996,0.937542915344238
3705.27898002,0.921917259693146
3706.16963983,0.890665829181671
3706.96655989,0.796911478042603
3707.85721993,0.890665829181671
3708.66975999,0.81253719329834
3709.57605004,0.906291484832764
3710.41983986,0.843788623809814
3711.24799991,0.828162908554077
3712.12303996,0.875040054321289
3713.10746002,0.98442006111145
3713.96687984,0.859414339065552
3714.88878989,0.921917259693146
3715.84195995,0.953168630599976
3716.79513001,0.953168630599976
3717.62328982,0.828162908554077
3718.49832988,0.875040054321289
3719.42024994,0.921917259693146
3720.32653999,0.906291484832764
3721.15471005,0.828162908554077
3721.99848986,0.843788623809814
3722.88915992,0.890665829181671
3723.74856997,0.859414339065552
3724.57674003,0.828162908554077
3725.42052984,0.843788623809814
3726.27993989,0.859414339065552
3727.21747994,0.937542915344238
3728.07690001,0.859414339065552
3728.93631005,0.859414339065552
3729.82697988,0.890665829181671
3730.73326993,0.906291484832764
3731.53017998,0.796911478042603
3732.43647003,0.906291484832764
3733.28025985,0.843788623809814
3734.1396699,0.859414339065552
3734.98345995,0.843788623809814
3735.84288001,0.859414339065552
3736.79604983,0.953168630599976
3737.73358989,0.937542915344238
3738.60862994,0.875040054321289
3739.4993,0.890665829181671
3740.40558982,0.906291484832764
3741.24937987,0.843788623809814
3742.14003992,0.890665829181671
3743.03070998,0.890665829181671
3743.96825004,0.937542915344238
3744.81203985,0.843788623809814
3745.71832991,0.906291484832764
3746.64024997,0.921917259693146
3747.65592003,1.01567149162292
3748.64033985,0.98442006111145
3749.57787991,0.937542915344238
3750.51541996,0.937542915344238
3751.49984002,0.98442006111145
3752.40613985,0.906291484832764
3753.3436799,0.937542915344238
3754.28121996,0.937542915344238
3755.21876001,0.937542915344238
3756.10942984,0.890665829181671
3757.0313499,0.921917259693146
3758.00013995,0.968794345855713
3758.90643001,0.906291484832764
3759.75021982,0.843788623809814
3774.75091004,0.843788623809814
3775.64156985,0.890665829181671
3776.57911992,0.937542915344238
3777.42290998,0.843788623809814
3778.28232002,0.859414339065552
3779.17298985,0.890665829181671
3780.0792799,0.906291484832764
3780.86055994,0.781285762786865
3781.71998,0.859414339065552
3782.51689005,0.796911478042603
3783.31379986,0.796911478042603
3784.11070991,0.796911478042603
3784.92324996,0.81253719329834
3785.68891001,0.765660047531128
3786.48582006,0.796911478042603
3791.54854989,0.859414339065552
3792.42358994,0.875040054321289
3793.23613,0.81253719329834
3794.12679982,0.890665829181671
3795.07995987,0.953168630599976
3816.86221004,0.953168630599976
3817.79974985,0.937542915344238
3818.81542993,1.01567149162292
3827.81584001,0.890665829181671
3828.73775005,0.921917259693146
3829.69091988,0.953168630599976
3830.59720993,0.906291484832764
3831.51912999,0.921917259693146
3832.40980005,0.890665829181671
3833.34733987,0.937542915344238
3834.23800993,0.890665829181671
3835.11304998,0.875040054321289
3835.98809004,0.875040054321289
3836.90999985,0.921917259693146
3837.80066991,0.890665829181671
3838.72258997,0.921917259693146
3839.64450002,0.921917259693146
3840.59766984,0.953168630599976
3841.50395989,0.906291484832764
3842.48837996,0.98442006111145
3843.42593002,0.937542915344238
3844.36346984,0.937542915344238
3845.19162989,0.828162908554077
3846.11354995,0.921917259693146
3847.09797001,0.98442006111145
3848.11363983,1.01567149162292
3849.01992989,0.906291484832764
3849.92621994,0.906291484832764
3850.84814,0.921917259693146
3851.75442982,0.906291484832764
3852.62946987,0.875040054321289
3853.58263993,0.953168630599976
3854.55144,0.968794345855713
3855.44210005,0.890665829181671
3856.34838986,0.906291484832764
3857.28593993,0.937542915344238
3858.22347999,0.937542915344238
3859.08289003,0.859414339065552
3859.98918986,0.906291484832764
3860.91109991,0.921917259693146
3861.81738997,0.906291484832764
3862.67681003,0.859414339065552
3863.59872985,0.921917259693146
3864.5362699,0.937542915344238
3865.44255996,0.906291484832764
3866.31760001,0.875040054321289
3867.20826983,0.890665829181671
3868.13017988,0.921917259693146
3868.95834994,0.828162908554077
3869.80212998,0.843788623809814
3870.64592004,0.843788623809814
3871.52095985,0.875040054321289
3872.30224991,0.781285762786865
3873.05227995,0.750034332275391
3873.81794,0.765660047531128
3874.69298005,0.875040054321289
3875.52114987,0.828162908554077
3876.31805992,0.796911478042603
3877.11496997,0.796911478042603
3877.94313002,0.828162908554077
3878.83379984,0.890665829181671
3879.69320989,0.859414339065552
3880.55262995,0.859414339065552
3881.41204,0.859414339065552
3882.31833005,0.906291484832764
3887.94358993,0.765660047531128
3888.78737998,0.843788623809814
3889.63117003,0.843788623809814
3890.41244984,0.781285762786865
3891.19373989,0.781285762786865
3969.32230997,0.875040054321289
3970.19735003,0.875040054321289
3971.08801985,0.890665829181671
3972.00993991,0.921917259693146
3972.85372996,0.843788623809814
3973.72877002,0.875040054321289
3974.58817983,0.859414339065552
3975.46321988,0.875040054321289
3976.29137993,0.828162908554077
3977.16641998,0.875040054321289
3978.08834004,0.921917259693146
3978.96337986,0.875040054321289
4005.66772985,0.781285762786865
4016.19946003,0.953168630599976
4017.02761984,0.828162908554077
4017.99641991,0.968794345855713
4018.85582995,0.859414339065552
4031.43453002,0.890665829181671
4032.30956984,0.875040054321289
4033.2939899,0.98442006111145
4034.13777995,0.843788623809814
4035.05970001,0.921917259693146
4035.95035982,0.890665829181671
4043.27883005,0.953168630599976
4044.18511987,0.906291484832764
4045.04452991,0.859414339065552
4045.95081997,0.906291484832764
4046.88837004,0.937542915344238
4047.88840985,1.00004577636719
4048.74782991,0.859414339065552
4049.65411997,0.906291484832764
4050.57603002,0.921917259693146
4051.59170985,1.01567149162292
4052.49799991,0.906291484832764
4053.37303996,0.875040054321289
4054.29495001,0.921917259693146
4055.10748982,0.81253719329834
4056.01377988,0.906291484832764
4056.85756993,0.843788623809814
4111.81321001,0.906291484832764
4112.65699983,0.843788623809814
4113.53203988,0.875040054321289
4114.39145994,0.859414339065552
4115.25086999,0.859414339065552
4116.14154005,0.890665829181671
4117.07907987,0.937542915344238
4117.98536992,0.906291484832764
4118.81352997,0.828162908554077
4119.73545003,0.921917259693146
4120.64173985,0.906291484832764
4121.53240991,0.890665829181671
4122.37619996,0.843788623809814
4123.20436001,0.828162908554077
4160.73732996,0.859414339065552
4161.58112001,0.843788623809814
4162.42490005,0.843788623809814
4163.33119988,0.906291484832764
4164.19060993,0.859414339065552
4165.01876998,0.828162908554077
4165.84694004,0.828162908554077
4166.70634985,0.859414339065552
4167.5657599,0.859414339065552
4168.47205997,0.906291484832764
4199.37971997,0.859414339065552
4200.28601003,0.906291484832764
4201.12979984,0.843788623809814
4211.44277,1.07817435264587
4212.36468983,0.921917259693146
4213.27097988,0.906291484832764
4214.22414994,0.953168630599976
4215.23982,1.01567149162292
4216.13048983,0.890665829181671
4217.05239987,0.921917259693146
4236.5064199,0.843788623809814
4379.20044994,1.09380006790161
4465.95441985,0.703157186508179
4466.6888299,0.734408617019653
4467.40760994,0.718782901763916
4468.03263998,0.625028610229492
4468.82955003,0.796911478042603
4482.31454992,0.937542915344238
4537.03579998,0.906291484832764
4537.94209003,0.906291484832764
4538.87963986,0.937542915344238
4539.81717992,0.937542915344238
4540.70783997,0.890665829181671
4541.62976003,0.921917259693146
4542.53604984,0.906291484832764
4543.4579699,0.921917259693146
4544.31737995,0.859414339065552
4545.25493002,0.937542915344238
4546.20809984,0.953168630599976
4547.1925199,0.98442006111145
4548.08317995,0.890665829181671
4549.02073002,0.937542915344238
4549.92701983,0.906291484832764
4550.81767988,0.890665829181671
4551.63021994,0.81253719329834
4552.50525999,0.875040054321289
4553.36467004,0.859414339065552
4554.25533986,0.890665829181671
4555.17725992,0.921917259693146
4556.19292998,1.01567149162292
4557.17735004,0.98442006111145
4557.92737985,0.750034332275391
4561.70880985,0.98442006111145
4562.58384991,0.875040054321289
4563.47450995,0.890665829181671
4564.39643002,0.921917259693146
4565.31834984,0.921917259693146
4566.17775989,0.859414339065552
4567.14654994,0.968794345855713
4568.11535001,0.968794345855713
4569.06851983,0.953168630599976
4569.92792988,0.859414339065552
4570.84984994,0.921917259693146
4642.88439989,0.750034332275391
4684.19878983,0.921917259693146
4685.01131988,0.81253719329834
4685.88636994,0.875040054321289
4686.87079,0.98442006111145
4687.88645983,1.01567149162292
4688.87087989,0.98442006111145
4689.80841994,0.937542915344238
4690.69909,0.890665829181671
4691.58975005,0.890665829181671
4692.40228987,0.81253719329834
4693.26169991,0.859414339065552
4694.12111998,0.859414339065552
4695.15241003,1.03129720687866
4729.77900004,0.859414339065552
4730.68528986,0.906291484832764
4731.59157991,0.906291484832764
4732.60724998,1.01567149162292
4733.49792004,0.890665829181671
4734.46670985,0.968794345855713
4735.46675992,1.00004577636719
4736.43554997,0.968794345855713
4737.31059003,0.875040054321289
4738.17000985,0.859414339065552
4739.10754991,0.937542915344238
4834.59629989,0.937542915344238
4890.00507998,0.906291484832764
4890.94263005,0.937542915344238
4891.83328986,0.890665829181671
4892.64582992,0.81253719329834
4893.55211997,0.906291484832764
5019.24536991,0.640654325485229
5019.85477996,0.609402894973755
5020.49542999,0.640654325485229
5021.13609004,0.640654325485229
5021.66735983,0.531274318695068
5022.32363987,0.656280040740967
5023.01116991,0.687531471252441
5058.02839994,1.07817435264587
5150.36074996,1.09380006790161
5151.40767002,1.0469229221344
5152.51709986,1.10942578315735
5153.57964993,1.06254863739014
5154.67344999,1.09380006790161
5155.73599982,1.06254863739014
5156.72041988,0.98442006111145
5157.78296995,1.06254863739014
5158.90802002,1.12505149841309
5159.95493984,1.0469229221344
5160.9393599,0.98442006111145
5161.98627996,1.0469229221344
5163.09571004,1.10942578315735
5164.29888988,1.20318007469177
5165.26767993,0.968794345855713
5166.23648,0.968794345855713
5167.29902983,1.06254863739014
5168.40844989,1.10942578315735
5180.48712993,1.01567149162292
5181.51842999,1.03129720687866
5194.19087982,0.890665829181671
5207.17584991,0.906291484832764
5214.22304988,1.0469229221344
5215.16058993,0.937542915344238
5216.12939,0.968794345855713
5217.08255005,0.953168630599976
5218.05134988,0.968794345855713
5218.95763993,0.906291484832764
5219.89517999,0.937542915344238
5220.86398005,0.968794345855713
5221.92652988,1.06254863739014
5222.77031994,0.843788623809814
5223.73910999,0.968794345855713
5224.70790005,0.968794345855713
5225.61419988,0.906291484832764
5226.53610992,0.921917259693146
5227.47365999,0.937542915344238
5228.44245005,0.968794345855713
5245.47447991,0.859414339065552
5246.39639997,0.921917259693146
5247.30269003,0.906291484832764
5248.27147985,0.968794345855713
5343.63522005,0.781285762786865
5344.27587986,0.640654325485229
5367.9019599,0.875040054321289
5368.87074995,0.968794345855713
5369.83955002,0.968794345855713
5370.77708983,0.937542915344238
5371.60524988,0.828162908554077
5372.48028994,0.875040054321289
5403.38795996,1.07817435264587
5404.40363002,1.01567149162292
5405.66930985,1.26568293571472
5415.57602,0.953168630599976
5416.54480982,0.968794345855713
5417.56047988,1.01567149162292
5465.40641999,0.890665829181671
5466.28146005,0.875040054321289
5467.15649986,0.875040054321289
5468.09403992,0.937542915344238
5469.00033998,0.906291484832764
5469.81287003,0.81253719329834
5470.60977983,0.796911478042603
5471.4066999,0.796911478042603
5472.28173995,0.875040054321289
5473.20365,0.921917259693146
5474.07869005,0.875040054321289
5475.04748988,0.968794345855713
5475.93814993,0.890665829181671
5476.78193998,0.843788623809814
5477.59448004,0.81253719329834
5478.46951985,0.875040054321289
5479.3289299,0.859414339065552
5480.20396996,0.875040054321289
5481.09464002,0.890665829181671
5499.03295994,0.968794345855713
5586.6619699,1.00004577636719
5606.56912994,1.0469229221344
5607.5848,1.01567149162292
5608.42858982,0.843788623809814
5609.38175988,0.953168630599976
5610.38180995,1.00004577636719
5611.3506,0.968794345855713
5612.17876005,0.828162908554077
5613.13192987,0.953168630599976
5614.06947994,0.937542915344238
5614.99138999,0.921917259693146
5624.03867984,0.81253719329834
5624.77308989,0.734408617019653
5625.49186993,0.718782901763916
5658.04024005,0.937542915344238
5658.72776985,0.687531471252441
5663.66549993,0.875040054321289
5664.54053998,0.875040054321289
5665.46245003,0.921917259693146
5717.12106991,0.890665829181671
5717.99610996,0.875040054321289
5718.85552001,0.859414339065552
5751.82577991,0.968794345855713
5752.74769998,0.921917259693146
5753.90400004,1.15630292892456
5781.51463985,0.921917259693146
5782.42092991,0.906291484832764
5783.31159997,0.890665829181671
5790.29628992,0.921917259693146
5791.12445998,0.828162908554077
5791.96824002,0.843788623809814
5792.85890985,0.890665829181671
5793.7026999,0.843788623809814
5794.51523995,0.81253719329834
5795.39028001,0.875040054321289
5796.26531982,0.875040054321289
5797.21847987,0.953168630599976
5798.10914993,0.890665829181671
5798.99981999,0.890665829181671
5799.93736005,0.937542915344238
5800.95302987,1.01567149162292
5801.93744993,0.98442006111145
5802.87498999,0.937542915344238
5803.84379005,0.968794345855713
5804.85945988,1.01567149162292
5805.79699993,0.937542915344238
5806.71891999,0.921917259693146
5807.67209005,0.953168630599976
5808.67212987,1.00004577636719
5849.97089982,1.00004577636719
5850.79905987,0.828162908554077
5851.76785994,0.968794345855713
5858.61191988,1.0469229221344
5859.47132993,0.859414339065552
5860.42449999,0.953168630599976
5861.42454982,1.00004577636719
5862.47146988,1.0469229221344
5863.51838994,1.0469229221344
5864.36217999,0.843788623809814
5865.44035983,1.07817435264587
5866.39352989,0.953168630599976
5881.00356984,0.312514305114746
5881.40983987,0.40626859664917
5881.75359988,0.343765735626221
5882.0817399,0.328140020370483
5882.45675993,0.375017166137695
5882.78489995,0.328140020370483
5923.53676987,0.890665829181671
5924.44305992,0.906291484832764
5925.34934998,0.906291484832764
5926.33377004,0.98442006111145
5934.47476983,0.81253719329834
5935.34980989,0.875040054321289
5936.24046993,0.890665829181671
5962.52292991,0.890665829181671
5963.39796996,0.875040054321289
5964.27301002,0.875040054321289
5965.16366982,0.890665829181671
6039.0733099,0.828162908554077
6039.99521995,0.921917259693146
6041.01089001,1.01567149162292
6060.43366003,0.843788623809814
6061.37119985,0.937542915344238
6062.26186991,0.890665829181671
6063.16815996,0.906291484832764
6064.30884004,1.14067721366882
6065.10574985,0.796911478042603
6076.13750005,0.843788623809814
6235.45728993,0.953168630599976
6236.34796,0.890665829181671
6237.30112982,0.953168630599976
6238.26991987,0.968794345855713
6239.25433993,0.98442006111145
