71735.45
0.0;0.890665829181671
0.875040054321,0.875040054321289
110.239420176,0.750034332275391
111.08321023,0.843788623809814
111.911370039,0.828162908554077
112.8020401,0.890665829181671
113.786460161,0.98442006111145
114.724000216,0.937542915344238
115.520910025,0.796911478042603
116.317820072,0.796911478042603
130.052830219,0.953168630599976
130.912240028,0.859414339065552
131.802910089,0.890665829181671
132.771700144,0.968794345855713
133.646740198,0.875040054321289
134.521780014,0.875040054321289
135.303070068,0.781285762786865
136.037480116,0.734408617019653
136.850010157,0.81253719329834
137.709430218,0.859414339065552
138.63135004,0.921917259693146
139.631390095,1.00004577636719
140.537680149,0.906291484832764
141.443970203,0.906291484832764
142.319010019,0.875040054321289
143.27218008,0.953168630599976
144.131600142,0.859414339065552
175.679920197,0.921917259693146
176.508080006,0.828162908554077
177.32062006,0.81253719329834
178.164400101,0.843788623809814
179.023820162,0.859414339065552
179.898860216,0.875040054321289
180.727020025,0.828162908554077
181.53956008,0.81253719329834
235.385770082,0.890665829181671
236.213940144,0.828162908554077
237.073350191,0.859414339065552
237.917140007,0.843788623809814
252.870950222,0.81253719329834
253.683490038,0.81253719329834
254.527280092,0.843788623809814
255.371060133,0.843788623809814
256.214850187,0.843788623809814
257.089890003,0.875040054321289
257.996180058,0.906291484832764
258.839970112,0.843788623809814
259.699390173,0.859414339065552
298.88868022,0.906291484832764
299.810600042,0.921917259693146
300.654390097,0.843788623809814
301.513800144,0.859414339065552
302.373220205,0.859414339065552
303.248260021,0.875040054321289
304.107670069,0.859414339065552
304.920210123,0.81253719329834
305.748370171,0.828162908554077
306.670290232,0.921917259693146
307.529700041,0.859414339065552
308.326610088,0.796911478042603
309.170400143,0.843788623809814
310.061070204,0.890665829181671
310.93611002,0.875040054321289
311.764270067,0.828162908554077
312.561180115,0.796911478042603
313.404970169,0.843788623809814
314.264380217,0.859414339065552
315.076920033,0.81253719329834
315.920710087,0.843788623809814
316.764500141,0.843788623809814
353.078660011,0.781285762786865
353.875570059,0.796911478042603
354.70374012,0.828162908554077
355.438140154,0.734408617019653
356.235060215,0.796911478042603
357.031970024,0.796911478042603
357.938260078,0.906291484832764
358.86018014,0.921917259693146
359.657090187,0.796911478042603
360.516499996,0.859414339065552
361.375920057,0.859414339065552
362.219700098,0.843788623809814
372.985820055,1.03129720687866
373.970240116,0.98442006111145
374.860910177,0.890665829181671
375.673450232,0.81253719329834
376.439110041,0.765660047531128
377.298520088,0.859414339065552
378.157930136,0.859414339065552
379.064230204,0.906291484832764
379.861140013,0.796911478042603
380.78305006,0.921917259693146
381.751850128,0.968794345855713
382.673770189,0.921917259693146
383.51755023,0.843788623809814
384.376970053,0.859414339065552
385.2363801,0.859414339065552
400.768340111,0.859414339065552
401.549630165,0.781285762786865
442.645260096,0.796911478042603
443.58280015,0.937542915344238
444.473470211,0.890665829181671
445.457890034,0.98442006111145
446.317300081,0.859414339065552
447.301720142,0.98442006111145
448.254890203,0.953168630599976
449.145560026,0.890665829181671
449.926840067,0.781285762786865
450.770630121,0.843788623809814
451.614420176,0.843788623809814
452.42696023,0.81253719329834
453.286370039,0.859414339065552
454.2082901,0.921917259693146
476.318680048,0.796911478042603
477.271850109,0.953168630599976
524.008360147,0.906291484832764
524.930280209,0.921917259693146
525.742810011,0.81253719329834
526.617850065,0.875040054321289
527.492900133,0.875040054321289
528.414810181,0.921917259693146
529.258599997,0.843788623809814
530.071140051,0.81253719329834
530.930550098,0.859414339065552
531.85247016,0.921917259693146
532.727510214,0.875040054321289
533.66505003,0.937542915344238
534.586970091,0.921917259693146
535.524510145,0.937542915344238
536.352680206,0.828162908554077
537.212090015,0.859414339065552
538.102760077,0.890665829181671
538.977800131,0.875040054321289
539.790330172,0.81253719329834
540.681000233,0.890665829181671
541.602920055,0.921917259693146
542.524830103,0.921917259693146
543.415500164,0.890665829181671
544.368670225,0.953168630599976
545.274960041,0.906291484832764
546.118750095,0.843788623809814
546.978160143,0.859414339065552
552.19715023,0.921917259693146
553.02531004,0.828162908554077
553.931610107,0.906291484832764
554.837900162,0.906291484832764
555.744190216,0.906291484832764
581.97976017,0.843788623809814
582.839180231,0.859414339065552
583.69859004,0.859414339065552
584.495500088,0.796911478042603
585.370540142,0.875040054321289
586.292460203,0.921917259693146
587.214380026,0.921917259693146
588.105040073,0.890665829181671
589.026960135,0.921917259693146
589.964500189,0.937542915344238
604.605800152,0.890665829181671
605.480840206,0.875040054321289
606.355880022,0.875040054321289
607.262170076,0.906291484832764
608.121590137,0.859414339065552
609.027880192,0.906291484832764
609.902920008,0.875040054321289
610.840460062,0.937542915344238
611.715500116,0.875040054321289
612.637420177,0.921917259693146
613.606210232,0.968794345855713
614.512500048,0.906291484832764
615.371920109,0.859414339065552
616.262580156,0.890665829181671
617.215750217,0.953168630599976
618.012660027,0.796911478042603
622.372240067,0.937542915344238
623.137900114,0.765660047531128
623.919180155,0.781285762786865
624.637970209,0.718782901763916
625.481760025,0.843788623809814
626.200540066,0.718782901763916
627.059950113,0.859414339065552
627.856860161,0.796911478042603
628.606900215,0.750034332275391
629.278800011,0.671905755996704
630.013210058,0.734408617019653
639.404270172,0.796911478042603
640.248060226,0.843788623809814
641.138720036,0.890665829181671
641.98251009,0.843788623809814
642.810670137,0.828162908554077
643.638840199,0.828162908554077
644.404500008,0.765660047531128
680.749910116,0.890665829181671
681.624950171,0.875040054321289
682.515620232,0.890665829181671
683.390660048,0.875040054321289
684.250070095,0.859414339065552
685.109490156,0.859414339065552
686.000150204,0.890665829181671
686.890820026,0.890665829181671
687.828360081,0.937542915344238
719.267300129,0.859414339065552
720.126710176,0.859414339065552
721.048629999,0.921917259693146
721.892420053,0.843788623809814
722.767460108,0.875040054321289
723.658120155,0.890665829181671
724.50191021,0.843788623809814
725.314450026,0.81253719329834
726.142610073,0.828162908554077
727.048900127,0.906291484832764
727.877070189,0.828162908554077
728.720860004,0.843788623809814
729.580270052,0.859414339065552
730.470940113,0.890665829181671
731.267850161,0.796911478042603
732.127260208,0.859414339065552
741.78395009,0.859414339065552
742.674620152,0.890665829181671
743.518410206,0.843788623809814
744.362200022,0.843788623809814
745.268490076,0.906291484832764
746.17478013,0.906291484832764
747.034190178,0.859414339065552
747.893610001,0.859414339065552
748.784270048,0.890665829181671
749.628060102,0.843788623809814
750.471850157,0.843788623809814
751.362520218,0.890665829181671
752.190680027,0.828162908554077
752.956340075,0.765660047531128
753.800130129,0.843788623809814
754.706420183,0.906291484832764
755.628340006,0.921917259693146
756.53463006,0.906291484832764
757.315920115,0.781285762786865
758.190960169,0.875040054321289
759.03474021,0.843788623809814
759.894160032,0.859414339065552
809.724560022,0.859414339065552
810.615230083,0.890665829181671
811.552770138,0.937542915344238
812.380940199,0.828162908554077
813.240350008,0.859414339065552
814.115390062,0.875040054321289
814.97480011,0.859414339065552
815.834220171,0.859414339065552
816.693630219,0.859414339065552
823.709580183,0.828162908554077
824.506490231,0.796911478042603
825.33465004,0.828162908554077
826.225320101,0.890665829181671
827.069110155,0.843788623809814
827.944150209,0.875040054321289
828.819190025,0.875040054321289
829.772360086,0.953168630599976
830.569270134,0.796911478042603
839.02278018,0.921917259693146
839.975950003,0.953168630599976
840.83536005,0.859414339065552
841.741650105,0.906291484832764
842.616690159,0.875040054321289
843.522990227,0.906291484832764
844.351150036,0.828162908554077
845.148060083,0.796911478042603
845.991850138,0.843788623809814
846.851260185,0.859414339065552
847.741930008,0.890665829181671
848.616970062,0.875040054321289
849.570140123,0.953168630599976
850.585810184,1.01567149162292
851.5546,0.968794345855713
852.492150068,0.937542915344238
853.445320129,0.953168630599976
854.382860184,0.937542915344238
855.273520231,0.890665829181671
856.148560047,0.875040054321289
857.054860115,0.906291484832764
858.023650169,0.968794345855713
858.97682023,0.953168630599976
859.851860046,0.875040054321289
860.758150101,0.906291484832764
861.664440155,0.906291484832764
862.570730209,0.906291484832764
943.855700016,0.859414339065552
944.66824007,0.81253719329834
945.496400118,0.828162908554077
946.433950186,0.937542915344238
977.888510227,0.906291484832764
978.794800043,0.906291484832764
979.763600111,0.968794345855713
980.716770172,0.953168630599976
981.591810226,0.875040054321289
996.154970169,0.875040054321289
997.030010223,0.875040054321289
1050.40746021,0.859414339065552
1051.28250003,0.875040054321289
1052.20441008,0.921917259693146
1052.95445013,0.750034332275391
1053.86074018,0.906291484832764
1054.84516001,0.98442006111145
1055.72020006,0.875040054321289
1056.65774012,0.937542915344238
1062.45488,0.859414339065552
1063.20492005,0.750034332275391
1064.1268301,0.921917259693146
1065.00187016,0.875040054321289
1065.89254022,0.890665829181671
1074.62732005,0.875040054321289
1075.4867301,0.859414339065552
1081.70576,0.875040054321289
1097.39398003,0.859414339065552
1142.20853019,0.859414339065552
1143.13045001,0.921917259693146
1144.03674006,0.906291484832764
1144.84928012,0.81253719329834
1145.75557017,0.906291484832764
1146.63061023,0.875040054321289
1147.55253005,0.921917259693146
1148.3650701,0.81253719329834
1164.45955014,0.843788623809814
1171.41300011,0.859414339065552
1172.19428015,0.781285762786865
1173.08495021,0.890665829181671
1173.97561002,0.890665829181671
1174.81940007,0.843788623809814
1175.71007013,0.890665829181671
1176.63198018,0.921917259693146
1177.58515,0.953168630599976
1178.46019006,0.875040054321289
1179.30398011,0.843788623809814
1180.21027017,0.906291484832764
1181.08531022,0.875040054321289
1181.88222003,0.796911478042603
1182.77289009,0.890665829181671
1183.69481015,0.921917259693146
1184.63235021,0.937542915344238
1185.46051002,0.828162908554077
1186.36680007,0.906291484832764
1187.30435014,0.937542915344238
1188.19501019,0.890665829181671
1217.30572009,0.890665829181671
1218.14951015,0.843788623809814
1219.00892019,0.859414339065552
1219.79021001,0.781285762786865
1220.66525006,0.875040054321289
1221.57154012,0.906291484832764
1222.39970016,0.828162908554077
1223.25912023,0.859414339065552
1224.13416004,0.875040054321289
1225.02482009,0.890665829181671
1225.93112016,0.906291484832764
1226.7124002,0.781285762786865
1227.60307002,0.890665829181671
1228.46248007,0.859414339065552
1229.35315013,0.890665829181671
1230.24381018,0.890665829181671
1231.11885023,0.875040054321289
1231.91576004,0.796911478042603
1318.38847017,1.01567149162292
1321.56049013,0.687531471252441
1326.27946019,0.953168630599976
1327.12325001,0.843788623809814
1328.01391006,0.890665829181671
1328.93583012,0.921917259693146
1329.81087017,0.875040054321289
1330.65466022,0.843788623809814
1331.57658005,0.921917259693146
1332.4672401,0.890665829181671
1333.31103015,0.843788623809814
1357.76528001,0.937542915344238
1358.71844006,0.953168630599976
1359.60911012,0.890665829181671
1368.85953021,0.890665829181671
1369.75020003,0.890665829181671
1370.64086008,0.890665829181671
1371.50028014,0.859414339065552
1372.4222002,0.921917259693146
1376.84427023,0.843788623809814
1377.71931005,0.875040054321289
1378.60998011,0.890665829181671
1398.37651014,0.921917259693146
1407.86132002,0.828162908554077
1408.76761007,0.906291484832764
1409.65828013,0.890665829181671
1410.56457019,0.906291484832764
1411.43961,0.875040054321289
1412.33027005,0.890665829181671
1413.26782012,0.937542915344238
1414.11160016,0.843788623809814
1414.93977022,0.828162908554077
1415.84606004,0.906291484832764
1416.78360009,0.937542915344238
1417.65864015,0.875040054321289
1437.7533102,0.81253719329834
1438.50335002,0.750034332275391
1439.39401007,0.890665829181671
1444.61300015,0.875040054321289
1445.55054021,0.937542915344238
1446.50371003,0.953168630599976
1447.4725101,0.968794345855713
1448.41005015,0.937542915344238
1449.2694602,0.859414339065552
1450.06638002,0.796911478042603
1450.86329007,0.796911478042603
1451.59770012,0.734408617019653
1452.39461017,0.796911478042603
1453.08214021,0.687531471252441
1453.97280002,0.890665829181671
1454.86347008,0.890665829181671
1455.84789014,0.98442006111145
1504.97514009,0.906291484832764
1505.70955014,0.734408617019653
1510.33476019,0.796911478042603
1517.02257013,0.890665829181671
1517.85073018,0.828162908554077
1518.64764023,0.796911478042603
1531.69511008,0.890665829181671
1532.46077013,0.765660047531128
1533.4608202,1.00004577636719
1534.33586001,0.875040054321289
1539.78923011,0.828162908554077
1540.58614016,0.796911478042603
1541.44556022,0.859414339065552
1542.33622003,0.890665829181671
1543.19564009,0.859414339065552
1543.96130013,0.765660047531128
1544.85196018,0.890665829181671
1545.78951001,0.937542915344238
1546.78955007,1.00004577636719
1547.64897013,0.859414339065552
1548.57088017,0.921917259693146
1549.4928,0.921917259693146
1550.47722006,0.98442006111145
1551.33664012,0.859414339065552
1552.30543017,0.968794345855713
1553.18047023,0.875040054321289
1560.63394022,0.953168630599976
1561.69649005,1.06254863739014
1562.80591011,1.10942578315735
1563.74345016,0.937542915344238
1564.72787023,0.98442006111145
1565.69667006,0.968794345855713
1566.69671011,1.00004577636719
1571.02504015,0.875040054321289
1571.9157002,0.890665829181671
1572.79074001,0.875040054321289
1573.65016007,0.859414339065552
1574.55645013,0.906291484832764
1575.49399018,0.937542915344238
1576.38466001,0.890665829181671
1577.27532005,0.890665829181671
1578.18161011,0.906291484832764
1579.02540016,0.843788623809814
1579.88482022,0.859414339065552
1580.75986004,0.875040054321289
1581.69740009,0.937542915344238
1582.54119015,0.843788623809814
1583.4162302,0.875040054321289
1584.32252002,0.906291484832764
1585.16631007,0.843788623809814
1586.01010013,0.843788623809814
1586.90076017,0.890665829181671
1587.83831,0.937542915344238
1588.69772005,0.859414339065552
1589.57276011,0.875040054321289
1606.83918023,0.81253719329834
1607.69859004,0.859414339065552
1612.83945012,0.937542915344238
1623.32431006,0.765660047531128
1624.21497011,0.890665829181671
1625.09001017,0.875040054321289
1626.04318023,0.953168630599976
1626.85572004,0.81253719329834
1627.71513009,0.859414339065552
1628.41829014,0.703157186508179
1629.26208019,0.843788623809814
1630.02774,0.765660047531128
1631.02778006,1.00004577636719
1631.91845012,0.890665829181671
1645.91909003,0.859414339065552
1646.71600008,0.796911478042603
1647.59104013,0.875040054321289
1648.4817102,0.890665829181671
1649.40363002,0.921917259693146
1650.34117007,0.937542915344238
1651.23183012,0.890665829181671
1652.20063019,0.968794345855713
1668.29511023,0.843788623809814
1669.17015004,0.875040054321289
1687.84288001,0.828162908554077
1688.74918008,0.906291484832764
1727.00093007,0.859414339065552
1727.86034012,0.859414339065552
1728.75101018,0.890665829181671
1729.51667023,0.765660047531128
1764.54952002,1.01567149162292
1790.19132018,0.81253719329834
1791.11324,0.921917259693146
1791.92577004,0.81253719329834
1792.75394011,0.828162908554077
1793.59773016,0.843788623809814
1794.45714021,0.859414339065552
1795.30093002,0.843788623809814
1796.22285008,0.921917259693146
1797.12914014,0.906291484832764
1798.1135602,0.98442006111145
1798.91047001,0.796911478042603
1799.70738006,0.796911478042603
1800.51992011,0.81253719329834
1801.39496017,0.875040054321289
1802.23875022,0.843788623809814
1810.05160022,0.875040054321289
1810.89539003,0.843788623809814
1811.75481009,0.859414339065552
1812.59860015,0.843788623809814
1813.4267602,0.828162908554077
1814.28617001,0.859414339065552
1815.12996006,0.843788623809814
1816.00500011,0.875040054321289
1816.86442018,0.859414339065552
1837.00596023,0.953168630599976
1837.89663005,0.890665829181671
1838.7716701,0.875040054321289
1839.84984016,1.07817435264587
1844.2094202,0.953168630599976
1845.11571002,0.906291484832764
1845.97512007,0.859414339065552
1910.74371004,0.921917259693146
1911.5562501,0.81253719329834
1912.41566014,0.859414339065552
1913.35321021,0.937542915344238
1935.19796014,0.843788623809814
1935.97924018,0.781285762786865
1936.79178023,0.81253719329834
1937.60432005,0.81253719329834
1938.4324801,0.828162908554077
1939.22939014,0.796911478042603
1940.12006021,0.890665829181671
1940.97947001,0.859414339065552
1941.76076007,0.781285762786865
1942.52642012,0.765660047531128
1955.04262018,1.00004577636719
1992.77872014,0.750034332275391
2013.0765202,0.968794345855713
2013.85781002,0.781285762786865
2040.01526022,0.81253719329834
2040.84342003,0.828162908554077
2041.64033008,0.796911478042603
2042.54662013,0.906291484832764
2043.40604019,0.859414339065552
2044.34358001,0.937542915344238
2045.21862006,0.875040054321289
2046.06241012,0.843788623809814
2046.93745017,0.875040054321289
2047.79686022,0.859414339065552
2048.68753004,0.890665829181671
2049.57819009,0.890665829181671
2050.28135014,0.703157186508179
2051.07826018,0.796911478042603
2052.04706001,0.968794345855713
2056.20350003,0.906291484832764
2057.17229009,0.968794345855713
2058.09421015,0.921917259693146
2059.01613021,0.921917259693146
2063.23507023,0.921917259693146
2067.39151001,0.81253719329834
2068.21967006,0.828162908554077
2069.17284012,0.953168630599976
2073.17302012,0.843788623809814
2074.06369019,0.890665829181671
2074.82935023,0.765660047531128
2075.56376004,0.734408617019653
2095.15840006,0.781285762786865
2095.87719011,0.718782901763916
2096.73660016,0.859414339065552
2097.37726021,0.640654325485229
2098.09604001,0.718782901763916
2098.83045006,0.734408617019653
2099.6117301,0.781285762786865
2100.54928017,0.937542915344238
2101.47119021,0.921917259693146
2102.33061004,0.859414339065552
2103.08064008,0.750034332275391
2103.90881014,0.828162908554077
2104.78385019,0.875040054321289
2105.62763023,0.843788623809814
2106.50267005,0.875040054321289
2107.33084011,0.828162908554077
2108.19025016,0.859414339065552
2115.50309014,0.859414339065552
2116.4875102,0.98442006111145
2157.67689013,0.968794345855713
2158.45818019,0.781285762786865
2159.34884,0.890665829181671
2160.19263005,0.843788623809814
2161.05205011,0.859414339065552
2161.94271016,0.890665829181671
2162.86463022,0.921917259693146
2163.73967004,0.875040054321289
2164.56783009,0.828162908554077
2183.34994006,0.843788623809814
2184.22498012,0.875040054321289
2185.05314016,0.828162908554077
2185.88131022,0.828162908554077
2186.72510004,0.843788623809814
2187.55326009,0.828162908554077
2188.39705014,0.843788623809814
2189.20958018,0.81253719329834
2190.08462,0.875040054321289
2190.86591005,0.781285762786865
2218.00778008,0.828162908554077
2218.85157013,0.843788623809814
2219.71098018,0.859414339065552
2234.94605017,0.81253719329834
2235.66484022,0.718782901763916
2236.57113004,0.906291484832764
2237.36804008,0.796911478042603
2238.14932013,0.781285762786865
2238.99311018,0.843788623809814
2239.83690023,0.843788623809814
2240.68069005,0.843788623809814
2241.4151001,0.734408617019653
2242.24326015,0.828162908554077
2243.07142019,0.828162908554077
2243.89959002,0.828162908554077
2244.77463007,0.875040054321289
2245.50904012,0.734408617019653
2246.39970016,0.890665829181671
2247.18099022,0.781285762786865
2248.00915003,0.828162908554077
2248.83731008,0.828162908554077
2249.64985013,0.81253719329834
2250.54052019,0.890665829181671
2251.49369001,0.953168630599976
2252.46248007,0.968794345855713
2253.33752012,0.875040054321289
2254.18131018,0.843788623809814
2255.04072022,0.859414339065552
2255.91576004,0.875040054321289
2256.82205009,0.906291484832764
2265.36932015,0.875040054321289
2275.79167008,0.81253719329834
2276.68234015,0.890665829181671
2277.63551021,0.953168630599976
2278.47930002,0.843788623809814
2279.33871007,0.859414339065552
2280.19812012,0.859414339065552
2281.08879018,0.890665829181671
2281.90133023,0.81253719329834
2282.77637005,0.875040054321289
2283.6514101,0.875040054321289
2284.52645016,0.875040054321289
2285.3233602,0.796911478042603
2286.16715002,0.843788623809814
2287.01094007,0.843788623809814
2287.85472012,0.843788623809814
2288.66726017,0.81253719329834
2289.51105022,0.843788623809814
2290.33921003,0.828162908554077
2291.12050009,0.781285762786865
2291.96429014,0.843788623809814
2292.8080802,0.843788623809814
2293.63624001,0.828162908554077
2294.46440005,0.828162908554077
2295.49570012,1.03129720687866
2299.24587011,0.906291484832764
2299.91778016,0.671905755996704
2320.59060001,0.906291484832764
2321.49689007,0.906291484832764
2322.24692011,0.750034332275391
2323.10634017,0.859414339065552
2323.87200022,0.765660047531128
2324.68454003,0.81253719329834
2325.48145008,0.796911478042603
2326.29398012,0.81253719329834
2327.10652018,0.81253719329834
2357.62354016,0.81253719329834
2358.45171022,0.828162908554077
2359.26424003,0.81253719329834
2370.31162,0.906291484832764
2371.12416005,0.81253719329834
2371.98358011,0.859414339065552
2372.78049016,0.796911478042603
2373.54615021,0.765660047531128
2374.40556002,0.859414339065552
2375.29623008,0.890665829181671
2376.23377013,0.937542915344238
2377.20256019,0.968794345855713
2378.14011002,0.937542915344238
2379.04640007,0.906291484832764
2484.09808016,0.953168630599976
2485.00437021,0.906291484832764
2485.92629004,0.921917259693146
2486.8482101,0.921917259693146
2487.77013016,0.921917259693146
2488.66079021,0.890665829181671
2539.30373001,0.859414339065552
2540.17877007,0.875040054321289
2541.10069013,0.921917259693146
2560.66409016,0.906291484832764
2561.60163021,0.937542915344238
2562.49230003,0.890665829181671
2563.36734009,0.875040054321289
2564.19550014,0.828162908554077
2565.13304019,0.937542915344238
2569.32073021,0.906291484832764
2570.10202003,0.781285762786865
2570.97706008,0.875040054321289
2571.85210013,0.875040054321289
2572.66464019,0.81253719329834
2573.41467023,0.750034332275391
2586.6809001,0.843788623809814
2587.54032016,0.859414339065552
2603.30666018,0.828162908554077
2604.15045023,0.843788623809814
2605.02549005,0.875040054321289
2605.94741011,0.921917259693146
2606.82245016,0.875040054321289
2607.65061021,0.828162908554077
2608.54128003,0.890665829181671
2609.40069008,0.859414339065552
2616.94791007,0.890665829181671
2617.83858013,0.890665829181671
2618.66674018,0.828162908554077
2619.52616,0.859414339065552
2620.40120006,0.875040054321289
2621.27624011,0.875040054321289
2622.07315016,0.796911478042603
2628.57345009,0.781285762786865
2629.43286014,0.859414339065552
2664.02819014,0.828162908554077
2664.77823019,0.750034332275391
2665.57514,0.796911478042603
2666.46581006,0.890665829181671
2667.16896009,0.703157186508179
2667.88775015,0.718782901763916
2668.7159102,0.828162908554077
2669.48157001,0.765660047531128
2670.37223005,0.890665829181671
2671.23165011,0.859414339065552
2672.04419017,0.81253719329834
2672.85672021,0.81253719329834
2673.68489003,0.828162908554077
2674.45055008,0.765660047531128
2675.27871013,0.828162908554077
2676.05999017,0.781285762786865
2676.88816023,0.828162908554077
2677.71632004,0.828162908554077
2678.54448009,0.828162908554077
2679.38827014,0.843788623809814
2680.23206019,0.843788623809814
2681.07585001,0.843788623809814
2681.95089006,0.875040054321289
2682.90406013,0.953168630599976
2683.81035018,0.906291484832764
2684.66976023,0.859414339065552
2685.57606006,0.906291484832764
2686.4979701,0.921917259693146
2687.40426016,0.906291484832764
2688.29493022,0.890665829181671
2689.21685004,0.921917259693146
2690.0918901,0.875040054321289
2690.93568015,0.843788623809814
2691.8263402,0.890665829181671
2692.71701002,0.890665829181671
2693.60767007,0.890665829181671
2694.49834013,0.890665829181671
2695.42026019,0.921917259693146
2724.6872201,0.828162908554077
2725.51538014,0.828162908554077
2726.31229019,0.796911478042603
2727.10921001,0.796911478042603
2727.85924006,0.750034332275391
2728.5780201,0.718782901763916
2729.35931015,0.781285762786865
2730.1249702,0.765660047531128
2750.09463,0.953168630599976
2750.98530006,0.890665829181671
2751.90722013,0.921917259693146
2752.76663017,0.859414339065552
2753.61042023,0.843788623809814
2754.51671004,0.906291484832764
2755.4073801,0.890665829181671
2769.64240003,0.890665829181671
2770.48619008,0.843788623809814
2797.5811801,0.828162908554077
2798.40935016,0.828162908554077
2799.2375102,0.828162908554077
2800.11255002,0.875040054321289
2810.87867022,0.859414339065552
2811.73808002,0.859414339065552
2812.56624007,0.828162908554077
2813.41003013,0.843788623809814
2834.27036023,0.890665829181671
2835.14540005,0.875040054321289
2835.9579401,0.81253719329834
2836.81735015,0.859414339065552
2837.73927021,0.921917259693146
2838.61431003,0.875040054321289
2839.44247007,0.828162908554077
2840.31751013,0.875040054321289
2841.20818019,0.890665829181671
2842.11447001,0.906291484832764
2943.11909008,0.875040054321289
2944.11914015,1.00004577636719
2974.46428013,0.906291484832764
2975.38620019,0.921917259693146
2976.30811,0.921917259693146
2977.23003006,0.921917259693146
2978.04257011,0.81253719329834
2978.83948016,0.796911478042603
2979.65202022,0.81253719329834
2980.52706003,0.875040054321289
2994.09018016,0.859414339065552
3034.24827003,0.859414339065552
3035.12331009,0.875040054321289
3035.98272014,0.859414339065552
3036.84213018,0.859414339065552
3037.76405001,0.921917259693146
3045.74879003,0.937542915344238
3046.59258008,0.843788623809814
3047.49887013,0.906291484832764
3048.32703018,0.828162908554077
3049.1552,0.828162908554077
3123.72111011,0.671905755996704
3124.37739015,0.656280040740967
3125.06492019,0.687531471252441
3168.78567004,0.906291484832764
3169.6450901,0.859414339065552
3170.50450015,0.859414339065552
3188.98972011,0.40626859664917
3189.33349013,0.343765735626221
3191.56797004,0.390642881393433
3193.80244017,0.40626859664917
3199.64646006,1.1719286441803
3200.61526012,0.968794345855713
3217.77229023,1.01567149162292
3218.56920004,0.796911478042603
3219.4598701,0.890665829181671
3220.33491015,0.875040054321289
3221.1630702,0.828162908554077
3222.00686002,0.843788623809814
3223.03816009,1.03129720687866
3227.2102201,0.859414339065552
3228.05401015,0.843788623809814
3228.96030021,0.906291484832764
3229.85097003,0.890665829181671
3230.69476008,0.843788623809814
3231.56980014,0.875040054321289
3232.44484019,0.875040054321289
3233.3355,0.890665829181671
3234.16367006,0.828162908554077
3235.0074501,0.843788623809814
3235.92937016,0.921917259693146
3236.82004023,0.890665829181671
3237.71070004,0.890665829181671
3255.30526018,0.81253719329834
3256.1178,0.81253719329834
3256.85220003,0.734408617019653
3257.64912009,0.796911478042603
3258.43040013,0.781285762786865
3268.57149005,0.921917259693146
3278.15005016,0.98442006111145
3279.08760023,0.937542915344238
3283.38467002,0.828162908554077
3284.27534008,0.890665829181671
3285.16600013,0.890665829181671
3286.05667019,0.890665829181671
3286.85358,0.796911478042603
3287.72862005,0.875040054321289
3288.6192801,0.890665829181671
3289.58808017,0.968794345855713
3298.15097022,0.906291484832764
3299.30727005,1.15630292892456
3334.26200008,0.796911478042603
3335.04328012,0.781285762786865
3335.84020019,0.796911478042603
3336.57460022,0.734408617019653
3337.32464004,0.750034332275391
3338.09030008,0.765660047531128
3338.80908012,0.718782901763916
3339.62162018,0.81253719329834
3340.29352021,0.671905755996704
3341.02793002,0.734408617019653
3341.80922008,0.781285762786865
3342.68426013,0.875040054321289
3343.59055018,0.906291484832764
3344.55934,0.968794345855713
3345.45001006,0.890665829181671
3346.30942011,0.859414339065552
3347.23134017,0.921917259693146
3348.13763022,0.906291484832764
3348.98142004,0.843788623809814
3349.77833009,0.796911478042603
3415.98449016,0.875040054321289
3416.7814002,0.796911478042603
3417.62519002,0.843788623809814
3418.43773007,0.81253719329834
3419.23464012,0.796911478042603
3436.37605023,0.843788623809814
3437.23546004,0.859414339065552
3438.1417501,0.906291484832764
3438.98554015,0.843788623809814
3439.84496021,0.859414339065552
3440.73562002,0.890665829181671
3441.51691008,0.781285762786865
3442.40757012,0.890665829181671
3443.22011018,0.81253719329834
3444.04827023,0.828162908554077
3444.92331004,0.875040054321289
3445.7671001,0.843788623809814
3446.59527016,0.828162908554077
3447.4390502,0.843788623809814
3448.28284001,0.843788623809814
3449.14226007,0.859414339065552
3450.03292012,0.890665829181671
3450.90796018,0.875040054321289
3451.81425023,0.906291484832764
3452.72055006,0.906291484832764
3453.57996011,0.859414339065552
3454.47063017,0.890665829181671
3477.56543016,0.40626859664917
3484.34699011,0.906291484832764
3485.22203016,0.875040054321289
3485.98769021,0.765660047531128
3486.83148003,0.843788623809814
3487.58152008,0.750034332275391
3488.37843013,0.796911478042603
3489.23784018,0.859414339065552
3500.84775019,0.906291484832764
3510.55132008,0.921917259693146
3511.44198012,0.890665829181671
3512.30140018,0.859414339065552
3513.42645001,1.12505149841309
3524.88010001,0.781285762786865
3525.91140008,1.03129720687866
3543.44345021,0.859414339065552
3572.2885201,0.875040054321289
3573.16356015,0.875040054321289
3574.08548021,0.921917259693146
3575.02302003,0.937542915344238
3575.91368008,0.890665829181671
3576.75747013,0.843788623809814
3577.66376019,0.906291484832764
3578.57006001,0.906291484832764
3579.42947006,0.859414339065552
3594.28953004,0.843788623809814
3599.43039012,0.890665829181671
3600.24292016,0.81253719329834
3601.11796021,0.875040054321289
3601.97738004,0.859414339065552
3602.85242009,0.875040054321289
3603.72746015,0.875040054321289
3604.5712502,0.843788623809814
3605.41503,0.843788623809814
3617.50934005,0.875040054321289
3618.4468801,0.937542915344238
3622.46269011,0.765660047531128
3623.27523017,0.81253719329834
3624.08776021,0.81253719329834
3625.04093003,0.953168630599976
3626.08786011,1.0469229221344
3630.72869015,1.03129720687866
3631.72874022,1.00004577636719
3632.66628003,0.937542915344238
3647.08882022,0.656280040740967
3647.77635002,0.687531471252441
3648.52638006,0.750034332275391
3663.46457005,0.875040054321289
3664.3396101,0.875040054321289
3665.24590015,0.906291484832764
3666.1053102,0.859414339065552
3666.98035002,0.875040054321289
3667.87102008,0.890665829181671
3668.74606013,0.875040054321289
3669.62110019,0.875040054321289
3670.52739,0.906291484832764
3671.44931006,0.921917259693146
3672.35560012,0.906291484832764
3673.19939017,0.843788623809814
3682.84045005,0.81253719329834
3683.74675012,0.906291484832764
3684.59053016,0.843788623809814
3685.43432021,0.843788623809814
3686.27811003,0.843788623809814
3687.15315008,0.875040054321289
3694.15347004,0.890665829181671
3695.0441401,0.890665829181671
3695.99731016,0.953168630599976
3702.16946006,0.906291484832764
3712.29493022,0.968794345855713
3722.42039013,0.875040054321289
3723.31106019,0.890665829181671
3724.21735001,0.906291484832764
3725.06114006,0.843788623809814
3725.88930011,0.828162908554077
3726.70184016,0.81253719329834
3727.5143702,0.81253719329834
3728.37379003,0.859414339065552
3729.24883008,0.875040054321289
3730.13949013,0.890665829181671
3731.01453018,0.875040054321289
3731.87395,0.859414339065552
3732.71774006,0.843788623809814
3733.60840011,0.890665829181671
3734.45219016,0.843788623809814
3735.26473022,0.81253719329834
3736.07727003,0.81253719329834
3736.96793008,0.890665829181671
3737.88985014,0.921917259693146
3738.82739019,0.937542915344238
3739.70243001,0.875040054321289
3744.9214201,0.953168630599976
3753.35931015,0.843788623809814
3754.2031002,0.843788623809814
3755.09376001,0.890665829181671
3755.95318007,0.859414339065552
3756.85947013,0.906291484832764
3783.54819012,0.843788623809814
3798.03323007,0.843788623809814
3803.29909015,0.843788623809814
3816.76846004,0.98442006111145
3817.7528801,0.98442006111145
3818.67480016,0.921917259693146
3819.61234021,0.937542915344238
3820.53426003,0.921917259693146
3821.4874301,0.953168630599976
3822.36247015,0.875040054321289
3823.2218802,0.859414339065552
3845.58228016,0.890665829181671
3846.47294021,0.890665829181671
3847.17610002,0.703157186508179
3891.92815018,0.875040054321289
3892.75631022,0.828162908554077
3893.64698005,0.890665829181671
3894.42826009,0.781285762786865
3895.28768015,0.859414339065552
3896.1939702,0.906291484832764
3897.06901002,0.875040054321289
3897.91280007,0.843788623809814
3898.80346012,0.890665829181671
3899.72538018,0.921917259693146
3900.66292,0.937542915344238
3904.80374002,0.828162908554077
3928.03918004,0.875040054321289
3978.32273006,0.828162908554077
3979.10402012,0.781285762786865
3989.15135002,0.843788623809814
3990.01076007,0.859414339065552
3990.91706014,0.906291484832764
3991.77647018,0.859414339065552
3992.62026,0.843788623809814
3993.49530005,0.875040054321289
4014.13687015,0.765660047531128
4014.9806602,0.843788623809814
4015.79319,0.81253719329834
4016.62136006,0.828162908554077
4017.46515012,0.843788623809814
4018.24643016,0.781285762786865
4019.10585022,0.859414339065552
4019.91838002,0.81253719329834
4020.68404007,0.765660047531128
4021.51221013,0.828162908554077
4031.62204003,0.875040054321289
4032.40333009,0.781285762786865
4033.21587014,0.81253719329834
4034.04403019,0.828162908554077
4034.88782001,0.843788623809814
4035.63785005,0.750034332275391
4036.4503901,0.81253719329834
4037.26293015,0.81253719329834
4038.1535902,0.890665829181671
4042.16940022,0.81253719329834
4042.98194003,0.81253719329834
4043.84135008,0.859414339065552
4044.70077014,0.859414339065552
4045.57581019,0.875040054321289
4046.41960001,0.843788623809814
4047.34151006,0.921917259693146
4076.26471019,0.734408617019653
4077.01475,0.750034332275391
4077.82728004,0.81253719329834
4078.65545011,0.828162908554077
4079.48361015,0.828162908554077
4080.29615021,0.81253719329834
4081.06181002,0.765660047531128
4081.82747006,0.765660047531128
4089.70283008,0.843788623809814
4090.60912013,0.906291484832764
4091.49978018,0.890665829181671
4122.42308021,0.843788623809814
4159.87791014,0.859414339065552
4192.39503002,0.843788623809814
4257.19487023,0.921917259693146
4258.08554006,0.890665829181671
4259.02308011,0.937542915344238
4259.85124016,0.828162908554077
4260.66378021,0.81253719329834
4261.55444002,0.890665829181671
4262.47636008,0.921917259693146
4263.36703014,0.890665829181671
4264.25769019,0.890665829181671
4282.14914012,0.828162908554077
4282.96167016,0.81253719329834
4283.78984022,0.828162908554077
4284.68050003,0.890665829181671
4285.52429008,0.843788623809814
4286.36808014,0.843788623809814
4287.2587502,0.890665829181671
4288.11816001,0.859414339065552
4288.97757006,0.859414339065552
4289.89949012,0.921917259693146
4290.83703017,0.937542915344238
4291.72770023,0.890665829181671
4292.64962006,0.921917259693146
4293.5715301,0.921917259693146
4294.44657016,0.875040054321289
4295.27474022,0.828162908554077
4305.18144011,0.828162908554077
4306.04086018,0.859414339065552
4306.96277022,0.921917259693146
4307.86906004,0.906291484832764
4308.6972301,0.828162908554077
4320.44776011,0.81253719329834
4321.27593017,0.828162908554077
4322.13534021,0.859414339065552
4322.97913003,0.843788623809814
4323.79167008,0.81253719329834
4324.65108013,0.859414339065552
4325.44799018,0.796911478042603
4326.26053023,0.81253719329834
4327.10432005,0.843788623809814
4327.9481101,0.843788623809814
4328.80752015,0.859414339065552
4329.66694021,0.859414339065552
4330.57323003,0.906291484832764
4331.37014008,0.796911478042603
4332.21393013,0.843788623809814
4333.04209018,0.828162908554077
4370.77819014,0.890665829181671
4396.8731401,0.843788623809814
4397.74818015,0.875040054321289
4398.6075902,0.859414339065552
4399.40450001,0.796911478042603
4400.27954006,0.875040054321289
4401.17021012,0.890665829181671
4402.02962017,0.859414339065552
4402.88904023,0.859414339065552
4403.77970004,0.890665829181671
4404.6703701,0.890665829181671
4405.51416016,0.843788623809814
4406.38920021,0.875040054321289
4418.63976002,0.859414339065552
4419.54605007,0.906291484832764
4420.42109013,0.875040054321289
4421.29613018,0.875040054321289
4456.14148021,0.890665829181671
4457.01652002,0.875040054321289
4457.90718007,0.890665829181671
4458.84473014,0.937542915344238
4459.8291502,0.98442006111145
4534.56694007,0.890665829181671
4535.47323012,0.906291484832764
4536.34827018,0.875040054321289
4537.20769,0.859414339065552
4555.00538015,0.906291484832764
4555.91167021,0.906291484832764
4556.81796002,0.906291484832764
4557.73988008,0.921917259693146
4558.67742014,0.937542915344238
4559.52121019,0.843788623809814
4560.39625001,0.875040054321289
4561.28691006,0.890665829181671
4562.25571012,0.968794345855713
4563.02137017,0.765660047531128
4569.17790008,0.921917259693146
4570.02169013,0.843788623809814
4570.89673018,0.875040054321289
4571.77177,0.875040054321289
4572.63118005,0.859414339065552
4573.4749701,0.843788623809814
4574.35001016,0.875040054321289
4575.24068022,0.890665829181671
4576.08447003,0.843788623809814
4576.95951009,0.875040054321289
4577.85017014,0.890665829181671
4578.72521019,0.875040054321289
4579.56900001,0.843788623809814
4580.39716005,0.828162908554077
4581.33471012,0.937542915344238
4582.10037017,0.765660047531128
4582.89728022,0.796911478042603
4583.74107003,0.843788623809814
4584.66298008,0.921917259693146
4585.47552013,0.81253719329834
4586.31931019,0.843788623809814
4587.19435,0.875040054321289
4588.08502007,0.890665829181671
4611.7423501,0.81253719329834
4612.57051015,0.828162908554077
4613.3986702,0.828162908554077
4614.24246001,0.843788623809814
4615.08625007,0.843788623809814
4615.93004012,0.843788623809814
4616.85196018,0.921917259693146
4617.69575,0.843788623809814
4618.58641005,0.890665829181671
4619.4302001,0.843788623809814
4628.7587502,0.859414339065552
4629.60254002,0.843788623809814
4636.24347019,0.703157186508179
4641.04056001,0.875040054321289
4647.22835016,0.937542915344238
4648.04089022,0.81253719329834
4648.96280003,0.921917259693146
4649.79097009,0.828162908554077
4650.65038013,0.859414339065552
4651.52542019,0.875040054321289
4652.43171,0.906291484832764
4653.35363007,0.921917259693146
4654.25992012,0.906291484832764
4666.15109015,0.906291484832764
4667.01050019,0.859414339065552
4667.82304001,0.81253719329834
4668.66683006,0.843788623809814
4669.52624011,0.859414339065552
4670.41691017,0.890665829181671
4671.27632022,0.859414339065552
4672.12011003,0.843788623809814
4672.9795301,0.859414339065552
4673.87019014,0.890665829181671
4674.7139802,0.843788623809814
4675.58902001,0.875040054321289
4676.52656007,0.937542915344238
4677.40160012,0.875040054321289
4678.26102018,0.859414339065552
4742.62334013,0.859414339065552
4743.57651019,0.953168630599976
4744.43592,0.859414339065552
4745.26409006,0.828162908554077
4764.70248008,0.859414339065552
4765.51501012,0.81253719329834
4766.31192017,0.796911478042603
4767.17134023,0.859414339065552
4768.01513004,0.843788623809814
4795.96953011,0.859414339065552
4796.82895017,0.859414339065552
4797.65711021,0.828162908554077
4798.51652002,0.859414339065552
4811.65775013,0.937542915344238
4812.54842019,0.890665829181671
4813.39220023,0.843788623809814
4814.25162005,0.859414339065552
4815.1110301,0.859414339065552
4816.00170016,0.890665829181671
4816.84549022,0.843788623809814
4817.79866004,0.953168630599976
4818.86120009,1.06254863739014
4877.27013016,0.796911478042603
