27997.8699999
0.0;0.546900033950806
0.562520027161,0.562525749206543
1.09379982948,0.531274318695068
1.71882987022,0.625028610229492
2.34384989738,0.625028610229492
2.95325994492,0.609402894973755
43.4394898415,0.765660047531128
63.8935499191,0.734408617019653
64.6123299599,0.718782901763916
65.3311100006,0.718782901763916
66.0967700481,0.765660047531128
66.7999298573,0.703157186508179
67.5030899048,0.703157186508179
68.2374999523,0.734408617019653
68.9562799931,0.718782901763916
69.6906900406,0.734408617019653
70.4407198429,0.750034332275391
71.2376298904,0.796911478042603
71.972039938,0.734408617019653
101.676529884,0.875040054321289
102.473439932,0.796911478042603
103.317229986,0.843788623809814
104.161020041,0.843788623809814
114.036469936,0.640654325485229
114.723999977,0.687531471252441
115.395900011,0.671905755996704
116.099060059,0.703157186508179
116.739719868,0.640654325485229
117.364739895,0.625028610229492
122.068079948,0.687531471252441
122.786870003,0.718782901763916
123.505650043,0.718782901763916
124.240059853,0.734408617019653
124.9744699,0.734408617019653
125.661999941,0.687531471252441
126.380779982,0.718782901763916
127.099570036,0.718782901763916
127.818349838,0.718782901763916
128.568379879,0.750034332275391
129.334039927,0.765660047531128
130.068449974,0.734408617019653
130.802860022,0.734408617019653
131.490389824,0.687531471252441
132.256049871,0.765660047531128
132.912329912,0.656280040740967
133.61548996,0.703157186508179
134.287389994,0.671905755996704
135.068680048,0.781285762786865
135.834339857,0.765660047531128
136.678129911,0.843788623809814
137.428159952,0.750034332275391
138.209450006,0.781285762786865
138.975110054,0.765660047531128
139.78764987,0.81253719329834
140.459549904,0.671905755996704
141.178329945,0.718782901763916
141.897119999,0.718782901763916
142.61590004,0.718782901763916
143.365929842,0.750034332275391
144.162849903,0.796911478042603
144.975379944,0.81253719329834
145.631659985,0.656280040740967
146.350450039,0.718782901763916
147.084849834,0.734408617019653
147.772389889,0.687531471252441
153.710160017,0.781285762786865
154.538319826,0.828162908554077
155.335229874,0.796911478042603
156.069639921,0.734408617019653
156.835299969,0.765660047531128
157.600960016,0.765660047531128
158.304119825,0.703157186508179
159.132279873,0.828162908554077
159.86668992,0.734408617019653
160.616719961,0.750034332275391
161.319880009,0.703157186508179
162.069919825,0.750034332275391
162.773069859,0.703157186508179
163.444979906,0.671905755996704
164.226259947,0.781285762786865
165.007550001,0.781285762786865
165.757580042,0.750034332275391
166.585749865,0.828162908554077
167.367029905,0.781285762786865
168.08581996,0.718782901763916
168.83585,0.750034332275391
169.617140055,0.781285762786865
170.398419857,0.781285762786865
171.179709911,0.781285762786865
171.960989952,0.781285762786865
172.679780006,0.718782901763916
173.35168004,0.671905755996704
174.039209843,0.687531471252441
174.664239883,0.625028610229492
175.336149931,0.671905755996704
176.039309978,0.703157186508179
176.820590019,0.781285762786865
177.617499828,0.796911478042603
178.414409876,0.796911478042603
179.148819923,0.734408617019653
179.914479971,0.765660047531128
180.680140018,0.765660047531128
181.414549828,0.734408617019653
182.148959875,0.734408617019653
182.883369923,0.734408617019653
183.695909977,0.81253719329834
184.555320024,0.859414339065552
188.19611001,0.734408617019653
188.930520058,0.734408617019653
189.711809874,0.781285762786865
190.493089914,0.781285762786865
191.321249962,0.828162908554077
192.102540016,0.781285762786865
192.961949825,0.859414339065552
193.790119886,0.828162908554077
194.633909941,0.843788623809814
195.430819988,0.796911478042603
196.258980036,0.828162908554077
197.055889845,0.796911478042603
197.852799892,0.796911478042603
198.61845994,0.765660047531128
199.446630001,0.828162908554077
200.243540049,0.796911478042603
200.977949858,0.734408617019653
201.681099892,0.703157186508179
202.399889946,0.718782901763916
203.10303998,0.703157186508179
203.853080034,0.750034332275391
204.52497983,0.671905755996704
205.228139877,0.703157186508179
205.853169918,0.625028610229492
206.525079966,0.671905755996704
207.150099993,0.625028610229492
207.82201004,0.671905755996704
208.509539843,0.687531471252441
209.259579897,0.750034332275391
210.009609938,0.750034332275391
210.697139978,0.687531471252441
211.415920019,0.718782901763916
212.119079828,0.703157186508179
212.837859869,0.718782901763916
213.478519917,0.640654325485229
214.15041995,0.671905755996704
214.884829998,0.734408617019653
215.572360039,0.687531471252441
216.338019848,0.765660047531128
217.072429895,0.734408617019653
217.838089943,0.765660047531128
218.588129997,0.750034332275391
219.385040045,0.796911478042603
220.166329861,0.781285762786865
220.900729895,0.734408617019653
221.650769949,0.750034332275391
222.43204999,0.781285762786865
223.05708003,0.625028610229492
223.69773984,0.640654325485229
224.541529894,0.843788623809814
225.338439941,0.796911478042603
250.730219841,0.609402894973755
251.370879889,0.640654325485229
252.042779922,0.671905755996704
257.793050051,0.906291484832764
258.58995986,0.796911478042603
259.464999914,0.875040054321289
260.308789968,0.843788623809814
261.058820009,0.750034332275391
261.824480057,0.765660047531128
262.527639866,0.703157186508179
263.215169907,0.687531471252441
263.902699947,0.687531471252441
264.590229988,0.687531471252441
265.324640036,0.734408617019653
266.074679852,0.750034332275391
266.949719906,0.875040054321289
267.840379953,0.890665829181671
268.684170008,0.843788623809814
269.54358983,0.859414339065552
270.402999878,0.859414339065552
271.246789932,0.843788623809814
272.121829987,0.875040054321289
273.028120041,0.906291484832764
273.809409857,0.781285762786865
274.653189898,0.843788623809814
275.496979952,0.843788623809814
276.293889999,0.796911478042603
277.168930054,0.875040054321289
277.91896987,0.750034332275391
278.63774991,0.718782901763916
279.356529951,0.718782901763916
280.122189999,0.765660047531128
280.809730053,0.687531471252441
287.981930017,0.81253719329834
288.856969833,0.875040054321289
289.747639894,0.890665829181671
290.669549942,0.921917259693146
291.560220003,0.890665829181671
292.372760057,0.81253719329834
293.12278986,0.750034332275391
293.919699907,0.796911478042603
294.747859955,0.828162908554077
295.576030016,0.828162908554077
296.372939825,0.796911478042603
297.232349873,0.859414339065552
298.107389927,0.875040054321289
298.873049974,0.765660047531128
299.685590029,0.81253719329834
300.560629845,0.875040054321289
301.279409885,0.718782901763916
313.920619965,0.81253719329834
314.764410019,0.843788623809814
315.51444006,0.750034332275391
316.373849869,0.859414339065552
317.123889923,0.750034332275391
317.967679977,0.843788623809814
318.827090025,0.859414339065552
319.639629841,0.81253719329834
320.420909882,0.781285762786865
321.170949936,0.750034332275391
321.967859983,0.796911478042603
322.749150038,0.781285762786865
323.608559847,0.859414339065552
324.421099901,0.81253719329834
325.171129942,0.750034332275391
325.983669996,0.81253719329834
326.827460051,0.843788623809814
327.71811986,0.890665829181671
328.577539921,0.859414339065552
329.390069962,0.81253719329834
330.265110016,0.875040054321289
331.046399832,0.781285762786865
331.858939886,0.81253719329834
332.70272994,0.843788623809814
333.530889988,0.828162908554077
334.343430042,0.81253719329834
335.265339851,0.921917259693146
336.030999899,0.765660047531128
336.765409946,0.734408617019653
337.562319994,0.796911478042603
338.390490055,0.828162908554077
339.187399864,0.796911478042603
339.953059912,0.765660047531128
340.828099966,0.875040054321289
341.5,0.671905755996704
342.343790054,0.843788623809814
353.563060045,0.98442006111145
354.547479868,0.98442006111145
355.500639915,0.953168630599976
356.453809977,0.953168630599976
357.360110044,0.906291484832764
358.26639986,0.906291484832764
359.172689915,0.906291484832764
360.047729969,0.875040054321289
360.938390017,0.890665829181671
378.845459938,0.81253719329834
379.689249992,0.843788623809814
380.564290047,0.875040054321289
381.439329863,0.875040054321289
382.283119917,0.843788623809814
402.455919981,0.750034332275391
403.237210035,0.781285762786865
414.737730026,0.718782901763916
415.440889835,0.703157186508179
416.175299883,0.734408617019653
416.97220993,0.796911478042603
417.769119978,0.796911478042603
418.628530025,0.859414339065552
419.519199848,0.890665829181671
420.378609896,0.859414339065552
421.300529957,0.921917259693146
422.144320011,0.843788623809814
422.894359827,0.750034332275391
423.706889868,0.81253719329834
424.472549915,0.765660047531128
425.238209963,0.765660047531128
426.097630024,0.859414339065552
426.97266984,0.875040054321289
427.800829887,0.828162908554077
428.660239935,0.859414339065552
429.535279989,0.875040054321289
430.347820044,0.81253719329834
431.175979853,0.828162908554077
432.004149914,0.828162908554077
432.785429955,0.781285762786865
433.582340002,0.796911478042603
434.332380056,0.750034332275391
435.066789865,0.734408617019653
435.801199913,0.734408617019653
436.535599947,0.734408617019653
437.270009995,0.734408617019653
438.004420042,0.734408617019653
438.785709858,0.781285762786865
439.566989899,0.781285762786865
440.348279953,0.781285762786865
441.176440001,0.828162908554077
442.020230055,0.843788623809814
442.879639864,0.859414339065552
443.629679918,0.750034332275391
444.426589966,0.796911478042603
445.23913002,0.81253719329834
446.098539829,0.859414339065552
446.92670989,0.828162908554077
447.801749945,0.875040054321289
448.661159992,0.859414339065552
449.442450047,0.781285762786865
450.270609856,0.828162908554077
451.130019903,0.859414339065552
451.958189964,0.828162908554077
452.723850012,0.765660047531128
453.520760059,0.796911478042603
454.348919868,0.828162908554077
455.192709923,0.843788623809814
455.911489964,0.718782901763916
456.833410025,0.921917259693146
457.677199841,0.843788623809814
458.520989895,0.843788623809814
459.317899942,0.796911478042603
460.021049976,0.703157186508179
460.849220037,0.828162908554077
461.693009853,0.843788623809814
462.599299908,0.906291484832764
463.396209955,0.796911478042603
464.24000001,0.843788623809814
478.021879911,0.796911478042603
478.881289959,0.859414339065552
479.756330013,0.875040054321289
480.600119829,0.843788623809814
481.428279877,0.828162908554077
482.334579945,0.906291484832764
483.225239992,0.890665829181671
490.538079977,0.796911478042603
491.381870031,0.843788623809814
492.17877984,0.796911478042603
493.006939888,0.828162908554077
493.897609949,0.890665829181671
494.725769997,0.828162908554077
495.600810051,0.875040054321289
496.444599867,0.843788623809814
497.241509914,0.796911478042603
498.085299969,0.843788623809814
498.960340023,0.875040054321289
499.788499832,0.828162908554077
500.632289886,0.843788623809814
501.460449934,0.828162908554077
502.304239988,0.843788623809814
503.116780043,0.81253719329834
503.929309845,0.81253719329834
504.741849899,0.81253719329834
505.570009947,0.828162908554077
506.351300001,0.781285762786865
507.195090055,0.843788623809814
508.070129871,0.875040054321289
508.945169926,0.875040054321289
509.804579973,0.859414339065552
510.695250034,0.890665829181671
511.53903985,0.843788623809814
512.351569891,0.81253719329834
513.195359945,0.843788623809814
514.03915,0.843788623809814
514.882940054,0.843788623809814
515.69547987,0.81253719329834
516.523639917,0.828162908554077
517.429929972,0.906291484832764
518.211220026,0.781285762786865
519.039379835,0.828162908554077
519.883169889,0.843788623809814
520.742579937,0.859414339065552
521.586369991,0.843788623809814
522.367660046,0.781285762786865
523.195819855,0.828162908554077
523.977109909,0.781285762786865
534.211949825,0.796911478042603
535.071359873,0.859414339065552
535.993279934,0.921917259693146
536.774569988,0.781285762786865
537.618360043,0.843788623809814
538.462149858,0.843788623809814
539.337189913,0.875040054321289
540.10284996,0.765660047531128
546.821899891,0.843788623809814
547.681319952,0.859414339065552
548.54073,0.859414339065552
549.384520054,0.843788623809814
550.19705987,0.81253719329834
551.009589911,0.81253719329834
551.790879965,0.781285762786865
552.650290012,0.859414339065552
553.447209835,0.796911478042603
554.228489876,0.781285762786865
555.07227993,0.843788623809814
555.931689978,0.859414339065552
556.837990046,0.906291484832764
557.650519848,0.81253719329834
558.541189909,0.890665829181671
559.416229963,0.875040054321289
