Mandatory;Pressed;Strength;BeginingTime;TimeSaved;EndTime;Comment;Emotion;
0;0;3;47297.6985569;586609697.698557;47313.59618;586609713.59618;47297.6934919;586609697.693492;;5/4/event/for me/Past/Yes/Confirmed/satisfaction;
1;0;0;56224.7708302;586618624.77083;56708.8861551;586619108.886155;56464.7708311;586618864.770831;;neutral/A physical activity/sport;
