78484.3401501
32.000000; 32.000000; 32.000000
-50;14;38
-49;14;36
-50;13;39
-55;13;37
-56;13;34
-46;10;42
-46;12;43
-46;11;45
-42;12;46
-44;10;44
-40;12;49
-43;11;47
-52;12;36
-64;13;30
-56;16;27
-52;15;31
-57;12;30
-55;12;30
-53;11;37
-57;12;32
-57;11;32
-52;12;33
-53;11;34
-58;12;31
-58;13;32
-52;13;33
-53;11;31
-58;13;31
-52;13;34
-54;13;32
-56;11;35
-55;11;33
-58;9;36
-51;9;37
-52;11;37
-48;10;42
-46;8;41
-46;11;43
-50;9;42
-53;9;34
-55;10;33
-55;11;33
-54;11;33
-54;11;37
-53;11;35
-54;10;35
-52;9;36
-53;11;35
-53;10;36
-51;10;36
-52;12;36
-53;12;35
-52;12;36
-52;10;36
-52;12;35
-50;11;33
-55;11;33
-60;11;29
-60;11;29
-59;11;28
-62;10;30
-59;11;31
-49;10;34
-49;11;36
-50;10;37
-48;10;40
-54;9;40
-53;11;38
-52;12;36
-59;11;34
-52;13;35
-50;11;37
-49;12;38
-52;12;37
-48;12;40
-50;13;39
-50;13;38
-50;13;40
-53;12;38
-49;11;39
-50;12;38
-55;12;35
-56;12;33
-49;13;34
-57;12;33
-56;13;33
-51;13;35
-51;11;37
-52;12;37
-52;12;37
-52;10;40
-49;12;40
-50;11;41
-51;12;40
-45;10;44
-38;10;46
-48;11;44
-52;10;44
-46;9;45
-46;10;44
-48;11;41
-49;11;40
-43;11;41
-53;10;40
-50;11;39
-50;12;43
-52;9;42
-44;11;41
-48;10;41
-47;10;42
-50;9;41
-52;9;39
-44;8;45
-48;9;46
-44;9;45
-48;7;47
-44;6;47
-41;7;48
-44;8;47
-44;6;48
-38;6;48
-38;7;47
-38;8;48
-45;5;48
-44;7;48
-41;8;46
-40;6;48
-62;7;41
-36;9;47
-40;8;43
-42;7;42
-46;5;43
-49;5;42
-54;6;36
-59;6;26
-56;6;21
-63;6;7
-65;7;-3
-64;9;-9
-71;11;-17
-68;10;-15
-64;11;-17
-63;10;-18
-63;9;-17
-62;9;-15
-60;10;-16
-60;11;-16
-61;11;-15
-59;11;-17
-62;11;-18
-61;11;-17
-62;11;-17
-64;10;-15
-62;11;-13
-65;11;-10
-62;10;-9
-64;12;-12
-63;12;-9
-63;11;-3
-60;13;0
-63;10;3
-66;10;1
-64;11;-1
-63;10;-1
-63;13;0
-63;15;0
-64;12;4
-64;12;5
-61;10;3
-65;12;-1
-64;10;-2
-64;12;-4
-62;13;-6
-65;12;-3
-63;12;-1
-63;12;0
-63;13;-1
-64;12;-2
-63;12;-2
-63;12;0
-64;13;-1
-65;12;-2
-63;12;-1
-63;11;0
-66;12;-2
-63;12;-2
-65;12;-1
-65;12;0
-64;12;2
-69;11;0
-67;12;1
-63;12;1
-61;10;0
-60;11;1
-64;11;0
-61;13;2
-64;14;3
-63;12;3
-65;12;1
-63;11;2
-63;10;3
-64;11;2
-65;11;2
-63;12;1
-63;12;0
-64;12;0
-64;12;-1
-63;11;2
-63;12;1
-61;11;2
-62;11;2
-65;10;0
-65;11;-1
-61;11;0
-64;10;-2
-68;10;-4
-67;10;-6
-64;10;-7
-62;10;-4
-66;11;-4
-65;9;-3
-67;9;-3
-68;10;-3
-65;10;-6
-66;11;-3
-65;10;5
-60;11;8
-59;12;13
-60;9;16
-62;11;16
-62;13;13
-64;11;13
-63;12;12
-61;13;11
-63;11;10
-61;12;12
-61;13;13
-63;13;12
-61;12;11
-61;12;8
-63;12;5
-64;12;1
-63;12;1
-64;11;-1
-68;12;-6
-68;8;1
-70;9;-5
-67;9;-3
-67;10;-1
-68;11;-3
-61;11;-3
-63;10;0
-62;11;1
-63;10;2
-65;12;-1
-65;11;-1
-66;12;-2
-62;12;0
-62;11;1
-62;12;2
-62;12;4
-62;13;2
-63;13;-1
-64;14;-5
-60;12;-2
-63;13;-3
-64;11;-4
-63;11;-4
-64;13;-8
-63;14;-8
-62;12;-8
-62;13;-12
-64;13;-15
-60;12;-11
-63;15;-14
-64;13;-17
-63;14;-17
-64;14;-17
-61;14;-16
-61;14;-16
-61;14;-15
-62;15;-15
-63;15;-13
-63;15;-13
-63;15;-10
-60;14;-8
-64;15;-9
-65;14;-8
-59;15;-5
-64;14;-2
-64;14;-3
-64;15;-4
-65;15;-5
-62;15;-4
-61;15;-3
-62;16;-4
-64;15;-4
-61;16;-3
-63;17;-7
-64;16;-7
-62;15;-2
-64;15;-4
-67;15;-6
-65;14;-4
-61;15;-2
-64;16;-2
-62;15;-1
-66;14;2
-62;14;4
-63;16;4
-63;14;4
-61;15;6
-62;16;6
-63;17;3
-63;16;2
-62;17;3
-63;16;2
-65;17;1
-63;17;3
-61;16;4
-63;17;2
-63;16;1
-63;17;2
-62;17;2
-62;17;1
-60;16;5
-63;17;1
-66;14;3
-66;16;3
-61;15;3
-64;16;2
-65;13;5
-72;13;6
-71;10;7
-71;7;13
-74;5;15
-69;-5;14
-65;-11;15
-71;-10;10
-68;-6;13
-59;-1;13
-52;7;8
-52;6;6
-52;4;4
-54;3;0
-51;-2;0
-44;-3;5
-67;-13;0
-62;-22;4
-64;-17;3
-71;-15;2
-71;-13;5
-67;-15;14
-77;-25;17
-64;-36;15
-56;-35;14
-60;-38;10
-50;-35;19
-49;-38;21
-55;-40;19
-57;-40;20
-38;-41;27
-32;-43;33
-40;-46;30
-38;-49;30
-33;-45;25
-35;-45;32
-31;-46;30
-42;-42;28
-47;-41;26
-41;-47;32
-47;-50;35
-42;-43;30
-53;-55;30
-58;-50;32
-60;-42;29
-69;-39;23
-67;-36;23
-64;-32;22
-72;-21;13
-70;-15;14
-61;-7;17
-51;9;19
-49;13;16
-58;17;17
-53;21;19
-58;24;17
-58;27;20
-58;30;20
-57;30;20
-67;25;14
-61;21;19
-61;20;21
-52;21;30
-54;22;31
-54;18;29
-53;18;28
-45;16;29
-38;12;26
-39;10;23
-36;7;18
-32;7;17
-30;6;18
-31;6;16
-42;9;13
-40;8;16
-46;5;20
-52;1;20
-56;-1;24
-51;-2;24
-58;-1;24
-64;-7;22
-71;-7;18
-72;-20;28
-71;-20;23
-72;-27;29
-72;-25;22
-72;-27;22
-72;-26;20
-69;-26;18
-68;-22;16
-62;-24;20
-60;-25;21
-58;-29;21
-71;-39;29
-66;-29;33
-59;-22;28
-61;-15;14
-65;-17;11
-62;-15;10
-57;-13;14
-58;-13;17
-62;-14;18
-60;-14;21
-58;-13;21
-61;-13;19
-57;-12;23
-57;-13;31
-58;-20;24
-71;-20;20
-58;-25;29
-50;-17;37
-56;-18;34
-58;-17;28
-55;-16;27
-44;-12;27
-45;-11;31
-44;-10;33
-48;-9;36
-47;-12;36
-48;-13;34
-50;-15;35
-58;-19;34
-57;-19;35
-60;-19;32
-60;-16;32
-57;-10;18
-67;-8;14
-62;0;25
-54;8;37
-60;4;38
-53;-11;50
-39;-14;50
-41;-23;37
-45;-15;34
-41;-23;42
-49;-29;47
-50;-24;35
-52;-20;39
-52;-12;35
-47;-13;40
-45;-12;43
-52;-13;38
-54;-13;36
-51;-13;37
-46;-12;35
-48;-13;38
-53;-18;42
-56;-21;46
-58;-33;52
-57;-43;54
-57;-45;51
-57;-43;48
-51;-37;40
-46;-25;29
-44;-19;22
-36;4;16
-30;11;14
-44;24;-3
-41;32;-11
-48;43;-2
-39;43;6
-37;45;5
-56;42;-9
-68;42;-6
-55;42;17
-58;42;20
-68;43;9
-80;41;4
-73;22;6
-65;12;7
-63;14;-1
-64;11;-3
-60;12;-3
-63;16;-10
-67;17;-11
-66;18;-13
-65;19;-13
-69;20;-16
-60;18;-12
-59;19;-12
-58;18;-14
-61;17;-12
-61;18;-14
-60;18;-15
-61;17;-11
-61;17;-9
-62;17;-11
-63;16;-11
-62;16;-10
-62;17;-10
-60;16;-8
-62;17;-9
-62;17;-10
-60;16;-10
-62;16;-10
-62;16;-10
-60;17;-9
-62;16;-9
-68;16;-10
-67;15;-10
-59;16;-3
-60;16;0
-62;15;4
-64;15;3
-64;17;1
-62;16;-1
-65;18;-3
-62;16;-2
-62;17;-2
-61;17;-2
-61;17;0
-63;15;1
-65;16;1
-67;16;0
-63;16;2
-63;16;3
-63;17;3
-63;17;4
-62;17;5
-60;16;6
-63;17;6
-62;15;5
-63;16;5
-61;17;7
-61;18;7
-65;19;3
-64;19;6
-59;16;8
-63;17;9
-63;16;9
-63;17;9
-62;17;11
-63;18;8
-64;18;10
-57;17;18
-57;18;17
-58;13;24
-58;14;27
-63;16;22
-61;16;15
-58;17;16
-62;18;17
-64;17;18
-56;15;22
-53;17;23
-56;17;19
-63;17;9
-62;19;5
-62;19;2
-64;20;0
-61;18;-3
-64;18;-3
-64;18;0
-62;18;-3
-65;18;-5
-63;19;-3
-58;19;-1
-64;20;-5
-64;19;-2
-59;20;-1
-60;20;0
-64;20;0
-59;20;2
-60;20;2
-62;21;2
-62;19;4
-60;21;2
-60;20;1
-62;20;2
-60;20;4
-62;20;5
-61;21;3
-61;21;3
-60;20;5
-62;20;4
-62;19;4
-62;20;4
-60;21;3
-62;20;5
-62;21;2
-58;19;6
-61;18;4
-62;21;2
-62;21;3
-62;19;2
-64;18;0
-63;18;1
-62;20;1
-62;20;1
-63;20;1
-63;21;0
-61;20;1
-63;19;1
-60;17;5
-63;19;2
-61;19;3
-62;20;3
-61;20;1
-64;20;1
-70;20;1
-64;18;1
-56;20;4
-61;19;3
-62;20;2
-69;19;4
-59;21;10
-56;19;13
-55;20;13
-57;19;13
-61;20;12
-63;21;11
-60;21;13
-58;19;12
-59;20;10
-57;20;8
-59;19;7
-63;19;4
-66;20;-1
-65;19;1
-64;17;1
-64;18;4
-67;16;5
-68;17;2
-63;15;6
-62;17;6
-60;20;4
-57;20;5
-57;19;4
-60;20;3
-64;19;6
-59;19;6
-61;19;5
-63;18;5
-64;17;6
-61;18;5
-61;18;4
-64;18;2
-64;19;3
-58;18;8
-63;18;4
-63;18;3
-60;17;5
-61;18;5
-61;18;5
-61;17;6
-65;18;3
-63;15;8
-60;17;6
-66;18;-1
-68;16;-2
-64;17;1
-61;18;2
-63;19;-1
-64;18;-2
-59;17;2
-68;18;0
-72;17;3
-58;19;8
-55;18;12
-59;17;13
-59;18;14
-56;17;19
-55;17;20
-60;19;15
-52;18;14
-55;17;9
-70;17;-10
-66;14;-8
-66;14;-10
-66;14;-12
-64;14;-13
-65;14;-11
-66;15;-8
-61;13;-10
-61;13;-12
-63;12;-10
-60;13;-8
-66;15;-10
-63;14;-10
-66;13;-10
-61;13;-7
-63;14;-7
-62;14;-8
-65;13;-7
-65;14;-4
-64;14;-3
-60;14;-1
-63;15;-5
-65;15;-5
-62;16;-4
-62;15;-2
-63;15;-3
-62;12;-4
-65;15;-6
-62;15;-7
-65;15;-7
-65;15;-3
-62;15;-4
-60;15;-6
-67;15;-8
-60;14;-2
-62;14;-2
-62;13;-2
-62;13;-2
-62;14;-3
-64;15;-2
-65;15;-4
-69;14;-6
-68;13;-6
-63;12;-5
-63;13;-6
-61;15;-7
-60;16;-8
-59;16;-9
-60;17;-11
-61;16;-12
-63;16;-11
-64;16;-11
-63;18;-10
-64;18;-9
-63;18;-8
-62;17;-7
-63;14;-6
-62;14;-4
-61;15;-3
-60;16;-1
-61;17;-2
-63;17;-4
-62;17;-4
-61;17;-4
-62;17;-4
-62;17;-4
-64;17;-5
-64;16;-5
-63;16;-4
-62;15;-4
-61;15;-3
-62;15;-3
-62;15;-2
-63;15;-1
-64;15;-1
-64;15;-1
-65;14;-1
-63;13;0
-63;13;0
-64;12;0
-64;13;0
-63;12;1
-63;12;1
-63;13;1
-64;12;1
-63;12;1
-63;12;0
-64;12;0
-63;11;1
-63;11;1
-64;11;1
-64;11;0
-64;11;0
-65;10;0
-66;11;-1
-66;10;-2
-65;10;-2
-64;10;-1
-64;10;0
-64;10;-1
-63;10;-1
-64;10;-2
-63;11;-2
-63;10;-2
-64;10;-3
-64;10;-2
-65;10;-3
-64;10;-2
-65;10;-2
-64;9;-1
-64;9;-1
-64;9;0
-63;9;-1
-64;10;-2
-64;10;-1
-64;10;-1
-63;10;-3
-65;11;-2
-66;10;-2
-67;10;-3
-64;10;-3
-65;10;-3
-65;11;-4
-64;12;-4
-64;12;-3
-66;12;0
-64;11;1
-62;12;4
-62;12;5
-62;12;6
-60;12;6
-63;13;4
-63;13;1
-63;14;-1
-60;15;-5
-62;15;-7
-62;17;-12
-60;18;-12
-63;21;-13
-64;20;-13
-61;19;-12
-64;16;-9
-63;15;-7
-62;13;-3
-60;12;-2
-62;13;0
-63;13;-1
-67;14;-5
-64;15;-4
-64;15;-4
-64;15;-9
-65;15;-10
-62;15;-7
-60;15;-5
-63;15;-6
-63;15;-5
-60;15;-5
-65;15;-7
-65;14;-6
-62;15;-6
-64;17;-7
-64;17;-7
-62;16;-5
-66;15;-4
-66;16;-6
-63;15;-2
-61;16;0
-59;16;4
-65;17;1
-65;18;1
-56;17;4
-56;19;0
-65;16;1
-61;17;0
-60;17;-3
-66;15;-3
-64;16;1
-67;16;-4
-62;15;-8
-66;15;-4
-66;13;-3
-64;13;0
-67;13;-3
-66;13;1
-62;15;-3
-63;14;-2
-59;12;3
-61;16;0
-62;16;-4
-61;16;-4
-58;15;-6
-63;17;-6
-68;15;-9
-68;17;-19
-63;16;-18
-59;17;-18
-60;15;-14
-64;14;-17
-59;13;-13
-65;13;-7
-63;15;-9
-61;17;-12
-62;18;-12
-58;18;-12
-61;17;-13
-63;18;-15
-62;17;-15
-64;15;-13
-64;18;-9
-60;17;-5
-63;17;-3
-65;18;-3
-64;18;-1
-63;19;-2
-60;20;-1
-58;18;2
-63;18;2
-61;20;2
-59;21;5
-60;19;5
-59;21;5
-60;20;4
-63;19;7
-59;19;10
-62;19;9
-62;19;6
-63;19;6
-57;20;6
-60;18;7
-67;19;4
-64;20;3
-59;19;3
-60;19;3
-65;18;5
-62;17;7
-66;17;5
-65;17;10
-62;18;12
-62;17;14
-62;18;14
-63;19;14
-61;20;12
-57;21;10
-58;20;12
-57;20;10
-58;21;14
-59;20;17
-61;21;16
-59;21;16
-61;19;14
-57;20;14
-58;20;14
-59;20;12
-59;19;13
-60;18;8
-60;19;6
-67;19;1
-63;19;2
-69;18;1
-64;16;6
-61;18;8
-63;17;9
-67;16;14
-60;19;12
-57;19;13
-63;17;15
-57;15;23
-59;20;21
-63;19;9
-51;18;17
-61;20;17
-65;19;15
-61;18;23
-60;16;22
-64;20;15
-59;19;15
-60;18;20
-56;17;27
-57;16;26
-54;22;21
-59;20;21
-57;19;25
-57;18;24
-61;19;20
-55;19;24
-57;18;25
-59;19;20
-62;19;21
-58;21;24
-60;20;22
-56;19;18
-55;17;15
-62;21;6
-59;22;10
-56;23;12
-55;22;14
-58;21;13
-62;21;4
-62;20;1
-60;19;-5
-61;19;-7
-65;20;-9
-63;21;-13
-62;20;-12
-63;20;-12
-62;20;-12
-60;20;-9
-59;20;-9
-63;20;-10
-60;20;-8
-62;20;-7
-63;20;-6
-58;20;-5
-65;20;-6
-66;20;-3
-60;21;4
-54;21;4
-64;22;-2
-64;20;3
-58;20;6
-60;21;7
-62;20;5
-62;20;5
-62;21;4
-60;22;1
-63;22;2
-63;21;4
-55;20;4
-57;21;2
-61;20;2
-59;21;4
-59;21;3
-63;20;2
-59;21;1
-56;21;0
-65;20;-4
-63;20;-5
-62;22;-5
-64;22;-10
-63;21;-7
-59;21;-5
-63;21;-3
-59;21;3
-59;22;1
-66;21;1
-61;20;4
-57;21;6
-61;21;6
-62;20;5
-59;21;7
-58;21;6
-66;21;5
-60;19;12
-62;19;9
-55;20;9
-59;19;8
-61;20;5
-62;20;5
-65;19;1
-62;17;4
-66;19;2
-58;20;3
-60;23;-3
-64;20;-1
-61;18;4
-60;20;2
-65;19;0
-60;19;0
-62;19;0
-63;20;1
-54;19;3
-60;18;0
-61;18;-1
-61;18;-1
-64;18;-7
-62;18;-7
-63;17;-7
-63;16;-5
-65;17;-9
-61;15;-4
-60;15;-4
-64;13;-4
-67;14;-5
-69;14;-5
-69;14;-5
-63;15;-4
-64;13;-5
-58;14;-3
-63;17;-2
-62;17;-1
-60;15;-3
-63;17;-3
-65;15;1
-66;15;1
-59;15;1
-68;16;-3
-62;12;0
-62;15;1
-65;17;-1
-71;13;-2
-62;13;2
-57;16;5
-65;16;3
-62;16;4
-60;14;6
-60;15;7
-66;14;4
-64;14;5
-65;15;1
-63;17;-2
-59;15;4
-66;14;1
-69;18;-3
-63;14;2
-63;16;3
-63;15;3
-61;14;6
-64;14;3
-65;15;2
-64;15;3
-61;14;7
-62;15;5
-63;17;5
-64;16;8
-64;14;17
-61;15;11
-59;16;10
-63;15;7
-60;16;9
-61;18;10
-61;16;13
-60;16;12
-62;15;12
-64;15;11
-63;16;11
-59;18;11
-63;16;10
-62;16;10
-61;17;13
-62;17;16
-61;17;14
-60;16;15
-64;16;12
-62;16;12
-60;17;14
-61;18;12
-62;19;12
-61;16;13
-62;17;12
-60;18;16
-60;17;15
-59;19;17
-58;18;17
-61;18;15
-56;18;15
-54;18;16
-65;17;16
-62;18;15
-57;16;18
-60;18;15
-64;15;15
-55;15;17
-66;17;8
-61;15;10
-61;15;11
-70;16;4
-60;15;6
-62;13;8
-67;15;4
-62;16;4
-58;14;5
-60;14;10
-62;16;7
-67;16;-1
-65;15;6
-59;13;10
-60;16;2
-68;16;-4
-70;13;-4
-61;14;-1
-64;15;-2
-63;14;-4
-65;15;-6
-61;14;-2
-62;14;0
-68;16;-3
-65;14;-3
-65;16;-2
-60;16;-4
-62;15;-4
-60;16;-2
-61;15;-2
-60;16;-3
-61;17;-4
-67;17;-7
-59;16;-7
-60;17;-8
-66;16;-8
-67;16;-11
-63;16;-10
-58;16;-6
-64;16;-8
-64;16;-8
-63;17;-6
-60;17;-3
-59;17;-1
-63;17;-3
-62;18;-4
-62;17;-2
-64;17;-2
-62;17;-3
-62;17;-4
-63;16;-3
-64;18;-4
-61;17;-3
-61;17;-1
-61;18;-2
-64;16;-2
-63;17;-3
-64;16;-2
-66;18;-4
-62;16;1
-63;17;1
-63;17;1
-62;16;1
-65;17;-1
-61;16;1
-61;16;1
-62;16;1
-62;17;-1
-64;16;-2
-65;17;-4
-62;17;-3
-61;15;0
-60;15;0
-65;16;-2
-62;16;1
-66;17;-3
-63;16;-1
-64;15;-1
-62;16;-3
-62;16;-2
-62;16;-3
-62;16;-3
-64;15;-3
-62;15;-2
-64;17;-2
-65;14;-2
-66;14;0
-61;16;2
-65;17;1
-65;15;4
-61;16;6
-61;16;4
-61;15;6
-66;15;5
-60;19;-2
-63;19;-4
-58;16;2
-64;14;2
-60;19;2
-65;17;2
-65;16;-2
-61;15;2
-59;16;3
-63;17;0
-66;17;1
-64;17;4
-64;16;3
-62;16;0
-61;17;-1
-64;16;-1
-61;17;0
-61;16;2
-62;17;1
-65;17;1
-63;17;-1
-62;16;-2
-61;17;-2
-61;18;-3
-67;15;3
-59;15;8
-59;17;6
-71;17;3
-62;16;6
-61;17;9
-62;17;8
-64;15;11
-63;15;9
-62;15;7
-60;15;6
-59;16;8
-59;16;9
-62;16;5
-64;15;0
-65;15;0
-66;17;-2
-63;17;-3
-64;17;-6
-57;16;-8
-64;18;-9
-64;18;-7
-63;17;-7
-60;16;-5
-61;17;-5
-68;16;-5
-61;18;-8
-65;17;-5
-64;17;-1
-58;16;2
-63;16;3
-58;16;3
-64;15;1
-68;15;2
-60;17;4
-68;17;1
-61;15;2
-61;16;4
-59;15;6
-66;16;3
-58;16;0
-68;16;-3
-59;16;3
-58;16;3
-64;16;1
-64;16;2
-64;15;2
-62;15;1
-66;15;4
-62;13;8
-66;17;2
-66;16;2
-65;14;3
-57;16;5
-58;17;4
-65;17;4
-67;16;6
-60;18;8
-58;19;10
-59;17;13
-58;18;9
-58;16;9
-62;17;4
-63;17;2
-67;15;-4
-70;17;-6
-65;15;-3
-67;15;-3
-66;15;-2
-65;16;0
-67;15;1
-57;15;5
-62;17;5
-65;18;4
-57;18;9
-53;16;19
-69;16;9
-65;15;12
-55;18;18
-60;17;17
-63;16;16
-61;16;17
-58;18;16
-62;16;14
-62;15;13
-59;19;11
-63;17;12
-66;17;10
-67;17;10
-58;17;9
-62;18;9
-61;15;13
-61;16;12
-63;17;9
-61;17;9
-62;17;8
-64;17;4
-61;17;6
-59;19;7
-59;14;10
-60;16;10
-65;15;5
-68;15;5
-70;14;3
-71;17;0
-64;17;6
-50;17;8
-68;18;5
-72;22;8
-55;15;17
-57;18;15
-52;18;15
-65;21;7
-64;18;8
-57;18;13
-60;17;13
-65;19;10
-61;18;9
-53;19;9
-63;18;2
-70;17;2
-62;19;0
-54;18;4
-69;16;-2
-69;17;-2
-60;16;0
-64;16;-3
-66;17;-6
-63;12;-2
-67;16;-4
-62;18;-1
-61;18;-1
-63;15;2
-60;13;4
-64;17;2
-61;16;3
-61;16;5
-64;16;0
-63;17;-1
-61;14;6
-62;16;6
-66;17;0
-61;16;2
-62;15;2
-66;16;-3
-63;16;-1
-62;15;1
-62;14;2
-66;16;-3
-69;17;-5
-63;16;-3
-62;17;-5
-68;17;-3
-60;17;2
-54;16;9
-61;18;2
-61;17;0
-62;19;-2
-61;19;0
-60;16;3
-60;18;1
-63;16;-2
-65;17;-7
-63;18;-9
-61;15;-6
-65;16;-5
-62;16;-6
-65;15;-7
-59;15;-5
-66;16;-11
-63;16;-10
-62;15;-9
-62;15;-11
-63;15;-14
-63;14;-14
-61;14;-10
-59;14;-10
-65;14;-10
-61;14;-6
-66;13;-8
-64;13;-10
-67;14;-11
-64;13;-6
-63;14;-4
-62;16;-4
-62;15;-3
-66;15;-2
-63;15;-3
-58;15;-1
-66;16;1
-62;16;3
-61;14;6
-66;14;5
-62;15;6
-64;15;1
-62;16;5
-56;12;13
-63;15;7
-67;17;1
-59;14;5
-64;15;5
-70;15;4
-61;13;4
-61;15;0
-62;15;2
-65;14;3
-63;14;5
-68;13;7
-67;12;4
-58;16;2
-59;15;4
-71;14;2
-60;16;7
-53;18;10
-65;17;10
-63;15;8
-63;14;12
-62;14;14
-58;16;16
-63;15;16
-62;16;11
-58;16;12
-60;16;14
-62;13;15
-61;16;12
-60;15;11
-59;15;13
-66;14;11
-62;15;8
-64;17;3
-59;14;11
-65;14;9
-63;16;3
-63;15;2
-66;16;4
-60;16;8
-63;17;4
-65;16;5
-63;15;9
-58;17;11
-57;16;9
-64;16;1
-63;16;2
-60;15;2
-64;16;0
-70;15;-6
-64;14;-3
-69;13;-4
-63;13;-4
-66;14;-3
-62;13;-3
-63;16;-2
-64;14;-1
-61;13;-1
-65;13;-1
-66;14;0
-66;13;3
-59;15;4
-62;16;3
-64;15;5
-59;15;7
-65;15;3
-61;15;9
-63;15;9
-61;15;8
-63;17;6
-59;15;8
-59;15;6
-62;15;6
-66;17;2
-63;16;1
-62;16;2
-61;16;2
-62;16;-4
-62;16;-4
-60;15;-3
-63;16;-5
-62;15;-6
-63;15;-10
-65;15;-13
-65;15;-19
-67;15;-17
-68;15;-18
-70;15;-15
-63;14;-8
-59;15;1
-55;16;7
-57;16;14
-62;16;16
-59;15;11
-68;16;9
-64;17;6
-56;16;11
-59;17;9
-62;16;8
-60;19;7
-61;17;18
-62;17;18
-56;16;16
-58;16;19
-67;16;12
-57;16;11
-72;16;11
-73;13;16
-57;17;18
-59;17;18
-58;17;19
-63;18;16
-59;19;19
-61;19;19
-61;20;19
-58;16;22
-57;19;23
-64;19;17
-56;23;17
-54;23;20
-56;24;21
-54;23;23
-55;24;24
-56;23;21
-54;24;24
-59;25;19
-53;24;20
-52;23;27
-55;22;25
-56;25;22
-55;27;22
-53;24;23
-56;24;18
-59;23;22
-58;24;21
-58;26;19
-52;25;22
-52;23;21
-59;25;18
-63;25;17
-55;22;24
-56;25;20
-55;23;18
-60;24;17
-61;24;17
-58;23;21
-59;26;17
-53;22;19
-49;25;22
-64;26;14
-58;22;23
-50;24;26
-60;23;21
-59;22;21
-56;22;19
-58;22;20
-62;23;21
-66;25;18
-51;23;22
-56;22;20
-56;25;19
-56;25;20
-54;23;23
-54;21;26
-52;22;25
-62;23;20
-63;22;22
-56;23;22
-58;23;18
-59;23;20
-56;23;21
-54;23;22
-60;23;19
-59;24;21
-61;23;18
-56;25;18
-59;25;17
-57;25;18
-56;25;21
-55;24;21
-54;25;19
-60;22;22
-57;23;22
-56;29;14
-55;23;19
-55;23;21
-59;27;18
-62;26;16
-52;24;23
-55;25;20
-58;24;16
-60;23;18
-56;24;19
-59;23;21
-63;21;20
-58;22;21
-56;24;19
-55;23;23
-56;22;22
-54;25;20
-56;24;20
-56;24;16
-57;21;17
-57;23;14
-61;22;10
-62;24;7
-59;22;5
-62;23;1
-66;21;-2
-62;22;1
-60;23;1
-58;25;1
-56;22;4
-59;24;-1
-57;25;-3
-64;20;-4
-66;22;-9
-61;20;-3
-64;23;-7
-62;22;-7
-70;21;-14
-68;23;-10
-57;21;-2
-56;23;-2
-55;26;-3
-57;25;-2
-64;22;3
-58;23;1
-61;24;-3
-62;25;-5
-58;25;-2
-59;26;0
-61;26;0
-54;24;5
-56;24;-1
-63;26;-4
-53;26;1
-55;26;-1
-63;26;-7
-58;26;-4
-60;26;-1
-60;25;-3
-63;23;-3
-55;26;-3
-56;25;-1
-65;24;-4
-62;24;-4
-60;23;-4
-63;24;-4
-60;24;-4
-61;23;-1
-56;19;1
-66;24;-6
-62;23;-2
-59;23;1
-62;22;1
-61;24;0
-58;23;1
-62;23;2
-61;22;1
-61;21;3
-61;23;2
-61;23;3
-61;22;6
-57;22;6
-60;23;3
-59;22;5
-62;22;3
-62;22;1
-62;22;2
-63;22;-1
-65;21;0
-56;23;4
-58;21;4
-63;22;-3
-62;22;0
-59;24;-1
-57;21;-1
-59;22;-2
-60;21;-3
-60;20;-4
-64;20;-8
-62;20;-10
-63;20;-9
-63;20;-12
-61;20;-12
-60;19;-7
-62;19;-9
-59;20;-9
-62;21;-10
-59;20;-9
-59;20;-9
-60;20;-11
-61;21;-12
-62;21;-11
-62;21;-12
-61;19;-8
-59;21;-6
-56;21;-5
-61;21;-7
-60;20;-6
-63;22;-9
-65;19;-7
-62;19;-7
-62;20;-3
-59;19;-3
-62;20;0
-66;20;-4
-55;22;0
-59;23;-1
-63;19;1
-58;23;-1
-62;21;-1
-60;22;4
-54;20;7
-66;22;3
-63;20;7
-59;23;5
-61;21;6
-60;22;5
-63;21;10
-63;22;8
-60;20;10
-54;21;11
-61;21;14
-63;21;12
-54;22;16
-58;22;17
-65;18;14
-61;22;15
-60;21;17
-60;22;15
-54;21;14
-53;23;13
-58;22;12
-64;20;11
-60;21;5
-56;23;5
-61;18;4
-64;18;1
-60;19;2
-61;19;-3
-65;19;-8
-62;19;-8
-64;19;-10
-57;20;-12
-62;21;-14
-61;19;-11
-59;18;-9
-61;22;-14
-61;22;-15
-57;20;-14
-57;20;-16
-61;19;-17
-58;20;-16
-58;21;-16
-60;21;-17
-59;21;-16
-59;21;-18
-59;20;-13
-57;21;-8
-58;19;-8
-59;20;-17
-63;21;-18
-59;21;-17
-57;21;-16
-59;20;-19
-57;21;-14
-57;21;-16
-59;20;-17
-57;20;-18
-58;21;-20
-57;20;-20
-57;21;-20
-59;21;-22
-57;21;-23
-58;20;-22
-60;19;-23
-60;19;-23
-59;20;-19
-56;20;-19
-58;20;-16
-58;19;-13
-59;21;-13
-62;22;-14
-60;22;-16
-56;23;-12
-49;17;36
-49;17;36
-49;17;36
-49;17;36
-49;17;36
-49;17;36
-49;17;36
-49;17;36
-49;17;36
-49;17;36
-49;17;36
-49;17;36
-49;17;36
-49;17;36
-49;17;36
-49;17;36
-49;17;36
-49;17;36
-49;17;36
-49;17;36
-49;17;36
-49;17;36
-49;17;36
-49;17;36
-49;17;36
-49;17;36
-49;17;36
-49;17;36
-49;17;36
-49;17;36
-49;17;36
-49;17;36
-49;17;36
-49;17;36
-49;17;36
-49;17;36
-49;17;36
-49;17;36
-49;17;36
-49;17;36
-49;17;36
-49;17;36
-49;17;36
-49;17;36
-49;17;36
-49;17;36
-49;17;36
-49;17;36
-49;17;36
-49;17;36
-49;17;36
-49;17;36
-49;17;36
-49;17;36
-49;17;36
-49;17;36
-49;17;36
-49;17;36
-49;17;36
-49;17;36
-49;17;36
-49;17;36
-49;17;36
-49;17;36
-49;17;36
-49;17;36
-49;17;36
-49;17;36
-49;17;36
-49;17;36
-49;17;36
-49;17;36
-49;17;36
-49;17;36
-49;17;36
-49;17;36
-49;17;36
-49;17;36
-49;17;36
-49;17;36
-49;17;36
-49;17;36
-49;17;36
-49;17;36
-49;17;36
-49;17;36
-49;17;36
-49;17;36
-49;17;36
-49;17;36
-49;17;36
-49;17;36
-49;17;36
-49;17;36
-49;17;36
-49;17;36
-49;17;36
-49;17;36
-49;17;36
-49;17;36
-49;17;36
-49;17;36
-49;17;36
-49;17;36
-49;17;36
-49;17;36
-49;17;36
-49;17;36
-49;17;36
-49;17;36
-49;17;36
-49;17;36
-49;17;36
-49;17;36
-49;17;36
-49;17;36
-49;17;36
-49;17;36
-49;17;36
-49;17;36
-49;17;36
-49;17;36
-49;17;36
-49;17;36
-49;17;36
-49;17;36
-49;17;36
-49;17;36
-49;17;36
-49;17;36
-49;17;36
-49;17;36
-49;17;36
-58;17;34
-60;18;26
-59;17;30
-56;17;28
-56;17;33
-59;19;29
-52;17;28
-54;18;30
-58;17;31
-56;17;31
-53;17;34
-52;19;29
-52;19;32
-56;19;29
-58;20;29
-48;17;37
-49;18;37
-51;20;35
-48;18;36
-52;19;35
-52;20;34
-46;19;39
-51;19;36
-60;18;30
-47;19;35
-46;19;37
-47;20;34
-52;18;35
-50;19;35
-60;18;29
-59;18;31
-52;18;36
-54;17;34
-52;17;34
-53;16;33
-52;16;35
-54;17;35
-56;18;34
-44;16;39
-52;17;36
-48;20;36
-49;18;38
-51;17;38
-50;17;39
-42;17;41
-45;17;42
-45;17;41
-49;17;40
-45;17;42
-41;14;42
-45;16;40
-54;17;31
-55;16;26
-62;16;18
-68;15;13
-64;15;17
-66;15;10
-63;15;8
-64;14;10
-67;16;5
-62;16;5
-62;17;5
-58;17;11
-61;19;12
-59;17;12
-65;16;8
-64;17;8
-56;17;12
-58;16;9
-62;15;9
-59;17;13
-60;19;10
-68;17;12
-67;17;9
-63;17;7
-61;17;7
-59;17;10
-62;18;9
-61;18;13
-66;18;10
-62;16;13
-63;17;13
-64;17;13
-59;19;15
-57;18;17
-58;18;18
-58;16;18
-58;19;19
-62;19;16
-61;17;16
-60;18;17
-63;17;18
-58;17;20
-56;17;22
-65;17;15
-58;17;19
-55;18;21
-61;19;19
-62;20;18
-57;16;20
-54;17;22
-58;17;21
-62;19;21
-54;14;28
-58;17;23
-59;18;22
-55;17;26
-61;17;23
-56;16;24
-58;16;22
-61;19;19
-58;18;20
-63;16;19
-56;19;20
-60;18;18
-61;17;17
-56;18;21
-59;19;18
-58;17;21
-48;18;23
-57;16;19
-60;15;17
-61;18;0
-62;18;-3
-66;16;-7
-66;17;-11
-66;17;-12
-70;19;-16
-55;17;-7
-67;17;-20
-60;17;-22
-61;19;-23
-55;18;-16
-59;20;-21
-62;18;-21
-58;19;-21
-58;19;-22
-55;18;-20
-57;20;-25
-56;19;-24
-57;19;-25
-56;20;-26
-59;19;-29
-58;18;-26
-59;19;-27
-59;19;-27
-55;19;-18
-59;20;-23
-63;20;-24
-50;21;-18
-55;23;-19
-56;20;-18
-52;20;-16
-62;20;-24
-54;21;-21
-52;21;-20
-57;18;-23
-56;21;-28
-52;21;-29
-52;21;-30
-55;20;-31
-56;20;-30
-54;19;-30
-54;19;-32
-56;18;-30
-55;19;-31
-54;18;-31
-55;18;-29
-54;18;-27
-52;18;-30
-53;19;-31
-54;18;-33
-52;20;-30
-52;18;-30
-54;18;-33
-52;19;-32
-52;19;-31
-53;19;-30
-53;18;-30
-54;16;-30
-55;17;-32
-50;21;-35
-49;18;-34
-53;21;-39
-49;20;-36
-46;19;-37
-47;20;-40
-49;17;-39
-48;20;-42
-46;20;-40
-50;19;-40
-51;17;-39
-47;19;-39
-51;19;-40
-56;18;-42
-54;19;-37
-55;21;-27
-57;21;-25
-55;20;-21
-50;21;-8
-54;20;-11
-70;23;-9
-55;22;3
-54;19;2
-65;23;1
-59;20;7
-59;22;2
-62;21;3
-51;21;2
-57;22;-3
-65;21;-7
-60;21;-8
-63;20;-13
-58;22;-13
-58;22;-17
-57;21;-20
-57;20;-19
-55;24;-24
-57;23;-26
-54;22;-23
-53;21;-23
-56;22;-30
-53;21;-27
-53;21;-25
-52;23;-30
-55;23;-34
-55;22;-31
-55;20;-27
-48;22;-25
-56;24;-31
-63;20;-31
-61;20;-19
-61;21;-16
-48;23;-9
-52;21;-11
-80;20;-23
-68;22;-15
-44;24;3
-57;22;2
-57;23;2
-62;24;0
-65;22;-2
-61;21;4
-62;23;6
-57;22;11
-51;22;14
-58;20;6
-57;21;-1
-66;21;-8
-56;26;-15
-58;23;-19
-59;21;-21
-64;23;-23
-54;22;-24
-56;21;-23
-55;24;-23
-57;23;-22
-59;24;-22
-55;22;-23
-56;21;-22
-56;22;-24
-52;22;-21
-58;22;-23
-58;22;-21
-53;21;-21
-53;24;-29
-48;22;-27
-55;23;-30
-60;22;-31
-57;21;-24
-64;20;-21
-62;20;-12
-57;20;-7
-56;20;4
-61;20;0
-63;19;-4
-59;20;-2
-58;20;-2
-60;21;-2
-61;21;-4
-63;21;-5
-63;20;-6
-63;19;-6
-61;19;-5
-58;19;-5
-62;21;-11
-56;20;-8
-64;18;-11
-67;18;-14
-61;19;-16
-61;20;-16
-60;20;-14
-61;20;-17
-71;21;-21
-61;19;-7
-59;19;-5
-59;22;0
-57;22;7
-58;19;16
-57;20;11
-61;20;8
-65;19;11
-56;22;13
-60;18;14
-58;19;14
-60;18;13
-63;18;9
-65;20;8
-61;18;9
-68;17;6
-60;21;5
-57;18;7
-61;19;2
-62;19;-2
-65;20;-6
-61;19;-6
-62;20;-9
-67;21;-9
-64;19;-4
-62;20;-3
-67;20;-4
-63;20;-1
-64;21;0
-55;20;7
-60;21;11
-55;20;15
-65;22;6
-65;21;5
-56;21;13
-56;20;13
-60;20;8
-62;21;8
-63;20;9
-60;19;18
-57;19;19
-59;20;15
-62;19;12
-54;18;20
-62;17;16
-62;20;15
-61;17;17
-63;19;13
-60;19;14
-62;18;12
-60;21;8
-63;20;6
-54;20;8
-54;18;2
-64;21;-3
-69;17;0
-69;16;0
-75;20;-6
-73;18;1
-48;18;18
-52;19;21
-57;21;27
-45;22;28
-61;23;18
-53;20;25
-42;23;30
-62;19;28
-56;19;26
-51;20;31
-51;18;36
-54;18;32
-52;17;32
-52;19;29
-59;17;30
-53;19;30
-60;18;25
-56;19;26
-56;18;26
-56;17;28
-61;19;21
-56;19;20
-55;19;20
-63;20;17
-62;20;18
-58;20;14
-60;22;12
-58;20;15
-60;18;14
-60;19;16
-58;22;8
-61;21;7
-58;21;7
-59;21;4
-64;18;6
-56;21;6
-60;20;-5
-64;20;-14
-57;21;-13
-60;19;-12
-62;21;-19
-63;21;-23
-55;22;-23
-57;21;-27
-56;21;-23
-55;20;-26
-54;21;-28
-54;24;-32
-52;23;-29
-54;24;-29
-55;22;-32
-55;24;-30
-50;23;-28
-51;24;-26
-53;26;-23
-55;21;-26
-54;25;-29
-58;21;-23
-56;25;-24
-57;26;-30
-58;23;-29
-49;21;-22
-53;23;-22
-52;25;-27
-57;24;-33
-49;23;-26
-52;25;-26
-54;24;-26
-58;26;-30
-58;25;-28
-51;24;-18
-50;26;-20
-63;23;-20
-55;25;-16
-59;25;-15
-54;23;-3
-54;20;-6
-61;26;-11
-54;25;-11
-59;25;-12
-57;21;-4
-58;22;-10
-54;23;-16
-58;23;-18
-63;23;-13
-58;25;-16
-58;24;-23
-57;27;-23
-57;22;-15
-53;25;-17
-55;24;-19
-49;23;-15
-54;21;-20
-59;27;-30
-55;23;-28
-56;24;-24
-56;23;-26
-58;23;-28
-58;22;-22
-59;22;-25
-55;22;-16
-55;21;-17
-54;24;-17
-56;23;-19
-61;22;-17
-55;23;-18
-57;22;-17
-58;22;-15
-66;22;-20
-62;23;-16
-56;22;-18
-64;22;-13
-62;23;-9
-54;24;8
-62;22;7
-69;25;3
-51;24;12
-50;26;13
-56;25;19
-58;23;19
-55;25;19
-49;25;21
-61;24;13
-63;23;16
-49;25;19
-60;25;13
-62;23;14
-58;25;15
-59;25;13
-57;23;14
-61;23;11
-61;24;12
-59;23;12
-58;22;12
-60;21;13
-57;23;14
-62;23;11
-59;24;13
-58;23;13
-61;22;13
-58;25;14
-55;24;12
-62;25;9
-59;23;13
-55;23;10
-63;25;7
-57;26;9
-64;21;9
-60;22;14
-58;22;14
-55;21;13
-57;22;13
-56;22;10
-55;23;4
-65;22;-6
-67;22;-2
-59;22;-2
-65;21;-5
-63;21;-4
-63;21;-5
-61;23;-6
-60;20;-1
-62;21;-3
-63;22;-3
-59;21;-2
-63;23;-4
-59;21;1
-55;22;2
-57;21;1
-59;21;0
-60;22;-2
-58;22;-4
-62;21;-10
-63;22;-11
-57;20;-10
-68;21;-17
-65;21;-15
-61;19;-13
-63;20;-13
-64;20;-13
-64;20;-13
-59;21;-10
-59;21;-7
-61;21;-8
-58;22;-6
-58;22;-5
-61;22;-6
-61;22;-6
-61;23;-5
-61;22;-6
-60;23;-6
-58;24;-3
-60;23;-3
-60;25;-4
-60;24;-4
-59;24;-1
-58;24;-1
-61;24;-2
-61;25;-1
-59;24;0
-57;25;0
-58;26;0
-59;26;-1
-59;26;0
-60;26;0
-59;26;1
-61;24;2
-60;26;1
-57;25;1
-60;25;1
-60;25;2
-59;25;2
-59;25;0
-58;23;0
-61;26;-3
-57;24;-4
-65;22;-5
-64;23;-3
-61;23;-1
-63;23;0
-64;24;-2
-59;24;1
-59;24;0
-59;24;0
-59;24;7
-63;24;1
-57;24;4
-60;23;5
-59;23;6
-59;24;8
-57;22;9
-61;25;5
-59;24;2
-56;25;5
-58;23;2
-64;23;-2
-64;23;-2
-64;24;-1
-67;24;2
-66;25;2
-71;27;5
-68;36;9
-64;39;15
-62;47;24
-68;51;21
-75;51;18
-68;48;22
-64;47;24
-62;43;21
-62;41;23
-54;35;28
-49;33;29
-52;30;26
-55;28;22
-56;24;22
-53;21;24
-41;20;25
-40;18;28
-36;10;30
-37;10;29
-33;13;30
-31;10;37
-31;12;37
-30;13;38
-28;14;42
-33;21;42
-35;24;45
-27;23;49
-31;20;48
-26;15;58
-24;13;59
-34;21;48
-45;26;30
-30;25;42
-20;31;45
-22;33;48
-27;34;53
-32;28;57
-24;27;57
-31;30;53
-27;26;58
-19;23;60
-34;24;55
-28;24;53
-25;26;48
-23;27;49
-29;28;44
-32;29;44
-33;24;48
-37;26;42
-42;25;39
-38;27;33
-39;29;35
-41;29;37
-40;29;34
-47;30;31
-48;31;28
-47;32;34
-41;31;38
-45;34;35
-37;37;38
-36;35;38
-43;38;35
-45;42;33
-45;42;31
-42;42;34
-34;45;38
-32;45;39
-32;48;37
-28;47;40
-31;47;37
-36;47;36
-34;48;37
-29;47;38
-29;48;38
-27;49;39
-27;50;37
-27;47;37
-28;48;38
-28;48;36
-24;47;37
-22;49;37
-24;48;37
-22;49;38
-20;48;38
-21;49;37
-20;48;38
-21;48;38
-16;48;39
-21;48;38
-19;48;39
-17;48;40
-17;48;39
-17;48;41
-18;48;39
-16;47;40
-14;48;41
-14;48;41
-13;47;42
-14;48;41
-14;48;41
-12;49;42
-10;49;41
-8;48;43
-9;49;41
-9;48;42
-7;48;43
-7;48;42
-6;47;42
-8;48;40
-7;48;42
-3;48;42
-5;48;42
-5;48;41
-2;47;42
-2;49;41
-3;49;42
-2;48;41
-4;49;40
-1;48;43
-4;49;41
-1;49;42
-1;49;42
-1;50;41
-1;50;41
-1;50;41
0;49;41
-2;49;41
-1;49;41
-1;49;40
1;49;41
0;50;40
0;48;41
-1;49;41
1;49;42
0;48;41
0;50;41
-2;50;40
0;49;42
-1;49;40
-3;50;39
0;48;41
-1;48;41
-1;47;41
-5;46;39
-6;46;40
-8;44;40
-10;45;39
-9;43;41
-12;42;39
-15;40;40
-17;40;39
-19;39;40
-27;38;35
-29;38;35
-39;40;30
-40;41;29
-40;39;29
-42;40;26
-43;37;27
-42;36;25
-46;33;24
-47;30;20
-49;30;19
-46;28;19
-47;24;18
-58;16;17
-57;13;17
-54;9;18
-54;0;20
-65;-7;14
-69;-13;15
-64;-14;14
-68;-23;16
-69;-26;16
-69;-33;16
-68;-34;14
-64;-36;12
-64;-38;13
-58;-35;13
-61;-36;12
-60;-34;9
-56;-37;10
-59;-38;11
-57;-37;9
-53;-36;10
-53;-35;8
-51;-37;8
-52;-36;6
-50;-39;8
-51;-39;8
-52;-40;8
-52;-40;10
-54;-38;9
-53;-38;7
-53;-38;7
-54;-38;3
-48;-40;10
-51;-38;5
-52;-43;7
-51;-42;8
-53;-41;6
-52;-41;8
-49;-42;10
-51;-41;7
-39;-42;13
-44;-39;14
-60;-38;8
-55;-40;9
-55;-44;10
-46;-46;14
-51;-46;16
-48;-38;12
-57;-36;5
-59;-39;13
-59;-35;14
-74;-24;7
-77;-26;14
-72;-14;15
-76;-10;13
-69;-1;12
-55;4;12
-49;5;14
-40;9;18
-38;8;21
-38;9;18
-33;9;16
-56;-11;34
-41;-10;44
-37;-8;41
-57;-13;40
-64;-18;37
-55;-2;32
-55;4;28
-69;1;23
-74;2;20
-52;2;29
-65;1;21
-66;0;16
-64;5;9
-67;6;8
-65;7;8
-62;11;4
-68;8;7
-71;8;4
-66;8;2
-68;5;3
-69;5;0
-62;4;4
-61;2;6
-67;2;9
-68;2;7
-62;6;5
-67;5;7
-66;6;6
-61;6;11
-63;5;13
-64;5;13
-65;4;12
-61;5;13
-59;5;12
-67;8;6
-63;7;8
-62;7;10
-61;7;10
-65;6;8
-65;6;6
-61;7;5
-66;6;1
-64;6;2
-62;5;0
-65;6;0
-68;7;0
-61;5;0
-59;5;0
-71;5;-9
-68;5;-10
-59;7;-11
-60;7;-14
-61;7;-17
-61;8;-17
-62;8;-20
-59;8;-24
-60;8;-23
-61;8;-22
-59;7;-22
-64;6;-24
-61;6;-24
-58;6;-22
-62;6;-23
-61;4;-22
-61;3;-24
-63;3;-24
-63;5;-22
-63;6;-18
-57;8;-13
-65;8;-10
-64;11;-11
-70;12;-9
-62;12;-5
-54;14;-2
-54;13;1
-64;10;5
-65;10;4
-62;9;6
-70;10;4
-64;11;6
-58;11;8
-57;12;6
-74;12;-1
-67;11;5
-59;10;13
-67;9;14
-64;13;12
-58;11;14
-60;11;15
-61;11;12
-69;14;10
-62;11;13
-59;10;12
-63;13;9
-69;13;6
-69;13;6
-69;11;15
-69;11;14
-53;9;27
-45;10;31
-53;9;32
-56;10;31
-55;9;35
-57;8;33
-49;6;37
-56;7;40
-55;4;40
-43;3;37
-41;5;37
-52;3;34
-50;2;32
-56;11;27
-57;11;29
-56;12;22
-54;20;33
-52;-2;35
-48;19;39
-48;14;35
-60;17;33
-58;11;34
-60;11;30
-60;7;28
-59;5;29
-60;7;22
-66;7;26
-59;7;31
-55;7;33
-44;8;44
-54;10;34
-54;10;32
-54;8;39
-51;14;37
-41;17;43
-40;21;45
-51;18;43
-52;15;39
-46;6;40
-60;5;32
-54;8;38
-38;16;50
-36;18;49
-41;20;47
-41;17;47
-46;12;42
-50;9;42
-45;6;50
-36;8;54
-38;9;55
-37;9;51
-41;7;50
-48;3;55
-50;2;52
-44;5;48
-49;6;42
-49;1;43
-32;4;53
-35;3;51
-50;4;46
-46;7;44
-44;13;43
-39;14;47
-42;11;48
-32;12;47
-42;5;43
-55;4;32
-51;3;40
-45;5;49
-48;6;49
-35;9;56
-36;9;54
-40;8;46
-45;8;35
-53;8;33
-60;8;29
-50;13;29
-44;5;55
-32;9;56
-53;14;42
-57;9;46
-47;12;45
-41;5;58
-43;5;50
-53;12;27
-70;17;11
-66;20;9
-81;35;4
-30;26;13
-59;22;-9
-60;27;-10
-63;24;-10
-57;26;-6
-57;30;-1
-56;38;8
-43;18;15
-31;50;29
-59;19;22
-55;26;20
-59;24;17
-61;23;17
-59;24;17
-64;26;15
-62;21;15
-57;23;19
-59;21;17
-58;23;16
-59;24;15
-58;24;15
-59;25;16
-58;25;15
-59;27;16
-60;26;16
-59;27;16
-58;28;17
-57;28;17
-58;27;16
-57;27;16
-57;26;18
-56;26;20
-56;25;19
-55;26;17
-53;29;17
-56;31;13
-57;31;11
-56;31;9
-55;31;8
-52;34;10
-56;35;8
-57;36;7
-55;34;10
-52;33;11
-54;36;15
-54;37;16
-52;46;20
-53;48;20
-54;47;20
-55;47;16
-54;47;16
-54;45;15
-47;44;16
-41;43;17
-44;42;18
-41;41;15
-38;39;15
-39;36;14
-39;35;13
-36;34;16
-44;31;17
-48;29;20
-44;23;27
-40;28;31
-49;31;37
-50;36;37
-51;40;40
-52;35;43
-51;29;38
-52;22;33
-48;20;34
-44;23;33
-44;21;32
-40;21;33
-42;20;34
-51;20;36
-63;17;38
-53;10;47
-47;9;46
-50;10;43
-54;6;40
-50;5;40
-51;2;40
-54;1;40
-57;0;38
-58;1;38
-55;1;38
-53;3;39
-51;4;38
-47;8;39
-48;9;39
-48;10;36
-47;11;35
-47;11;34
-42;12;36
-42;13;37
-52;11;36
-60;9;36
-57;9;40
-56;10;41
-55;12;41
-57;13;38
-58;11;37
-60;11;31
-59;9;30
-61;4;32
-59;0;35
-58;-1;40
-55;-1;42
-56;-1;45
-54;9;51
-48;23;55
-57;22;45
-63;22;36
-66;22;26
-53;18;30
-39;14;27
-31;12;29
-21;11;31
-36;7;28
-45;5;26
-48;6;31
-43;9;34
-45;12;41
-46;12;44
-54;14;43
-58;13;43
-58;11;43
-56;10;41
-55;10;41
-55;13;38
-54;15;38
-60;21;33
-54;25;30
-49;28;33
-55;28;30
-53;26;29
-50;22;30
-50;21;29
-55;21;27
-54;20;28
-45;16;30
-38;14;34
-44;9;40
-56;13;31
-55;23;24
-63;33;17
-65;32;18
-65;28;23
-66;26;28
-63;23;30
-63;22;29
-63;18;24
-55;13;24
-57;16;19
-57;20;18
-58;19;16
-58;20;15
-57;21;18
-53;22;20
-56;20;19
-63;21;11
-58;19;21
-58;21;20
-63;20;18
-62;18;19
-57;19;21
-56;19;21
-59;19;15
-56;20;11
-60;21;6
-63;19;1
-60;21;2
-66;19;-1
-65;21;-1
-65;20;-4
-68;20;-1
-58;22;1
-59;20;1
-63;20;0
-62;19;0
-62;20;-1
-61;19;1
-60;19;2
-59;18;4
-56;18;4
-62;19;-2
-60;21;1
-61;21;1
-64;19;-1
-64;20;-1
-62;18;-6
-64;21;-10
-68;20;-7
-62;20;-3
-68;20;0
-60;20;3
-61;19;3
-54;20;9
-57;22;10
-62;20;7
-55;20;14
-59;20;15
-62;21;16
-60;21;20
-62;20;19
-55;20;24
-49;19;32
-46;19;32
-60;20;28
-55;20;29
-47;21;34
-52;20;35
-49;20;37
-52;19;37
-53;19;35
-56;19;28
-55;19;30
-58;20;27
-56;20;28
-56;19;27
-50;18;36
-52;20;34
-54;20;31
-52;19;32
-54;21;32
-56;19;32
-51;20;35
-50;21;35
-50;19;33
-49;22;33
-47;21;35
-41;21;38
-43;21;37
-56;20;27
-56;18;28
-50;20;29
-58;20;24
-55;17;21
-65;18;15
-64;18;13
-69;19;12
-70;18;11
-63;19;11
-63;20;10
-61;18;10
-64;19;13
-61;19;13
-56;20;16
-53;20;17
-57;20;15
-55;21;15
-59;20;14
-62;21;10
-61;18;11
-66;20;-3
-68;20;-2
-61;21;1
-67;22;-3
-61;18;0
-57;20;-1
-65;18;-4
-63;22;-4
-66;23;-2
-62;19;4
-61;20;3
-58;20;5
-58;20;5
-62;20;6
-60;22;7
-60;23;9
-58;22;10
-58;21;8
-61;20;9
-58;20;9
-60;20;9
-61;20;9
-61;21;7
-65;24;4
-63;22;4
-56;22;8
-59;22;8
-61;21;8
-62;20;8
-62;19;8
-62;19;8
-60;19;6
-63;19;2
-65;19;3
-60;21;4
-61;22;6
-59;22;5
-54;20;6
-60;22;0
-59;22;-2
-63;20;-2
-60;20;-1
-61;20;-3
-64;19;-3
-62;21;-6
-59;20;-7
-58;22;-4
-62;21;-10
-71;21;-13
-61;20;-13
-70;22;-13
-63;21;-7
-58;19;1
-57;20;6
-56;24;11
-60;22;12
-50;22;22
-53;23;21
-62;23;14
-54;23;17
-56;20;17
-59;22;17
-62;21;18
-59;22;20
-56;21;23
-52;23;27
-55;24;26
-48;20;37
-47;23;40
-55;22;40
-48;22;37
-48;20;35
-52;21;34
-50;21;36
-50;22;34
-54;22;34
-49;22;36
-48;21;35
-51;21;33
-48;21;34
-55;21;35
-50;21;30
-51;21;32
-56;22;29
-51;22;27
-60;21;28
-45;21;34
-40;21;38
-49;22;37
-54;20;41
-42;19;44
-44;19;43
-46;19;41
-47;19;42
-47;19;43
-44;17;44
-44;18;43
-47;18;40
-49;18;39
-44;17;40
-46;19;39
-54;17;40
-44;16;42
-44;17;32
-63;14;23
-63;16;20
-61;18;16
-59;17;15
-65;16;14
-62;18;14
-62;16;13
-60;18;12
-65;19;8
-65;18;10
-64;17;14
-55;16;22
-52;17;24
-63;15;22
-55;15;24
-53;16;26
-57;16;26
-53;16;29
-59;13;30
-51;14;31
-61;12;22
-68;12;18
-56;15;19
-57;14;18
-60;16;14
-58;17;2
-64;16;3
-67;15;3
-69;15;0
-68;15;3
-64;13;7
-60;15;11
-60;14;15
-61;16;19
-65;17;16
-64;18;16
-57;17;18
-56;17;18
-55;16;19
-60;18;17
-61;17;20
-57;18;21
-56;17;22
-59;18;20
-63;17;19
-62;16;14
-62;14;18
-61;16;13
-67;15;12
-65;17;12
-58;15;16
-63;16;14
-59;17;15
-61;17;13
-59;15;13
-58;17;13
-59;19;13
-60;16;14
-56;16;14
-58;14;15
-62;14;11
-60;15;9
-59;15;9
-62;15;2
-64;14;2
-68;15;-4
-66;12;-8
-67;12;-9
-66;10;-8
-65;11;-11
-62;13;-8
-63;14;-8
-64;13;-11
-64;15;-13
-64;13;-11
-65;14;-12
-62;15;-15
-61;17;-14
-59;18;-13
-59;18;-10
-60;17;-9
-67;18;-8
-65;17;-6
-59;18;-7
-64;18;-2
-63;20;-2
-59;20;1
-58;20;1
-62;22;3
-62;21;3
-66;22;3
-62;21;7
-59;20;10
-55;20;23
-52;21;25
-56;23;27
-52;20;29
-35;20;40
-48;19;42
-45;19;43
-43;19;43
-44;19;42
-47;16;44
-44;16;41
-58;17;22
-59;18;17
-63;15;0
-58;22;-10
-54;18;-7
-68;22;-12
-71;21;-16
-59;20;-12
-59;19;-14
-63;18;-26
-70;19;-23
-57;19;-17
-61;18;-18
-66;18;-17
-64;19;-14
-59;20;-13
-63;18;-5
-61;20;-4
-59;20;1
-50;21;6
-63;20;5
-65;20;3
-67;21;3
-56;20;13
-53;19;15
-58;20;10
-60;19;10
-60;20;8
-63;20;9
-56;20;9
-65;20;4
-61;20;5
-59;19;3
-64;19;3
-61;18;0
-61;19;-3
-62;19;-13
-62;20;-12
-58;21;-13
-65;21;-16
-62;21;-13
-62;19;-11
-63;19;-12
-59;17;-11
-60;18;-12
-63;17;-12
-61;19;-13
-61;20;-13
-65;19;-14
-65;19;-15
-63;18;-12
-62;19;-9
-64;19;-3
-63;20;1
-59;20;6
-56;19;12
-61;22;10
-65;19;10
-61;20;11
-48;21;19
-50;21;22
-59;21;20
-60;23;16
-60;21;18
-59;21;20
-58;21;18
-56;19;21
-60;20;21
-61;21;16
-58;22;18
-59;21;17
-58;21;20
-57;20;23
-58;22;21
-59;21;21
-56;21;24
-56;21;23
-52;21;27
-55;22;25
-54;21;23
-58;20;24
-59;21;24
-58;19;26
-57;19;28
-56;20;26
-56;20;27
-48;21;35
-49;20;36
-49;21;36
-50;21;36
-47;20;38
-50;18;39
-52;19;38
-50;20;37
-42;19;39
-57;19;28
-56;21;22
-50;20;24
-56;20;21
-54;21;20
-69;20;9
-67;17;7
-61;18;6
-64;17;2
-60;20;-1
-70;18;-6
-69;19;-4
-63;19;3
-68;19;-2
-62;19;-1
-59;19;5
-58;18;9
-60;21;5
-59;20;10
-61;21;10
-58;20;12
-54;20;14
-60;20;12
-63;20;8
-60;20;9
-62;21;12
-57;18;13
-58;18;11
-61;18;10
-56;17;12
-56;17;10
-62;17;3
-55;19;-7
-62;20;-18
-63;20;-24
-67;21;-29
-59;21;-26
-54;19;-23
-58;21;-25
-55;22;-25
-52;23;-24
-50;25;-27
-51;23;-26
-55;24;-31
-50;23;-28
-50;23;-28
-53;24;-31
-54;24;-30
-53;24;-29
-55;24;-31
-51;24;-30
-49;25;-29
-52;25;-30
-51;26;-28
-51;26;-29
-52;27;-28
-50;27;-28
-53;27;-29
-53;27;-27
-51;27;-24
-51;27;-23
-52;28;-23
-52;27;-23
-51;28;-23
-53;27;-22
-54;27;-23
-50;27;-22
-52;26;-22
-52;26;-22
-52;25;-24
-53;25;-25
-56;24;-26
-56;23;-26
-54;22;-26
-55;22;-26
-59;21;-26
-56;21;-25
-57;20;-24
-59;19;-23
-57;19;-22
-58;19;-23
-59;19;-23
-57;19;-22
-57;19;-22
-58;19;-22
-57;18;-22
-57;19;-22
-57;18;-22
-57;18;-23
-59;18;-23
-59;18;-23
-58;18;-22
-59;18;-22
-58;18;-21
-58;18;-22
-58;18;-22
-58;18;-22
-59;18;-22
-58;18;-22
-58;17;-21
-58;18;-21
-58;18;-21
-58;17;-21
-58;18;-22
-58;18;-21
-58;18;-22
-58;18;-21
-59;17;-21
-58;17;-21
-58;18;-20
-58;18;-20
-59;18;-20
-58;18;-19
-58;18;-19
-59;17;-20
-58;16;-20
-59;16;-20
-61;15;-21
-59;14;-20
-61;15;-17
-62;15;-18
-62;13;-15
-64;14;-14
-63;13;-12
-63;12;-10
-63;13;-7
-62;13;-6
-65;15;-7
-64;14;-5
-65;15;-5
-64;15;-4
-65;15;-5
-65;14;-3
-64;13;-1
-63;15;1
-62;15;1
-59;16;1
-56;17;1
-58;18;-1
-59;18;-4
-59;18;-3
-62;17;-4
-64;16;-4
-62;15;-1
-66;14;-1
-68;14;-2
-66;13;1
-64;12;3
-65;11;4
-66;11;4
-64;11;6
-62;12;7
-63;12;8
-64;11;7
-64;10;8
-64;10;8
-63;10;8
-62;10;9
-63;9;9
-63;8;9
-63;8;9
-63;6;9
-64;7;8
-63;7;8
-63;9;8
-63;9;8
-65;11;7
-66;10;7
-66;8;7
-66;8;6
-65;7;7
-63;6;9
-63;6;9
-63;6;9
-64;8;9
-65;9;8
-65;9;8
-65;10;7
-66;9;6
-66;9;6
-70;10;2
-72;10;1
-68;15;0
-69;16;-1
-67;17;1
-65;18;1
-62;19;0
-59;18;7
-59;18;9
-56;16;13
-58;15;16
-57;14;15
-58;14;14
-56;17;9
-51;17;10
-52;17;9
-60;23;-11
-63;28;-17
-53;31;-7
-56;31;-7
-59;31;-6
-59;29;-4
-63;28;-7
-66;25;-13
-68;24;-13
-62;21;-11
-59;22;-12
-62;22;-14
-63;21;-13
-64;20;-9
-62;21;-9
-61;21;-9
-62;21;-10
-61;22;-9
-59;21;-8
-58;23;-7
-59;20;-7
-57;19;-3
-62;22;-6
-60;21;-5
-63;22;-8
-59;20;-4
-61;20;-3
-62;22;-5
-61;22;-5
-59;21;-6
-61;20;-6
-59;21;-6
-60;22;-6
-59;22;-5
-62;22;-7
-57;21;-7
-63;20;-6
-61;21;-6
-61;20;-7
-62;19;-6
-62;20;-5
-62;20;-5
-63;20;-6
-59;19;-4
-60;21;-5
-62;21;-8
-62;20;-6
-64;22;-9
-60;21;-8
-58;20;-4
-61;20;-6
-62;21;-8
-59;20;-4
-63;19;-3
-62;20;-3
-60;21;-4
-62;21;-5
-60;21;-4
-60;20;-5
-60;20;-3
-59;20;-3
-63;19;-3
-64;19;-2
-64;19;-2
-62;19;-1
-62;19;-1
-63;19;-1
-60;18;0
-65;19;0
-65;20;-1
-60;19;2
-63;20;-1
-63;20;0
-60;19;0
-60;19;3
-61;19;4
-60;20;4
-59;20;-3
-63;20;-3
-64;18;4
-62;19;2
-60;18;1
-66;17;2
-65;18;1
-61;17;2
-63;17;3
-64;18;1
-64;16;3
-62;17;4
-62;18;3
-61;19;2
-61;18;2
-60;19;3
-64;18;2
-66;18;1
-60;18;3
-59;18;2
-64;19;1
-63;18;2
-61;18;3
-61;19;2
-62;19;1
-62;18;2
-62;18;2
-61;19;1
-61;19;1
-63;19;0
-62;18;2
-61;19;2
-63;18;2
-63;18;1
-62;18;0
-63;18;-2
-62;18;-1
-64;18;-3
-63;19;-4
-61;18;-2
-62;18;-1
-62;18;-2
-63;19;-2
-62;18;-1
-62;18;-1
-63;18;-1
-62;18;0
-62;18;-1
-61;19;-2
-62;18;-3
-62;18;-5
-63;18;-7
-63;18;-5
-62;18;-4
-62;18;-6
-62;18;-5
-63;17;-3
-61;18;-4
-61;19;-4
-63;18;-3
-63;18;-2
-61;18;-1
-62;18;-2
-63;17;-2
-63;18;-3
-62;18;-1
-62;18;-1
-62;18;-1
-62;19;-1
-63;18;-1
-61;18;-1
-60;19;-2
-61;17;0
-62;17;-1
-64;17;-3
-64;17;-3
-64;17;-4
-59;17;-7
-61;18;-10
-65;15;-4
-62;15;-1
-60;18;-3
-59;18;-10
-63;15;-17
-65;17;-17
-61;16;-15
-66;23;-24
-70;26;-27
-79;25;-25
-70;26;-23
-64;24;-23
-63;24;-21
-59;18;-16
-59;15;-13
-54;15;-11
-55;11;-2
-54;10;0
-44;14;9
-49;7;14
-49;1;17
-62;-12;30
-68;-16;29
-61;-17;32
-54;-14;38
-41;-15;44
-42;-21;47
-57;-42;47
-61;-38;59
-46;-40;60
-48;-34;47
-55;-21;39
-56;-8;42
-58;-8;40
-45;-3;32
-42;8;26
-54;5;25
-59;13;12
-65;17;10
-59;13;6
-60;17;0
-67;22;-9
-68;21;-15
-67;28;-23
-60;28;-20
-50;28;-11
-52;25;-10
-49;25;-4
-56;24;-3
-51;25;-1
-49;25;7
-55;24;6
-65;29;-6
-64;31;-4
-62;32;-3
-57;31;-2
-57;29;-1
-60;28;-4
-60;28;-6
-58;28;-5
-59;28;-6
-58;28;-6
-59;28;-7
-60;27;-6
-59;26;-5
-58;27;-5
-59;28;-5
-61;29;-4
-58;28;-3
-58;28;-2
-58;26;-5
-60;27;-4
-61;27;-4
-59;26;-4
-60;25;-3
-59;25;0
-58;25;0
-60;25;-1
-58;24;-1
-59;23;0
-61;23;0
-59;22;1
-58;21;3
-59;20;3
-60;20;-1
-60;19;-2
-58;20;-5
-60;20;-9
-60;20;-10
-63;21;-14
-64;21;-15
-66;19;-15
-66;18;-15
-63;17;-14
-63;16;-13
-61;16;-12
-61;16;-11
-63;15;-12
-61;15;-10
-61;15;-9
-61;15;-10
-61;15;-9
-61;16;-9
-62;16;-10
-64;15;-10
-63;15;-10
-62;15;-9
-63;14;-10
-63;13;-10
-61;14;-9
-62;14;-10
-61;16;-11
-62;15;-11
-63;14;-12
-63;13;-11
-63;13;-11
-63;12;-9
-63;13;-10
-62;13;-9
-63;14;-10
-62;14;-10
-63;14;-10
-63;13;-10
-62;14;-11
-62;14;-11
-62;14;-11
-62;13;-11
-62;13;-11
-63;13;-11
-63;13;-10
-63;13;-10
-63;13;-10
-63;13;-10
-62;13;-10
-62;13;-10
-62;14;-10
-62;14;-12
-62;13;-12
-63;13;-12
-63;13;-11
-63;14;-11
-62;14;-10
-62;14;-10
-62;13;-10
-62;13;-10
-62;13;-10
-62;13;-10
-62;13;-10
-63;13;-10
-63;13;-10
-63;12;-10
-63;12;-10
-63;12;-9
-63;13;-9
-63;13;-10
-62;13;-10
-62;13;-10
-62;13;-10
-62;13;-11
-63;13;-11
-63;13;-11
-63;12;-10
-63;12;-10
-63;12;-9
-63;12;-9
-63;13;-9
-63;13;-10
-63;13;-10
-63;13;-10
-63;13;-10
-63;13;-10
-62;13;-10
-62;13;-10
-63;14;-10
-63;14;-10
-63;14;-10
-63;14;-10
-63;14;-10
-63;14;-10
-62;14;-10
-61;16;-10
-61;16;-10
-62;16;-11
-62;16;-11
-62;15;-11
-62;16;-10
-60;17;-10
-61;18;-10
-61;18;-10
-62;16;-11
-62;16;-10
-62;17;-10
-61;17;-10
-61;19;-10
-61;18;-10
-61;18;-11
-61;18;-11
-62;18;-11
-61;18;-10
-61;18;-10
-60;17;-10
-59;18;-10
-60;19;-12
-60;20;-13
-60;20;-15
-60;21;-15
-59;19;-15
-59;19;-16
-59;19;-18
-63;18;-21
-65;18;-23
-58;21;-25
-57;20;-24
-62;20;-24
-58;19;-21
-59;19;-19
-55;19;-13
-53;20;-12
-52;21;-13
-52;22;-13
-53;22;-14
-48;23;-10
-51;19;-7
-70;20;-31
-57;23;-30
-47;19;-27
-55;25;-37
-53;22;-45
-53;21;-48
-47;20;-38
-45;17;-34
-51;16;-39
-47;18;-44
-47;18;-43
-46;16;-42
-47;18;-43
-43;18;-42
-48;18;-43
-47;16;-38
-47;16;-43
-49;16;-43
-49;15;-41
-53;16;-41
-42;16;-35
-50;16;-38
-52;16;-38
-54;17;-41
-53;15;-37
-51;16;-36
-53;18;-32
-55;18;-32
-54;17;-29
-53;18;-27
-52;17;-24
-57;19;-29
-56;19;-26
-52;20;-24
-61;19;-25
-65;19;-25
-60;17;-15
-58;18;-12
-63;20;-8
-61;19;-7
-62;18;-2
-63;19;-4
-61;19;1
-55;18;4
-53;18;4
-53;20;-5
-54;20;-8
-57;21;-8
-61;18;-5
-73;18;-14
-53;15;-8
-64;14;-10
-67;12;-13
-63;13;-10
-61;12;-13
-65;14;-19
-64;15;-19
-59;15;-18
-60;16;-20
-57;15;-22
-57;15;-26
-60;14;-18
-58;15;-19
-57;15;-25
-59;15;-24
-60;16;-21
-57;18;-23
-58;18;-26
-57;16;-23
-57;16;-23
-57;16;-25
-58;15;-23
-59;17;-21
-59;18;-21
-60;18;-19
-60;18;-18
-59;16;-17
-61;15;-16
-61;15;-15
-59;15;-14
-60;16;-14
-64;16;-16
-64;15;-16
-63;16;-15
-58;16;-9
-62;16;-9
-61;16;-10
-60;15;-12
-63;17;-16
-57;16;-14
-62;17;-13
-61;17;-13
-59;17;-15
-62;18;-15
-62;16;-17
-59;18;-16
-61;18;-16
-59;17;-17
-61;17;-17
-64;16;-15
-61;17;-16
-64;19;-19
-61;18;-11
-52;18;-6
-62;20;-12
-65;20;-11
-60;23;-6
-59;23;-9
-60;18;-5
-57;22;-8
-55;23;-10
-62;21;-12
-65;22;-14
-58;22;-6
-60;22;-5
-63;20;-7
-65;20;-6
-58;23;-4
-60;23;-7
-60;23;-8
-56;23;-9
-53;24;-10
-61;23;-7
-64;22;-6
-58;23;-6
-53;21;-5
-66;20;-11
-56;19;-15
-64;17;-19
-54;16;-13
-56;18;-14
-65;13;-21
-61;14;-22
-56;20;-29
-57;18;-32
-59;21;-41
-60;24;-42
-59;23;-35
-51;22;-22
-53;24;-17
-61;23;-11
-61;22;-7
-52;20;6
-60;16;14
-63;16;17
-64;10;23
-60;11;28
-55;8;27
-56;9;24
-64;12;19
-64;11;20
-59;14;19
-59;15;23
-60;15;25
-59;16;24
-61;16;24
-60;15;22
-54;14;23
-58;14;24
-59;14;25
-58;14;26
-57;15;25
-58;14;24
-56;15;25
-56;14;24
-59;13;25
-59;14;26
-55;15;27
-59;14;23
-62;13;21
-57;15;21
-60;16;21
-55;14;27
-54;14;28
-63;14;25
-61;12;24
-60;13;21
-60;13;23
-63;12;26
-56;13;21
-62;14;19
-62;14;23
-55;13;23
-59;13;21
-61;13;20
-63;9;19
-56;11;31
-58;14;29
-61;16;24
-53;17;24
-56;17;23
-52;15;28
-51;15;24
-60;15;21
-58;11;15
-62;14;23
-64;13;23
-58;12;22
-59;13;24
-61;13;21
-58;12;22
-60;9;23
-60;12;18
-55;9;17
-68;9;14
-71;12;13
-63;13;13
-63;12;10
-66;6;-1
-65;11;5
-60;9;7
-67;9;7
-61;3;10
-56;3;18
-63;6;15
-62;4;14
-64;7;11
-64;4;17
-62;4;18
-63;7;15
-64;5;13
-63;5;13
-65;6;11
-66;5;10
-63;6;13
-64;6;13
-64;6;10
-65;7;7
-65;7;7
-63;7;9
-65;5;8
-64;7;7
-66;9;7
-68;8;10
-66;2;10
-64;6;11
-63;13;11
-63;6;9
-65;13;7
-63;9;9
-62;10;11
-66;8;7
-60;7;10
-60;7;11
-63;8;6
-65;7;6
-64;7;7
-64;7;6
-63;5;7
-70;6;0
-72;8;-3
-69;9;2
-63;9;2
-65;13;-2
-66;14;1
-100;11;4
-77;18;0
-59;14;3
-50;17;6
-57;18;1
-61;18;1
-60;17;1
-61;19;-4
-57;21;-1
-56;19;2
-58;21;0
-60;20;0
-62;20;0
-59;20;1
-60;17;5
-60;18;1
-63;17;1
-67;17;-2
-67;16;-6
-67;15;-2
-63;16;1
-61;15;-3
-65;15;-6
-66;14;-6
-58;14;-4
-59;14;-4
-60;14;-5
-59;13;-5
-62;13;-9
-58;12;-6
-58;12;-6
-60;13;-9
-61;15;-15
-63;16;-15
-64;15;-14
-63;16;-17
-64;16;-16
-64;16;-12
-63;14;-10
-64;14;-11
-63;12;-9
-61;13;-9
-63;12;-12
-62;11;-12
-63;10;-11
-64;10;-12
-64;9;-10
-64;9;-10
-64;9;-10
-65;8;-10
-64;8;-10
-64;9;-11
-65;9;-12
-64;9;-12
-62;9;-12
-62;10;-12
-62;11;-12
-60;12;-12
-60;13;-13
-61;14;-13
-61;14;-15
-61;14;-15
-60;14;-17
-60;14;-19
-60;13;-20
-61;14;-21
-59;14;-21
-61;15;-22
-59;14;-22
-58;15;-22
-58;14;-22
-59;15;-24
-59;15;-24
-58;15;-24
-58;16;-23
-57;15;-24
-58;15;-24
-55;14;-22
-59;15;-24
-59;15;-24
-58;15;-24
-58;15;-23
-57;15;-24
-58;15;-24
-59;14;-22
-59;15;-25
-59;15;-25
-60;15;-21
-59;15;-23
-58;15;-22
-59;14;-20
-58;15;-21
-58;15;-20
-59;15;-19
-61;16;-22
-59;16;-23
-60;15;-21
-58;15;-19
-58;14;-20
-61;15;-21
-59;15;-21
-60;15;-22
-59;15;-22
-59;15;-21
-58;15;-19
-60;15;-20
-60;15;-22
-59;15;-20
-60;16;-21
-60;16;-21
-59;16;-21
-60;16;-22
-59;14;-20
-58;15;-20
-60;16;-22
-59;16;-21
-61;16;-22
-58;16;-19
-59;16;-20
-58;16;-21
-58;16;-22
-60;16;-22
-60;16;-21
-59;17;-21
-59;17;-22
-59;17;-21
-60;17;-21
-58;17;-19
-59;17;-19
-59;17;-19
-59;17;-19
-58;18;-19
-59;18;-20
-59;18;-20
-59;17;-19
-59;18;-18
-59;18;-18
-61;18;-17
-60;18;-16
-60;18;-16
-60;18;-16
-60;18;-13
-59;18;-13
-60;18;-13
-61;17;-14
-62;19;-15
-60;18;-13
-61;17;-14
-62;18;-14
-62;17;-14
-59;18;-14
-58;18;-15
-59;18;-16
-63;17;-15
-59;18;-13
-61;17;-13
-59;17;-13
-64;17;-13
-62;17;-12
-61;18;-14
-62;18;-15
-61;17;-15
-63;17;-17
-64;17;-16
-61;18;-10
-59;18;-7
-61;19;-9
-63;18;-8
-60;18;-7
-60;18;-5
-61;19;-6
-61;19;-8
-60;19;-8
-61;19;-7
-63;18;-7
-63;19;-9
-61;19;-7
-63;18;-5
-68;18;-7
-68;19;-9
-63;20;-2
-68;19;2
-53;21;15
-54;21;20
-61;23;13
-49;20;23
-57;21;22
-51;23;24
-60;22;23
-51;23;28
-52;23;29
-57;22;28
-55;22;30
-53;23;29
-55;24;28
-49;23;26
-52;22;30
-51;22;30
-54;22;30
-55;23;28
-54;22;30
-56;23;25
-56;23;22
-56;23;21
-56;22;22
-59;24;16
-61;24;14
-56;24;16
-57;23;15
-61;24;10
-59;24;8
-59;22;11
-62;21;15
-61;22;18
-60;22;18
-64;22;15
-59;22;16
-57;21;19
-58;21;17
-58;22;17
-56;22;18
-56;23;18
-61;23;13
-64;23;12
-58;22;16
-57;22;13
-59;22;11
-59;23;10
-58;23;9
-61;23;6
-61;24;3
-59;24;4
-62;24;4
-60;22;4
-61;24;3
-61;21;6
-59;23;5
-65;22;8
-64;23;10
-59;23;11
-59;22;11
-63;22;10
-59;22;12
-52;22;16
-61;22;16
-63;22;17
-59;23;17
-59;23;18
-58;23;19
-56;22;20
-57;23;19
-57;22;22
-53;23;25
-56;23;26
-56;22;25
-55;23;24
-56;23;23
-55;22;24
-56;22;24
-56;22;24
-58;23;21
-60;22;20
-56;23;17
-57;23;17
-63;23;10
-63;23;9
-55;24;13
-56;24;11
-63;24;8
-58;23;10
-57;24;12
-60;22;13
-63;22;15
-60;22;13
-60;23;14
-53;23;22
-63;25;15
-60;24;15
-56;24;21
-51;24;22
-59;22;25
-55;24;25
-54;24;22
-59;23;20
-57;23;21
-59;24;20
-57;24;20
-56;24;18
-56;24;17
-55;24;15
-55;24;13
-63;25;14
-62;25;15
-58;25;13
-60;24;13
-63;25;14
-43;23;17
-51;23;20
-67;23;19
-60;24;20
-58;25;21
-61;23;21
-53;23;18
-59;22;20
-60;21;19
-53;23;20
-56;23;20
-63;24;18
-60;24;17
-52;23;18
-58;24;17
-58;23;15
-57;23;15
-57;23;16
-57;23;17
-58;24;14
-64;25;15
-57;24;18
-55;22;19
-55;23;19
-56;22;18
-59;22;15
-53;22;18
-57;22;12
-63;20;8
-70;24;-6
-64;22;-1
-52;16;4
-64;22;-12
-63;22;-12
-64;23;-12
-61;22;-10
-57;20;-7
-62;19;-8
-63;19;-11
-59;19;-11
-60;20;-14
-59;20;-13
-56;20;-14
-62;19;-17
-61;18;-17
-60;19;-19
-60;19;-21
-59;19;-20
-58;18;-21
-59;19;-23
-59;18;-24
-59;18;-23
-58;19;-22
-58;19;-21
-57;19;-21
-59;19;-22
-58;18;-24
-57;20;-23
-58;20;-21
-60;18;-20
-59;18;-19
-58;18;-17
-58;17;-17
-60;17;-14
-59;18;-15
-60;19;-17
-58;18;-19
-60;19;-21
-59;19;-20
-57;19;-19
-59;18;-18
-60;18;-18
-59;19;-19
-60;18;-17
-58;18;-16
-59;18;-17
-61;18;-18
-58;18;-18
-59;19;-19
-58;19;-19
-59;19;-18
-59;19;-17
-59;19;-17
-62;19;-17
-58;19;-16
-58;19;-16
-60;19;-17
-60;19;-18
-58;19;-17
-59;18;-16
-61;19;-19
-58;19;-16
-60;19;-17
-59;18;-16
-60;19;-16
-58;19;-19
-59;19;-19
-59;19;-18
-59;19;-16
-60;19;-17
-59;19;-18
-59;19;-18
-59;20;-18
-59;19;-17
-59;19;-16
-60;19;-16
-59;19;-15
-60;19;-15
-61;19;-16
-59;19;-15
-60;19;-15
-59;19;-16
-59;19;-16
-60;19;-16
-59;19;-16
-60;20;-15
-62;19;-16
-60;20;-15
-58;20;-16
-61;19;-18
-57;19;-11
-60;18;-11
-59;18;-14
-59;18;-13
-62;18;-16
-60;18;-17
-60;19;-17
-60;18;-18
-60;18;-18
-59;18;-18
-59;18;-17
-60;19;-17
-60;19;-17
-60;18;-16
-59;18;-16
-60;19;-17
-59;18;-17
-58;18;-16
-60;19;-17
-61;19;-17
-59;18;-17
-61;19;-17
-60;19;-17
-58;19;-18
-58;19;-18
-62;18;-16
-61;18;-15
-57;17;-12
-61;17;-13
-61;18;-13
-60;18;-14
-60;18;-14
-61;18;-14
-61;17;-14
-60;18;-13
-59;19;-14
-59;19;-15
-60;19;-16
-61;19;-14
-60;19;-17
-61;18;-16
-59;18;-14
-59;18;-14
-62;18;-14
-61;19;-14
-59;19;-15
-61;19;-16
-60;18;-16
-59;18;-14
-60;18;-14
-60;18;-15
-61;18;-15
-60;18;-13
-61;17;-14
-62;18;-15
-61;18;-14
-61;18;-14
-60;18;-12
-60;19;-13
-60;18;-13
-60;19;-15
-60;19;-16
-60;19;-17
-60;19;-16
-60;19;-16
-59;18;-15
-61;19;-14
-60;19;-14
-60;19;-12
-59;17;-12
-61;16;-13
-62;17;-12
-60;18;-12
-60;20;-15
-59;20;-17
-61;19;-16
-59;18;-15
-60;19;-15
-60;18;-15
-60;19;-14
-60;19;-12
-60;18;-12
-62;18;-11
-61;18;-11
-60;19;-12
-60;18;-13
-60;18;-12
-60;18;-13
-61;18;-12
-61;18;-12
-62;18;-12
-61;18;-12
-61;18;-13
-61;18;-12
-60;18;-12
-61;18;-13
-61;18;-13
-61;17;-13
-61;17;-11
-62;17;-11
-60;17;-12
-62;18;-13
-60;17;-13
-61;19;-15
-60;18;-15
-60;18;-14
-61;18;-14
-60;17;-14
-60;17;-14
-62;17;-13
-61;17;-13
-59;17;-13
-58;18;-13
-61;19;-19
-60;19;-18
-60;18;-17
-60;18;-18
-58;17;-19
-59;18;-19
-58;18;-19
-59;19;-19
-60;18;-17
-59;18;-16
-60;18;-16
-59;18;-16
-60;19;-17
-59;19;-16
-57;19;-16
-60;20;-15
-60;19;-18
-60;20;-19
-59;19;-18
-58;20;-17
-59;20;-18
-59;19;-19
-58;19;-18
-59;19;-19
-59;19;-18
-59;19;-17
-59;19;-18
-59;19;-18
-58;19;-16
-58;19;-17
-61;20;-18
-60;19;-17
-60;19;-16
-59;20;-16
-58;20;-15
-58;19;-15
-58;20;-14
-60;20;-14
-61;20;-17
-59;19;-15
-59;19;-15
-59;19;-14
-60;19;-14
-60;19;-16
-60;20;-16
-60;19;-15
-59;20;-16
-60;20;-17
-59;19;-14
-60;19;-14
-60;21;-17
-61;19;-16
-57;20;-14
-61;19;-14
-60;19;-15
-58;19;-12
-60;19;-12
-60;20;-14
-60;20;-15
-60;20;-15
-59;19;-13
-59;19;-13
-60;19;-15
-60;19;-15
-58;19;-16
-60;20;-18
-60;19;-18
-59;19;-18
-59;19;-17
-59;19;-18
-60;19;-19
-57;19;-18
-60;19;-17
-59;19;-15
-60;18;-13
-59;19;-11
-63;19;-14
-60;19;-15
-59;19;-14
-59;19;-15
-59;19;-16
-58;19;-15
-60;19;-18
-62;19;-18
-60;19;-19
-58;19;-18
-59;19;-18
-59;19;-16
-57;19;-16
-59;18;-16
-61;18;-15
-61;18;-12
-62;17;-12
-60;18;-14
-59;19;-16
-62;18;-17
-59;18;-16
-58;18;-15
-62;19;-15
-61;18;-16
-60;19;-16
-60;18;-15
-61;19;-16
-60;18;-14
-60;18;-13
-61;18;-14
-61;19;-14
-62;18;-13
-61;19;-14
-58;18;-13
-59;18;-13
-60;20;-16
-59;18;-15
-60;19;-15
-59;20;-14
-59;19;-14
-60;19;-14
-60;19;-14
-60;19;-13
-60;19;-14
-60;19;-14
-60;19;-15
-59;19;-16
-59;19;-16
-58;20;-16
-59;20;-18
-60;19;-18
-57;19;-16
-61;19;-18
-60;19;-19
-58;19;-18
-59;19;-18
-60;19;-19
-59;19;-18
-59;19;-18
-59;19;-17
-60;19;-17
-59;19;-18
-58;20;-18
-59;20;-17
-61;19;-16
-59;19;-14
-60;19;-14
-56;18;-12
-58;18;-9
-65;18;-10
-61;18;-9
-61;18;-9
-63;17;-10
-62;17;-11
-61;17;-11
-62;17;-11
-60;18;-11
-61;18;-11
-60;18;-11
-60;17;-9
-62;17;-10
-61;17;-14
-62;18;-15
-60;18;-15
-62;19;-16
-59;19;-15
-59;19;-19
-60;19;-20
-59;19;-19
-57;19;-18
-57;19;-18
-60;20;-20
-59;19;-20
-58;19;-20
-59;19;-20
-59;19;-19
-60;19;-21
-57;19;-20
-59;19;-18
-63;18;-15
-60;17;-14
-55;19;-13
-56;19;-17
-61;19;-18
-56;20;-17
-57;20;-18
-61;19;-21
-58;18;-20
-58;19;-20
-58;19;-18
-60;19;-20
-60;18;-16
-61;18;-16
-58;19;-17
-58;19;-18
-60;18;-18
-58;18;-16
-58;18;-17
-60;19;-17
-60;18;-17
-59;19;-19
-60;19;-21
-59;18;-18
-59;18;-17
-59;18;-16
-59;18;-16
-60;17;-16
-60;18;-15
-60;18;-17
-59;18;-19
-59;17;-18
-58;17;-19
-59;17;-19
-59;18;-21
-58;18;-20
-60;17;-19
-60;17;-20
-59;17;-19
-59;17;-20
-58;17;-20
-59;18;-20
-59;18;-20
-59;17;-18
-60;17;-19
-59;17;-17
-61;17;-18
-60;17;-18
-59;17;-18
-59;17;-18
-60;18;-19
-60;18;-19
-59;17;-17
-60;17;-17
-59;17;-18
-60;17;-17
-60;17;-17
-59;18;-17
-60;18;-18
-59;17;-17
-58;17;-17
-60;17;-19
-60;17;-19
-60;17;-19
-58;17;-18
-59;17;-18
-60;17;-19
-61;17;-19
-59;17;-19
-58;17;-18
-59;18;-19
-59;17;-19
-59;17;-19
-60;17;-19
-59;17;-19
-60;17;-19
-60;17;-19
-58;17;-19
-59;18;-20
-58;17;-19
-59;18;-19
-59;17;-20
-59;17;-20
-59;17;-20
-59;18;-20
-59;18;-20
-58;18;-21
-57;18;-21
-58;17;-21
-59;18;-22
-58;18;-22
-58;17;-22
-58;18;-21
-59;17;-24
-56;17;-22
-58;17;-23
-58;17;-23
-57;18;-24
-60;17;-21
-59;18;-22
-58;18;-22
-58;18;-22
-60;17;-20
-57;17;-19
-59;18;-21
-59;17;-18
-59;18;-18
-58;18;-18
-60;18;-19
-59;18;-20
-59;18;-19
-59;18;-18
-58;18;-18
-61;18;-19
-58;18;-18
-59;18;-18
-60;18;-18
-60;18;-18
-59;18;-18
-60;18;-18
-59;18;-18
-59;18;-18
-60;18;-19
-59;18;-19
-59;18;-19
-59;18;-19
-59;18;-18
-59;18;-18
-60;19;-19
-58;18;-18
-60;19;-18
-60;19;-19
-58;18;-19
-58;19;-18
-59;19;-19
-59;19;-18
-61;19;-19
-60;18;-19
-59;18;-16
-59;19;-19
-59;18;-18
-60;18;-18
-60;18;-17
-59;19;-16
-59;19;-16
-59;19;-18
-59;19;-16
-59;19;-16
-59;18;-16
-59;18;-17
-59;19;-17
-59;19;-17
-59;19;-16
-59;18;-16
-60;18;-16
-59;18;-16
-60;19;-17
-58;18;-16
-58;18;-17
-60;19;-18
-61;18;-18
-58;18;-18
-59;19;-18
-60;19;-19
-58;19;-18
-59;19;-18
-59;19;-18
-59;19;-18
-59;19;-18
-60;19;-18
-61;19;-19
-59;19;-19
-59;19;-16
-59;19;-17
-61;19;-17
-59;19;-17
-59;19;-16
-61;19;-15
-60;19;-14
-60;19;-11
-60;20;-10
-58;20;-10
-62;19;-10
-62;19;-9
-59;19;-8
-59;20;-8
-61;19;-8
-60;20;-8
-57;20;-10
-61;20;-14
-61;21;-17
-59;21;-18
-59;21;-18
-58;20;-19
-59;21;-20
-59;21;-20
-58;21;-20
-58;20;-16
-60;21;-16
-60;20;-16
-60;20;-15
-60;20;-15
-59;20;-14
-59;20;-15
-60;21;-15
-60;20;-14
-59;20;-13
-60;21;-12
-60;21;-11
-59;21;-10
-59;20;-11
-60;21;-14
-59;20;-12
-61;20;-11
-61;19;-14
-62;19;-14
-61;20;-13
-60;19;-12
-60;19;-14
-61;19;-14
-60;19;-14
-60;19;-14
-61;19;-13
-61;19;-15
-59;18;-15
-60;18;-14
-59;19;-13
-62;18;-13
-61;18;-13
-61;18;-12
-61;18;-13
-62;18;-10
-61;19;-12
-63;19;-13
-61;19;-13
-60;19;-14
-57;20;-15
-58;19;-15
-60;19;-13
-61;19;-12
-60;19;-10
-61;19;-8
-62;19;-11
-59;19;-13
-60;19;-13
-60;19;-13
-59;19;-12
-60;19;-12
-62;18;-13
-62;18;-12
-59;18;-14
-59;19;-14
-63;18;-16
-60;18;-15
-60;19;-14
-60;18;-14
-60;18;-13
-59;19;-14
-60;19;-15
-60;18;-15
-60;18;-14
-60;19;-15
-60;18;-15
-60;18;-15
-58;19;-14
-59;19;-17
-60;19;-20
-59;19;-18
-60;19;-17
-59;19;-17
-60;19;-17
-60;18;-17
-60;18;-17
-60;19;-16
-60;19;-16
-60;19;-15
-61;19;-15
-58;19;-15
-59;19;-15
-60;19;-14
-61;19;-15
-60;19;-16
-59;19;-15
-60;19;-13
-59;19;-14
-60;20;-14
-60;19;-14
-60;19;-14
-60;19;-14
-60;19;-15
-57;18;-12
-60;18;-14
-60;19;-15
-60;19;-19
-60;19;-20
-59;18;-20
-59;18;-20
-59;18;-20
-58;18;-19
-60;18;-21
-58;19;-19
-59;18;-20
-58;18;-19
-58;18;-20
-58;18;-20
-59;18;-20
-59;18;-20
-59;18;-20
-58;18;-20
-59;18;-21
-58;18;-21
-58;18;-21
-58;19;-23
-58;18;-23
-58;18;-23
-59;18;-23
-57;18;-23
-58;19;-23
-58;18;-22
-58;19;-21
-58;19;-21
-58;19;-21
-59;18;-20
-59;18;-20
-58;19;-20
-59;18;-20
-59;19;-20
-58;19;-21
-59;19;-20
-58;19;-20
-59;19;-20
-59;19;-19
-59;20;-19
-59;19;-18
-60;19;-18
-59;19;-15
-59;19;-11
-60;19;-11
-60;19;-12
-59;20;-12
-60;19;-11
-61;19;-12
-60;19;-12
-61;19;-13
-61;19;-13
-59;20;-13
-59;20;-13
-61;19;-13
-60;19;-12
-59;19;-13
-60;19;-13
-61;19;-14
-62;20;-15
-60;19;-15
-61;19;-14
-61;19;-14
-60;19;-12
-59;19;-12
-60;20;-13
-61;19;-11
-59;19;-11
-60;19;-12
-59;19;-11
-58;19;-12
-58;19;-13
-62;19;-17
-59;19;-19
-59;19;-20
-60;19;-21
-59;20;-21
-57;19;-19
-58;19;-19
-59;19;-20
-60;20;-19
-60;20;-19
-60;19;-17
-56;20;-15
-60;19;-15
-66;19;-17
-57;19;-10
-55;19;-9
-62;19;-12
-62;19;-11
-59;18;-10
-62;20;-12
-62;19;-12
-60;20;-13
-60;19;-13
-60;19;-13
-60;19;-13
-62;20;-14
-60;19;-14
-60;19;-12
-60;19;-13
-60;18;-13
-59;19;-14
-59;19;-14
-61;19;-18
-62;19;-19
-58;19;-18
-59;19;-18
-60;19;-18
-60;19;-17
-59;19;-16
-60;19;-15
-60;20;-15
-60;19;-15
-59;19;-14
-60;19;-15
-60;19;-15
-60;19;-15
-60;19;-14
-60;19;-15
-60;19;-14
-60;19;-15
-58;19;-16
-59;19;-16
-60;20;-17
-59;19;-17
-59;19;-15
-60;19;-16
-60;19;-16
-60;19;-15
-60;18;-15
-59;19;-16
-60;19;-17
-59;19;-15
-60;19;-15
-60;19;-16
-59;19;-15
-60;19;-15
-58;19;-15
-59;19;-16
-60;19;-17
-59;18;-18
-60;19;-19
-59;19;-19
-58;19;-20
-59;19;-22
-60;18;-22
-58;18;-22
-58;19;-21
-58;19;-21
-58;18;-20
-58;18;-20
-59;18;-20
-59;18;-21
-58;19;-21
-58;19;-21
-57;19;-20
-57;19;-21
-57;19;-20
-57;19;-22
-57;19;-23
-58;19;-24
-57;19;-25
-56;19;-24
-57;19;-26
-57;18;-26
-56;18;-25
-55;19;-25
-57;19;-27
-56;18;-28
-56;19;-28
-57;19;-28
-57;19;-27
-58;19;-27
-58;19;-25
-56;19;-21
-57;19;-20
-60;20;-22
-61;20;-20
-57;20;-15
-57;20;-15
-59;20;-15
-60;20;-15
-57;20;-13
-60;20;-14
-60;20;-15
-58;20;-15
-59;20;-15
-60;20;-16
-59;20;-16
-59;19;-16
-60;20;-17
-59;20;-17
-59;21;-17
-59;21;-17
-57;21;-18
-56;21;-18
-59;19;-20
-60;19;-21
-59;19;-19
-58;20;-19
-58;20;-21
-60;19;-22
-58;19;-22
-58;18;-22
-56;18;-22
-57;19;-22
-58;19;-23
-58;20;-23
-58;19;-23
-59;19;-23
-58;19;-22
-59;20;-21
-58;19;-20
-59;19;-19
-58;19;-19
-56;20;-17
-57;21;-17
-58;21;-17
-57;21;-17
-57;21;-17
-58;21;-17
-59;20;-18
-59;19;-17
-58;19;-17
-59;20;-17
-60;21;-18
-60;21;-17
-59;20;-17
-59;20;-17
-60;20;-17
-58;19;-16
-59;19;-16
-60;20;-16
-59;19;-16
-59;19;-17
-59;20;-18
-60;20;-18
-59;20;-18
-58;20;-18
-58;20;-17
-59;20;-17
-59;20;-18
-59;20;-18
-58;20;-18
-57;19;-19
-57;19;-19
-57;20;-19
-57;21;-20
-58;22;-20
-59;21;-21
-60;20;-22
-60;18;-20
-59;18;-19
-60;18;-17
-59;19;-17
-59;20;-19
-59;20;-19
-59;19;-18
-58;20;-18
-58;20;-19
-57;20;-20
-57;20;-21
-58;20;-21
-57;20;-21
-56;21;-22
-57;20;-23
-57;20;-23
-59;19;-23
-58;19;-23
-58;19;-23
-58;19;-23
-57;21;-22
-58;21;-22
-59;20;-21
-60;19;-21
-59;19;-20
-58;18;-19
-58;17;-18
-58;17;-18
-59;18;-19
-59;21;-20
-58;22;-20
-57;22;-20
-56;22;-19
-56;21;-19
-59;20;-20
-58;20;-20
-58;19;-19
-59;19;-20
-62;19;-23
-66;20;-26
-61;21;-21
-62;28;-23
-64;28;-25
-64;28;-22
-62;28;-20
-59;28;-15
-59;27;-12
-53;25;-7
-53;27;-7
-47;26;-1
-47;26;6
-42;27;9
-52;32;7
-61;30;6
-63;31;10
-62;32;14
-58;34;13
-62;32;10
-67;32;12
-57;29;18
-52;29;19
-51;28;22
-54;29;23
-51;28;24
-47;29;24
-47;28;25
-49;30;30
-52;29;31
-45;30;31
-43;31;31
-43;31;29
-45;30;30
-44;29;35
-42;29;36
-46;29;36
-43;28;36
-41;30;37
-42;31;35
-43;31;35
-43;31;36
-43;30;37
-43;30;37
-45;30;36
-42;31;37
-43;32;37
-43;32;36
-44;33;36
-44;34;35
-42;35;35
-41;34;33
-43;34;32
-41;33;31
-41;33;28
-43;33;26
-45;34;23
-48;36;16
-49;36;13
-51;35;11
-50;36;11
-51;39;7
-53;40;0
-55;39;0
-63;36;-1
-60;36;1
-61;32;-5
-63;30;-3
-67;25;-2
-65;24;-2
-64;23;1
-61;23;1
-59;23;3
-64;26;0
-62;25;4
-61;25;4
-64;21;4
-66;19;-2
-63;17;-1
-55;13;2
-51;3;8
-55;-1;8
-51;-9;14
-46;-15;18
-51;-22;23
-53;-26;27
-51;-27;27
-57;-28;26
-66;-28;24
-68;-25;23
-72;-37;23
-60;-28;33
-57;-24;35
-55;-24;36
-57;-24;34
-48;-24;35
-44;-18;41
-48;-19;40
-48;-18;36
-52;-20;36
-52;-19;37
-50;-16;38
-43;-12;41
-54;-17;38
-53;-20;38
-52;-27;44
-50;-28;43
-58;-32;43
-60;-34;40
-60;-26;37
-65;-27;36
-58;-13;35
-50;3;25
-51;5;24
-39;16;22
-41;24;14
-40;34;12
-34;35;11
-39;38;9
-44;44;2
-44;50;2
-32;52;8
-45;50;9
-53;46;15
-46;46;20
-53;42;28
-52;40;35
-35;35;44
-41;33;40
-57;31;37
-48;34;38
-51;31;37
-49;30;40
-50;31;37
-42;28;36
-47;30;37
-44;30;38
-44;30;40
-41;29;39
-41;31;41
-39;30;42
-43;29;42
-42;29;45
-42;29;39
-41;29;40
-35;29;40
-38;30;40
-46;27;44
-36;28;44
-43;28;40
-48;30;39
-43;30;42
-45;30;41
-47;30;36
-42;30;34
-45;31;37
-40;30;36
-44;31;33
-43;32;35
-42;31;37
-41;31;36
-46;30;35
-46;29;33
-45;30;37
-47;29;40
-45;27;42
-43;28;43
-43;29;40
-45;30;37
-45;30;40
-40;29;41
-42;29;39
-39;29;40
-42;29;40
-45;30;37
-40;31;40
-40;30;39
-39;30;41
-46;30;37
-41;31;40
-43;29;40
-43;30;39
-42;30;40
-43;30;40
-41;30;38
-44;31;36
-43;31;37
-42;30;37
-45;31;34
-44;31;35
-44;31;39
-47;30;37
-50;31;35
-45;30;37
-45;30;36
-46;30;33
-47;30;33
-47;33;32
-47;33;31
-46;33;32
-46;31;32
-47;32;31
-49;30;31
-48;30;31
-49;32;32
-54;33;30
-38;28;37
-51;32;34
-48;33;32
-42;33;36
-43;34;34
-42;36;32
-41;36;33
-42;35;32
-40;36;36
-35;33;36
-35;29;44
-43;30;40
-39;29;43
-44;31;43
-40;33;39
-44;35;38
-37;32;41
-39;32;39
-39;34;42
-35;31;41
-35;31;41
-37;32;42
-38;33;43
-34;31;42
-34;31;42
-33;31;43
-36;32;39
-38;32;41
-40;31;50
-38;31;52
-39;31;42
-44;30;36
-38;30;42
-41;31;46
-42;31;44
-35;30;46
-33;29;45
-33;29;47
-34;27;48
-39;29;48
-37;31;46
-36;31;46
-31;31;42
-28;31;43
-27;30;46
-25;30;45
-39;30;40
-47;32;35
-28;31;43
-35;31;43
-45;30;47
-41;32;45
-41;31;40
-43;32;40
-37;31;39
-33;28;43
-41;29;41
-37;28;48
-37;25;49
-38;28;41
-39;28;43
-36;29;47
-40;30;44
-37;31;42
-40;30;48
-39;30;47
-38;30;42
-36;30;42
-38;31;44
-31;32;48
-32;32;49
-34;32;47
-33;31;45
-34;31;42
-39;31;38
-36;32;35
-26;29;35
-29;29;30
-36;31;38
-40;32;38
-43;38;40
-47;36;35
-57;31;32
-46;29;37
-50;25;40
-44;25;43
-42;24;45
-46;25;51
-44;26;48
-42;26;43
-40;26;42
-43;25;40
-41;26;46
-41;25;40
-37;26;42
-35;26;42
-33;27;42
-32;28;44
-34;29;43
-35;30;42
-50;29;39
-44;31;34
-45;31;33
-43;27;36
-50;27;35
-49;25;35
-45;26;34
-52;25;35
-54;27;32
-46;29;38
-49;28;45
-46;28;50
-39;29;43
-43;30;42
-39;28;46
-32;26;46
-36;23;41
-39;22;44
-41;24;46
-38;25;43
-39;24;45
-37;27;43
-36;25;44
-35;26;44
-34;26;46
-33;28;47
-33;28;52
-31;28;53
-31;27;51
-34;28;49
-40;29;43
-43;28;41
-36;28;41
-36;28;40
-46;27;37
-41;26;33
-50;28;29
-49;27;36
-44;24;43
-36;21;53
-38;24;47
-48;25;54
-41;25;59
-25;29;51
-40;27;48
-34;27;52
-34;25;47
-41;24;47
-36;25;48
-35;24;45
-35;24;44
-31;24;48
-34;23;48
-34;22;45
-37;24;45
-29;27;46
-28;29;45
-34;29;34
-45;27;35
-52;26;40
-49;29;35
-52;31;33
-47;29;38
-45;29;40
-47;30;38
-45;30;37
-48;31;37
-49;29;39
-44;28;38
-42;24;47
-44;27;43
-37;25;42
-36;27;45
-40;27;44
-39;28;43
-40;28;44
-39;27;44
-36;26;42
-36;26;41
-39;27;41
-36;28;40
-36;27;41
-32;27;42
-35;26;43
-36;27;52
-35;27;58
-34;28;59
-30;28;54
-35;31;48
-33;31;47
-31;31;48
-35;27;46
-35;28;44
-34;28;44
-36;27;35
-39;29;27
-27;28;32
-29;29;34
-41;27;57
-26;29;62
-43;26;51
-41;24;51
-36;21;58
-43;21;55
-38;24;55
-36;24;52
-39;23;53
-39;25;44
-35;22;44
-30;20;48
-37;20;46
-40;23;40
-30;27;41
-28;27;40
-42;28;36
-45;28;39
-55;28;34
-54;29;30
-50;31;29
-48;29;39
-53;31;34
-48;29;35
-48;29;36
-44;28;42
-46;27;42
-45;25;48
-41;26;47
-42;28;41
-32;27;48
-37;26;43
-35;25;44
-33;23;42
-37;25;42
-33;25;47
-36;26;45
-34;26;49
-29;27;51
-30;28;49
-31;27;50
-34;25;51
-36;26;50
-33;27;47
-32;27;49
-33;24;47
-32;26;49
-38;23;46
-43;24;48
-34;25;51
-34;23;48
-43;23;46
-33;23;48
-34;23;50
-38;23;49
-37;24;48
-35;24;47
-41;24;46
-42;23;44
-39;24;45
-39;24;44
-43;24;45
-43;25;43
-37;25;44
-41;23;46
-42;24;46
-37;25;44
-39;24;44
-42;24;44
-39;25;46
-41;25;45
-40;25;43
-41;24;43
-41;24;44
-41;25;43
-39;24;44
-39;25;44
-39;25;41
-40;25;46
-39;25;44
-38;25;44
-40;24;44
-41;25;43
-38;24;45
-39;25;43
-39;24;45
-39;25;41
-38;24;43
-38;23;52
-42;24;45
-41;24;45
-45;26;42
-46;26;43
-41;26;42
-44;26;40
-39;25;42
-38;26;42
-33;25;44
-36;25;43
-40;25;44
-41;24;49
-38;24;50
-41;25;47
-40;24;47
-36;24;47
-43;26;47
-35;23;46
-37;23;46
-43;24;43
-40;25;44
-34;26;46
-39;26;42
-42;26;43
-37;26;45
-40;27;41
-40;27;41
-39;27;41
-40;27;42
-39;25;44
-41;24;43
-40;25;44
-37;22;48
-38;25;46
-42;22;45
-35;24;47
-40;24;48
-44;23;46
-40;24;49
-40;23;51
-39;26;45
-45;24;43
-40;24;43
-38;26;39
-38;26;39
-41;28;36
-38;28;38
-41;27;41
-43;28;38
-38;24;46
-37;23;48
-40;22;46
-40;22;46
-42;22;49
-37;23;45
-39;24;44
-39;22;47
-41;22;47
-39;21;45
-42;21;48
-40;21;47
-48;17;50
-45;17;50
-45;19;48
-40;19;47
-44;21;43
-52;24;34
-46;24;37
-47;27;33
-51;26;35
-42;27;33
-42;27;32
-53;25;33
-49;24;31
-55;22;37
-55;21;31
-50;24;32
-51;25;32
-47;23;38
-46;24;36
-43;25;33
-50;21;41
-41;24;40
-43;23;38
-45;23;44
-47;23;42
-49;25;35
-46;24;38
-51;25;37
-50;25;31
-48;23;32
-46;23;37
-51;25;35
-46;25;35
-50;26;36
-46;25;37
-44;24;40
-44;24;40
-47;24;41
-47;24;39
-43;25;38
-46;25;39
-46;24;39
-47;25;37
-45;23;39
-48;23;35
-47;25;35
-45;25;37
-49;23;40
-46;24;40
-46;24;39
-45;26;35
-47;25;37
-45;23;38
-49;24;37
-48;27;34
-47;26;35
-46;26;37
-51;25;35
-49;25;34
-48;27;36
-48;24;39
-47;25;37
-48;25;37
-49;25;36
-50;25;36
-46;25;37
-45;25;39
-46;25;38
-45;25;38
-47;26;34
-46;26;37
-43;26;38
-46;25;36
-48;24;38
-46;25;38
-44;24;41
-47;24;40
-47;24;38
-49;23;39
-51;27;37
-44;28;36
-51;26;39
-44;27;39
-43;26;38
-42;28;37
-39;28;35
-41;28;37
-43;28;35
-41;28;36
-44;26;39
-54;25;39
-40;26;44
-41;26;38
-55;25;27
-57;26;30
-49;25;37
-50;28;34
-50;27;32
-54;28;32
-49;27;36
-43;29;35
-40;28;35
-47;27;37
-44;27;39
-42;28;36
-43;28;39
-44;26;42
-39;27;41
-45;30;37
-46;28;38
-43;28;39
-42;28;40
-40;28;38
-38;29;39
-44;27;36
-53;29;35
-51;30;30
-52;30;29
-52;30;26
-50;29;28
-48;30;23
-50;29;24
-52;28;28
-45;27;28
-58;31;27
-54;29;29
-48;30;28
-53;30;28
-63;28;28
-51;31;35
-43;34;34
-48;34;26
-45;33;27
-34;30;30
-47;30;29
-47;28;33
-48;30;35
-48;31;36
-37;32;29
-33;30;30
-54;29;35
-49;33;38
-48;31;41
-47;28;40
-39;29;42
-46;29;39
-39;28;39
-42;25;44
-41;27;46
-36;25;42
-40;23;44
-40;25;41
-49;29;36
-51;29;34
-43;28;39
-46;28;38
-43;29;33
-43;28;31
-50;28;30
-50;30;26
-46;30;25
-55;28;28
-59;28;26
-35;27;31
-38;25;41
-48;28;42
-49;26;36
-47;25;42
-46;23;39
-39;25;36
-56;22;37
-58;24;35
-47;25;38
-48;22;39
-55;24;35
-58;25;31
-49;24;29
-56;26;28
-54;24;29
-50;26;26
-51;27;24
-41;27;25
-41;27;26
-46;23;31
-53;23;30
-53;23;30
-59;23;33
-59;25;34
-54;25;32
-54;23;34
-55;26;31
-56;23;29
-54;21;32
-55;23;33
-54;23;30
-52;23;28
-51;24;28
-54;26;23
-55;26;21
-50;26;22
-49;26;23
-47;26;23
-50;25;23
-54;23;25
-56;24;24
-57;23;28
-58;25;32
-57;24;35
-58;25;26
-56;22;27
-59;22;25
-56;22;30
-58;22;28
-53;23;27
-53;22;26
-54;22;19
-56;23;16
-57;23;16
-56;24;15
-56;23;17
-54;23;19
-56;23;19
-64;20;29
-57;23;32
-47;23;36
-50;22;37
-56;23;31
-45;22;38
-42;22;39
-49;21;36
-50;21;38
-49;20;39
-49;21;36
-48;20;38
-51;21;38
-50;21;40
-57;23;35
-55;24;32
-51;24;36
-51;24;32
-54;24;27
-49;24;29
-40;25;35
-40;23;38
-41;24;36
-44;21;41
-42;21;48
-42;22;43
-44;23;42
-50;21;45
-45;24;40
-42;23;41
-47;22;44
-45;22;43
-50;25;39
-45;25;37
-45;24;40
-46;24;40
-44;26;40
-45;27;39
-49;26;37
-43;27;41
-42;28;42
-41;29;37
-44;29;39
-49;30;39
-48;31;41
-47;30;40
-47;32;36
-45;31;35
-30;30;37
-31;29;39
-25;29;44
-28;28;46
-34;25;56
-34;25;52
-35;26;45
-44;29;44
-43;30;41
-42;31;38
-42;31;40
-44;30;40
-43;31;39
-41;31;39
-43;31;37
-41;32;36
-43;32;33
-40;33;36
-42;32;36
-42;32;36
-42;32;36
-41;31;39
-43;31;40
-46;30;35
-45;29;38
-45;30;38
-42;29;38
-44;29;35
-44;28;38
-44;29;37
-45;27;38
-45;29;34
-44;27;37
-46;27;36
-48;28;35
-50;28;35
-45;28;35
-44;27;37
-50;26;36
-50;26;34
-48;24;37
-48;25;39
-49;25;38
-48;24;40
-47;24;41
-45;24;44
-44;23;43
-46;23;40
-48;25;37
-53;26;32
-53;29;28
-54;28;27
-53;29;25
-51;29;27
-45;27;31
-45;28;32
-44;28;31
-42;27;37
-45;29;40
-47;30;34
-51;30;32
-50;27;35
-46;28;35
-47;28;35
-49;28;36
-50;28;35
-50;28;36
-53;29;36
-56;31;29
-52;34;28
-32;31;41
-27;31;39
-37;28;40
-30;26;48
-32;29;50
-41;26;42
-44;27;41
-45;31;41
-38;31;42
-38;34;34
-42;33;33
-30;33;44
-23;31;43
-34;24;54
-36;26;49
-33;28;47
-43;32;42
-44;31;39
-39;32;44
-39;31;42
-42;31;39
-43;32;37
-42;32;34
-37;31;37
-36;32;38
-42;32;38
-43;32;38
-41;32;39
-39;32;38
-49;31;35
-38;32;39
-38;30;38
-39;29;38
-42;29;40
-36;27;43
-42;28;41
-33;26;47
-28;25;52
-38;29;50
-38;28;51
-35;28;49
-36;27;48
-37;27;48
-39;28;45
-36;29;45
-36;29;47
-37;27;45
-41;27;44
-41;27;49
-42;27;46
-39;29;44
-40;30;39
-40;28;41
-37;28;43
-37;29;41
-32;29;41
-33;28;38
-48;28;33
-45;28;31
-43;33;37
-44;33;36
-52;31;28
-55;31;29
-50;31;32
-50;29;33
-50;29;36
-52;30;32
-46;30;35
-45;26;38
-44;28;37
-38;26;40
-40;26;41
-44;26;43
-41;28;42
-44;28;41
-42;30;37
-38;29;40
-43;29;46
-45;30;44
-45;32;40
-41;33;37
-33;34;40
-34;29;40
-36;29;43
-36;28;47
-32;28;49
-34;25;43
-39;27;43
-38;27;45
-34;29;48
-34;29;45
-37;30;44
-40;31;44
-40;33;39
-38;33;38
-40;33;40
-40;34;41
-37;33;39
-38;32;40
-39;30;42
-43;33;37
-44;33;37
-42;33;37
-44;33;37
-43;34;36
-41;33;37
-44;32;38
-41;32;36
-43;31;36
-42;32;37
-42;33;36
-43;32;37
-40;32;37
-41;34;37
-40;34;36
-35;33;33
-45;33;37
-45;33;39
-44;34;36
-42;35;37
-46;34;38
-48;34;36
-40;35;38
-38;32;38
-43;32;36
-37;32;44
-35;33;44
-37;32;42
-36;32;42
-34;28;45
-31;28;48
-35;28;43
-41;29;42
-38;29;43
-34;31;45
-34;32;47
-36;33;44
-34;34;43
-36;35;39
-39;36;41
-37;36;39
-34;36;37
-35;36;36
-36;35;36
-35;35;39
-39;32;41
-39;32;40
-41;32;40
-38;33;41
-36;33;42
-45;33;38
-42;33;40
-37;33;42
-34;32;43
-36;32;42
-41;32;39
-27;28;48
-35;30;43
-33;30;44
-25;29;55
-28;30;51
-29;31;49
-29;31;51
-28;32;48
-31;32;48
-28;30;46
-27;29;50
-28;27;50
-30;28;48
-31;27;49
-30;28;53
-27;27;55
-25;27;56
-26;25;57
-23;26;56
-28;25;54
-27;25;54
-27;25;52
-25;24;53
-27;25;53
-27;24;53
-23;24;56
-26;24;54
-24;25;55
-28;23;53
-28;24;54
-28;24;54
-27;25;53
-29;25;52
-28;25;53
-24;25;55
-33;26;49
-29;26;50
-26;27;52
-29;27;52
-33;28;49
-32;29;47
-37;28;45
-35;30;45
-36;29;45
-38;30;42
-39;30;40
-39;30;41
-37;31;40
-37;30;39
-37;30;38
-41;29;42
-42;32;40
-43;31;40
-40;32;39
-41;33;39
-40;32;40
-44;31;39
-41;30;38
-40;31;38
-44;29;38
-42;32;35
-44;31;34
-43;31;36
-46;30;36
-46;31;34
-44;32;32
-55;31;27
-51;31;27
-51;31;28
-50;30;30
-48;30;31
-50;31;31
-49;30;31
-52;31;35
-54;31;35
-47;33;33
-40;33;35
-44;32;38
-41;30;38
-34;30;42
-31;31;42
-31;30;44
-27;29;47
-31;29;48
-33;27;47
-40;27;46
-41;29;47
-41;30;43
-39;30;44
-42;30;41
-41;31;40
-40;31;41
-38;33;40
-40;33;40
-36;33;41
-39;32;41
-35;34;40
-37;35;39
-38;34;40
-40;34;40
-36;34;40
-39;34;39
-38;34;37
-40;34;37
-42;34;37
-41;33;37
-43;35;36
-45;33;35
-46;33;33
-46;35;35
-37;34;36
-43;34;34
-46;33;34
-40;34;37
-43;35;35
-46;35;35
-42;34;34
-42;35;32
-43;35;32
-42;34;30
-43;35;31
-44;34;31
-46;35;31
-46;33;30
-46;33;31
-46;33;31
-46;34;29
-44;35;29
-43;33;29
-47;33;28
-48;31;34
-48;31;35
-47;33;30
-48;33;31
-50;32;34
-45;33;33
-49;32;34
-52;30;36
-55;29;35
-49;31;30
-45;31;34
-44;36;31
-32;37;26
-39;30;34
-33;31;50
-33;30;49
-43;31;46
-43;30;45
-42;33;41
-42;33;40
-42;33;36
-43;33;35
-39;31;33
-44;31;35
-45;30;35
-36;32;35
-39;29;36
-43;30;49
-35;30;51
-44;32;41
-46;32;39
-49;32;36
-43;32;37
-45;32;35
-43;32;35
-43;32;33
-43;33;30
-45;32;30
-46;34;30
-49;31;32
-44;30;34
-49;29;34
-45;32;34
-44;35;31
-44;35;33
-43;33;34
-34;33;32
-53;29;31
-43;39;26
-34;42;40
-48;31;51
-53;24;47
-57;16;30
-65;25;37
-43;45;28
-26;44;35
-39;34;37
-37;21;33
-53;17;23
-54;35;27
-37;44;28
-32;42;40
-41;36;38
-39;29;36
-34;24;24
-61;26;39
-49;39;32
-42;38;31
-41;34;32
-42;34;33
-40;32;34
-39;32;36
-42;26;41
-45;31;37
-47;32;32
-50;35;32
-48;36;31
-37;35;33
-42;33;36
-53;31;30
-59;32;28
-52;37;22
-40;39;23
-39;38;25
-58;30;28
-60;25;29
-48;24;29
-62;28;21
-59;39;14
-37;40;38
-34;36;39
-52;25;34
-47;23;28
-51;26;34
-45;32;37
-48;35;27
-43;35;26
-49;34;32
-40;37;36
-37;35;38
-42;32;43
-42;34;47
-30;32;42
-32;30;39
-41;34;40
-36;32;42
-34;32;39
-32;30;42
-33;31;44
-41;31;42
-33;32;45
-37;31;48
-36;33;47
-39;34;44
-37;35;43
-42;36;39
-37;36;36
-36;36;32
-26;40;28
-26;44;28
-38;39;40
-53;31;47
-69;23;25
-37;38;40
-33;46;29
-28;52;28
-31;48;32
-49;31;43
-38;23;37
-60;19;35
-59;34;34
-36;42;19
-19;45;34
-40;38;43
-40;27;42
-31;25;31
-58;24;39
-54;39;38
-40;40;27
-37;40;26
-49;35;25
-42;31;32
-43;28;35
-41;30;41
-44;30;39
-46;33;34
-48;31;31
-53;31;26
-52;29;25
-45;36;29
-39;36;31
-45;35;32
-61;26;34
-61;28;33
-47;32;25
-54;31;28
-44;32;39
-40;35;35
-33;34;36
-36;29;38
-39;30;42
-43;31;42
-41;32;41
-38;32;44
-37;33;42
-43;32;39
-35;30;45
-35;30;45
-44;31;39
-46;32;39
-41;34;34
-39;35;31
-26;42;40
-28;40;44
-44;28;58
-26;19;39
-54;9;38
-59;41;30
-39;46;24
-28;42;41
-41;39;38
-26;29;44
-11;24;30
-71;16;50
-42;42;31
-25;41;35
-39;37;38
-46;35;36
-26;31;36
-41;24;37
-52;29;42
-45;36;34
-38;36;35
-37;35;38
-40;33;39
-41;31;39
-45;29;37
-45;32;35
-44;33;32
-42;34;33
-42;32;40
-44;31;38
-53;32;33
-51;34;32
-33;36;30
-30;41;32
-34;38;39
-53;31;36
-33;28;45
-43;25;37
-51;30;34
-45;36;37
-36;36;40
-35;35;39
-40;34;39
-38;32;42
-31;32;43
-36;31;43
-38;31;44
-41;31;43
-34;31;44
-32;30;46
-36;32;46
-39;29;45
-36;28;46
-38;30;47
-40;31;43
-38;30;43
-36;31;45
-39;32;41
-38;33;37
-40;32;36
-37;32;37
-34;33;31
-30;42;39
-34;38;49
-40;25;47
-38;21;40
-63;28;43
-49;39;36
-24;46;35
-33;39;44
-44;35;48
-19;25;35
-28;16;31
-57;30;49
-48;41;32
-28;44;39
-33;41;47
-44;34;45
-14;19;31
-47;5;42
-54;38;40
-54;43;27
-42;40;28
-48;38;29
-36;30;28
-37;26;29
-52;26;39
-48;30;32
-45;32;31
-51;31;27
-51;31;26
-56;30;27
-55;27;32
-49;30;28
-52;30;29
-48;26;34
-47;28;31
-51;29;29
-47;29;34
-45;29;35
-43;29;37
-41;27;40
-42;27;40
-47;28;37
-50;27;35
-51;27;31
-53;27;32
-52;28;31
-51;28;31
-54;28;29
-53;28;28
-51;29;28
-53;28;26
-55;29;25
-55;29;24
-55;29;23
-51;30;22
-52;29;21
-53;30;23
-51;30;24
-53;31;20
-55;32;21
-53;32;22
-51;31;21
-52;32;22
-49;31;23
-49;30;24
-48;30;30
-51;30;29
-51;31;28
-50;30;31
-49;30;32
-45;31;31
-48;32;29
-45;30;30
-47;29;32
-49;28;34
-47;28;30
-46;28;28
-51;27;32
-46;26;29
-51;25;26
-53;27;26
-53;29;26
-48;31;29
-37;33;38
-38;30;48
-44;30;43
-37;28;50
-38;28;49
-40;24;49
-39;24;50
-35;24;50
-38;24;45
-39;21;44
-31;20;54
-30;21;53
-46;25;41
-54;26;34
-54;27;39
-53;28;35
-45;28;32
-46;26;36
-42;22;38
-38;18;43
-39;18;48
-43;23;44
-38;24;47
-44;26;38
-52;27;36
-53;26;38
-51;28;31
-48;27;33
-50;26;32
-54;24;33
-58;23;32
-46;25;36
-46;25;36
-39;25;38
-39;24;41
-21;20;51
-31;22;49
-34;25;50
-32;25;53
-29;28;55
-31;28;53
-31;28;54
-33;28;56
-32;28;48
-34;28;47
-34;29;45
-32;30;43
-33;29;42
-26;28;49
-24;27;51
-37;26;50
-40;23;48
-43;22;50
-44;23;46
-45;26;42
-35;28;45
-32;26;47
-42;26;44
-46;25;38
-49;26;35
-45;24;34
-43;23;32
-41;23;34
-39;22;33
-42;24;36
-44;25;36
-39;29;39
-41;31;42
-47;37;44
-39;34;50
-39;32;54
-49;31;47
-47;29;45
-33;23;46
-40;19;47
-41;15;46
-43;14;42
-44;14;41
-46;15;41
-43;15;38
-43;19;39
-43;22;38
-42;30;40
-37;30;44
-38;27;55
-41;21;58
-38;17;61
-46;15;50
-45;16;46
-44;19;40
-46;19;36
-44;20;34
-44;21;34
-48;21;32
-47;21;28
-46;21;30
-46;20;34
-46;21;37
-45;21;43
-50;22;41
-54;21;43
-50;22;43
-49;21;45
-47;19;44
-45;18;46
-43;17;47
-47;19;40
-42;17;45
-47;17;41
-54;18;39
-52;18;38
-53;20;35
-55;23;31
-54;22;30
-57;28;31
-56;30;33
-52;34;32
-53;34;34
-52;32;36
-48;35;37
-47;32;39
-45;31;36
-39;31;33
-36;27;38
-36;27;37
-37;27;30
-36;26;27
-37;23;31
-36;24;25
-44;25;21
-37;31;23
-36;35;25
-34;46;41
-32;48;39
-50;45;37
-50;43;38
-44;43;35
-46;36;36
-44;34;38
-40;32;37
-39;31;38
-47;32;36
-50;34;33
-44;35;32
-47;36;26
-50;35;25
-63;42;22
-64;41;19
-52;40;21
-43;37;28
-37;33;34
-36;30;36
-32;27;41
-36;28;37
-41;30;35
-43;34;34
-38;33;37
-39;32;40
-45;33;36
-44;34;26
-44;36;23
-50;37;24
-51;38;25
-53;39;22
-49;40;24
-43;39;29
-40;36;33
-37;35;31
-40;37;36
-37;37;43
-34;39;42
-36;37;40
-37;36;38
-37;33;34
-42;35;35
-44;35;39
-46;36;35
-51;38;30
-46;38;23
-48;39;22
-41;38;29
-38;37;33
-36;38;34
-34;38;34
-37;37;36
-40;38;36
-42;34;41
-41;37;38
-40;36;36
-42;35;36
-44;37;35
-46;37;32
-46;37;31
-48;38;30
-46;37;30
-41;37;29
-46;37;27
-46;38;26
-46;37;29
-43;36;32
-55;30;29
-53;34;30
-30;44;24
-26;47;31
-27;41;34
-42;36;36
-31;32;29
-61;36;29
-54;42;28
-42;43;31
-34;44;35
-30;40;32
-51;32;30
-56;32;30
-41;36;30
-37;38;28
-39;38;36
-46;39;37
-40;36;33
-34;31;24
-58;39;25
-38;44;36
-38;45;32
-36;39;27
-31;33;26
-57;27;35
-55;35;34
-42;40;29
-36;40;32
-45;37;32
-38;36;28
-47;35;29
-46;34;35
-43;37;32
-44;37;31
-42;37;28
-43;37;33
-44;37;32
-48;38;28
-45;37;30
-37;38;30
-39;37;36
-35;37;37
-43;38;33
-41;37;34
-42;40;30
-44;37;32
-41;37;33
-43;36;34
-41;35;35
-43;36;34
-40;37;35
-40;36;37
-40;39;32
-42;38;31
-36;37;34
-36;36;34
-39;36;35
-39;36;35
-37;37;32
-40;36;32
-40;34;37
-42;35;37
-42;34;38
-40;37;35
-42;37;36
-40;37;34
-39;35;32
-45;35;31
-46;35;33
-46;35;34
-40;36;33
-35;35;38
-40;36;39
-41;35;42
-38;35;43
-36;35;44
-37;34;40
-38;34;37
-39;33;39
-41;33;39
-41;33;37
-41;33;36
-43;34;35
-49;35;32
-47;33;32
-40;33;40
-42;33;39
-46;33;36
-44;34;32
-44;34;32
-43;33;32
-45;34;31
-46;34;29
-44;35;28
-44;35;31
-45;34;34
-44;34;35
-45;33;35
-45;33;37
-41;30;42
-42;31;41
-44;30;36
-45;32;34
-47;33;31
-46;34;30
-44;33;30
-46;34;30
-44;35;30
-46;34;31
-45;33;34
-42;32;37
-43;33;36
-38;31;39
-39;31;42
-37;30;45
-36;31;46
-34;29;47
-38;29;47
-39;29;47
-41;29;44
-47;30;38
-48;31;37
-49;33;32
-51;32;29
-46;30;24
-47;32;23
-45;26;27
-51;28;31
-45;30;27
-47;33;34
-47;33;32
-49;30;47
-45;31;53
-35;32;63
-49;35;61
-67;39;58
-66;38;57
-73;39;60
-60;42;53
-55;44;50
-65;45;37
-55;46;34
-45;48;37
-44;44;33
-40;46;20
-32;41;17
-19;40;15
-9;44;13
-3;44;14
3;38;16
8;38;22
15;35;35
14;35;38
23;28;37
13;22;37
13;21;47
24;18;61
22;11;60
16;18;61
15;11;60
24;8;52
21;14;53
13;20;54
13;32;46
3;36;40
-9;45;33
-2;44;38
23;37;72
22;32;81
24;31;66
14;27;51
10;18;50
10;17;43
15;22;46
34;27;63
32;28;61
22;31;51
21;29;50
17;25;40
12;24;37
13;21;40
14;25;34
8;24;29
4;23;30
1;26;28
-15;23;21
-22;30;20
-24;38;27
-32;49;19
-33;50;23
-47;55;24
-45;52;28
-46;58;31
-52;55;28
-60;57;40
-62;58;35
-56;51;41
-61;53;32
-66;54;35
-67;57;29
-61;58;23
-51;50;17
-49;45;17
-53;40;22
-53;41;20
-46;41;19
-45;41;17
-47;42;15
-47;43;17
-45;44;17
-46;45;18
-50;45;17
-47;42;21
-46;42;21
-43;39;28
-38;40;32
-39;40;35
-35;40;33
-37;39;33
-36;40;33
-36;40;34
-41;40;34
-44;38;30
-39;38;30
-38;38;34
-41;40;33
-44;42;30
-46;42;28
-46;42;24
-45;43;22
-44;44;19
-43;46;26
-49;45;33
-47;35;22
-51;37;20
-43;39;29
-43;41;24
-46;43;21
-45;40;21
-35;36;20
-50;33;25
-46;36;25
-46;39;23
-41;40;23
-45;33;29
-42;30;27
-50;34;34
-50;37;29
-44;37;30
-43;36;31
-46;36;27
-48;34;21
-51;38;23
-15;46;31
-21;49;38
-72;28;44
-51;26;27
-71;22;26
-48;45;24
-42;44;23
-35;41;27
-38;40;31
-36;37;34
-48;33;28
-53;31;37
-44;37;32
-47;40;24
-43;40;24
-35;40;30
-37;37;38
-39;32;34
-55;29;30
-44;36;26
-36;39;28
-38;37;35
-37;37;35
-42;35;31
-54;33;33
-46;38;33
-41;39;32
-40;39;34
-42;38;32
-43;38;33
-40;38;33
-45;39;32
-40;38;33
-40;38;31
-36;37;32
-37;35;35
-30;36;33
-46;31;38
-50;32;37
-48;35;32
-42;37;35
-30;38;31
-28;44;34
-57;35;36
-57;29;34
-54;24;35
-43;39;30
-44;41;24
-31;41;30
-28;39;36
-33;29;34
-51;27;30
-50;30;37
-45;37;28
-43;38;27
-40;38;35
-44;35;38
-36;36;38
-39;34;40
-32;31;47
-33;34;49
-39;35;42
-40;39;39
-40;39;38
-37;40;37
-34;40;38
-36;36;40
-35;36;39
-37;32;43
-34;31;44
-29;30;49
-30;31;46
-32;29;44
-34;32;48
-32;32;47
-34;31;45
-39;32;42
-35;34;43
-35;34;42
-32;33;44
-24;32;47
-26;33;50
-30;33;47
-26;30;50
-31;33;53
-35;33;51
-31;32;44
-41;34;41
-39;35;39
-30;35;41
-32;36;40
-25;35;38
-24;34;43
-25;34;51
-29;34;51
-29;34;53
-26;35;53
-28;35;51
-30;33;48
-33;34;46
-34;35;44
-31;35;43
-34;36;39
-38;37;34
-40;39;32
-35;40;39
-37;35;42
-46;26;38
-44;31;44
-37;43;30
-35;46;21
-27;46;36
-33;32;36
-44;22;37
-51;27;50
-44;34;41
-38;42;25
-34;45;29
-39;42;39
-30;30;33
-52;23;34
-41;35;42
-27;42;29
-34;50;35
-41;41;46
-33;27;36
-55;16;37
-42;35;44
-41;45;26
-30;44;34
-40;34;40
-39;26;36
-54;20;40
-47;32;45
-33;43;28
-38;46;34
-52;34;45
-33;31;40
-52;18;34
-43;34;46
-41;38;36
-41;40;30
-43;37;34
-29;31;31
-40;26;29
-47;29;43
-40;34;35
-39;35;31
-51;35;31
-46;35;34
-41;33;38
-41;31;35
-52;33;31
-50;32;31
-46;31;29
-49;30;29
-51;31;25
-51;27;31
-39;26;39
-43;28;40
-43;28;40
-12;27;58
-27;30;56
-30;31;54
-29;31;54
-32;30;53
-31;30;48
-29;29;46
-24;26;52
-31;25;50
-27;25;56
-29;26;56
-29;27;52
-29;29;51
-26;30;49
-30;30;48
-31;30;47
-35;31;40
-39;31;41
-43;29;40
-39;29;39
-45;29;38
-42;30;40
-42;30;39
-44;30;38
-43;30;39
-45;31;39
-45;30;39
-45;31;40
-44;32;38
-43;33;38
-42;31;38
-44;30;36
-37;30;39
-33;31;41
-38;30;38
-41;31;36
-40;30;37
-35;33;40
-38;34;39
-42;34;40
-42;35;41
-43;38;41
-39;39;40
-35;40;35
-41;35;38
-41;35;42
-31;32;44
-36;31;41
-38;26;41
-33;27;45
-35;27;48
-37;29;45
-34;28;43
-39;32;47
-37;32;45
-39;33;38
-43;34;36
-44;36;37
-42;35;35
-41;36;31
-40;36;32
-38;41;33
-45;32;39
-41;26;33
-49;29;44
-41;36;38
-42;48;26
-34;44;29
-35;35;42
-59;20;32
-64;23;38
-41;40;30
-41;41;24
-32;43;30
-35;41;32
-41;29;36
-52;24;32
-52;33;39
-39;42;30
-36;43;27
-35;38;32
-41;34;43
-41;25;34
-56;22;37
-39;36;45
-40;37;37
-42;37;30
-45;36;29
-39;34;32
-45;33;35
-45;33;36
-45;33;32
-42;34;32
-34;31;35
-34;33;35
-35;35;36
-27;32;47
-25;30;53
-34;33;52
-33;33;52
-32;32;53
-32;34;50
-32;31;51
-32;30;50
-30;28;52
-31;29;47
-31;28;46
-30;26;50
-26;27;52
-27;27;53
-30;27;51
-36;30;40
-45;32;36
-41;32;43
-48;34;39
-46;35;32
-47;30;35
-44;28;37
-33;24;45
-35;25;48
-40;30;45
-35;33;44
-41;34;41
-48;36;40
-46;38;35
-43;31;37
-46;28;38
-36;24;37
