Mandatory;Pressed;Strength;BeginingTime;TimeSaved;EndTime;Comment;Emotion;
1;0;0;34735.125535;584264335.125535;34863.7731299;584264463.77313;34975.125561;584264575.125561;;neutral/A mental activity/mental;
1;0;2;51205.304281;584280805.304281;60327.196579;584289927.196579;51445.304297;584281045.304297;;4/1/event/for me/Futur/Hope;
1;0;0;58495.181689;584288095.181689;60335.7187691;584289935.718769;58735.18169;584288335.18169;;neutral/no, nothing in particular/no emotion;
