61283.74
0.0;0.703157186508179
0.765660047531,0.765660047531128
1.59383010864,0.828162908554077
10.9380099773,0.781285762786865
11.6880400181,0.750034332275391
12.4849500656,0.796911478042603
13.2037301064,0.718782901763916
13.9850201607,0.781285762786865
14.7819299698,0.796911478042603
15.6100900173,0.828162908554077
16.3288800716,0.718782901763916
85.6133000851,0.640654325485229
86.3633301258,0.750034332275391
87.0039901733,0.640654325485229
87.6446399689,0.640654325485229
88.3478000164,0.703157186508179
88.9103200436,0.562525749206543
89.5666000843,0.656280040740967
90.2541401386,0.687531471252441
113.786460161,0.718782901763916
114.567749977,0.781285762786865
115.177150011,0.609402894973755
115.942810059,0.765660047531128
116.661590099,0.718782901763916
117.427250147,0.765660047531128
118.036659956,0.609402894973755
142.39715004,0.781285762786865
143.05343008,0.656280040740967
143.709710121,0.656280040740967
178.680060148,0.656280040740967
179.555099964,0.875040054321289
180.242630005,0.687531471252441
181.117670059,0.875040054321289
181.898960114,0.781285762786865
182.774000168,0.875040054321289
186.571040154,0.81253719329834
187.305449963,0.734408617019653
188.055490017,0.750034332275391
194.462030172,0.875040054321289
195.337069988,0.875040054321289
202.368640184,0.953168630599976
203.337440014,0.968794345855713
204.134350061,0.796911478042603
205.056270123,0.921917259693146
205.962560177,0.906291484832764
206.900099993,0.937542915344238
207.806390047,0.906291484832764
208.665810108,0.859414339065552
209.509590149,0.843788623809814
210.337759972,0.828162908554077
211.150290012,0.81253719329834
211.915960073,0.765660047531128
212.681620121,0.765660047531128
213.509780169,0.828162908554077
214.337939978,0.828162908554077
215.119230032,0.781285762786865
215.900510073,0.781285762786865
216.681800127,0.781285762786865
217.447460175,0.765660047531128
218.306869984,0.859414339065552
219.244420052,0.937542915344238
220.181960106,0.937542915344238
224.229020119,0.765660047531128
224.979050159,0.750034332275391
225.744709969,0.765660047531128
226.57288003,0.828162908554077
227.41666007,0.843788623809814
228.260450125,0.843788623809814
229.244869947,0.98442006111145
230.041779995,0.796911478042603
230.807440042,0.765660047531128
231.666860104,0.859414339065552
232.526270151,0.859414339065552
233.276309967,0.750034332275391
234.073220015,0.796911478042603
234.917010069,0.843788623809814
235.66704011,0.750034332275391
241.964210033,0.890665829181671
242.792370081,0.828162908554077
243.511150122,0.718782901763916
244.261190176,0.750034332275391
245.026849985,0.765660047531128
245.808130026,0.781285762786865
246.542540073,0.734408617019653
247.323830128,0.781285762786865
248.230120182,0.906291484832764
248.948899984,0.718782901763916
249.855190039,0.906291484832764
250.823990107,0.968794345855713
254.761670113,0.828162908554077
255.65233016,0.890665829181671
256.480489969,0.828162908554077
257.37116003,0.890665829181671
258.308700085,0.937542915344238
259.183740139,0.875040054321289
259.949399948,0.765660047531128
260.808820009,0.859414339065552
261.777610064,0.968794345855713
266.605960131,0.656280040740967
267.309120178,0.703157186508179
268.043519974,0.734408617019653
268.762310028,0.718782901763916
269.543590069,0.781285762786865
270.324880123,0.781285762786865
274.043800116,0.843788623809814
274.668830156,0.625028610229492
275.496989965,0.828162908554077
276.30953002,0.81253719329834
277.153320074,0.843788623809814
278.028360128,0.875040054321289
278.809640169,0.781285762786865
279.606549978,0.796911478042603
280.372210026,0.765660047531128
281.231630087,0.859414339065552
282.091040134,0.859414339065552
282.794200182,0.703157186508179
283.497359991,0.703157186508179
284.263020039,0.765660047531128
285.059930086,0.796911478042603
285.841210127,0.781285762786865
286.622500181,0.781285762786865
287.35690999,0.734408617019653
288.091320038,0.734408617019653
288.763220072,0.671905755996704
289.450750113,0.687531471252441
290.15391016,0.703157186508179
290.903949976,0.750034332275391
291.700860023,0.796911478042603
292.497770071,0.796911478042603
293.388430119,0.890665829181671
294.263470173,0.875040054321289
295.013509989,0.750034332275391
295.872920036,0.859414339065552
296.654210091,0.781285762786865
297.388620138,0.734408617019653
298.169900179,0.781285762786865
298.919939995,0.750034332275391
299.748100042,0.828162908554077
300.60751009,0.859414339065552
301.482550144,0.875040054321289
302.248209953,0.765660047531128
303.045130014,0.796911478042603
303.857660055,0.81253719329834
304.717080116,0.859414339065552
305.654620171,0.937542915344238
306.45152998,0.796911478042603
307.232820034,0.781285762786865
307.998480082,0.765660047531128
308.857890129,0.859414339065552
309.654800177,0.796911478042603
327.061850071,0.843788623809814
365.016710043,0.81253719329834
365.829250097,0.81253719329834
366.594910145,0.765660047531128
367.423069954,0.828162908554077
368.298110008,0.875040054321289
369.079400063,0.781285762786865
369.93881011,0.859414339065552
370.704470158,0.765660047531128
386.064550161,0.750034332275391
390.86164999,0.796911478042603
391.721060038,0.859414339065552
392.533600092,0.81253719329834
393.486770153,0.953168630599976
394.189919949,0.703157186508179
395.033710003,0.843788623809814
395.815000057,0.781285762786865
396.611910105,0.796911478042603
397.471320152,0.859414339065552
398.268239975,0.796911478042603
399.096400023,0.828162908554077
400.12770009,1.03129720687866
404.065380096,0.859414339065552
404.940420151,0.875040054321289
405.83107996,0.890665829181671
406.643620014,0.81253719329834
407.471780062,0.828162908554077
408.159310102,0.687531471252441
408.987480164,0.828162908554077
409.643759966,0.656280040740967
410.565670013,0.921917259693146
460.833600044,0.640654325485229
461.630510092,0.796911478042603
467.271389961,0.656280040740967
477.053090096,0.625028610229492
488.459860086,0.765660047531128
500.194780111,0.671905755996704
500.741680145,0.546900033950806
540.087229967,0.781285762786865
541.056020021,0.968794345855713
547.071920156,0.734408617019653
581.636000156,0.828162908554077
582.432919979,0.796911478042603
583.24545002,0.81253719329834
584.073620081,0.828162908554077
584.776770115,0.703157186508179
585.729940176,0.953168630599976
586.604979992,0.875040054321289
587.620650053,1.01567149162292
594.089699984,0.859414339065552
594.933490038,0.843788623809814
595.730400085,0.796911478042603
610.949850082,0.906291484832764
611.684250116,0.734408617019653
612.496790171,0.81253719329834
613.23119998,0.734408617019653
622.46600008,0.781285762786865
623.278540134,0.81253719329834
624.091070175,0.81253719329834
624.872359991,0.781285762786865
625.653640032,0.781285762786865
626.450560093,0.796911478042603
627.200590134,0.750034332275391
628.01312995,0.81253719329834
628.79440999,0.781285762786865
633.716510057,0.843788623809814
634.466550112,0.750034332275391
635.279080153,0.81253719329834
636.091619968,0.81253719329834
636.857280016,0.765660047531128
637.779200077,0.921917259693146
645.560810089,0.703157186508179
646.40459013,0.843788623809814
647.217130184,0.81253719329834
647.935909986,0.718782901763916
648.732830048,0.796911478042603
653.873690128,0.765660047531128
654.670600176,0.796911478042603
655.373749971,0.703157186508179
656.311300039,0.937542915344238
657.108210087,0.796911478042603
666.218000174,0.843788623809814
667.030539989,0.81253719329834
667.78057003,0.750034332275391
668.671240091,0.890665829181671
669.515030146,0.843788623809814
670.265059948,0.750034332275391
671.077600002,0.81253719329834
671.87451005,0.796911478042603
672.718300104,0.843788623809814
673.483960152,0.765660047531128
674.312119961,0.828162908554077
675.124660015,0.81253719329834
675.890320063,0.765660047531128
676.71848011,0.828162908554077
677.531020164,0.81253719329834
678.296679974,0.765660047531128
679.124840021,0.828162908554077
680.031130075,0.906291484832764
680.765540123,0.734408617019653
681.640580177,0.875040054321289
682.546869993,0.906291484832764
683.265660048,0.718782901763916
684.156320095,0.890665829181671
685.000110149,0.843788623809814
685.765769958,0.765660047531128
686.562680006,0.796911478042603
687.37522006,0.81253719329834
688.109630108,0.734408617019653
688.969040155,0.859414339065552
689.859709978,0.890665829181671
690.625370026,0.765660047531128
691.50041008,0.875040054321289
692.406700134,0.906291484832764
693.203610182,0.796911478042603
694.094280005,0.890665829181671
694.938070059,0.843788623809814
695.703730106,0.765660047531128
696.531890154,0.828162908554077
708.829329967,0.796911478042603
709.610610008,0.781285762786865
710.376270056,0.765660047531128
711.095050097,0.718782901763916
711.798210144,0.703157186508179
712.64199996,0.843788623809814
713.329530001,0.687531471252441
721.736170053,0.765660047531128
722.533080101,0.796911478042603
723.345620155,0.81253719329834
728.158339977,0.781285762786865
728.970870018,0.81253719329834
729.767780066,0.796911478042603
730.54907012,0.781285762786865
731.377230167,0.828162908554077
732.283519983,0.906291484832764
736.252460003,0.937542915344238
737.252500057,1.00004577636719
741.112050056,0.875040054321289
741.830840111,0.718782901763916
757.644060135,0.703157186508179
758.362840176,0.718782901763916
759.175379992,0.81253719329834
760.003540039,0.828162908554077
768.925830126,0.890665829181671
769.910249949,0.98442006111145
770.785290003,0.875040054321289
771.566570044,0.781285762786865
772.379110098,0.81253719329834
773.207270145,0.828162908554077
773.910429955,0.703157186508179
774.707340002,0.796911478042603
775.551130056,0.843788623809814
776.301160097,0.750034332275391
777.129330158,0.828162908554077
777.973119974,0.843788623809814
778.816900015,0.843788623809814
779.629440069,0.81253719329834
780.441980124,0.81253719329834
781.270140171,0.828162908554077
782.03579998,0.765660047531128
782.863960028,0.828162908554077
783.676500082,0.81253719329834
788.536100149,0.781285762786865
793.036309958,0.656280040740967
813.584120035,0.781285762786865
814.474790096,0.890665829181671
815.349830151,0.875040054321289
816.193619967,0.843788623809814
817.178040028,0.98442006111145
817.959320068,0.781285762786865
818.881240129,0.921917259693146
819.740650177,0.859414339065552
820.443809986,0.703157186508179
829.412970066,0.687531471252441
830.19426012,0.781285762786865
831.022420168,0.828162908554077
831.725579977,0.703157186508179
832.569370031,0.843788623809814
833.288150072,0.718782901763916
834.11631012,0.828162908554077
834.756970167,0.640654325485229
835.491369963,0.734408617019653
836.19453001,0.703157186508179
836.882060051,0.687531471252441
837.600850105,0.718782901763916
838.288380146,0.687531471252441
838.944659948,0.656280040740967
839.632189989,0.687531471252441
840.429100037,0.796911478042603
841.194760084,0.765660047531128
842.069800138,0.875040054321289
842.804209948,0.734408617019653
843.648000002,0.843788623809814
844.351150036,0.703157186508179
845.210570097,0.859414339065552
845.960600138,0.750034332275391
846.710639954,0.750034332275391
847.663810015,0.953168630599976
848.741980076,1.07817435264587
890.587650061,0.81253719329834
894.322190046,0.81253719329834
894.978470087,0.656280040740967
895.728510141,0.750034332275391
896.49416995,0.765660047531128
897.259829998,0.765660047531128
897.978610039,0.718782901763916
917.870140076,0.718782901763916
992.576689959,0.796911478042603
1007.24924016,0.687531471252441
1007.96801996,0.718782901763916
1035.90680003,0.656280040740967
1036.45370007,0.546900033950806
1044.26656008,0.718782901763916
1044.98534012,0.718782901763916
1045.71975017,0.734408617019653
1046.43852997,0.718782901763916
1047.20419002,0.765660047531128
1048.00110006,0.796911478042603
1048.87614012,0.875040054321289
1076.12739015,0.750034332275391
1092.95627999,0.734408617019653
1100.56601,0.781285762786865
1101.25354004,0.687531471252441
1102.08170009,0.828162908554077
1102.81611013,0.734408617019653
1107.42569995,0.781285762786865
1108.14447999,0.718782901763916
1108.89451003,0.750034332275391
1109.64455009,0.750034332275391
1110.37896013,0.734408617019653
1111.09774017,0.718782901763916
1111.91027999,0.81253719329834
1112.87907004,0.968794345855713
1161.85005999,0.796911478042603
1162.69385004,0.843788623809814
1163.63139009,0.937542915344238
1164.33455014,0.703157186508179
1165.13145995,0.796911478042603
1165.83462,0.703157186508179
1166.66278005,0.828162908554077
1167.42844009,0.765660047531128
1168.19410014,0.765660047531128
1168.92850995,0.734408617019653
1169.74105,0.81253719329834
1170.49108005,0.750034332275391
1171.22549009,0.734408617019653
1172.03803015,0.81253719329834
1187.67937016,0.703157186508179
1188.27314997,0.593777179718018
1188.96068001,0.687531471252441
1189.60133004,0.640654325485229
1190.24199009,0.640654325485229
1190.89827013,0.656280040740967
1191.50767016,0.609402894973755
1192.13269997,0.625028610229492
1192.77335,0.640654325485229
