34204.5899999
0.0;0.781285762786865
1.04692006111,1.0469229221344
2.03134012222,0.98442006111145
3.26577019691,1.23443150520325
56.3619501591,1.10942578315735
57.4870100021,1.12505149841309
58.6901900768,1.20318007469177
59.8621101379,1.1719286441803
61.0027902126,1.14067721366882
62.0184600353,1.01567149162292
68.3000001907,0.98442006111145
69.4563000202,1.15630292892456
70.4563500881,1.00004577636719
71.4251401424,0.968794345855713
72.3939402103,0.968794345855713
73.4252400398,1.03129720687866
74.3784000874,0.953168630599976
75.3003201485,0.921917259693146
76.2847402096,0.98442006111145
77.2847900391,1.00004577636719
78.3160800934,1.03129720687866
79.3786301613,1.06254863739014
80.4568099976,1.07817435264587
81.5662300587,1.10942578315735
119.833610058,0.98442006111145
120.802400112,0.968794345855713
121.77120018,0.968794345855713
122.739989996,0.968794345855713
123.771290064,1.03129720687866
124.880720139,1.10942578315735
125.833880186,0.953168630599976
126.849560022,1.01567149162292
127.865230083,1.01567149162292
128.834020138,0.968794345855713
129.818440199,0.98442006111145
130.834110022,1.01567149162292
131.912290096,1.07817435264587
132.912330151,1.00004577636719
133.990510225,1.07817435264587
135.037430048,1.0469229221344
136.021850109,0.98442006111145
136.850010157,0.828162908554077
137.771930218,0.921917259693146
145.475410223,1.01567149162292
154.038300037,0.906291484832764
155.007090092,0.968794345855713
156.022770166,1.01567149162292
180.18012023,0.953168630599976
181.164540052,0.98442006111145
182.148960114,0.98442006111145
183.117760181,0.968794345855713
184.211560011,1.09380006790161
185.164730072,0.953168630599976
186.149150133,0.98442006111145
187.133570194,0.98442006111145
188.16486001,1.03129720687866
189.133660078,0.968794345855713
206.728210211,1.0469229221344
207.712630033,0.98442006111145
208.759560108,1.0469229221344
209.775230169,1.01567149162292
210.79090023,1.01567149162292
211.712820053,0.921917259693146
212.681610107,0.968794345855713
213.712910175,1.03129720687866
248.245740175,0.875040054321289
249.073900223,0.828162908554077
249.870810032,0.796911478042603
250.683350086,0.81253719329834
251.495890141,0.81253719329834
252.355300188,0.859414339065552
253.277220011,0.921917259693146
254.183510065,0.906291484832764
261.32446003,0.796911478042603
262.121370077,0.796911478042603
262.887030125,0.765660047531128
263.652690172,0.765660047531128
272.40309,0.843788623809814
273.309390068,0.906291484832764
274.215680122,0.906291484832764
279.403410196,0.875040054321289
280.356580019,0.953168630599976
281.294130087,0.937542915344238
282.341050148,1.0469229221344
286.575620174,0.875040054321289
287.528789997,0.953168630599976
288.575710058,1.0469229221344
298.544920206,0.875040054321289
299.466830015,0.921917259693146
300.420000076,0.953168630599976
301.435670137,1.01567149162292
302.357590199,0.921917259693146
303.388890028,1.03129720687866
304.482690096,1.09380006790161
305.576490164,1.09380006790161
306.560910225,0.98442006111145
307.435950041,0.875040054321289
325.327390194,0.98442006111145
326.280560017,0.953168630599976
349.187860012,1.09380006790161
350.000400066,0.81253719329834
351.000440121,1.00004577636719
351.969240189,0.968794345855713
352.969280005,1.00004577636719
353.953700066,0.98442006111145
354.906870127,0.953168630599976
355.875660181,0.968794345855713
356.860080004,0.98442006111145
357.828880072,0.968794345855713
358.813300133,0.98442006111145
359.828970194,1.01567149162292
360.90715003,1.07817435264587
361.938440084,1.03129720687866
362.766610146,0.828162908554077
368.923140049,1.09380006790161
369.985690117,1.06254863739014
370.907600164,0.921917259693146
371.923270226,1.01567149162292
372.954570055,1.03129720687866
374.017120123,1.06254863739014
374.970290184,0.953168630599976
375.829699993,0.859414339065552
376.782870054,0.953168630599976
377.845420122,1.06254863739014
378.93922019,1.09380006790161
379.861140013,0.921917259693146
380.829930067,0.968794345855713
381.814350128,0.98442006111145
413.893950224,0.968794345855713
414.80024004,0.906291484832764
415.659650087,0.859414339065552
416.597190142,0.937542915344238
417.675370216,1.07817435264587
418.800420046,1.12505149841309
419.956720114,1.15630292892456
420.972390175,1.01567149162292
421.972440004,1.00004577636719
422.988110065,1.01567149162292
424.003780127,1.01567149162292
456.099000216,1.00004577636719
457.099050045,1.00004577636719
458.114720106,1.01567149162292
459.114770174,1.00004577636719
460.161689997,1.0469229221344
461.224240065,1.06254863739014
462.271160126,1.0469229221344
463.271210194,1.00004577636719
464.255630016,0.98442006111145
478.928170204,0.937542915344238
489.241140127,1.20318007469177
506.898200035,0.468771457672119
597.730490208,0.81253719329834
598.824290037,1.09380006790161
599.605570078,0.781285762786865
603.277610064,0.921917259693146
604.215160131,0.937542915344238
633.982140064,0.875040054321289
634.825930119,0.843788623809814
635.497840166,0.671905755996704
650.904790163,0.968794345855713
657.639480114,0.875040054321289
658.420760155,0.781285762786865
759.050370216,1.28130865097046
860.711270094,1.03129720687866
861.601940155,0.890665829181671
862.726990223,1.12505149841309
875.33694005,1.1719286441803
876.446370125,1.10942578315735
877.399540186,0.953168630599976
878.415210009,1.01567149162292
879.509010077,1.09380006790161
884.524860144,1.00004577636719
890.853280067,1.06254863739014
905.853960037,0.953168630599976
906.947770119,1.09380006790161
907.885310173,0.937542915344238
