Mandatory;Pressed;Strength;BeginingTime;TimeSaved;EndTime;Comment;Emotion;
1;1;0;53392.3510621;591022192.351062;53642.080524;591022442.080524;53692.351064;591022492.351064;;neutral/no, nothing in particular/no emotion;
1;1;0;53451.155632;591022251.155632;53636.5433102;591022436.54331;53751.1556339;591022551.155634;;neutral/no, nothing in particular/no emotion;
