82727.90096
32.000000; 32.000000; 32.000000
-43;8;-45
-45;7;-46
-48;6;-45
-43;4;-43
-40;4;-41
-45;3;-38
-46;3;-39
-47;1;-42
-47;0;-40
-51;-1;-40
-55;-6;-43
-55;-8;-37
-66;-12;-36
-64;-11;-30
-66;-4;-19
-72;-1;-19
-62;-1;-24
-59;2;-22
-56;16;-16
-49;21;-14
-58;2;-42
-39;1;-61
-52;-8;-70
-105;-34;-106
-100;-42;-107
-55;-32;-77
-75;-13;-55
-76;-9;-50
-61;-4;-35
-56;-2;-31
-41;13;-17
-34;17;-15
-19;25;-9
-12;30;-3
-13;38;-2
-21;43;-2
-23;39;-1
-40;37;2
-45;34;-4
-53;38;-7
-55;37;-9
-65;31;-9
-62;31;-9
-55;33;-8
-55;34;-1
-56;37;2
-60;43;7
-59;44;11
-53;51;16
-52;52;16
-53;51;13
-56;43;13
-52;36;12
-41;27;18
-35;24;20
-28;18;15
-31;14;4
-39;11;-12
-42;8;-12
-71;2;-21
-67;-2;-29
-64;7;-35
-63;3;-33
-74;0;-35
-72;5;-43
-70;5;-38
-64;5;-44
-60;5;-40
-59;6;-37
-48;6;-39
-47;7;-38
-47;5;-36
-46;4;-38
-43;5;-44
-42;4;-44
-44;3;-45
-42;2;-46
-37;5;-46
-36;10;-45
-35;12;-44
-42;14;-51
-44;15;-54
-42;18;-61
-44;19;-55
-50;14;-51
-54;11;-53
-54;10;-52
-56;10;-49
-58;8;-44
-53;7;-32
-54;9;-30
-58;8;-29
-57;5;-23
-53;2;-18
-58;4;-18
-55;2;-17
-60;-4;-30
-64;-9;-32
-68;-21;-34
-68;-20;-32
-64;-10;-25
-59;-6;-21
-62;-7;-13
-56;-4;-6
-52;-3;-4
-50;-1;-4
-54;-5;-10
-66;-15;-25
-69;-24;-24
-68;-26;-25
-63;-18;-28
-62;-4;-22
-60;-4;-11
-56;-1;-10
-54;8;2
-52;5;5
-48;3;4
-49;2;-2
-73;-14;-26
-68;-30;-33
-74;-28;-40
-71;-24;-42
-61;-21;-39
-53;-4;-23
-54;3;-16
-52;0;-16
-51;0;-12
-51;1;-11
-57;-8;-29
-53;-8;-34
-51;-14;-39
-56;-18;-44
-58;-25;-50
-51;-23;-48
-43;-11;-40
-46;-10;-36
-44;-13;-36
-44;-12;-36
-46;-10;-36
-45;-11;-42
-46;-12;-43
-47;-13;-50
-46;-13;-53
-48;-14;-54
-44;-14;-54
-37;-13;-55
-34;-10;-55
-33;-11;-54
-34;-11;-58
-29;-9;-57
-28;-9;-56
-28;-9;-57
-26;-6;-57
-28;-4;-58
-27;-3;-61
-21;0;-61
-24;2;-62
-26;3;-60
-24;4;-59
-24;6;-58
-24;7;-57
-25;6;-57
-23;6;-54
-24;6;-55
-24;7;-57
-24;8;-55
-25;7;-56
-24;7;-57
-23;8;-57
-24;7;-56
-26;8;-57
-23;9;-57
-25;9;-57
-26;9;-56
-26;9;-58
-25;8;-56
-24;8;-55
-25;8;-54
-25;6;-55
-25;6;-55
-23;5;-55
-24;4;-56
-23;4;-56
-26;5;-55
-27;4;-60
-25;5;-61
-29;3;-62
-32;6;-62
-29;8;-65
-35;8;-72
-33;8;-70
-29;9;-68
-29;7;-70
-18;9;-76
-18;10;-75
-23;5;-61
-25;4;-52
-24;6;-49
-27;10;-48
-28;11;-53
-37;5;-51
-17;1;-41
-95;-22;-76
-16;10;-30
-30;-4;-40
-28;-1;-52
-33;-4;-52
-26;3;-49
-28;29;-52
-29;15;-53
-37;13;-55
-32;18;-53
-24;13;-49
-30;34;-51
-37;30;-46
-34;39;-43
-34;32;-40
-37;34;-44
-38;28;-38
-38;30;-41
-32;31;-39
-34;29;-38
-34;31;-41
-37;26;-50
-37;24;-45
-37;22;-37
-40;21;-43
-38;23;-52
-36;22;-47
-37;20;-47
-35;23;-50
-36;21;-49
-38;22;-49
-37;20;-48
-41;21;-47
-39;14;-44
-40;0;-40
-40;14;-43
-43;11;-48
-34;8;-45
-36;11;-47
-34;11;-48
-36;12;-50
-36;12;-52
-37;13;-53
-37;13;-55
-42;13;-57
-43;15;-59
-45;13;-58
-48;12;-57
-47;7;-52
-47;7;-51
-44;6;-51
-42;6;-50
-43;5;-49
-40;3;-46
-39;3;-46
-39;4;-46
-39;4;-44
-40;6;-44
-40;8;-46
-41;6;-43
-42;6;-43
-42;7;-45
-45;8;-48
-47;7;-49
-53;4;-52
-52;3;-51
-51;-1;-47
-51;-2;-47
-47;-2;-49
-47;-5;-45
-46;-3;-38
-42;-1;-35
-41;2;-34
-42;6;-32
-43;8;-32
-47;6;-35
-50;7;-37
-51;10;-38
-51;10;-38
-54;13;-42
-52;12;-40
-51;11;-41
-52;11;-41
-49;9;-40
-49;6;-42
-48;6;-43
-45;3;-42
-46;3;-42
-45;2;-42
-46;3;-43
-49;5;-47
-47;4;-53
-44;4;-52
-42;7;-51
-41;8;-52
-37;9;-54
-34;8;-53
-34;9;-53
-31;12;-54
-30;13;-55
-32;13;-55
-33;13;-56
-34;11;-62
-35;10;-62
-35;9;-60
-34;10;-56
-32;10;-55
-31;10;-52
-31;11;-51
-29;14;-50
-26;14;-50
-28;17;-51
-28;18;-50
-27;17;-48
-27;18;-49
-25;19;-48
-22;22;-52
-21;24;-54
-24;24;-59
-27;23;-59
-29;23;-55
-28;22;-56
-35;21;-53
-35;20;-50
-37;20;-49
-34;18;-42
-40;15;-43
-48;17;-47
-53;16;-49
-39;10;-42
-61;18;-46
-51;16;-44
-38;12;-40
-47;10;-45
-50;9;-42
-49;5;-39
-58;4;-36
-52;7;-35
-45;11;-35
-48;8;-38
-53;4;-42
-52;-1;-44
-47;-4;-38
-45;-4;-37
-48;-1;-38
-50;4;-37
-52;4;-38
-57;8;-44
-60;9;-46
-57;10;-43
-54;13;-45
-54;15;-45
-58;15;-44
-56;16;-47
-53;15;-43
-46;14;-36
-51;14;-39
-53;16;-33
-50;12;-30
-61;14;-30
-60;15;-35
-53;12;-29
-52;15;-31
-53;19;-30
-51;29;-27
-49;30;-24
-53;25;-24
-50;28;-23
-56;25;-25
-55;24;-25
-59;22;-20
-63;23;-15
-54;28;-12
-50;30;-8
-51;26;-7
-45;22;1
-41;17;6
-40;17;3
-45;20;1
-40;28;5
-47;37;-5
-69;37;-5
-72;32;-6
-68;33;-8
-63;18;-9
-63;15;-8
-58;17;-2
-69;21;-5
-62;21;-13
-49;16;-12
-48;15;-15
-70;11;-15
-61;12;-13
-66;8;-10
-65;16;-12
-56;18;-14
-66;22;-19
-62;12;-16
-67;-3;-17
-65;-6;-11
-43;3;-10
-40;2;-12
-39;10;-13
-45;11;-14
-70;7;-30
-103;-2;-30
-93;-20;-25
-95;-33;8
-87;-21;19
-70;-11;34
-71;-13;43
-81;-23;49
-81;-27;52
-92;-31;59
-79;-36;64
-55;-31;67
-73;-7;54
-87;-8;47
-66;-3;33
-58;-2;25
-44;0;27
-30;6;36
-18;17;36
-10;22;32
-5;22;32
1;25;29
4;24;31
18;21;32
20;22;33
24;21;29
28;19;36
35;22;36
35;22;34
36;22;31
46;23;25
48;23;25
44;24;18
37;22;16
33;28;4
15;35;-3
2;44;-2
0;74;-27
-16;83;-27
-19;65;-59
21;78;-103
-62;-108;109
127;45;97
-57;100;-70
-128;-44;-12
-47;-53;52
-52;-33;38
-77;-39;45
-38;-19;62
-44;-28;68
-29;-29;65
-33;-31;62
-33;-44;59
-50;-56;54
-64;-57;66
-52;-38;62
-69;-38;78
-32;1;80
-42;13;77
-27;23;48
-40;17;36
-29;9;23
-23;21;13
-24;22;8
-33;25;1
-36;22;0
-28;20;11
-19;22;21
-2;26;30
-10;31;36
-15;48;42
-52;50;32
-100;34;22
-90;0;47
-71;-6;67
-58;-31;84
-53;-31;79
-49;-19;53
-33;-9;35
-32;-7;30
-32;2;17
-36;7;11
-53;3;4
-50;-2;9
-31;6;12
-40;11;8
-67;24;0
-85;33;-18
-90;35;-21
-82;20;-13
-69;18;-10
-69;23;-10
-70;27;-10
-72;18;-18
-71;11;-21
-60;10;-19
-55;16;-16
-48;17;-7
-56;17;-9
-59;20;-11
-57;28;-16
-60;32;-20
-67;28;-21
-67;24;-20
-58;22;-18
-52;24;-16
-54;25;-18
-52;29;-23
-49;30;-23
-51;30;-27
-54;27;-29
-53;22;-30
-52;20;-30
-53;20;-31
-50;25;-27
-49;27;-26
-51;29;-27
-53;29;-28
-52;28;-26
-51;28;-26
-52;29;-25
-59;28;-27
-59;27;-27
-64;25;-31
-67;27;-34
-64;20;-27
-63;15;-24
-59;13;-21
-49;16;-20
-45;16;-22
-55;14;-33
-51;12;-34
-51;13;-35
-52;15;-32
-55;15;-25
-58;16;-22
-57;15;-17
-54;14;-16
-57;16;-23
-61;16;-29
-61;17;-29
-56;17;-25
-56;17;-24
-59;18;-24
-59;18;-24
-56;20;-23
-58;20;-23
-59;21;-24
-57;21;-24
-56;20;-24
-54;19;-27
-52;19;-27
-52;18;-28
-52;17;-29
-52;16;-29
-56;14;-29
-55;14;-29
-52;14;-27
-56;15;-30
-47;14;-26
-52;13;-29
-52;11;-32
-51;12;-36
-52;11;-41
-53;11;-47
-54;2;-40
-58;5;-45
-52;7;-39
-50;9;-36
-50;17;-44
-52;20;-46
-44;19;-38
-42;19;-38
-46;21;-42
-46;21;-41
-48;20;-41
-45;21;-42
-45;20;-39
-46;20;-38
-47;21;-39
-44;24;-39
-44;25;-40
-44;27;-39
-45;28;-38
-46;28;-38
-45;28;-38
-46;26;-38
-47;24;-38
-46;23;-37
-45;23;-38
-46;24;-39
-49;22;-38
-49;23;-37
-52;22;-38
-52;22;-38
-49;23;-35
-50;23;-36
-48;24;-37
-48;23;-36
-47;23;-37
-46;23;-36
-46;22;-37
-47;24;-38
-46;23;-38
-47;22;-38
-49;22;-37
-51;22;-38
-52;21;-36
-53;20;-35
-55;22;-39
-55;20;-41
-47;18;-32
-50;21;-33
-52;24;-36
-48;20;-36
-47;19;-44
-48;13;-45
-42;13;-39
-46;13;-39
-49;13;-38
-48;14;-35
-46;14;-33
-47;14;-32
-48;17;-33
-48;18;-32
-49;19;-31
-49;20;-31
-51;22;-32
-54;25;-33
-53;24;-32
-51;26;-33
-53;26;-33
-49;28;-32
-47;31;-33
-48;32;-33
-49;31;-33
-46;31;-33
-47;31;-34
-50;28;-40
-49;21;-41
-46;19;-38
-48;22;-36
-47;24;-36
-44;27;-34
-43;27;-33
-48;27;-38
-47;26;-39
-43;23;-41
-51;20;-45
-49;19;-44
-43;17;-40
-44;18;-41
-44;20;-44
-42;20;-45
-39;19;-40
-38;20;-39
-40;23;-36
-40;25;-35
-39;25;-34
-36;26;-30
-40;24;-33
-46;21;-40
-45;20;-40
-53;19;-45
-53;18;-48
-56;16;-49
-63;14;-42
-67;16;-40
-60;16;-41
-63;15;-43
-63;11;-46
-60;11;-46
-57;12;-42
-60;16;-43
-59;17;-42
-53;21;-38
-53;25;-36
-49;30;-34
-50;30;-34
-43;31;-27
-46;34;-29
-38;34;-21
-34;41;-17
-34;43;-16
-24;43;-2
-24;43;-1
-31;50;-6
-28;51;-6
-24;53;-2
-19;53;2
-21;55;6
-20;59;2
-16;57;5
-20;58;7
-15;59;8
-18;58;7
-19;60;6
-11;58;6
-17;54;3
-17;54;1
-13;52;3
-13;52;4
-10;57;-1
-14;58;-2
-31;59;-3
-27;63;-3
-22;58;-7
-38;56;-9
-35;56;-9
-36;56;-5
-47;56;-18
-37;53;-8
-38;54;-10
-53;52;-25
-53;47;-20
-62;42;-33
-52;34;-22
-53;28;-19
-64;34;-33
-59;30;-29
-59;36;-26
-59;36;-24
-53;40;-20
-50;41;-19
-47;42;-19
-42;43;-15
-41;44;-13
-38;46;-14
-36;47;-13
-34;50;-12
-30;52;-9
-29;52;-9
-28;53;-8
-27;55;-8
-25;56;-7
-24;57;-7
-23;59;-7
-23;58;-5
-23;58;-3
-23;58;-1
-22;58;-1
-22;59;-1
-21;59;0
-22;60;1
-21;60;1
-21;60;4
-21;59;4
-21;60;3
-20;59;3
-20;58;3
-22;58;3
-22;57;3
-22;57;2
-21;56;3
-23;54;3
-22;54;3
-23;52;1
-23;51;2
-22;52;3
-22;54;4
-23;54;5
-28;59;5
-30;60;5
-36;66;-2
-42;67;-5
-48;66;-9
-43;62;-8
-46;60;-11
-42;61;-12
-38;59;-8
-29;58;-4
-28;58;-2
-24;56;-2
-22;56;0
-16;55;2
-13;55;1
-13;57;4
-13;56;5
-15;57;4
-8;59;7
-8;58;7
-13;61;5
-14;61;7
-12;60;6
-10;60;5
-9;59;3
-12;56;2
-13;54;0
-15;46;-5
-16;41;-9
-12;38;-16
-11;31;-17
-22;30;-17
-33;31;-28
-31;31;-34
-39;22;-43
-47;15;-49
-62;2;-64
-58;1;-79
-60;0;-99
-59;5;-98
-65;18;-86
-59;24;-78
-60;24;-77
-52;20;-69
-46;19;-65
-37;23;-58
-34;22;-55
-29;20;-45
-37;15;-46
-34;11;-43
-24;8;-36
-19;8;-31
-20;9;-21
-14;11;-19
-9;24;-11
-8;25;-11
-25;35;-17
-59;36;-35
-75;23;-40
-89;-7;-33
-49;-6;-69
-81;-28;-128
-113;-28;-96
-73;6;-57
-85;13;-56
-69;-2;-28
-55;3;-31
-57;6;-39
-42;3;-29
-35;4;-22
-32;9;-23
-30;11;-25
-32;16;-26
-30;18;-22
-29;19;-25
-34;21;-26
-35;18;-26
-49;15;-31
-48;15;-32
-54;8;-43
-57;3;-43
-66;6;-56
-74;5;-51
-71;4;-48
-82;11;-55
-75;12;-52
-69;10;-45
-68;11;-44
-59;13;-41
-57;12;-38
-55;16;-32
-53;18;-29
-57;22;-31
-57;23;-18
-52;22;-7
-55;29;-7
-48;31;-9
-44;35;1
-35;38;4
-31;40;5
-40;42;9
-47;39;9
-38;39;9
-37;36;8
-33;31;7
-28;28;6
-15;25;0
-13;24;-12
-9;29;-14
-7;32;-16
-10;35;-21
-24;46;-32
-43;43;-44
-81;29;-39
-84;21;-40
-62;-34;-66
-116;-1;-128
-87;22;-108
-57;18;-49
-57;20;-48
-57;11;-51
-48;8;-49
-45;-4;-44
-41;-7;-42
-36;-13;-43
-33;-11;-54
-30;-10;-49
-34;-8;-32
-37;-10;-28
-38;-15;-33
-38;-17;-36
-41;-15;-44
-43;-15;-44
-55;-15;-46
-61;-17;-43
-61;-17;-44
-57;-19;-42
-59;-18;-43
-56;-18;-48
-55;-19;-48
-56;-22;-45
-56;-20;-44
-58;-20;-45
-59;-18;-46
-61;-16;-44
-58;-10;-42
-58;-7;-41
-60;-2;-37
-59;1;-36
-59;7;-31
-57;13;-25
-58;15;-21
-53;20;-20
-55;22;-16
-48;24;-7
-46;25;-2
-42;28;1
-40;27;3
-40;29;5
-30;28;9
-28;28;11
-34;28;8
-35;32;5
-32;30;7
-23;29;7
-30;28;-12
-31;22;-21
-24;21;-22
-46;11;-42
-48;3;-45
-45;-10;-44
-50;-16;-45
-48;-33;-62
-43;-41;-75
-28;-57;-99
-35;-56;-119
-36;-55;-93
-37;-48;-51
-41;-42;-45
-49;-28;-49
-48;-27;-48
-46;-29;-39
-44;-28;-35
-38;-28;-31
-36;-25;-32
-37;-23;-33
-39;-23;-37
-39;-25;-39
-42;-36;-50
-42;-40;-51
-42;-33;-34
-44;-33;-27
-42;-34;-28
-50;-33;-34
-48;-35;-36
-48;-44;-34
-43;-44;-30
-42;-37;-29
-46;-35;-29
-47;-30;-28
-44;-30;-30
-45;-31;-31
-43;-35;-29
-42;-34;-31
-43;-33;-31
-43;-34;-31
-44;-34;-29
-45;-33;-29
-46;-31;-33
-48;-25;-31
-47;-25;-29
-47;-23;-27
-49;-23;-27
-46;-24;-28
-48;-25;-27
-48;-26;-25
-49;-28;-26
-51;-29;-27
-50;-31;-27
-50;-32;-28
-50;-36;-31
-52;-40;-34
-51;-53;-36
-46;-50;-36
-45;-46;-30
-42;-41;-20
-40;-38;-18
-41;-31;-11
-42;-28;-11
-44;-26;-18
-45;-28;-20
-49;-36;-18
-49;-41;-15
-37;-44;-7
-29;-49;-2
-32;-53;-1
-35;-58;-4
-36;-60;-5
-37;-61;-9
-37;-61;-8
-37;-60;-6
-36;-59;-6
-33;-61;-7
-35;-60;-10
-36;-60;-10
-33;-60;-11
-32;-59;-11
-27;-57;-8
-25;-57;-7
-25;-57;-7
-25;-62;-10
-25;-81;-12
-31;-58;-5
-32;-47;0
-28;-41;3
-32;-44;2
-35;-54;1
-31;-58;6
-32;-57;9
-30;-54;11
-33;-46;11
-37;-45;13
-37;-47;14
-34;-49;13
-35;-48;12
-35;-49;12
-35;-50;12
-35;-51;13
-33;-51;11
-33;-51;10
-34;-50;10
-34;-50;9
-34;-48;9
-34;-50;9
-36;-50;10
-36;-50;11
-34;-52;12
-30;-51;12
-28;-53;13
-30;-53;12
-31;-52;12
-32;-52;11
-33;-53;10
-34;-54;11
-32;-54;10
-30;-53;9
-31;-55;9
-32;-56;9
-33;-54;8
-33;-54;8
-32;-53;8
-33;-53;8
-32;-53;7
-32;-53;6
-32;-53;6
-31;-54;5
-31;-54;4
-31;-54;4
-31;-55;4
-31;-55;3
-32;-55;3
-32;-56;2
-32;-57;3
-33;-56;3
-34;-55;3
-34;-54;3
-33;-54;4
-33;-53;4
-32;-54;4
-32;-54;5
-33;-55;5
-32;-54;5
-32;-55;5
-33;-55;5
-33;-55;5
-32;-55;5
-32;-55;5
-31;-55;5
-31;-54;5
-31;-54;5
-30;-54;5
-31;-54;4
-31;-54;4
-31;-55;4
-31;-55;4
-31;-55;4
-30;-54;4
-31;-55;4
-31;-55;5
-31;-54;4
-31;-55;5
-31;-54;5
-30;-55;5
-31;-55;5
-32;-55;5
-32;-54;4
-32;-54;5
-31;-54;5
-32;-54;4
-32;-53;4
-32;-53;4
-32;-53;4
-31;-54;4
-30;-55;3
-32;-54;3
-33;-54;3
-32;-55;3
-32;-55;3
-32;-55;3
-31;-56;3
-31;-55;3
-31;-54;3
-32;-53;2
-33;-53;2
-33;-52;2
-33;-52;2
-33;-54;3
-33;-54;3
-33;-54;3
-33;-54;3
-32;-55;4
-30;-57;4
-30;-58;4
-29;-58;3
-30;-58;3
-29;-58;2
-29;-57;2
-29;-56;2
-29;-56;1
-29;-56;2
-28;-56;1
-28;-56;1
-29;-57;1
-29;-56;1
-30;-55;1
-30;-54;1
-28;-53;1
-28;-55;1
-30;-60;1
-32;-63;2
-29;-62;3
-28;-57;3
-29;-56;2
-32;-53;1
-32;-51;1
-30;-51;0
-31;-53;0
-30;-53;0
-30;-52;-1
-28;-54;-1
-28;-53;-2
-29;-55;-5
-37;-54;-10
-38;-53;-11
-39;-52;-12
-44;-58;-10
-45;-54;-8
-42;-54;0
-42;-54;-1
-45;-72;-1
-48;-75;3
-33;-61;14
-33;-59;13
-29;-60;15
-24;-58;20
-25;-56;19
-29;-55;24
-29;-56;33
-14;-50;38
-14;-47;35
-22;-44;24
-29;-45;19
-39;-46;18
-35;-48;20
-29;-46;20
-27;-44;19
-25;-45;18
-24;-45;17
-23;-44;16
-24;-46;13
-28;-46;13
-27;-49;16
-32;-51;14
-35;-52;17
-29;-55;22
-31;-56;18
-44;-60;15
-48;-64;17
-42;-63;19
-41;-60;14
-37;-60;14
-29;-63;16
-28;-63;15
-27;-61;13
-27;-58;12
-28;-55;9
-28;-53;8
-29;-52;6
-30;-50;5
-31;-49;5
-31;-49;5
-31;-48;5
-32;-50;5
-32;-51;5
-31;-53;4
-30;-55;5
-28;-60;5
-27;-59;5
-28;-59;5
-29;-59;6
-30;-58;5
-31;-59;5
-31;-57;4
-31;-56;4
-31;-55;5
-31;-53;6
-33;-51;8
-36;-49;8
-36;-48;5
-36;-50;2
-39;-53;-5
-40;-52;-5
-45;-52;-3
-44;-49;-7
-46;-48;-9
-45;-48;-9
-45;-48;-8
-43;-48;-9
-43;-48;-9
-42;-50;-7
-40;-51;-6
-41;-53;-3
-35;-54;0
-34;-55;1
-35;-55;1
-35;-55;2
-32;-52;1
-30;-51;2
-31;-52;1
-34;-53;-1
-35;-55;-3
-43;-56;-4
-43;-55;-3
-39;-55;-4
-36;-56;-2
-33;-53;0
-33;-52;-1
-39;-51;-4
-43;-46;-1
-40;-45;2
-42;-46;2
-42;-47;4
-37;-49;5
-42;-48;3
-43;-45;5
-44;-46;6
-44;-51;6
-40;-54;3
-41;-54;1
-36;-51;0
-35;-56;-2
-36;-61;-4
-35;-62;-4
-37;-57;-2
-36;-55;-3
-38;-54;-6
-33;-52;-7
-33;-50;-7
-73;-50;52
10;-63;20
-40;-78;-39
33;-98;15
-64;-55;-27
-27;-54;-4
-20;-63;-5
-48;-52;-10
-39;-51;-5
-40;-52;-6
-36;-49;-9
-43;-48;-9
-38;-46;-8
-38;-46;-6
-34;-47;-4
-33;-46;-4
-33;-54;-4
-34;-58;-7
-43;-49;-5
-40;-45;-4
-35;-47;-3
-34;-51;-4
-30;-56;-4
-27;-56;-3
-29;-54;-4
-33;-42;-5
-37;-44;-3
-32;-49;-2
-39;-51;-6
-47;-64;-7
-50;-73;-7
-36;-70;-4
-40;-55;0
-40;-49;4
-42;-44;5
-46;-42;1
-45;-43;1
-39;-43;4
-37;-41;3
-35;-42;3
-34;-44;4
-33;-48;5
-35;-49;5
-35;-51;5
-35;-51;6
-38;-49;5
-37;-48;6
-37;-48;7
-37;-47;6
-38;-54;5
-31;-58;3
-30;-54;1
-36;-56;-5
-33;-57;-4
-33;-57;-2
-33;-59;-2
-32;-62;-3
-28;-61;-4
-27;-61;-4
-24;-62;-4
-23;-63;-4
-19;-61;-4
-21;-62;-5
-23;-60;-4
-23;-58;-4
-26;-56;-6
-25;-53;-6
-26;-52;-5
-27;-52;-4
-28;-51;-4
-27;-53;-3
-27;-54;-3
-31;-56;-3
-30;-56;-2
-29;-58;-1
-28;-59;1
-29;-59;2
-26;-61;4
-27;-61;3
-29;-60;3
-29;-58;3
-29;-57;3
-29;-58;3
-29;-58;2
-26;-57;1
-26;-56;0
-26;-55;0
-26;-55;-1
-28;-54;-3
-30;-55;-4
-33;-56;-6
-33;-56;-5
-34;-56;-5
-34;-57;-3
-34;-56;-2
-31;-56;-1
-30;-56;0
-28;-56;1
-28;-56;1
-30;-55;0
-31;-57;-1
-32;-59;0
-32;-53;3
-32;-51;4
-35;-50;4
-33;-52;4
-28;-58;4
-26;-61;5
-26;-59;5
-28;-56;5
-29;-55;5
-30;-56;7
-30;-55;7
-31;-54;6
-31;-53;7
-32;-51;6
-32;-50;6
-32;-51;6
-33;-52;7
-33;-52;7
-33;-53;6
-33;-54;7
-34;-55;5
-33;-56;5
-33;-56;5
-32;-56;6
-32;-55;6
-32;-55;6
-32;-54;6
-33;-54;5
-32;-53;5
-32;-52;5
-32;-52;5
-32;-52;6
-33;-53;6
-33;-53;6
-33;-54;7
-33;-54;7
-34;-54;8
-34;-55;8
-33;-56;8
-34;-54;7
-36;-55;8
-36;-53;8
-35;-53;9
-32;-53;8
-31;-54;8
-27;-54;7
-28;-54;7
-29;-53;6
-29;-54;6
-29;-54;6
-29;-53;5
-28;-53;5
-31;-53;4
-32;-54;5
-32;-55;6
-33;-55;6
-32;-53;5
-32;-50;4
-31;-50;4
-32;-53;4
-33;-54;4
-33;-55;3
-34;-55;3
-34;-54;3
-34;-55;3
-34;-57;3
-33;-56;2
-33;-54;1
-34;-52;0
-33;-51;0
-33;-53;-2
-32;-54;-3
-30;-56;-3
-30;-59;-3
-30;-60;-3
-29;-61;-4
-29;-61;-4
-26;-65;-3
-25;-65;-2
-26;-63;-2
-27;-63;-3
-27;-62;-3
-27;-62;-2
-26;-60;-2
-27;-58;-2
-27;-57;-1
-28;-54;-1
-28;-53;-1
-27;-50;-1
-28;-49;0
-28;-48;1
-29;-51;0
-29;-55;-1
-29;-61;-1
-29;-61;1
-33;-56;4
-38;-55;5
-42;-55;6
-42;-55;6
-39;-58;9
-35;-60;13
-36;-57;13
-40;-50;10
-41;-48;9
-42;-49;9
-42;-51;10
-38;-53;12
-38;-54;11
-35;-54;11
-31;-55;10
-29;-54;9
-28;-53;7
-27;-53;6
-28;-54;6
-27;-54;6
-29;-54;4
-28;-53;5
-29;-52;5
-28;-53;6
-28;-53;6
-28;-52;6
-29;-52;7
-28;-50;9
-30;-50;10
-30;-49;10
-32;-51;11
-42;-53;4
-50;-51;-6
-50;-54;-10
-57;-57;-10
-54;-52;-8
-50;-45;-10
-49;-46;-9
-44;-48;-9
-44;-45;-13
-44;-45;-14
-43;-54;-14
-40;-59;-15
-36;-64;-12
-30;-63;-10
-31;-50;-12
-34;-47;-12
-36;-47;-14
-31;-46;-16
-29;-46;-17
-30;-43;-17
-33;-43;-19
-35;-43;-21
-35;-45;-23
-37;-52;-26
-42;-43;-25
-46;-38;-24
-55;-37;-29
-57;-38;-34
-54;-43;-34
-51;-43;-33
-51;-35;-34
-52;-32;-33
-52;-27;-32
-54;-24;-30
-49;-23;-29
-46;-20;-29
-48;-20;-30
-46;-20;-33
-46;-20;-34
-45;-20;-33
-44;-19;-34
-42;-18;-36
-46;-16;-38
-46;-13;-39
-46;-12;-41
-45;-12;-41
-48;-12;-42
-49;-12;-41
-49;-11;-42
-47;-11;-42
-47;-11;-40
-47;-11;-41
-46;-12;-40
-45;-14;-40
-47;-16;-41
-44;-20;-43
-42;-20;-41
-38;-18;-34
-31;-20;-40
-34;-22;-44
-38;-20;-40
-33;-16;-41
-36;-11;-48
-40;-9;-51
-31;-10;-52
-37;-23;-57
-43;-27;-60
-42;-36;-52
-46;-37;-44
-53;-33;-36
-57;-30;-35
-50;-28;-40
-46;-29;-51
-52;-34;-45
-36;-31;-14
-25;-35;-1
-49;-28;-27
-54;-32;-39
-57;-31;-45
-49;-34;-44
-40;-40;-39
-35;-38;-38
-31;-32;-45
-39;-23;-50
-46;-26;-49
-42;-27;-43
-44;-25;-39
-48;-32;-35
-49;-35;-34
-61;-43;-15
-67;-46;-2
-51;-52;-27
-37;-60;-24
-40;-58;-22
-46;-52;-16
-32;-45;-8
-8;-41;6
-17;-41;3
-25;-41;2
-26;-44;3
-33;-52;0
-35;-59;0
-34;-63;2
-32;-71;3
-34;-74;3
-47;-73;6
-44;-69;6
-34;-62;3
-32;-62;1
-25;-62;0
-26;-61;-2
-28;-60;-2
-27;-55;1
-29;-53;1
-32;-50;2
-33;-49;3
-36;-48;5
-33;-46;11
-32;-46;12
-32;-45;17
-30;-48;18
-33;-50;18
-35;-50;17
-40;-53;19
-40;-54;21
-36;-53;23
-35;-52;21
-34;-49;20
-33;-49;16
-33;-49;15
-31;-50;14
-32;-51;13
-33;-52;14
-33;-52;14
-30;-53;15
-28;-53;16
-28;-53;16
-26;-51;16
-27;-51;16
-30;-50;14
-31;-48;12
-35;-50;11
-35;-53;13
-35;-58;14
-27;-53;12
-25;-49;10
-25;-47;6
-26;-49;5
-30;-52;3
-33;-57;2
-33;-66;1
-32;-65;0
-33;-63;0
-35;-62;1
-39;-64;0
-40;-61;0
-41;-58;0
-38;-52;-1
-36;-50;-1
-31;-50;-1
-28;-53;0
-29;-55;0
-29;-55;2
-31;-55;2
-35;-57;4
-36;-57;5
-36;-55;7
-35;-55;7
-31;-55;7
-29;-56;6
-27;-58;6
-27;-56;6
-27;-57;6
-28;-58;6
-28;-58;5
-29;-57;4
-30;-56;4
-32;-56;3
-32;-54;4
-33;-54;3
-30;-53;3
-32;-52;2
-32;-50;1
-26;-50;4
-26;-48;5
-26;-53;6
-28;-56;5
-33;-60;4
-35;-61;4
-36;-62;4
-35;-61;6
-32;-56;8
-30;-55;8
-28;-56;7
-31;-58;6
-30;-57;6
-30;-53;5
-31;-51;4
-31;-53;4
-32;-54;4
-31;-56;4
-31;-56;3
-30;-57;3
-29;-57;2
-29;-57;2
-29;-55;2
-29;-55;2
-28;-55;1
-29;-54;1
-30;-54;0
-31;-54;0
-32;-55;0
-32;-58;1
-31;-59;1
-29;-59;2
-28;-59;3
-26;-58;3
-26;-58;3
-29;-58;2
-30;-59;1
-31;-65;0
-30;-67;2
-29;-57;4
-33;-48;4
-34;-50;4
-34;-54;5
-31;-55;6
-26;-56;8
-24;-55;10
-25;-56;11
-27;-60;11
-28;-61;12
-28;-58;11
-29;-56;11
-30;-52;11
-29;-50;11
-29;-48;12
-30;-48;12
-31;-49;13
-31;-52;13
-31;-53;14
-29;-53;15
-30;-52;15
-29;-53;14
-29;-53;14
-30;-54;14
-30;-56;14
-30;-57;14
-29;-57;14
-28;-56;14
-28;-54;14
-28;-55;13
-28;-53;12
-29;-51;13
-29;-50;13
-29;-50;14
-28;-50;14
-29;-50;14
-29;-51;15
-29;-52;16
-30;-52;16
-29;-54;17
-29;-54;17
-29;-54;17
-29;-53;16
-29;-54;16
-30;-53;15
-29;-54;15
-29;-54;15
-29;-54;15
-28;-55;15
-28;-55;14
-28;-55;13
-28;-55;13
-28;-56;13
-27;-56;13
-27;-56;12
-27;-56;12
-27;-56;12
-27;-55;11
-27;-55;12
-27;-55;12
-27;-54;12
-27;-55;12
-27;-54;13
-27;-53;13
-27;-54;13
-28;-53;13
-28;-53;14
-29;-53;14
-29;-53;14
-29;-54;14
-29;-54;14
-29;-54;14
-29;-54;14
-29;-54;14
-29;-54;14
-29;-54;13
-29;-54;13
-29;-54;13
-29;-54;13
-29;-54;13
-29;-55;13
-28;-54;13
-28;-55;13
-28;-55;12
-28;-55;13
-28;-55;12
-28;-56;12
-28;-56;13
-28;-56;13
-28;-55;12
-28;-54;12
-28;-54;12
-28;-54;12
-28;-54;12
-28;-54;12
-28;-54;12
-29;-54;12
-28;-54;12
-29;-54;11
-28;-53;11
-29;-54;11
-29;-54;12
-30;-54;12
-30;-53;12
-30;-53;12
-30;-53;12
-30;-53;12
-30;-53;11
-30;-57;11
-30;-57;11
-28;-55;10
-28;-54;9
-29;-54;8
-29;-54;8
-29;-55;7
-30;-54;6
-30;-54;6
-30;-54;6
-30;-55;5
-30;-55;5
-30;-55;5
-29;-55;5
-30;-55;5
-30;-56;4
-30;-57;4
-30;-57;3
-30;-57;3
-29;-58;3
-29;-58;3
-29;-57;3
-30;-57;3
-30;-57;3
-29;-56;3
-29;-56;3
-28;-56;3
-28;-55;3
-28;-54;2
-29;-54;2
-29;-55;2
-30;-55;1
-31;-56;1
-30;-56;1
-29;-56;2
-28;-56;2
-28;-58;3
-28;-59;4
-28;-58;3
-29;-59;3
-30;-59;3
-31;-58;4
-32;-57;4
-33;-57;4
-32;-56;5
-30;-56;4
-33;-60;4
-34;-63;6
-35;-59;6
-39;-60;7
-36;-59;7
-33;-58;9
-24;-60;11
-22;-58;12
-21;-52;12
-21;-52;11
-20;-47;11
-20;-49;10
-23;-52;11
-26;-51;13
-26;-48;13
-32;-47;13
-32;-46;15
-31;-47;15
-31;-48;15
-34;-44;16
-33;-43;16
-37;-45;15
-36;-46;16
-36;-48;15
-33;-49;15
-33;-51;13
-30;-52;11
-31;-52;10
-27;-54;11
-29;-58;10
-29;-62;10
-29;-64;7
-28;-67;5
-24;-65;3
-22;-61;2
-19;-57;1
-19;-57;1
-21;-58;1
-24;-60;0
-25;-60;-1
-29;-62;-2
-30;-61;-2
-31;-61;-1
-31;-61;-2
-29;-60;0
-27;-59;1
-24;-56;3
-23;-53;3
-25;-52;2
-28;-50;2
-29;-50;2
-32;-50;2
-33;-49;2
-34;-50;1
-34;-53;3
-35;-55;3
-35;-54;0
-35;-54;0
-36;-57;2
-37;-58;3
-38;-57;3
-38;-56;3
-37;-56;3
-35;-56;3
-34;-57;3
-34;-56;2
-35;-55;1
-34;-55;1
-33;-55;1
-32;-56;1
-31;-56;1
-31;-56;1
-30;-56;0
-30;-56;0
-29;-56;0
-29;-57;0
-28;-57;0
-27;-56;0
-27;-56;-1
-28;-56;-1
-28;-54;-1
-29;-54;-1
-29;-54;-1
-29;-57;-1
-29;-58;-1
-28;-59;0
-28;-59;0
-28;-59;1
-29;-58;1
-29;-59;1
-28;-58;2
-28;-58;2
-31;-61;3
-31;-63;3
-29;-62;4
-28;-60;4
-29;-57;5
-32;-52;5
-33;-52;5
-32;-49;4
-31;-50;4
-28;-53;6
-29;-55;7
-28;-57;7
-28;-58;8
-27;-58;9
-27;-55;10
-27;-54;10
-28;-55;9
-26;-55;9
-23;-54;10
-23;-54;11
-25;-53;12
-26;-54;13
-28;-55;14
-28;-55;16
-25;-55;16
-20;-56;16
-19;-55;16
-21;-53;14
-22;-52;14
-26;-55;15
-25;-57;15
-24;-57;16
-24;-57;17
-23;-55;16
-23;-52;14
-24;-52;14
-24;-51;13
-25;-52;12
-26;-54;13
-25;-55;13
-25;-55;13
-26;-56;14
-26;-56;13
-27;-56;13
-27;-57;14
-27;-57;13
-27;-56;14
-26;-55;13
-27;-55;13
-26;-55;13
-27;-55;13
-27;-56;12
-28;-57;11
-28;-57;11
-27;-57;11
-28;-56;10
-28;-56;11
-27;-57;11
-27;-59;11
-26;-59;12
-26;-57;12
-26;-56;12
-25;-55;12
-26;-55;12
-26;-54;11
-26;-54;11
-26;-56;11
-27;-56;11
-27;-55;11
-27;-55;11
-27;-55;11
-27;-55;12
-28;-54;12
-29;-54;12
-29;-54;12
-28;-54;12
-28;-55;12
-28;-55;12
-28;-55;13
-27;-54;12
-28;-55;12
-28;-54;12
-28;-53;11
-28;-54;11
-29;-53;12
-28;-53;12
-29;-54;11
-30;-54;11
-30;-55;12
-29;-55;12
-30;-56;12
-29;-55;13
-30;-55;13
-30;-54;13
-30;-54;13
-31;-54;13
-30;-55;14
-30;-55;13
-30;-54;13
-30;-53;13
-29;-54;12
-28;-54;13
-28;-53;12
-28;-53;12
-29;-55;11
-29;-51;12
-30;-52;10
-31;-51;12
-31;-52;13
-32;-49;13
-34;-49;12
-36;-47;12
-36;-46;12
-39;-48;11
-40;-51;11
-38;-48;10
-38;-53;9
-39;-58;9
-31;-63;7
-24;-62;7
-22;-64;7
-25;-64;6
-29;-62;3
-32;-59;1
-33;-52;-1
-29;-52;-2
-27;-54;-2
-25;-64;-2
-24;-66;-2
-24;-59;-1
-22;-53;-1
-21;-49;-2
-26;-53;-3
-28;-54;-4
-31;-55;-6
-32;-55;-7
-31;-54;-5
-32;-56;-4
-31;-59;-3
-31;-60;-3
-31;-61;-2
-32;-60;-1
-30;-60;0
-29;-60;1
-31;-59;1
-34;-59;1
-35;-60;0
-39;-63;-2
-40;-63;-2
-40;-61;-3
-38;-63;-1
-36;-67;-1
-34;-69;-3
-35;-68;-5
-38;-65;-16
-41;-60;-22
-41;-54;-26
-39;-46;-27
-40;-43;-28
-43;-36;-29
-42;-33;-29
-41;-25;-29
-43;-22;-29
-39;-14;-30
-37;-11;-31
-39;-4;-35
-37;0;-35
-39;2;-37
-38;4;-39
-42;6;-40
-42;5;-39
-40;6;-42
-46;8;-48
-44;10;-46
-38;10;-45
-41;10;-50
-42;10;-50
-39;10;-47
-38;10;-47
-43;10;-52
-39;8;-48
-40;9;-51
-39;8;-52
-41;8;-54
-39;6;-50
-39;7;-49
-41;9;-51
-41;8;-49
-43;9;-50
-39;8;-48
-45;9;-54
-44;10;-52
-48;11;-46
-43;10;-41
-44;11;-42
-54;11;-39
-42;11;-39
-52;13;-40
-49;12;-29
-53;10;-38
-48;9;-34
-54;8;-35
-55;11;-41
-49;7;-35
-53;11;-36
-49;11;-34
-47;12;-36
-49;13;-39
-43;13;-34
-50;14;-39
-48;13;-42
-49;13;-44
-51;11;-42
-50;12;-40
-47;10;-41
-46;10;-45
-44;10;-39
-48;9;-41
-45;9;-47
-45;10;-42
-46;7;-45
-44;9;-43
-49;8;-47
-50;8;-48
-46;7;-40
-43;6;-35
-50;4;-34
-47;3;-29
-46;2;-26
-45;-2;-22
-42;-4;-21
-46;-9;-19
-52;-11;-24
-48;-17;-28
-39;-26;-14
-50;-33;-20
-50;-43;-11
-50;-47;-9
-45;-69;-5
-54;-76;-9
-75;-60;-12
-73;-55;-11
-70;-42;-3
-64;-42;6
-62;-38;-4
-68;-36;-9
-59;-35;-14
-64;-32;-18
-68;-27;-26
-49;-34;-21
-49;-34;-27
-56;-35;-30
-44;-39;-23
-46;-40;-24
-44;-39;-22
-51;-40;-22
-54;-34;-18
-51;-32;-13
-59;-46;10
-39;-50;21
-41;-16;-2
-50;-4;-22
-50;-4;-31
-59;9;-22
-57;4;-19
-52;1;-19
-55;-4;-26
-60;-13;-28
-62;-26;-31
-61;-38;-30
-64;-53;-21
-63;-54;-15
-51;-47;-6
-50;-45;-6
-55;-38;-12
-53;-38;-8
-40;-41;-12
-81;-53;-24
-85;-61;-17
-44;-53;6
-46;-39;2
-59;-22;-21
-58;-15;-25
-50;-10;-28
-40;-13;-22
-33;-14;-18
-43;-11;-20
-48;-14;-19
-50;-17;-11
-46;-21;-8
-59;-25;-15
-66;-26;-20
-73;-26;-21
-70;-29;-24
-48;-28;-22
-50;-26;-25
-51;-24;-28
-50;-23;-32
-54;-21;-34
-56;-20;-33
-56;-19;-34
-54;-19;-34
-48;-19;-22
-55;-23;-25
-63;-27;-29
-59;-28;-26
-61;-30;-20
-62;-31;-18
-59;-30;-17
-61;-31;-17
-64;-28;-17
-57;-26;-15
-56;-24;-14
-57;-24;-13
-57;-23;-12
-55;-23;-11
-56;-22;-10
-55;-22;-7
-57;-22;-7
-60;-21;-6
-62;-21;-3
-62;-22;-1
-65;-25;1
-65;-25;2
-65;-26;5
-65;-25;6
-69;-24;6
-63;-22;10
-63;-21;12
-63;-17;12
-64;-15;10
-64;-12;10
-62;-10;13
-59;-9;14
-63;-8;13
-63;-5;17
-53;-1;19
-54;1;19
-60;5;21
-56;8;23
-48;15;22
-50;18;19
-43;27;18
-43;31;15
-48;36;9
-51;39;14
-44;40;17
-55;39;17
-54;35;18
-52;29;25
-62;24;25
-58;17;24
-69;22;15
-79;29;10
-68;37;10
-60;39;10
-66;37;12
-53;34;21
-54;35;19
-53;34;16
-49;30;22
-39;31;28
-35;33;25
-93;11;25
-23;40;42
-46;49;30
-35;41;34
-34;41;37
-40;33;34
-22;44;29
-51;45;13
-55;44;14
-42;47;11
-38;45;9
-43;42;10
-38;69;16
-20;51;23
-19;48;21
-45;42;18
-36;51;28
-35;51;29
-33;61;29
-37;50;31
-17;57;35
-44;41;25
-57;43;20
-43;36;25
-45;39;21
-43;37;18
-36;39;25
-34;50;30
-33;42;27
-34;42;26
-47;40;25
-40;43;25
-43;52;27
-38;50;30
-35;48;34
-32;50;37
-35;41;36
-43;43;33
-31;42;38
-25;41;42
-27;41;37
-23;42;40
-24;43;38
-39;44;30
-52;39;29
-42;49;31
-47;48;31
-20;47;41
-15;44;38
-39;45;24
-38;34;29
-44;18;25
-34;44;37
-33;46;35
-29;49;33
-33;47;31
-30;49;32
-28;48;30
-26;44;33
-23;48;34
-20;47;36
-23;41;41
-28;42;44
-22;44;46
-26;45;43
-28;43;36
-32;47;35
-25;49;43
-28;42;37
-30;41;34
-37;39;31
-37;38;32
-35;45;36
-36;42;37
-36;42;43
-30;37;45
-27;35;44
-25;35;45
-22;34;46
-31;37;42
-31;35;44
-32;32;46
-31;31;47
-37;37;47
-28;36;48
-31;39;43
-37;40;33
-36;37;29
-38;37;38
-33;39;40
-34;45;36
-28;40;40
-23;38;34
-50;48;26
-59;31;28
-75;25;14
-46;38;22
-81;35;-14
-128;47;-71
-103;45;-70
25;45;-10
39;51;34
1;42;54
-22;46;30
-8;44;26
-5;41;29
-17;40;24
-12;38;28
-9;36;40
-2;39;47
2;38;47
-21;35;47
-11;39;46
-12;30;49
-28;30;54
-23;30;60
-22;26;60
-35;18;51
-30;19;50
-54;19;50
-50;19;49
-30;21;51
-31;20;50
-38;17;49
-36;15;52
-45;10;53
-36;10;54
-36;12;53
-39;12;53
-38;13;51
-36;14;50
-40;11;51
-38;11;51
-34;15;55
-58;3;47
-53;6;41
-60;13;29
-55;11;25
-60;4;40
-50;7;45
-55;10;37
-48;12;40
-47;13;44
-55;13;41
-57;16;40
-55;17;38
-52;18;40
-37;19;45
-29;20;50
-47;17;37
-45;17;39
-47;16;42
-42;17;45
-43;15;45
-41;12;47
-42;11;46
-42;8;46
-43;7;46
-42;5;49
-41;5;51
-48;5;46
-51;9;41
-51;8;41
-39;6;43
-41;3;44
-40;-1;49
-32;2;49
-48;10;50
-38;10;55
-34;6;52
-43;5;53
-48;8;53
-39;2;45
-39;3;49
-35;1;54
-30;-1;57
-36;-2;54
-38;1;51
-39;1;54
-35;0;52
-38;-1;51
-36;-2;51
-37;-3;52
-36;-1;53
-37;0;52
-38;3;54
-34;2;56
-36;3;54
-39;-1;50
-35;-6;53
-35;-8;53
-38;-9;51
-26;-20;56
-31;-13;57
-34;-1;53
-30;-11;52
-31;-11;54
-33;-11;52
-31;-11;55
-31;-10;56
-33;-10;53
-32;-10;53
-31;-11;55
-31;-10;54
-34;-9;54
-33;-9;55
-32;-11;54
-33;-11;54
-34;-10;52
-32;-12;52
-35;-12;52
-33;-11;52
-34;-10;53
-32;-12;54
-33;-11;54
-33;-12;54
-31;-12;54
-32;-12;54
-31;-13;53
-32;-12;53
-31;-13;54
-29;-12;54
-31;-14;54
-31;-14;54
-31;-15;53
-30;-15;54
-30;-17;54
-30;-16;54
-29;-17;54
-30;-18;54
-30;-18;53
-29;-20;54
-29;-21;53
-29;-20;53
-29;-22;53
-25;-24;52
-22;-27;52
-22;-28;51
-21;-30;50
-20;-30;50
-20;-30;50
-21;-31;50
-18;-32;50
-18;-32;50
-20;-32;50
-16;-34;51
-16;-34;50
-18;-33;50
-19;-32;50
-17;-32;52
-18;-31;51
-19;-32;51
-19;-31;51
-20;-31;51
-18;-31;51
-20;-29;52
-19;-31;51
-19;-30;52
-21;-29;50
-21;-30;50
-20;-29;52
-21;-28;53
-21;-29;52
-22;-29;52
-21;-29;52
-22;-28;51
-21;-28;51
-23;-27;52
-21;-27;53
-24;-27;53
-22;-26;53
-21;-28;52
-23;-27;51
-23;-27;52
-26;-24;53
-25;-25;53
-23;-25;54
-26;-26;51
-24;-26;51
-22;-28;51
-22;-27;51
-22;-27;52
-23;-27;52
-24;-26;52
-23;-27;53
-25;-26;52
-23;-26;53
-23;-27;52
-23;-26;52
-23;-27;52
-23;-26;52
-24;-26;52
-23;-26;52
-24;-26;52
-23;-27;52
-24;-27;52
-23;-27;52
-24;-27;52
-24;-27;51
-23;-26;52
-23;-27;52
-24;-25;53
-23;-26;53
-23;-26;53
-23;-26;52
-23;-26;53
-22;-25;53
-25;-26;52
-23;-26;52
-22;-26;53
-22;-27;52
-22;-25;53
-23;-26;52
-22;-26;53
-22;-26;53
-23;-26;53
-23;-26;53
-23;-26;53
-22;-26;53
-23;-25;53
-23;-26;53
-22;-26;53
-23;-25;53
-22;-25;53
-23;-25;53
-22;-26;53
-23;-25;53
-23;-26;53
-23;-24;52
-21;-26;54
-21;-24;54
-23;-26;53
-23;-25;53
-22;-26;53
-20;-26;53
-23;-25;52
-22;-25;54
-22;-25;53
-21;-25;54
-22;-25;53
-23;-24;53
-21;-22;54
-22;-25;54
-21;-24;55
-22;-24;56
-19;-25;56
-20;-25;54
-19;-25;54
-20;-24;54
-19;-24;54
-21;-24;54
-21;-24;55
-22;-22;55
-22;-21;56
-22;-23;54
-23;-23;54
-20;-23;55
-20;-23;55
-22;-23;54
-21;-23;56
-21;-23;55
-22;-23;54
-20;-24;55
-20;-24;55
-20;-25;55
-20;-24;54
-21;-23;55
-20;-24;55
-19;-24;55
-19;-24;54
-20;-24;54
-18;-24;55
-19;-24;55
-18;-24;55
-20;-24;55
-19;-25;54
-19;-24;55
-19;-24;54
-20;-23;55
-20;-24;54
-20;-23;54
-22;-23;55
-21;-22;55
-22;-22;55
-22;-22;55
-23;-23;54
-22;-22;55
-22;-21;55
-22;-22;54
-22;-22;54
-21;-22;55
-22;-22;55
-22;-23;55
-23;-22;54
-22;-23;55
-23;-22;54
-23;-22;54
-23;-21;54
-23;-21;56
-22;-22;55
-22;-24;55
-20;-24;54
-21;-24;54
-21;-22;54
-22;-22;54
-21;-24;55
-23;-23;54
-22;-23;54
-23;-23;54
-22;-24;54
-21;-24;54
-21;-25;54
-20;-25;54
-20;-25;54
-20;-24;54
-21;-24;54
-22;-24;54
-21;-24;55
-21;-24;55
-21;-26;53
-21;-25;54
-21;-23;54
-20;-25;54
-21;-24;54
-22;-24;54
-22;-24;54
-21;-24;55
-21;-24;54
-22;-25;53
-21;-25;54
-20;-25;54
-20;-26;54
-20;-26;54
-19;-26;53
-19;-27;54
-19;-26;53
-19;-27;54
-18;-26;54
-19;-27;54
-18;-27;54
-17;-28;54
-16;-28;54
-19;-27;53
-18;-27;53
-16;-27;54
-15;-27;55
-19;-26;54
-20;-27;53
-18;-27;54
-18;-26;54
-20;-26;53
-18;-26;54
-15;-24;56
-25;-27;52
-21;-27;53
-17;-28;54
-20;-27;53
-19;-27;53
-18;-29;53
-16;-27;54
-19;-28;53
-20;-29;52
-16;-26;54
-19;-27;53
-21;-28;52
-20;-26;53
-21;-27;52
-19;-26;54
-19;-26;54
-21;-28;53
-18;-28;53
-20;-27;52
-21;-28;52
-19;-28;52
-21;-28;52
-21;-28;52
-21;-27;53
-22;-27;52
-19;-27;54
-20;-27;53
-21;-26;53
-19;-29;52
-19;-28;52
-19;-28;53
-19;-28;52
-17;-29;54
-16;-30;53
-16;-29;52
-17;-30;52
-15;-29;53
-16;-30;53
-16;-30;52
-15;-28;53
-17;-29;53
-15;-29;54
-15;-29;54
-15;-30;53
-15;-30;53
-16;-29;53
-15;-29;53
-16;-29;54
-16;-29;53
-15;-29;53
-16;-29;53
-17;-28;53
-16;-29;53
-18;-28;53
-17;-28;53
-17;-28;54
-17;-29;54
-16;-28;53
-18;-28;53
-17;-29;53
-17;-29;53
-18;-28;53
-17;-29;53
-16;-29;54
-17;-29;53
-17;-29;53
-18;-28;53
-19;-28;53
-18;-28;53
-18;-28;54
-17;-28;53
-18;-28;53
-18;-29;53
-18;-30;52
-19;-28;52
-18;-28;53
-19;-28;53
-17;-28;53
-17;-28;53
-17;-29;53
-19;-29;53
-18;-28;53
-17;-28;53
-18;-28;53
-20;-28;53
-19;-28;53
-19;-28;53
-21;-27;52
-21;-27;53
-21;-27;53
-21;-27;53
-22;-26;52
-23;-26;52
-21;-26;53
-22;-26;53
-24;-27;52
-25;-26;52
-26;-25;52
-23;-25;54
-24;-26;53
-23;-26;53
-21;-27;52
-23;-26;52
-23;-26;52
-22;-26;53
-24;-26;53
-23;-27;53
-22;-27;52
-21;-28;52
-22;-28;51
-21;-28;52
-22;-28;52
-22;-28;51
-22;-27;51
-21;-28;52
-22;-28;51
-20;-29;53
-21;-28;52
-21;-28;53
-21;-27;53
-20;-28;52
-22;-27;52
-23;-27;51
-22;-27;52
-22;-27;52
-24;-27;52
-23;-27;52
-24;-26;52
-25;-27;51
-22;-27;52
-23;-27;52
-22;-28;52
-22;-27;52
-21;-29;52
-22;-28;52
-21;-28;52
-20;-29;52
-20;-29;53
-21;-28;52
-19;-29;52
-19;-29;52
-19;-29;52
-19;-28;52
-18;-28;53
-20;-27;53
-18;-30;52
-20;-29;52
-20;-28;52
-19;-28;52
-19;-28;52
-20;-28;53
-19;-27;53
-17;-27;54
-17;-28;54
-16;-29;54
-19;-25;54
-21;-25;56
-16;-25;56
-16;-26;54
-18;-26;53
-18;-27;54
-15;-26;56
-19;-25;55
-18;-25;55
-17;-26;54
-17;-26;54
-17;-25;55
-17;-25;55
-19;-25;55
-19;-25;55
-18;-24;55
-18;-25;55
-18;-25;54
-18;-25;55
-18;-25;55
-18;-25;55
-18;-24;55
-18;-25;55
-18;-25;55
-19;-25;54
-18;-25;55
-18;-25;54
-19;-25;54
-18;-25;54
-19;-25;55
-19;-25;54
-19;-24;54
-20;-24;54
-21;-24;54
-20;-24;55
-20;-24;55
-21;-24;54
-20;-24;54
-21;-24;54
-21;-24;54
-21;-24;54
-21;-24;54
-21;-24;54
-22;-24;55
-22;-23;54
-22;-24;54
-21;-24;54
-22;-24;54
-22;-23;54
-22;-24;54
-22;-23;55
-21;-23;54
-22;-24;54
-21;-24;54
-21;-23;54
-21;-23;54
-21;-24;54
-21;-24;54
-22;-24;54
-21;-23;54
-21;-24;54
-22;-23;54
-22;-23;54
-22;-23;54
-22;-23;54
-22;-23;54
-22;-23;54
-22;-23;54
-21;-23;54
-21;-24;55
-21;-23;54
-22;-23;54
-21;-23;54
-21;-23;55
-22;-23;54
-22;-23;54
-21;-23;54
-22;-23;55
-22;-23;54
-21;-24;54
-22;-23;54
-22;-23;54
-22;-23;55
-22;-24;54
-22;-23;54
-22;-23;54
-22;-23;54
-22;-23;54
-22;-23;54
-22;-23;54
-22;-23;55
-21;-23;55
-22;-23;54
-22;-23;54
-22;-23;54
-21;-23;55
-22;-23;55
-21;-23;54
-21;-24;54
-22;-23;54
-21;-23;55
-21;-23;55
-22;-23;54
-22;-23;54
-21;-23;55
-21;-23;55
-22;-23;54
-20;-23;56
-22;-24;54
-23;-24;53
-21;-23;55
-21;-23;55
-22;-22;55
-21;-24;54
-20;-23;54
-20;-22;55
-22;-23;55
-21;-24;54
-20;-24;54
-20;-23;55
-21;-23;54
-21;-23;55
-21;-23;55
-20;-22;56
-22;-23;55
-21;-24;54
-20;-23;54
-21;-23;54
-21;-23;55
-20;-24;55
-20;-24;55
-19;-24;55
-20;-23;54
-19;-24;55
-20;-24;55
-20;-23;56
-19;-23;55
-20;-24;54
-19;-24;54
-20;-24;55
-19;-23;55
-20;-23;55
-20;-24;55
-20;-23;55
-20;-24;55
-20;-23;55
-20;-23;55
-20;-23;55
-21;-23;55
-20;-23;55
-20;-23;55
-21;-23;55
-20;-23;55
-20;-24;54
-20;-24;55
-20;-24;55
-20;-24;55
-20;-24;55
-20;-24;55
-19;-24;55
-18;-24;55
-19;-25;55
-19;-24;55
-19;-24;55
-18;-24;55
-20;-24;55
-19;-23;56
-18;-24;55
-18;-24;56
-19;-24;56
-18;-24;56
-18;-24;56
-19;-23;55
-19;-23;55
-18;-23;56
-18;-24;55
-18;-23;56
-17;-24;56
-18;-24;55
-18;-24;56
-17;-23;55
-17;-24;56
-15;-23;58
-20;-23;55
-15;-23;57
-18;-23;56
-18;-24;56
-12;-24;58
-19;-23;55
-16;-24;56
-17;-23;55
-17;-24;56
-19;-21;55
-17;-23;56
-18;-23;55
-21;-21;54
-20;-22;55
-20;-22;56
-22;-21;56
-20;-21;56
-20;-22;55
-23;-21;55
-21;-21;56
-22;-21;54
-23;-21;56
-21;-21;55
-23;-21;55
-22;-21;56
-23;-20;55
-23;-21;55
-24;-20;55
-22;-21;56
-23;-20;55
-25;-20;55
-24;-20;56
-25;-20;55
-24;-21;53
-25;-20;54
-25;-20;54
-25;-20;54
-27;-19;53
-26;-20;53
-28;-19;52
-29;-16;49
-34;-16;52
-27;-18;55
-33;-13;53
-37;-11;49
-32;-15;50
-36;-9;52
-33;-10;53
-36;-7;51
-38;-6;50
-40;0;53
-38;1;53
-41;1;51
-41;3;50
-42;3;50
-40;7;52
-45;9;51
-42;9;50
-42;9;49
-43;10;49
-44;10;46
-43;10;46
-43;10;47
-46;10;44
-46;11;44
-46;11;44
-47;11;44
-46;10;45
-47;9;43
-47;9;43
-46;7;44
-45;7;44
-46;7;42
-47;6;43
-44;9;48
-45;7;49
-45;7;49
-44;7;51
-39;6;50
-41;4;50
-39;1;50
-40;1;49
-42;1;51
-40;1;50
-41;0;50
-40;-1;52
-33;-4;55
-34;-5;52
-37;-6;52
-34;-4;54
-32;-3;55
-35;-8;50
-35;-9;50
-34;-10;53
-33;-9;54
-33;-8;52
-36;-9;52
-33;-8;53
-35;-9;53
-33;-9;54
-35;-11;53
-34;-10;53
-34;-11;53
-33;-9;53
-35;-10;52
-34;-10;52
-34;-11;52
-34;-10;53
-36;-10;52
-34;-10;52
-35;-10;51
-36;-9;53
-36;-9;52
-37;-9;52
-35;-9;52
-36;-8;52
-38;-8;52
-37;-9;52
-37;-8;51
-37;-8;52
-37;-9;52
-36;-8;51
-37;-9;51
-36;-8;52
-37;-8;52
-35;-10;53
-34;-10;53
-35;-10;52
-35;-10;52
-35;-10;52
-34;-11;52
-33;-12;52
-33;-12;51
-35;-12;52
-33;-12;53
-34;-13;52
-36;-11;51
-37;-10;51
-37;-6;51
-35;-10;55
-37;-9;57
-41;-6;56
-45;-4;57
-44;0;60
-39;6;61
-36;-1;40
-42;-6;26
-51;-17;10
-78;-19;23
-49;-13;44
-39;-4;49
-51;-7;42
-55;-7;38
-52;-8;39
-52;-10;36
-51;-10;38
-51;-12;37
-50;-10;36
-50;-11;38
-50;-13;36
-53;-12;35
-51;-9;38
-51;-10;37
-54;-9;32
-55;-10;36
-53;-9;38
-55;-11;34
-54;-11;34
-53;-10;34
-56;-11;35
-53;-12;37
-50;-12;33
-52;-10;28
-55;-9;30
-50;-12;34
-55;-12;33
-53;-11;33
-54;-10;33
-53;-10;33
-55;-10;32
-54;-9;33
-55;-8;32
-55;-8;32
-56;-9;31
-55;-7;33
-58;-7;32
-56;-5;33
-56;-6;31
-54;-6;34
-54;-5;35
-52;-7;35
-54;-6;34
-54;-6;34
-52;-4;39
-52;-3;40
-52;-3;41
-52;-2;41
-52;-4;40
-50;-4;40
-47;-4;41
-50;-6;39
-48;-6;40
-50;-7;39
-52;-6;40
-50;-5;42
-50;-5;43
-48;-8;42
-46;-11;41
-47;-11;44
-45;-9;43
-45;-10;43
-46;-12;42
-45;-11;42
-45;-10;45
-45;-8;45
-45;-11;43
-44;-11;43
-45;-10;44
-46;-9;44
-46;-9;44
-45;-9;44
-46;-9;43
-46;-9;44
-44;-9;44
-46;-9;44
-47;-9;43
-46;-9;44
-46;-9;44
-46;-9;45
-45;-9;44
-45;-10;44
-45;-10;44
-45;-10;45
-44;-10;45
-44;-11;44
-44;-11;43
-46;-11;45
-45;-9;46
-45;-10;45
-45;-10;45
-44;-11;46
-44;-12;45
-44;-12;44
-43;-13;46
-44;-11;46
-43;-12;46
-42;-12;45
-44;-13;45
-43;-12;45
-42;-11;47
-42;-14;46
-42;-13;46
-42;-14;46
-41;-14;46
-41;-15;46
-41;-14;46
-40;-13;48
-42;-15;47
-42;-15;46
-40;-14;49
-41;-12;48
-41;-15;46
-40;-15;47
-42;-13;47
-42;-13;47
-41;-14;47
-41;-11;48
-42;-14;46
-41;-14;46
-41;-13;47
-42;-14;46
-42;-14;46
-43;-12;47
-43;-11;48
-43;-13;45
-43;-13;45
-42;-13;46
-42;-11;46
-43;-12;46
-43;-13;45
-43;-12;46
-43;-10;46
-44;-13;46
-43;-12;46
-43;-11;46
-43;-11;46
-43;-11;45
-44;-11;45
-44;-9;46
-44;-12;45
-45;-10;45
-45;-8;45
-45;-10;45
-44;-9;46
-44;-8;46
-44;-10;45
-44;-9;44
-45;-9;45
-44;-9;45
-43;-10;45
-43;-10;45
-44;-9;45
-46;-8;46
-46;-7;46
-46;-7;46
-45;-7;45
-45;-8;44
-45;-8;44
-45;-8;45
-46;-7;45
-46;-7;44
-44;-8;45
-45;-9;45
-45;-8;46
-44;-9;47
-50;-7;44
-48;-5;44
-46;-11;42
-44;-11;43
-46;-11;41
-49;-12;41
-47;-11;44
-44;-10;45
-45;-11;44
-46;-10;45
-44;-11;46
-41;-12;46
-44;-12;44
-43;-13;46
-42;-13;46
-40;-12;48
-42;-13;47
-43;-14;48
-41;-14;47
-37;-15;47
-39;-17;44
-39;-13;49
-37;-16;48
-39;-15;49
-37;-17;49
-37;-15;49
-38;-16;49
-36;-18;49
-36;-18;50
-36;-16;49
-37;-17;49
-38;-16;50
-37;-17;49
-37;-16;49
-36;-17;50
-37;-17;49
-37;-16;49
-37;-17;49
-36;-17;49
-37;-17;49
-37;-17;49
-38;-16;50
-38;-17;49
-37;-17;49
-37;-16;47
-35;-16;50
-38;-17;50
-37;-16;49
-37;-17;49
-37;-17;49
-37;-17;49
-37;-16;49
-37;-17;49
-37;-17;48
-37;-17;48
-39;-17;48
-38;-16;48
-39;-16;48
-39;-16;48
-40;-15;48
-40;-15;47
-40;-16;47
-41;-14;47
-41;-14;48
-41;-14;47
-41;-14;47
-42;-15;47
-41;-14;46
-41;-14;47
-41;-14;47
-41;-15;46
-42;-14;47
-41;-14;46
-42;-14;46
-41;-14;46
-42;-14;46
-41;-14;46
-43;-15;45
-42;-14;46
-41;-13;46
-43;-14;46
-43;-13;46
-44;-14;45
-44;-14;45
-43;-13;45
-44;-13;44
-44;-15;42
-43;-13;45
-46;-11;44
-47;-11;44
-49;-11;42
-46;-13;43
-46;-13;43
-47;-13;41
-48;-13;41
-43;-12;46
-47;-11;42
-56;-12;36
-29;-18;49
-28;-18;52
-22;-19;53
-23;-19;50
-9;-26;49
-4;-30;50
2;-39;51
-12;-37;23
-14;-40;19
-15;-35;15
-20;-35;17
-24;-45;30
-20;-47;34
-15;-47;29
-32;-62;37
-32;-63;38
-31;-64;22
-49;-74;23
-54;-85;31
-49;-76;25
-59;-75;25
-61;-74;26
-60;-68;26
-47;-68;25
-39;-71;34
-34;-58;14
-32;-59;17
-37;-69;7
-37;-69;2
-12;-66;12
-9;-60;18
-19;-50;2
-31;-46;-3
-20;-47;3
-7;-37;-9
-13;-41;-12
-21;-40;-9
-22;-37;1
-21;-49;-4
-33;-50;-12
-27;-49;-10
-16;-52;4
-37;-58;4
-41;-55;-11
-36;-48;-17
-28;-53;2
-49;-59;2
-50;-61;4
-35;-54;1
-27;-58;-4
-51;-59;-16
-53;-63;-22
-44;-54;-26
-45;-51;-28
-59;-35;-23
-56;-21;-20
-45;-1;-25
-22;-4;-17
-21;-18;-12
-35;-21;-8
-45;-29;-12
-51;-40;-22
-52;-45;-25
-34;-66;8
-68;-70;-8
-56;-54;-9
-29;-44;1
-27;-44;2
-43;-54;-8
-43;-55;-8
-41;-55;-9
-50;-62;-14
-47;-63;-15
-43;-61;-15
-30;-54;-8
-27;-51;-9
-22;-51;-10
-15;-41;-2
-23;-38;-7
-23;-34;-18
-21;-37;-12
-29;-41;-6
-27;-44;-4
-27;-43;-3
-23;-45;-2
-23;-51;3
-18;-58;-1
-17;-64;-4
-13;-72;-3
-12;-68;-6
-8;-63;-7
-13;-65;-6
-8;-59;-9
-11;-62;-8
-15;-66;-9
-9;-68;-10
-13;-73;-12
-16;-75;-9
-13;-73;-7
-17;-73;-5
-17;-70;-1
-18;-69;1
-20;-65;3
-20;-64;6
-22;-66;8
-22;-65;9
-19;-64;11
-20;-66;14
-20;-64;14
-18;-61;13
-19;-60;12
-23;-60;13
-25;-63;15
-29;-66;19
-31;-69;20
-36;-74;23
-27;-68;29
-28;-69;31
-39;-72;39
-40;-75;45
-18;-74;51
-9;-70;51
-7;-47;47
-14;-25;51
-40;-20;63
-18;-11;52
-2;-2;44
0;11;36
0;12;34
6;5;16
3;-2;1
-7;-12;-11
-8;-14;-21
