78361.3216801
32.000000; 32.000000; 32.000000
-50;27;33
-47;33;31
-51;30;35
-49;24;34
-50;26;27
-42;21;41
-37;24;44
-42;26;41
-49;29;39
-49;28;39
-48;26;40
-55;26;33
-53;22;14
-60;22;35
-54;32;27
-56;28;27
-46;28;48
-59;27;23
-46;34;-1
-50;34;6
-49;29;16
-45;32;14
-45;28;8
-48;29;0
-48;27;0
-79;24;2
-69;29;7
-73;31;5
-49;33;11
-38;32;10
-39;30;13
-44;28;4
-41;35;-15
-50;38;-30
-49;37;-38
-58;27;-45
-58;32;-45
-46;31;-40
-55;26;-42
-29;31;-47
-18;33;-43
-23;36;-51
19;43;-31
-66;45;-63
4;25;-49
-2;36;-53
-8;29;-56
-6;29;-61
-8;31;-55
-11;31;-51
-21;28;-49
-14;30;-54
-20;29;-47
-33;31;-56
-24;36;-44
-31;35;-43
-27;34;-41
-33;33;-41
-37;34;-42
-33;39;-39
-25;41;-32
-29;43;-30
-14;35;-39
-5;37;-50
-4;25;-48
-7;28;-61
6;24;-57
12;31;-56
4;34;-61
6;34;-62
-2;32;-62
-18;32;-62
-20;28;-63
-11;25;-58
-14;27;-52
-22;33;-39
-29;35;-39
-32;41;-30
-46;40;-28
-45;45;-24
-43;45;-14
-38;44;-5
-42;47;-1
-43;48;-1
-44;48;-1
-49;45;-4
-51;42;-4
-46;48;-15
-45;49;-14
-54;45;-17
-53;45;-13
-51;34;9
-47;35;14
-52;26;1
-67;19;-4
-53;12;-2
-52;0;23
-59;-5;26
-70;-6;8
-82;-8;-2
-71;-6;9
-64;-6;14
-66;-4;12
-61;-2;26
-72;-1;23
-64;-2;27
-58;0;34
-71;-3;31
-60;-4;35
-46;-2;47
-40;7;55
-36;6;46
-42;28;42
-45;28;40
-36;32;27
-45;38;26
-34;37;36
-29;41;32
-37;37;36
-34;35;41
-22;36;42
-36;32;37
-38;29;37
-30;28;45
-26;25;52
-29;22;57
-32;25;55
-30;22;54
-30;23;59
-25;22;57
-30;22;54
-32;24;56
-25;24;57
-26;25;53
-26;20;53
-28;21;56
-26;20;56
-23;19;56
-29;18;53
-27;18;59
-24;18;58
-23;17;57
-25;18;56
-24;16;57
-21;16;58
-25;17;56
-22;17;57
-20;17;58
-20;17;58
-23;16;57
-26;16;58
-32;18;54
-28;17;58
-25;17;60
-30;17;55
-22;17;58
-25;17;54
-28;19;56
-28;19;56
-16;17;56
-25;18;58
-25;16;57
-30;18;53
-27;19;54
-25;18;56
-23;18;58
-19;17;59
-16;16;60
-15;17;61
-13;17;62
-20;17;59
-15;19;64
-18;19;63
-33;20;50
-38;18;43
-43;19;41
-42;21;39
-42;20;36
-50;20;30
-56;22;26
-53;20;23
-59;21;15
-61;22;12
-60;24;10
-67;24;4
-65;26;1
-62;27;-2
-62;30;-8
-61;30;-14
-58;29;-17
-58;29;-14
-57;24;-11
-58;23;-13
-58;19;-15
-56;18;-12
-52;14;-11
-54;12;-17
-56;10;-21
-59;8;-24
-60;7;-23
-64;6;-22
-65;5;-21
-63;3;-17
-63;2;-13
-71;0;-10
-67;1;-5
-63;0;-1
-69;-1;-4
-67;0;-2
-60;2;10
-65;1;13
-64;1;15
-58;2;14
-58;-3;27
-57;-3;31
-58;-4;30
-59;-2;28
-57;-1;30
-58;-2;30
-63;-2;28
-55;-5;34
-55;-7;37
-56;-7;38
-57;-5;39
-52;-6;43
-58;-10;44
-57;-9;44
-47;-3;50
-45;-2;48
-48;-1;38
-45;6;37
-46;7;35
-50;8;31
-51;10;31
-48;13;28
-46;14;27
-51;18;27
-53;20;27
-48;22;24
-50;29;20
-55;29;20
-53;27;27
-52;27;28
-56;28;24
-60;28;25
-59;29;25
-58;28;23
-56;30;20
-59;31;16
-57;31;15
-55;31;12
-56;32;12
-57;30;11
-54;31;9
-54;32;8
-56;32;8
-56;30;8
-57;29;11
-59;28;12
-59;28;12
-57;28;12
-58;31;11
-60;31;10
-62;34;8
-62;36;9
-61;38;11
-59;41;14
-57;39;18
-54;32;18
-56;27;16
-52;24;18
-53;28;17
-48;21;30
-48;21;38
-43;23;38
-45;23;42
-42;21;46
-34;25;47
-20;23;59
-24;21;64
-28;18;62
-27;19;59
-29;21;54
-31;23;47
-50;33;24
-45;39;24
-35;35;24
-38;39;31
-27;35;52
-14;32;58
-8;28;68
1;19;72
2;16;70
-10;17;79
-5;24;73
-10;18;55
-23;13;49
-25;9;71
-21;20;71
-24;29;58
-28;34;22
-36;41;14
-47;44;19
-43;40;15
-43;37;16
-43;36;20
-47;30;34
-54;29;27
-53;28;24
-49;30;36
-47;28;31
-54;32;27
-58;32;26
-52;30;19
-58;30;24
-51;29;26
-65;25;23
-65;29;25
-44;29;21
-43;30;25
-50;30;28
-53;31;24
-49;29;29
-59;27;23
-51;28;20
-53;30;27
-49;24;33
-49;30;24
-54;27;25
-53;28;25
-51;25;26
-50;24;26
-58;22;25
-61;21;27
-60;19;25
-62;21;22
-51;25;18
-50;29;19
-57;38;11
-39;45;12
-41;38;13
-39;37;34
-33;35;41
-37;31;45
-46;34;49
-28;32;56
-30;31;51
-31;28;54
-31;29;55
-18;25;58
-23;22;55
-26;22;56
-24;22;58
-23;22;56
-25;21;57
-23;22;57
-16;21;57
-20;20;53
-21;20;53
-20;19;57
-18;19;60
-18;19;64
-19;18;64
-23;16;64
-24;13;65
-22;13;63
-21;16;65
-18;18;61
-29;23;45
-38;23;41
-33;28;38
-29;28;40
-35;28;38
-32;27;39
-25;26;48
-37;27;47
-29;22;55
-42;23;52
-35;21;52
-28;18;52
-36;17;51
-41;11;58
-37;11;55
-37;13;49
-38;10;50
-36;8;50
-51;3;53
-50;10;53
-38;12;53
-40;14;51
-43;14;45
-43;12;47
-43;12;49
-41;13;49
-42;13;48
-43;13;46
-43;13;46
-42;13;47
-43;13;48
-43;13;46
-43;14;47
-43;14;46
-44;14;46
-43;14;47
-44;14;45
-44;14;44
-44;15;45
-45;15;46
-44;15;46
-44;15;44
-47;16;46
-42;17;53
-41;18;48
-47;15;37
-48;13;35
-47;13;41
-49;15;40
-48;19;40
-46;16;41
-51;17;37
-55;19;32
-51;18;35
-48;17;37
-48;17;37
-47;16;41
-42;15;47
-46;17;45
-46;17;44
-49;18;40
-51;14;33
-55;13;33
-50;18;45
-48;20;43
-51;17;36
-48;16;40
-48;17;39
-50;17;38
-49;15;39
-49;16;41
-48;15;41
-51;18;38
-51;18;38
-50;18;38
-50;16;38
-51;19;38
-48;18;40
-48;16;38
-52;13;38
-50;16;37
-50;17;36
-49;17;36
-50;18;37
-47;18;45
-46;17;46
-47;17;40
-47;16;39
-47;15;42
-47;14;43
-48;16;40
-47;17;42
-45;18;42
-50;17;40
-45;16;42
-47;15;41
-47;16;40
-48;17;42
-47;17;45
-49;16;37
-49;16;40
-48;16;43
-47;15;43
-49;15;41
-46;17;39
-48;16;39
-48;16;41
-47;17;41
-48;19;42
-47;17;41
-47;16;41
-47;16;41
-47;16;42
-48;16;42
-47;17;40
-46;18;40
-46;17;42
-47;17;41
-48;16;41
-47;17;42
-48;17;41
-49;18;40
-46;18;43
-47;15;43
-48;13;42
-50;17;36
-48;15;40
-45;15;42
-47;17;41
-46;19;43
-47;17;41
-47;16;41
-46;15;42
-46;17;42
-47;17;43
-47;16;43
-47;18;40
-46;18;41
-47;18;41
-48;18;41
-47;16;42
-48;15;42
-47;17;41
-46;17;42
-47;17;41
-48;17;40
-48;16;40
-48;17;41
-48;16;41
-48;16;40
-48;16;40
-49;14;44
-49;12;47
-48;13;46
-47;14;41
-49;16;38
-48;18;37
-44;17;38
-58;18;30
-57;17;31
-55;18;29
-57;17;34
-54;16;38
-50;11;46
-52;8;49
-53;13;22
-64;17;14
-83;27;3
-80;39;8
-83;41;2
-75;48;-3
-69;49;-8
-24;47;0
-29;43;-5
-43;51;-11
-38;43;-5
-16;35;7
-31;37;1
-35;37;-3
-36;45;-7
-34;44;-2
-29;48;8
-25;53;8
-35;56;4
-36;52;4
-33;55;6
-37;53;6
-38;49;10
-23;40;17
-18;40;18
-7;37;15
-4;38;12
-24;39;6
-41;46;5
-45;42;5
-86;35;12
-86;34;19
-71;34;18
-73;36;15
-65;26;29
-74;24;36
-50;22;42
-55;18;27
-53;21;24
-71;13;27
-53;17;39
-61;18;24
-60;20;22
-51;20;31
-55;19;33
-50;19;36
-48;15;43
-50;15;41
-53;17;32
-51;16;35
-52;19;34
-55;20;31
-51;18;35
-51;17;36
-51;19;36
-50;16;36
-51;17;36
-50;17;37
-49;17;38
-52;19;33
-51;19;35
-51;18;36
-50;18;40
-45;17;44
-49;20;40
-49;20;39
-49;15;39
-51;15;37
-50;18;36
-48;18;40
-47;21;40
-45;18;45
-45;18;44
-49;17;40
-50;16;40
-51;18;34
-50;18;33
-50;19;34
-48;17;37
-47;20;41
-48;19;39
-46;20;41
-44;17;45
-45;16;45
-45;17;46
-44;17;43
-46;17;42
-48;20;37
-49;19;37
-49;17;39
-49;17;39
-50;18;38
-49;17;42
-48;20;38
-47;19;44
-45;20;42
-49;18;41
-49;17;40
-51;15;37
-50;15;37
-50;18;35
-53;21;30
-52;26;31
-54;22;30
-45;16;46
-48;14;41
-50;12;39
-49;17;39
-49;20;37
-50;20;38
-46;19;43
-50;18;36
-51;21;38
-48;20;39
-45;13;44
-46;13;42
-51;16;35
-49;16;38
-45;17;43
-49;19;39
-50;21;37
-47;17;42
-47;17;41
-48;18;39
-48;18;40
-47;19;42
-49;18;38
-50;19;39
-47;19;42
-47;15;42
-48;14;41
-50;16;38
-51;15;38
-49;17;38
-46;21;41
-49;24;38
-48;16;38
-49;17;37
-47;17;42
-49;19;40
-49;20;39
-50;20;38
-47;19;41
-45;14;45
-44;11;45
-49;15;38
-50;14;39
-46;17;41
-46;20;41
-47;22;41
-45;21;40
-49;19;39
-46;17;40
-48;18;40
-50;19;40
-49;19;38
-49;19;39
-43;15;47
-45;15;45
-49;18;39
-49;17;38
-47;18;40
-47;19;40
-48;18;41
-46;18;40
-48;20;40
-47;21;40
-45;19;41
-50;19;38
-46;19;42
-45;19;42
-47;20;40
-46;18;42
-47;18;42
-47;15;41
-48;18;40
-47;20;40
-45;22;42
-48;22;39
-48;18;39
-43;20;44
-45;21;43
-48;20;38
-48;20;39
-46;20;42
-45;18;44
-47;16;43
-49;17;38
-47;17;40
-45;22;42
-49;25;36
-48;19;38
-46;19;40
-45;21;43
-46;21;41
-50;17;37
-48;20;40
-45;17;44
-47;18;42
-47;16;41
-49;16;38
-49;18;38
-45;23;42
-49;26;36
-47;18;38
-48;19;40
-45;19;42
-47;19;42
-49;21;37
-48;19;38
-48;19;39
-46;17;44
-46;17;43
-48;15;41
-48;14;38
-48;19;39
-47;23;38
-48;23;38
-46;20;41
-47;19;41
-46;17;42
-46;17;43
-47;17;41
-45;19;42
-45;19;42
-46;20;41
-46;19;41
-46;19;40
-48;18;41
-45;17;42
-46;18;42
-47;19;41
-46;19;41
-43;17;45
-46;18;42
-46;18;41
-45;17;45
-48;17;42
-48;19;40
-47;19;39
-49;17;37
-51;21;32
-48;21;36
-46;20;42
-48;19;39
-47;17;41
-47;17;42
-48;19;39
-48;20;39
-48;20;40
-48;18;40
-47;18;40
-48;19;40
-46;19;41
-47;20;40
-48;22;40
-47;19;41
-45;18;42
-46;17;43
-47;18;41
-47;19;41
-46;16;41
-46;16;40
-46;18;38
-48;21;36
-46;20;43
-46;21;41
-48;21;38
-47;21;38
-47;21;40
-47;22;41
-46;22;40
-46;22;40
-45;23;40
-46;23;39
-47;25;38
-46;25;38
-44;22;40
-45;22;40
-46;23;38
-47;25;38
-49;25;39
-48;25;41
-48;25;40
-45;25;37
-45;25;37
-44;24;40
-44;24;41
-45;22;40
-47;21;38
-45;23;37
-48;22;40
-47;21;40
-50;24;38
-49;23;38
-50;20;36
-50;21;35
-51;17;37
-51;17;34
-53;15;31
-54;17;31
-52;20;31
-54;22;32
-54;20;33
-52;19;34
-51;18;34
-51;19;33
-51;19;34
-51;22;36
-51;21;34
-52;21;32
-50;20;34
-50;21;36
-52;26;35
-50;25;35
-47;24;36
-48;23;37
-49;23;35
-51;25;33
-50;25;33
-49;24;35
-49;24;36
-49;23;35
-48;21;37
-48;24;35
-50;24;33
-47;24;39
-45;23;42
-50;24;35
-50;23;35
-49;21;38
-50;23;34
-46;24;36
-48;24;37
-50;26;30
-47;24;34
-48;24;37
-48;25;38
-49;23;37
-48;23;37
-49;25;35
-46;25;36
-48;25;36
-49;27;35
-48;26;34
-48;24;35
-48;27;36
-46;26;39
-46;26;37
-47;27;36
-46;25;37
-47;25;38
-45;23;39
-49;26;36
-48;22;38
-48;23;36
-47;26;38
-46;26;36
-49;30;32
-46;25;39
-47;24;38
-48;25;35
-49;25;35
-48;26;35
-48;25;35
-48;26;35
-48;26;35
-47;26;35
-48;25;35
-48;26;36
-48;26;35
-47;25;36
-48;26;35
-48;27;36
-47;27;35
-48;27;34
-47;25;35
-48;26;35
-48;26;35
-47;26;37
-46;27;38
-46;26;38
-46;26;38
-48;23;36
-47;26;37
-46;26;39
-47;24;40
-47;25;38
-48;23;33
-45;23;37
-44;25;42
-47;27;39
-47;31;31
-46;29;35
-46;27;38
-44;25;40
-45;25;40
-45;25;41
-43;25;42
-44;25;42
-43;23;40
-43;24;40
-40;25;44
-41;25;42
-45;26;40
-47;26;40
-43;25;40
-43;26;39
-43;27;39
-44;27;38
-44;28;38
-43;27;38
-44;27;38
-46;27;37
-46;27;37
-44;27;39
-44;27;39
-47;26;36
-46;27;38
-45;27;39
-46;27;37
-47;27;37
-46;27;37
-46;26;37
-46;26;37
-47;26;37
-47;26;36
-46;27;36
-47;27;37
-47;27;37
-47;26;37
-46;26;37
-47;25;37
-47;26;37
-47;26;37
-47;25;36
-47;26;36
-47;25;36
-47;25;37
-47;25;37
-47;25;37
-48;25;37
-47;24;37
-47;25;37
-47;25;37
-48;24;37
-46;24;38
-47;24;37
-48;24;37
-47;24;37
-47;24;37
-48;24;37
-48;24;36
-48;24;37
-48;24;37
-48;24;36
-47;24;36
-47;24;37
-47;25;37
-47;24;37
-47;25;37
-47;25;37
-47;25;37
-47;25;37
-48;25;37
-47;24;37
-47;24;37
-47;25;37
-47;25;37
-47;24;37
-47;25;37
-47;24;37
-47;25;37
-47;25;37
-47;25;37
-47;25;37
-47;25;37
-47;25;37
-47;24;37
-47;24;37
-47;24;37
-47;25;37
-47;25;37
-47;25;37
-47;25;36
-47;26;37
-47;26;37
-48;26;37
-46;26;38
-46;26;37
-46;26;36
-47;26;37
-47;25;36
-47;26;36
-47;26;37
-47;25;37
-47;25;37
-47;26;36
-47;26;37
-46;25;38
-46;25;38
-46;26;37
-47;26;37
-49;25;38
-49;27;43
-47;26;42
-48;24;54
-44;20;48
-46;18;48
-56;13;41
-51;22;31
-53;24;21
-44;26;22
-50;29;26
-52;30;24
-40;33;26
-39;33;29
-54;36;24
-41;36;23
-46;34;32
-46;37;26
-43;36;20
-50;33;27
-52;32;29
-49;34;23
-56;32;24
-49;32;26
-48;33;26
-53;31;26
-47;31;23
-50;32;20
-55;31;28
-57;32;31
-46;33;23
-43;30;17
-60;27;21
-60;28;19
-53;30;16
-58;28;23
-55;29;22
-54;30;18
-55;28;20
-54;29;18
-53;29;19
-55;28;20
-55;28;19
-53;28;20
-55;28;19
-53;28;20
-55;29;21
-54;28;20
-59;27;21
-60;27;20
-57;27;22
-55;28;24
-51;28;24
-54;27;23
-54;26;25
-52;28;22
-56;27;24
-54;28;23
-52;28;24
-52;29;24
-50;29;22
-49;29;22
-55;29;24
-54;29;23
-55;30;25
-55;30;25
-53;29;25
-52;29;26
-49;30;24
-50;28;26
-52;27;26
-49;28;25
-50;27;27
-51;27;27
-49;28;25
-47;28;18
-50;19;35
-48;24;29
-50;25;38
-95;18;50
-56;28;22
-58;29;18
-57;27;23
-58;29;22
-57;26;16
-57;24;18
-56;25;19
-57;25;18
-58;26;17
-58;26;17
-57;26;16
-57;26;16
-57;26;17
-57;26;18
-57;26;18
-56;26;18
-57;25;18
-56;25;18
-56;26;19
-56;26;19
-56;25;18
-56;25;19
-57;26;19
-56;25;19
-56;25;19
-56;25;19
-57;25;19
-57;26;18
-57;26;18
-57;25;19
-57;25;18
-57;25;19
-57;25;18
-57;26;18
-57;26;18
-57;26;18
-57;26;18
-57;25;18
-57;25;18
-57;26;17
-57;26;18
-57;26;17
-57;25;18
-58;25;17
-57;26;18
-57;25;18
-57;25;18
-57;26;18
-57;25;17
-57;25;18
-57;25;18
-57;25;18
-57;25;18
-57;25;18
-57;25;18
-57;25;18
-57;25;18
-57;25;18
-57;25;18
-57;25;18
-57;25;18
-57;25;17
-57;25;18
-57;25;17
-57;25;18
-57;25;18
-57;25;18
-57;25;18
-57;25;18
-57;25;18
-57;25;18
-57;25;18
-57;25;18
-57;25;18
-57;25;18
-57;25;18
-57;25;18
-57;25;18
-57;25;18
-57;25;18
-57;25;18
-57;25;18
-57;25;18
-57;25;18
-57;25;18
-57;25;18
-57;25;18
-57;25;18
-57;25;18
-57;25;18
-57;25;18
-57;25;18
-57;25;18
-57;25;18
-57;25;18
-57;25;18
-57;25;18
-57;25;18
-57;25;18
-57;25;18
-57;25;18
-57;25;18
-57;25;18
-57;25;18
-57;25;18
-59;25;16
-64;26;18
-63;20;23
-62;22;25
-46;20;40
-53;20;42
-41;30;45
-41;28;45
-46;30;35
-34;30;35
-38;32;24
-65;33;26
-44;36;29
-34;32;33
-38;29;29
-40;28;32
-34;26;48
-65;28;24
-39;23;36
-44;27;41
-45;26;42
-45;26;40
-46;28;34
-45;25;41
-43;25;40
-41;23;41
-41;23;42
-36;18;58
-39;16;60
-39;18;51
-40;18;47
-41;17;46
-38;17;46
-35;21;47
-35;21;48
-34;21;51
-30;19;53
-31;19;54
-31;20;52
-33;20;49
-34;19;50
-35;20;51
-36;18;53
-35;19;54
-32;19;54
-34;17;52
-34;17;52
-33;17;51
-33;16;52
-32;15;54
-32;16;54
-32;15;53
-33;15;55
-33;15;54
-32;14;57
-30;14;59
-27;16;57
-28;15;59
-24;15;57
-28;14;46
-27;16;47
-34;17;54
-40;18;56
-38;19;57
-37;19;56
-33;18;56
-34;20;54
-34;22;54
-33;23;55
-26;24;48
-38;21;47
-38;21;51
-28;24;50
-25;21;46
-35;21;50
-32;21;50
-28;22;49
-34;22;48
-31;24;49
-32;24;49
-36;26;51
-30;28;50
-32;28;51
-34;29;50
-32;26;51
-37;26;44
-36;23;45
-41;21;51
-37;22;44
-38;21;45
-42;25;43
-46;27;40
-49;29;34
-48;24;35
-49;26;33
-46;25;38
-45;26;39
-44;26;39
-42;28;40
-44;26;39
-45;27;37
-46;28;36
-47;27;35
-49;27;32
-50;26;32
-48;26;32
-51;28;31
-51;28;31
-51;25;31
-52;25;30
-51;24;29
-54;25;26
-53;25;29
-52;27;29
-51;26;31
-54;26;26
-54;26;27
-50;26;31
-51;26;28
-52;25;29
-50;26;30
-52;27;29
-52;27;29
-51;27;29
-52;27;28
-51;27;30
-50;26;30
-51;27;29
-51;28;29
-50;27;30
-51;27;30
-52;28;29
-52;28;29
-51;27;29
-51;27;29
-51;28;29
-51;28;29
-52;27;27
-51;27;28
-50;27;29
-51;28;29
-51;28;29
-52;28;28
-53;28;27
-51;29;30
-50;28;31
-54;26;25
-56;27;26
-58;29;27
-51;26;33
-48;25;40
-49;26;29
-52;30;29
-45;30;29
-42;29;34
-39;28;38
-35;29;40
-32;29;42
-33;28;50
-29;26;54
-38;25;51
-36;24;48
-36;22;49
-36;22;48
-36;23;49
-40;22;49
-41;23;49
-44;24;46
-43;24;46
-37;23;47
-38;23;45
-42;24;44
-38;23;48
-38;23;46
-40;22;45
-41;23;44
-44;23;44
-41;22;46
-40;21;44
-42;22;43
-42;22;43
-42;23;44
-42;23;44
-42;23;45
-42;22;43
-44;22;42
-43;23;42
-43;22;42
-44;23;42
-43;23;42
-43;22;43
-43;23;43
-44;23;43
-43;23;43
-43;23;42
-44;23;42
-43;23;42
-43;23;42
-43;23;42
-43;23;42
-43;23;42
-43;23;43
-43;23;42
-42;23;43
-42;22;44
-43;22;43
-42;22;43
-42;22;42
-41;22;43
-42;23;42
-43;24;43
-41;23;43
-41;24;43
-39;24;44
-40;24;46
-40;23;45
-40;23;44
-40;22;48
-40;23;48
-37;22;48
-37;23;47
-38;23;47
-38;22;47
-37;21;49
-37;22;49
-37;21;49
-37;21;49
-37;21;49
-37;22;48
-37;22;49
-37;21;49
-37;21;48
-37;21;49
-37;21;49
-36;20;50
-36;20;49
-36;20;49
-36;20;50
-36;20;51
-34;16;50
-39;15;50
-37;16;53
-38;19;48
-39;20;50
-43;18;45
-44;19;43
-46;18;43
-46;20;44
-45;21;47
-45;23;45
-49;24;43
-45;24;42
-45;24;40
-45;25;40
-46;26;40
-51;31;43
-58;38;51
-60;41;51
-63;44;48
-60;48;44
-52;51;26
-47;51;22
-40;46;5
-34;48;-1
-23;45;2
-21;44;-1
-17;41;-2
-11;42;6
-12;43;9
-15;48;15
-13;52;17
-12;58;24
-7;62;26
-4;66;24
-3;62;24
-4;60;27
5;59;30
13;57;29
14;58;26
12;54;25
26;52;25
27;51;21
22;47;20
24;45;17
29;41;12
35;41;9
35;40;10
42;31;9
38;33;4
44;27;4
50;26;0
48;25;1
51;21;7
48;20;9
41;24;19
42;23;33
19;16;60
20;30;75
11;30;76
-29;19;83
-16;17;80
0;10;79
-15;8;76
6;3;73
7;3;66
-14;0;66
-6;1;71
-8;1;64
-4;0;61
-1;-1;67
-9;0;66
-13;3;63
-4;4;60
1;0;59
-15;-8;61
-4;-2;61
-8;2;59
-2;-6;64
-6;-9;63
-15;-12;67
-23;-9;63
-5;-9;71
5;-10;64
-26;-3;53
-36;9;52
-38;15;46
-28;35;42
-16;40;52
-15;41;52
-13;38;42
-20;40;52
-23;42;51
-32;21;52
-34;41;55
-28;35;50
-16;26;51
-24;28;49
-27;12;51
-55;7;30
-45;15;37
-61;21;27
-27;21;27
-62;20;9
-69;26;6
-56;27;2
-61;32;-11
-51;37;-40
-70;37;-56
-66;39;-52
-46;30;-33
-52;30;-45
-43;30;-40
-46;29;-35
-42;38;-28
-40;41;-25
-45;51;-30
-47;48;-29
-34;46;-22
-50;35;-48
-57;32;-55
-45;24;-36
-42;20;-33
-45;18;-34
-40;14;-25
-44;7;-24
-46;9;-20
-67;12;-30
-50;14;-16
-56;17;-18
-51;22;-13
-55;29;-20
-63;53;-13
-36;21;-4
-62;33;-21
-55;26;-18
-51;22;-14
-58;27;-13
-44;20;-9
-65;37;-16
-45;27;-11
-62;29;-24
-57;24;-20
-55;24;-13
-58;25;-14
-59;24;-12
-59;26;-9
-57;24;-9
-59;24;-15
-59;24;-14
-58;25;-13
-59;25;-13
-59;24;-12
-57;26;-14
-56;25;-13
-59;25;-14
-59;25;-14
-58;25;-17
-59;26;-13
-59;25;-11
-59;25;-10
-60;25;-12
-60;26;-9
-58;26;-8
-56;25;-6
-59;25;-5
-58;25;-3
-59;26;-4
-58;25;-6
-59;25;-6
-60;25;-5
-61;25;-6
-60;25;-7
-59;25;-8
-59;25;-7
-59;24;-6
-60;24;-6
-59;25;-6
-60;24;-8
-61;24;-7
-59;24;-6
-59;25;-6
-60;24;-6
-59;24;-6
-60;24;-6
-60;24;-7
-59;24;-7
-60;24;-8
-61;24;-8
-59;24;-8
-59;24;-7
-59;24;-7
-59;25;-7
-59;24;-8
-59;24;-7
-59;25;-7
-59;24;-7
-59;24;-8
-59;24;-8
-60;24;-8
-60;24;-7
-60;24;-7
-59;24;-7
-60;24;-8
-62;24;-9
-59;25;-8
-60;23;-4
-55;24;0
-53;24;2
-58;22;-5
-62;21;-7
-62;18;1
-67;19;-3
-64;18;-4
-62;18;-3
-64;18;-3
-62;18;-9
-62;18;-11
-60;18;-6
-63;18;-5
-62;17;-8
-61;16;-5
-63;17;-5
-62;17;-7
-62;17;-7
-61;17;-6
-64;19;-5
-62;18;-7
-62;18;-8
-62;18;-6
-64;18;-6
-61;18;-7
-62;18;-7
-62;18;-6
-61;17;-6
-62;19;-6
-64;16;-6
-61;17;-7
-60;17;-7
-61;18;-7
-63;18;-6
-59;20;-8
-60;19;-10
-59;21;-11
-61;19;-10
-60;19;-12
-60;20;-13
-61;21;-14
-60;21;-13
-60;21;-14
-59;21;-14
-59;22;-14
-60;23;-14
-59;22;-14
-57;23;-14
-57;23;-13
-58;23;-14
-58;22;-13
-58;23;-13
-58;25;-13
-61;23;-13
-59;23;-13
-58;24;-13
-59;24;-12
-58;23;-12
-60;24;-14
-59;23;-13
-59;24;-14
-58;24;-14
-57;24;-13
-58;24;-13
-58;24;-13
-56;24;-13
-59;24;-13
-58;24;-11
-58;24;-13
-59;24;-14
-59;23;-13
-60;22;-13
-60;22;-14
-60;22;-13
-60;22;-12
-60;22;-12
-60;23;-13
-60;22;-12
-59;22;-11
-59;23;-11
-59;23;-13
-59;23;-13
-59;22;-12
-60;22;-11
-60;23;-12
-60;22;-13
-59;22;-12
-59;23;-13
-59;22;-12
-59;22;-12
-59;22;-12
-59;23;-12
-59;23;-12
-60;22;-12
-59;22;-12
-59;22;-13
-59;22;-12
-59;22;-12
-60;22;-12
-60;22;-12
-59;23;-13
-59;22;-13
-59;23;-12
-59;23;-12
-59;23;-12
-59;22;-12
-59;23;-13
-59;23;-13
-59;23;-13
-59;23;-13
-59;23;-13
-59;23;-13
-59;23;-12
-59;23;-13
-59;23;-13
-59;24;-13
-59;23;-13
-59;23;-13
-59;23;-13
-59;23;-13
-58;23;-12
-59;23;-13
-59;23;-13
-59;23;-13
-59;23;-13
-59;23;-13
-59;23;-12
-59;23;-13
-59;23;-13
-59;23;-13
-59;23;-13
-59;23;-13
-59;23;-13
-58;23;-13
-59;23;-13
-59;24;-13
-58;24;-13
-59;23;-13
-59;24;-13
-59;24;-13
-59;24;-13
-59;24;-13
-58;24;-13
-59;23;-13
-59;24;-13
-58;24;-13
-58;24;-13
-59;24;-13
-59;24;-13
-59;24;-13
-59;24;-13
-59;23;-13
-59;24;-13
-60;23;-13
-57;24;-13
-59;24;-13
-58;23;-12
-58;24;-12
-59;24;-14
-59;25;-15
-58;25;-16
-58;23;-13
-58;24;-14
-59;24;-15
-59;24;-13
-57;25;-14
-59;24;-12
-59;23;-11
-57;24;-13
-55;24;-15
-60;23;-13
-61;22;-11
-57;26;-10
-55;27;-11
-58;27;-14
-60;26;-12
-60;24;-12
-58;26;-13
-59;26;-14
-58;26;-12
-56;25;-11
-58;26;-11
-58;26;-11
-58;26;-12
-58;26;-12
-58;26;-13
-59;25;-13
-58;26;-11
-58;25;-12
-58;26;-11
-59;26;-12
-58;26;-13
-59;26;-12
-58;26;-10
-58;26;-10
-58;26;-10
-57;26;-10
-59;26;-10
-58;26;-10
-58;26;-10
-58;26;-10
-58;26;-11
-59;26;-10
-59;26;-10
-58;26;-11
-59;26;-11
-59;26;-10
-59;26;-11
-58;26;-11
-58;26;-11
-58;27;-11
-57;27;-11
-58;27;-11
-58;27;-11
-58;27;-11
-58;27;-11
-58;27;-11
-58;27;-11
-58;27;-11
-58;26;-10
-58;27;-11
-57;27;-11
-58;26;-11
-58;27;-11
-57;27;-12
-59;26;-11
-60;27;-14
-62;25;-15
-61;25;-7
-55;26;-3
-55;32;-4
-52;26;3
-55;27;8
-54;24;8
-58;27;-2
-56;27;-8
-56;26;-14
-62;28;-17
-55;22;-17
-55;25;-16
-60;22;-20
-60;22;-21
-60;23;-21
-55;22;-21
-55;23;-19
-55;24;-20
-56;24;-21
-57;24;-19
-56;23;-18
-60;23;-19
-54;25;-19
-60;23;-15
-58;23;-17
-57;23;-16
-57;26;-17
-58;25;-18
-58;25;-14
-59;25;-15
-56;25;-14
-59;25;-10
-59;25;-9
-58;25;-11
-58;25;-11
-59;26;-8
-59;25;-7
-58;25;-7
-58;26;-7
-58;26;-6
-59;25;-6
-60;25;-6
-59;26;-6
-59;26;-6
-59;25;-5
-60;25;-5
-59;26;-5
-58;26;-4
-59;25;-3
-59;26;-3
-59;26;-3
-59;26;-4
-59;26;-3
-59;26;-4
-59;26;-4
-59;26;-3
-60;26;-4
-59;26;-4
-59;26;-3
-59;26;-4
-59;26;-4
-59;26;-4
-59;26;-4
-59;26;-4
-59;26;-3
-59;26;-4
-59;26;-4
-59;26;-4
-59;26;-4
-59;26;-4
-59;26;-4
-59;26;-4
-59;26;-4
-59;26;-4
-58;25;-3
-58;26;-3
-55;25;-2
-53;25;0
-53;27;-11
-59;27;-22
-50;26;-20
-52;26;-24
-55;27;-37
-51;25;-29
-50;25;-28
-57;25;-33
-55;27;-35
-51;23;-26
-50;26;-25
-53;26;-28
-51;26;-25
-52;28;-29
-51;27;-28
-52;26;-25
-53;27;-26
-51;27;-25
-53;27;-25
-53;27;-25
-55;27;-23
-53;25;-21
-55;25;-25
-53;28;-22
-54;26;-19
-54;27;-21
-53;29;-23
-58;28;-21
-57;27;-19
-53;27;-15
-57;27;-14
-55;26;-13
-55;28;-13
-55;28;-14
-59;28;-15
-58;27;-14
-55;28;-12
-55;28;-12
-58;27;-13
-57;28;-13
-56;28;-13
-57;28;-12
-56;27;-12
-57;28;-12
-57;28;-10
-61;27;-17
-53;30;-12
-59;26;-13
-59;26;-14
-54;27;-12
-57;27;-8
-58;25;-5
-57;27;-17
-59;28;-17
-56;26;-7
-58;28;-12
-59;26;-11
-57;25;-6
-60;27;-10
-57;26;-12
-57;28;-12
-57;26;-12
-55;27;-11
-59;25;-12
-57;26;-11
-58;27;-12
-58;27;-12
-56;27;-10
-57;28;-14
-56;28;-15
-58;27;-14
-56;28;-14
-56;28;-15
-57;27;-14
-58;27;-15
-56;27;-14
-56;27;-13
-57;27;-15
-56;27;-14
-57;27;-14
-57;27;-15
-56;27;-15
-56;27;-15
-58;27;-14
-57;27;-15
-57;27;-14
-56;27;-15
-56;28;-14
-58;27;-14
-56;26;-16
-53;26;-15
-59;29;-17
-54;25;-8
-60;27;-13
-58;27;-16
-57;27;-13
-58;26;-13
-57;26;-15
-58;27;-13
-57;27;-13
-57;28;-15
-58;27;-14
-56;27;-15
-56;27;-14
-57;27;-13
-59;27;-15
-56;27;-14
-56;27;-13
-57;27;-14
-58;27;-14
-57;26;-15
-58;26;-14
-57;27;-14
-57;27;-14
-57;27;-15
-57;26;-14
-57;27;-14
-57;27;-14
-56;26;-15
-56;26;-15
-58;25;-15
-56;25;-12
-58;27;-13
-57;26;-14
-56;27;-13
-58;26;-15
-57;27;-14
-58;26;-14
-57;26;-14
-56;27;-14
-57;27;-14
-56;27;-14
-58;26;-14
-58;26;-15
-58;26;-14
-58;27;-14
-56;27;-14
-57;27;-14
-56;27;-15
-56;28;-16
-58;26;-15
-57;27;-16
-57;27;-16
-57;26;-14
-57;27;-14
-56;28;-16
-57;27;-16
-57;27;-15
-57;27;-15
-56;28;-16
-53;28;-13
-57;27;-15
-57;27;-17
-56;27;-16
-55;28;-16
-56;29;-15
-57;26;-15
-56;28;-16
-56;28;-15
-56;28;-15
-57;27;-16
-56;27;-15
-56;28;-14
-57;27;-15
-57;27;-15
-57;27;-14
-57;27;-15
-57;27;-15
-57;27;-15
-57;27;-16
-58;27;-16
-56;25;-14
-54;27;-16
-56;26;-18
-59;24;-7
-55;29;-19
-57;28;-18
-55;27;-12
-57;27;-15
-57;27;-16
-58;27;-16
-56;27;-15
-57;26;-15
-57;27;-15
-56;27;-15
-56;27;-15
-57;27;-16
-57;27;-17
-56;27;-16
-57;27;-16
-57;27;-15
-54;26;-15
-55;27;-15
-58;25;-15
-59;26;-16
-54;28;-17
-56;27;-16
-58;26;-16
-57;27;-16
-55;27;-17
-57;27;-15
-58;26;-15
-57;26;-15
-58;26;-16
-56;27;-15
-57;26;-16
-57;26;-15
-56;26;-16
-56;27;-16
-57;26;-15
-57;26;-16
-57;27;-16
-56;26;-15
-57;26;-15
-56;26;-15
-56;26;-12
-57;25;-11
-57;25;-8
-57;23;-23
-59;24;-26
-60;25;-21
-60;23;-21
-60;25;-20
-57;24;-15
-58;25;-15
-57;25;-19
-57;17;-20
-54;14;-23
-43;10;-20
-51;16;-21
-50;15;-24
-51;25;-24
-51;31;-22
-52;33;-23
-54;36;-25
-55;38;-26
-50;40;-28
-51;40;-30
-54;44;-33
-39;37;-26
-53;35;-34
-47;32;-27
-47;30;-26
-48;27;-27
-47;25;-27
-48;24;-28
-48;23;-30
-48;24;-32
-47;23;-32
-52;24;-35
-50;24;-35
-54;23;-33
-52;24;-32
-51;25;-33
-51;24;-34
-51;23;-34
-50;24;-34
-50;23;-34
-48;24;-34
-49;23;-35
-48;23;-35
-49;24;-34
-49;23;-33
-47;24;-34
-48;24;-35
-49;24;-34
-49;24;-34
-49;25;-34
-49;24;-35
-49;24;-34
-48;24;-35
-49;24;-35
-49;24;-34
-49;23;-33
-48;23;-34
-47;24;-34
-47;25;-35
-49;24;-36
-51;23;-36
-48;23;-31
-50;24;-29
-54;28;-29
-54;32;-30
-58;36;-27
-59;37;-24
-59;39;-24
-59;40;-23
-52;35;-21
-62;34;-15
-66;29;-16
-52;30;-16
-49;30;-15
-51;29;-5
-51;28;-5
-49;30;-7
-53;28;-5
-52;28;-2
-52;26;-5
-55;25;-8
-51;25;-1
-53;26;-1
-57;26;-3
-53;25;-1
-55;26;-1
-61;29;-2
-61;30;-3
-57;31;0
-53;30;-1
-66;32;-11
-56;29;-7
-61;31;-7
-60;28;-6
-62;28;-12
-59;25;-10
-58;26;-7
-58;27;-6
-57;28;-6
-57;28;-7
-59;26;-7
-59;26;-6
-58;27;-6
-58;27;-7
-59;26;-7
-59;26;-7
-59;27;-6
-58;26;-7
-58;27;-8
-59;27;-6
-59;27;-7
-58;26;-7
-59;26;-7
-58;26;-8
-58;27;-8
-59;26;-9
-59;26;-9
-59;26;-8
-59;26;-8
-59;25;-8
-59;26;-8
-59;26;-8
-58;25;-6
-58;25;-5
-57;26;-8
-57;26;-8
-59;28;-13
-56;25;-17
-58;25;-16
-59;26;-18
-58;25;-18
-61;26;-24
-59;28;-28
-49;22;-14
-61;27;-18
-60;25;-17
-56;27;-17
-56;26;-18
-56;27;-12
-57;27;-11
-58;27;-13
-58;27;-15
-57;27;-13
-59;28;-14
-59;28;-15
-57;27;-6
-58;26;-2
-57;30;-6
-56;31;-2
-50;28;0
-60;27;-6
-56;28;-9
-58;28;-16
-59;27;-17
-58;27;-11
-59;27;-12
-56;28;-14
-56;27;-12
-59;28;-10
-58;27;-14
-56;28;-14
-52;29;-10
-57;28;-9
-57;28;-7
-55;29;-9
-58;25;-10
-61;26;-14
-55;28;-10
-59;28;-12
-58;27;-9
-55;28;-7
-57;28;-8
-55;25;-6
-58;28;-7
-56;27;-8
-62;26;-12
-57;28;-12
-62;25;-10
-64;27;-11
-53;30;-19
-59;28;-17
-54;24;-8
-58;24;-11
-61;27;-19
-56;24;-15
-60;25;-11
-58;25;-13
-61;25;-17
-55;24;-10
-58;26;-15
-55;24;-10
-59;26;-11
-55;29;-13
-60;25;-15
-58;24;-12
-58;26;-13
-57;26;-15
-57;26;-15
-58;26;-15
-56;26;-14
-58;26;-15
-56;26;-15
-60;26;-13
-60;25;-13
-58;26;-17
-58;27;-16
-59;25;-14
-61;26;-15
-61;27;-17
-54;27;-3
-63;27;-5
-58;25;-2
-53;25;2
-63;30;-4
-57;27;-1
-56;25;2
-60;25;-4
-60;26;-13
-55;29;-15
-57;27;-12
-57;27;-12
-55;25;-14
-58;26;-18
-59;25;-21
-59;26;-19
-59;26;-18
-58;23;-17
-58;23;-12
-56;25;-15
-57;24;-16
-59;24;-18
-57;24;-16
-58;24;-15
-55;26;-16
-56;24;-17
-59;24;-15
-57;25;-17
-56;25;-16
-57;25;-16
-58;24;-16
-56;25;-16
-58;25;-18
-58;23;-16
-56;25;-15
-57;27;-18
-58;23;-16
-58;24;-15
-58;25;-18
-58;24;-18
-58;23;-18
-57;25;-17
-57;25;-15
-58;24;-18
-58;25;-18
-58;25;-14
-57;25;-14
-57;25;-17
-57;24;-16
-58;25;-15
-58;25;-15
-58;24;-15
-58;24;-15
-58;24;-16
-58;24;-15
-57;25;-15
-57;24;-13
-57;24;-13
-57;25;-14
-57;25;-14
-59;24;-14
-57;25;-15
-58;25;-15
-59;25;-13
-57;25;-13
-59;25;-14
-59;25;-14
-57;25;-15
-58;26;-14
-56;25;-12
-58;26;-14
-59;25;-13
-57;26;-13
-58;26;-12
-58;25;-13
-57;26;-14
-58;25;-13
-57;24;-12
-56;25;-13
-60;25;-13
-59;25;-12
-58;26;-14
-57;26;-14
-58;25;-12
-59;25;-13
-57;26;-14
-57;26;-14
-58;26;-13
-58;25;-14
-58;26;-15
-57;26;-13
-58;26;-13
-57;26;-14
-57;26;-14
-57;27;-13
-57;26;-14
-57;26;-14
-57;26;-14
-57;26;-13
-58;26;-14
-58;25;-15
-57;26;-14
-58;25;-13
-58;25;-13
-58;25;-14
-58;25;-13
-58;25;-13
-58;25;-14
-58;25;-13
-58;25;-14
-58;25;-14
-58;25;-13
-58;25;-13
-58;25;-14
-58;25;-14
-57;26;-13
-58;25;-13
-58;25;-14
-58;25;-13
-57;26;-13
-58;25;-13
-58;25;-14
-58;26;-14
-57;26;-13
-58;25;-13
-57;25;-14
-58;26;-14
-58;25;-13
-57;26;-14
-57;25;-14
-58;26;-14
-58;25;-14
-58;25;-14
-58;25;-14
-58;25;-14
-58;25;-14
-58;25;-13
-58;25;-14
-58;25;-14
-58;25;-13
-58;25;-14
-58;25;-14
-58;25;-14
-58;25;-14
-57;25;-14
-58;25;-14
-58;25;-14
-58;25;-14
-58;25;-14
-58;25;-14
-58;25;-14
-58;25;-14
-58;25;-14
-58;25;-13
-58;26;-13
-58;25;-13
-58;25;-15
-59;25;-15
-59;25;-14
-59;25;-14
-59;25;-14
-60;25;-15
-60;25;-13
-61;27;-11
-59;25;-14
-57;23;-14
-57;22;-14
-56;18;-16
-52;17;-16
-52;18;-16
-53;18;-20
-57;20;-25
-57;23;-27
-55;25;-27
-53;29;-27
-52;30;-26
-53;34;-23
-53;34;-23
-53;36;-20
-52;36;-15
-54;36;-17
-53;36;-15
-54;36;-13
-53;35;-13
-52;35;-14
-54;31;-13
-54;30;-11
-57;28;-12
-57;27;-15
-58;27;-15
-60;26;-17
-60;26;-17
-57;26;-17
-56;26;-16
-56;25;-16
-57;25;-17
-56;25;-17
-56;25;-17
-57;25;-17
-57;25;-18
-57;26;-19
-59;23;-17
-56;22;-12
-58;25;-16
-58;26;-17
-59;26;-18
-57;26;-19
-55;26;-19
-56;25;-18
-56;25;-18
-56;25;-19
-55;25;-18
-56;25;-19
-56;25;-19
-55;25;-19
-56;26;-19
-57;25;-19
-56;26;-19
-56;26;-19
-56;26;-19
-56;26;-20
-56;26;-20
-56;25;-20
-54;26;-20
-55;25;-21
-56;25;-20
-56;25;-19
-57;25;-19
-56;24;-19
-57;24;-20
-57;24;-19
-57;23;-19
-57;24;-16
-62;26;-17
-60;28;-16
-60;33;-14
-61;36;-10
-61;43;-8
-61;45;-13
-60;43;-14
-56;39;-11
-54;38;-13
-51;35;-14
-51;34;-11
-51;32;-10
-52;32;-12
-46;32;-6
-47;32;-3
-50;32;-5
-47;28;-2
-46;30;0
-47;32;-1
-50;31;0
-53;31;-4
-59;33;-4
-70;31;-5
-51;36;1
-53;34;-2
-55;34;-2
-57;36;-4
-52;39;-1
-52;36;1
-70;47;-8
-56;39;-2
-54;36;-2
-53;35;-1
-54;34;-2
-52;36;-1
-53;37;1
-54;34;1
-54;33;0
-55;35;3
-55;34;3
-55;33;3
-55;34;3
-55;35;4
-55;33;3
-55;33;3
-56;34;4
-54;33;3
-54;34;2
-57;33;2
-57;33;1
-56;33;1
-55;34;1
-56;33;2
-56;33;1
-56;33;0
-55;34;0
-56;33;1
-56;34;0
-55;34;0
-55;33;0
-55;34;0
-55;34;0
-55;35;0
-55;33;-3
-53;32;0
-53;33;-2
-54;33;0
-55;32;-2
-53;33;-7
-52;35;-9
-53;32;-13
-54;30;-16
-53;33;-21
-53;33;-23
-51;33;-24
-52;33;-26
-50;32;-25
-53;30;-25
-52;31;-25
-52;31;-25
-54;31;-25
-49;32;-22
-50;31;-25
-49;33;-28
-51;32;-29
-52;31;-27
-49;31;-24
-49;32;-25
-47;32;-26
-50;32;-29
-50;31;-27
-50;32;-25
-48;31;-25
-49;32;-26
-52;30;-27
-50;30;-24
-51;31;-23
-49;31;-24
-50;31;-24
-50;31;-24
-52;31;-26
-50;31;-25
-51;31;-22
-52;30;-22
-52;31;-22
-54;31;-22
-52;31;-21
-55;31;-21
-53;31;-19
-50;31;-15
-51;32;-16
-55;31;-18
-54;32;-17
-52;32;-15
-53;32;-16
-54;32;-17
-52;32;-17
-52;32;-16
-55;32;-16
-55;31;-16
-54;32;-15
-54;33;-14
-54;32;-12
-54;32;-12
-55;33;-13
-53;32;-11
-56;32;-12
-54;33;-12
-54;32;-11
-54;33;-9
-53;33;-10
-56;32;-11
-54;32;-10
-54;32;-10
-55;32;-11
-56;32;-11
-54;32;-11
-54;33;-10
-55;33;-10
-55;32;-11
-55;32;-11
-55;33;-11
-54;33;-11
-55;32;-11
-55;32;-11
-55;32;-11
-55;32;-10
-55;32;-11
-54;33;-11
-56;32;-11
-55;32;-11
-55;32;-11
-55;32;-12
-54;32;-13
-55;32;-12
-55;32;-12
-54;32;-12
-55;32;-12
-55;32;-12
-55;32;-12
-55;32;-12
-55;32;-12
-55;32;-12
-55;32;-12
-55;32;-12
-54;32;-12
-55;32;-12
-55;32;-13
-54;32;-12
-54;32;-12
-54;32;-12
-55;32;-12
-55;31;-12
-55;31;-13
-55;32;-13
-54;32;-13
-54;32;-12
-54;32;-12
-54;32;-12
-54;32;-12
-55;32;-12
-55;31;-12
-55;31;-12
-55;31;-12
-55;31;-12
-55;31;-12
-55;31;-12
-56;31;-13
-55;31;-12
-55;31;-12
-55;31;-12
-56;31;-13
-55;31;-12
-56;31;-12
-55;31;-12
-55;31;-12
-55;31;-12
-55;31;-12
-55;31;-12
-55;31;-12
-55;31;-12
-55;31;-12
-55;31;-12
-55;31;-12
-55;31;-12
-55;31;-12
-55;31;-12
-55;31;-12
-56;31;-12
-55;31;-12
-55;31;-12
-55;31;-12
-56;31;-12
-55;31;-12
-55;31;-12
-55;31;-12
-55;31;-12
-55;31;-12
-55;31;-12
-55;31;-12
-55;31;-12
-55;31;-12
-55;31;-12
-55;31;-13
-55;32;-13
-55;32;-13
-55;32;-12
-55;32;-12
-55;31;-12
-55;32;-12
-55;31;-12
-55;31;-12
-56;31;-12
-56;31;-12
-55;31;-13
-55;32;-12
-54;32;-12
-54;32;-12
-54;32;-13
-54;32;-13
-55;32;-13
-55;31;-13
-55;32;-13
-55;31;-13
-55;32;-13
-55;32;-12
-54;32;-12
-54;32;-12
-54;32;-12
-54;32;-11
-55;31;-12
-55;31;-12
-55;31;-12
-56;31;-13
-55;31;-13
-55;31;-12
-56;31;-12
-55;31;-12
-56;31;-12
-56;31;-12
-56;30;-12
-56;31;-12
-56;31;-12
-56;31;-13
-56;31;-12
-57;31;-12
-56;32;-11
-54;33;-12
-53;33;-10
-55;32;-11
-54;33;-12
-54;34;-11
-55;33;-9
-53;34;-8
-55;33;-10
-54;34;-10
-54;33;-9
-54;33;-7
-54;34;-8
-54;33;-9
-55;34;-8
-55;34;-7
-56;34;-9
-55;35;-8
-53;34;-8
-54;34;-8
-53;35;-9
-52;35;-8
-55;34;-8
-54;34;-8
-54;34;-8
-54;34;-8
-55;34;-9
-53;34;-8
-54;34;-9
-54;34;-9
-54;34;-9
-55;34;-9
-55;33;-8
-55;33;-9
-53;34;-10
-55;34;-10
-55;33;-10
-54;34;-11
-54;34;-9
-55;34;-9
-54;33;-10
-53;34;-11
-54;34;-8
-55;34;-9
-54;34;-11
-54;34;-10
-56;34;-10
-55;33;-10
-53;33;-11
-52;34;-8
-53;34;-9
-56;33;-11
-53;35;-9
-53;33;-7
-55;34;-10
-53;34;-11
-55;34;-10
-54;34;-9
-55;34;-10
-54;34;-9
-55;34;-10
-53;34;-10
-53;34;-9
-55;33;-10
-54;34;-10
-54;34;-10
-54;34;-9
-55;34;-9
-54;34;-10
-52;34;-8
-54;33;-5
-55;33;-7
-54;32;-7
-58;31;-9
-67;32;-15
-64;30;-15
-55;32;-14
-59;29;-19
-59;28;-19
-51;27;-16
-49;25;-16
-47;28;-17
-48;27;-20
-46;30;-21
-46;33;-19
-43;38;-18
-44;41;-20
-48;43;-20
-46;45;-22
-45;44;-21
-46;44;-20
-48;43;-22
-44;44;-25
-42;44;-26
-41;44;-26
-38;45;-24
-36;46;-25
-33;48;-25
-33;51;-26
-34;51;-26
-34;51;-26
-35;50;-26
-37;49;-25
-37;46;-25
-36;45;-25
-36;45;-25
-36;49;-23
-36;50;-23
-34;49;-23
-33;48;-23
-33;48;-23
-33;47;-23
-34;48;-24
-34;50;-24
-33;50;-24
-32;50;-23
-32;50;-24
-32;50;-25
-32;50;-25
-33;50;-24
-34;50;-22
-33;49;-22
-32;50;-22
-32;50;-22
-32;51;-22
-32;51;-23
-31;51;-22
-31;51;-21
-31;51;-22
-31;52;-23
-32;52;-22
-30;52;-21
-30;52;-21
-31;52;-21
-31;52;-21
-31;52;-21
-31;52;-22
-30;52;-20
-30;52;-20
-29;52;-20
-30;52;-19
-29;52;-19
-29;53;-19
-30;53;-20
-30;53;-20
-29;53;-19
-29;53;-19
-30;53;-20
-30;53;-20
-29;53;-19
-29;53;-19
-30;53;-20
-30;54;-19
-29;53;-19
-29;53;-19
-29;53;-19
-29;53;-19
-29;53;-19
-30;54;-20
-30;53;-19
-30;53;-19
-29;53;-19
-29;54;-20
-28;54;-19
-29;53;-19
-30;53;-20
-29;53;-20
-29;53;-19
-29;53;-19
-29;53;-19
-29;53;-20
-29;53;-20
-29;54;-20
-29;54;-19
-29;54;-20
-28;53;-20
-29;52;-20
-28;53;-20
-29;54;-19
-29;54;-20
-28;54;-20
-28;54;-19
-29;53;-20
-29;53;-19
-30;53;-20
-29;54;-19
-29;53;-19
-29;54;-20
-28;53;-20
-29;53;-20
-29;53;-20
-29;54;-20
-28;53;-19
-29;54;-20
-28;54;-20
-28;53;-20
-28;53;-20
-28;53;-20
-29;53;-20
-28;53;-20
-28;53;-20
-28;53;-20
-29;52;-20
-28;53;-19
-28;53;-19
-28;52;-20
-27;53;-21
-28;52;-21
-29;53;-22
-29;54;-22
-32;54;-23
-32;53;-22
-33;52;-21
-34;52;-20
-33;52;-19
-35;51;-19
-36;51;-18
-35;52;-15
-34;52;-15
-33;51;-16
-33;52;-17
-34;51;-17
-33;52;-15
-33;52;-15
-36;51;-15
-36;50;-15
-36;50;-13
-36;51;-13
-38;51;-14
-38;50;-13
-37;49;-10
-38;48;-9
-39;49;-10
-41;49;-11
-41;50;-10
-39;47;-7
-39;45;-7
-41;46;-7
-42;46;-8
-42;47;-10
-42;49;-12
-44;49;-12
-45;48;-13
-45;47;-14
-46;49;-16
-45;49;-15
-42;46;-13
-43;45;-13
-45;45;-13
-45;46;-14
-45;48;-13
-44;48;-13
-44;47;-12
-43;44;-13
-43;43;-12
-42;43;-11
-43;45;-11
-43;46;-11
-42;47;-10
-43;47;-11
-43;46;-11
-43;44;-12
-44;44;-11
-45;45;-11
-46;46;-13
-46;46;-13
-46;45;-13
-45;44;-12
-45;45;-12
-45;45;-13
-43;45;-12
-44;45;-11
-44;45;-11
-43;44;-9
-44;47;-12
-43;46;-12
-39;45;-11
-39;45;-12
-37;42;-9
-41;41;-10
-37;45;-23
-52;45;-39
-44;43;-30
-36;52;-33
-35;48;-25
-40;43;-31
-35;44;-32
-38;44;-29
-36;44;-28
-39;46;-24
-38;45;-23
-36;43;-21
-32;42;-20
-32;40;-19
-39;40;-22
-46;40;-23
-42;37;-29
-42;36;-24
-48;35;-25
-47;33;-26
-47;31;-26
-53;31;-26
-56;31;-29
-52;34;-28
-56;34;-32
-55;30;-30
-56;29;-26
-55;29;-24
-55;26;-22
-58;27;-25
-55;25;-24
-48;27;-21
-49;27;-23
-54;27;-28
-57;30;-29
-56;27;-27
-54;28;-27
-54;28;-24
-51;30;-24
-49;34;-29
-47;33;-26
-49;33;-23
-48;31;-21
-49;34;-22
-53;34;-23
-55;35;-23
-52;36;-26
-49;37;-25
-50;37;-23
-49;37;-23
-46;38;-21
-48;39;-21
-44;39;-20
-44;40;-17
-43;39;-18
-45;41;-18
-45;40;-17
-43;41;-14
-43;41;-14
-43;43;-14
-45;43;-15
-45;43;-16
-45;43;-16
-46;42;-16
-46;42;-16
-44;42;-14
-46;44;-16
-45;43;-15
-45;44;-15
-45;43;-15
-44;44;-15
-44;44;-15
-45;44;-16
-44;44;-15
-43;44;-15
-44;44;-15
-44;43;-16
-45;44;-16
-44;44;-16
-44;44;-15
-44;43;-16
-44;44;-16
-44;44;-15
-44;44;-15
-43;44;-15
-45;44;-16
-45;45;-16
-45;44;-15
-44;44;-15
-45;44;-15
-45;44;-15
-44;45;-15
-43;44;-15
-44;44;-15
-44;45;-15
-43;44;-14
-44;45;-15
-43;45;-14
-42;45;-12
-42;45;-14
-44;46;-14
-44;46;-14
-43;46;-15
-42;46;-13
-42;46;-13
-43;46;-13
-44;47;-14
-42;47;-13
-42;46;-14
-42;47;-14
-42;47;-14
-43;46;-15
-42;47;-13
-41;47;-13
-42;46;-13
-42;47;-14
-42;47;-13
-42;47;-13
-42;47;-13
-41;47;-13
-42;47;-13
-42;47;-13
-42;47;-13
-42;47;-13
-42;47;-14
-42;47;-14
-42;47;-14
-41;47;-13
-42;48;-13
-42;47;-13
-41;47;-13
-42;47;-13
-42;47;-13
-42;47;-14
-42;47;-14
-41;47;-13
-43;47;-14
-42;47;-14
-41;47;-13
-42;47;-13
-42;47;-14
-41;47;-13
-42;47;-14
-41;47;-13
-42;47;-14
-41;47;-13
-41;47;-14
-41;47;-14
-41;47;-13
-41;47;-14
-41;47;-14
-41;47;-13
-42;48;-14
-41;48;-14
-41;47;-14
-41;47;-14
-41;47;-14
-40;47;-13
-39;47;-12
-43;48;-15
-41;48;-15
-42;47;-15
-40;48;-14
-39;48;-12
-40;46;-12
-42;46;-15
-40;48;-14
-40;47;-14
-42;47;-15
-42;47;-14
-41;47;-13
-41;49;-14
-42;48;-13
-41;47;-14
-41;48;-14
-41;48;-14
-41;48;-14
-40;47;-14
-41;47;-14
-41;48;-14
-41;48;-13
-42;47;-14
-40;47;-13
-41;47;-14
-41;47;-14
-42;48;-13
-40;49;-13
-42;47;-13
-43;47;-14
-40;47;-14
-41;47;-15
-43;46;-14
-41;47;-14
-39;48;-13
-39;46;-14
-40;48;-13
-42;48;-15
-42;48;-15
-42;48;-13
-42;48;-13
-41;47;-13
-41;47;-14
-41;47;-13
-40;47;-13
-41;47;-13
-42;47;-13
-41;47;-13
-41;47;-13
-41;47;-13
-41;47;-13
-41;47;-14
-43;48;-15
-42;47;-15
-39;48;-12
-41;48;-14
-41;48;-13
-41;47;-13
-40;47;-12
-41;48;-14
-41;49;-13
-41;49;-14
-41;48;-13
-41;48;-14
-41;48;-13
-41;48;-13
-41;48;-13
-41;48;-14
-40;48;-14
-40;48;-14
-42;47;-14
-40;48;-12
-41;48;-13
-40;47;-13
-40;48;-14
-41;48;-14
-40;48;-14
-39;48;-13
-41;48;-14
-39;48;-13
-40;48;-14
-41;48;-14
-41;47;-14
-40;48;-14
-41;48;-14
-41;48;-14
-41;47;-14
-41;48;-14
-41;48;-14
-40;48;-14
-41;48;-14
-41;48;-14
-40;48;-14
-40;48;-14
-40;48;-14
-40;48;-14
-40;48;-13
-40;48;-13
-40;48;-15
-39;48;-14
-41;48;-14
-41;48;-14
-40;48;-14
-40;48;-14
-40;48;-13
-40;48;-14
-40;48;-14
-40;48;-13
-40;48;-14
-40;48;-14
-40;48;-13
-41;48;-14
-40;48;-14
-40;48;-14
-40;48;-14
-41;48;-14
-40;48;-14
-40;48;-14
-40;48;-14
-40;48;-14
-40;48;-14
-40;48;-14
-40;48;-14
-40;48;-14
-39;47;-14
-41;48;-14
-40;49;-13
-40;49;-15
-40;49;-14
-39;48;-14
-39;49;-14
-41;49;-15
-39;48;-14
-39;48;-13
-39;48;-13
-39;48;-13
-37;49;-8
-38;49;-10
-31;51;-14
-44;51;-28
-43;49;-25
-35;47;-18
-37;49;-18
-38;49;-19
-36;48;-18
-36;45;-18
-35;50;-18
-39;49;-20
-40;48;-21
-40;49;-20
-33;50;-13
-34;50;-13
-41;51;-20
-42;52;-21
-40;48;-15
-37;48;-12
-36;50;-12
-38;49;-14
-39;48;-13
-37;50;-14
-37;49;-14
-39;49;-15
-39;49;-15
-39;49;-14
-39;49;-14
-39;49;-14
-40;49;-14
-39;49;-14
-39;49;-14
-40;49;-14
-40;49;-14
-39;49;-13
-39;49;-14
-39;49;-14
-39;49;-14
-39;49;-14
-39;49;-14
-39;49;-14
-39;49;-14
-38;49;-14
-39;49;-13
-39;48;-14
-39;49;-14
-39;49;-14
-39;49;-14
-40;49;-14
-39;49;-14
-39;49;-13
-39;49;-13
-39;49;-14
-39;49;-14
-39;49;-14
-39;49;-13
-39;49;-14
-39;49;-14
-39;49;-13
-39;49;-13
-39;49;-13
-40;49;-13
-39;49;-13
-40;49;-13
-39;49;-14
-39;49;-13
-40;49;-13
-39;49;-14
-39;49;-14
-39;49;-13
-40;49;-14
-40;49;-14
-39;49;-13
-40;49;-13
-40;49;-13
-40;49;-13
-39;49;-13
-39;49;-13
-40;49;-14
-40;49;-13
-40;49;-13
-40;48;-14
-40;48;-13
-40;49;-14
-39;49;-14
-40;49;-13
-39;49;-13
-40;49;-13
-40;49;-14
-40;49;-13
-40;49;-13
-40;49;-13
-40;49;-13
-39;49;-13
-40;49;-13
-39;49;-13
-39;49;-12
-40;49;-14
-40;49;-13
-40;49;-13
-40;48;-13
-40;49;-14
-40;49;-14
-39;48;-13
-40;48;-13
-40;49;-14
-40;49;-14
-40;48;-13
-40;49;-14
-40;49;-13
-39;48;-13
-39;48;-14
-40;49;-14
-39;49;-14
-40;48;-14
-39;49;-14
-40;49;-13
-40;49;-14
-39;48;-13
-40;49;-14
-40;49;-14
-40;49;-13
-40;49;-13
-40;49;-14
-40;49;-14
-39;49;-14
-40;48;-13
-39;49;-14
-40;49;-14
-38;47;-12
-39;47;-13
-39;50;-12
-36;49;-12
-40;49;-14
-36;51;-15
-33;50;-14
-35;49;-15
-41;49;-24
-35;50;-18
-37;50;-22
-37;49;-21
-35;49;-19
-37;47;-19
-37;46;-21
-36;49;-19
-38;48;-20
-38;48;-21
-35;50;-16
-34;50;-15
-41;50;-18
-40;50;-19
-43;49;-15
-42;50;-17
-36;50;-11
-35;49;-10
-38;47;-13
-40;49;-13
-39;50;-12
-40;49;-13
-40;49;-13
-39;48;-13
-39;48;-13
-41;49;-14
-41;49;-13
-40;48;-13
-40;48;-14
-40;48;-14
-40;48;-14
-40;48;-13
-40;48;-14
-40;48;-14
-39;49;-13
-40;47;-12
-42;48;-11
-37;50;-13
-37;49;-14
-40;46;-12
-41;46;-11
-43;48;-16
-43;48;-13
-43;46;-14
-42;47;-17
-42;47;-16
-41;46;-15
-41;45;-14
-43;46;-16
-43;46;-16
-44;47;-20
-42;47;-14
-43;45;-14
-42;46;-12
-42;46;-12
-42;46;-13
-41;46;-13
-43;46;-14
-42;46;-13
-42;46;-13
-43;46;-15
-43;46;-16
-42;46;-15
-42;46;-15
-41;45;-14
-43;46;-14
-43;46;-16
-42;47;-15
-43;46;-15
-44;47;-17
-44;46;-14
-38;46;-11
-37;46;-7
-39;48;-14
-41;47;-17
-45;46;-17
-43;46;-14
-42;47;-12
-43;46;-13
-44;47;-16
-42;46;-15
-42;46;-15
-43;46;-14
-42;47;-14
-40;46;-13
-44;43;-13
-44;46;-18
-41;46;-13
-43;46;-15
-41;46;-13
-41;47;-14
-41;47;-14
-39;47;-14
-42;47;-14
-42;46;-14
-41;47;-15
-38;47;-13
-40;47;-14
-40;47;-14
-40;47;-14
-38;47;-13
-36;47;-12
-31;48;-11
-36;46;-19
-39;44;-20
-41;42;-17
-45;42;-16
-54;40;-20
-55;40;-20
-56;38;-20
-61;35;-23
-54;36;-21
-53;34;-17
-55;32;-18
-53;30;-17
-51;30;-14
-54;27;-14
-58;27;-16
-55;30;-12
-57;30;-10
-58;31;-13
-61;28;-16
-56;29;-13
-55;29;-13
-51;30;-11
-55;29;-15
-55;29;-16
-54;29;-17
-54;30;-16
-54;30;-15
-53;31;-18
-54;31;-18
-56;31;-15
-54;31;-15
-55;32;-18
-55;31;-17
-54;30;-18
-52;31;-18
-53;30;-17
-52;31;-19
-52;31;-19
-53;31;-19
-52;32;-19
-51;31;-20
-54;30;-23
-54;28;-23
-54;28;-21
-56;28;-22
-55;30;-21
-54;30;-22
-54;32;-23
-54;33;-23
-52;35;-23
-51;36;-24
-50;36;-24
-49;36;-26
-49;36;-26
-49;36;-25
-47;36;-25
-46;38;-25
-46;38;-25
-44;38;-23
-44;38;-24
-43;39;-23
-43;40;-28
-43;40;-26
-42;39;-21
-43;39;-23
-41;40;-23
-41;40;-21
-43;40;-22
-42;42;-21
-41;42;-20
-44;41;-20
-45;41;-20
-41;42;-22
-42;42;-21
-45;43;-20
-45;43;-22
-42;42;-23
-45;41;-20
-45;42;-22
-43;43;-22
-43;42;-21
-44;42;-19
-44;43;-20
-44;43;-21
-43;42;-20
-43;42;-21
-42;43;-21
-42;43;-20
-43;43;-21
-43;43;-22
-41;44;-20
-42;44;-20
-43;44;-19
-42;44;-19
-43;44;-20
-42;44;-19
-43;44;-19
-43;44;-19
-41;43;-19
-42;44;-19
-43;44;-20
-43;44;-20
-43;44;-19
-43;44;-19
-42;44;-20
-43;44;-20
-42;44;-20
-41;44;-20
-42;44;-20
-42;44;-20
-42;44;-20
-42;43;-20
-42;44;-20
-43;44;-20
-43;44;-19
-43;44;-19
-43;44;-20
-43;44;-20
-44;43;-20
-44;42;-19
-43;43;-19
-43;43;-19
-43;44;-19
-43;44;-19
-44;43;-19
-44;44;-20
-44;43;-20
-43;42;-19
-44;42;-19
-44;43;-19
-43;43;-19
-44;44;-20
-44;43;-20
-44;41;-19
-44;42;-19
-44;43;-19
-45;43;-19
-45;43;-19
-44;43;-19
-45;44;-20
-43;43;-20
-42;43;-18
-43;43;-19
-44;43;-21
-43;43;-19
-42;43;-19
-44;43;-20
-43;43;-19
-43;43;-20
-42;43;-19
-44;43;-19
-43;43;-20
-43;43;-20
-44;43;-20
-45;43;-20
-45;43;-20
-44;43;-19
-44;42;-19
-44;43;-20
-44;43;-20
-43;43;-19
-43;43;-20
-43;42;-19
-43;43;-19
-43;43;-20
-44;43;-20
-44;43;-20
-45;42;-20
-44;42;-20
-44;43;-20
-44;43;-19
-44;43;-20
-44;43;-20
-44;43;-20
-43;43;-20
-44;43;-20
-44;43;-20
-43;43;-19
-44;43;-20
-43;43;-20
-43;43;-20
-44;43;-19
-43;43;-19
-43;43;-20
-44;43;-20
-43;43;-20
-43;43;-20
-44;43;-20
-44;43;-20
-43;43;-20
-43;43;-20
-43;43;-20
-43;43;-20
-43;43;-19
-43;43;-20
-43;43;-20
-43;43;-20
-43;43;-20
-43;43;-20
-44;43;-20
-43;43;-20
-43;43;-20
-44;43;-20
-43;43;-20
-43;43;-19
-43;43;-20
-43;43;-20
-43;43;-20
-43;43;-19
-43;43;-20
-43;43;-20
-43;43;-20
-43;43;-20
-43;43;-20
-43;43;-20
-43;43;-20
-43;43;-20
-43;43;-20
-44;43;-20
-43;43;-20
-44;43;-20
-43;43;-20
-43;43;-20
-43;43;-20
-43;43;-20
-43;43;-20
-43;43;-20
-43;43;-20
-43;43;-20
-43;43;-20
-43;43;-19
-43;43;-20
-43;43;-20
-43;43;-20
-43;43;-19
-43;43;-20
-43;43;-20
-43;43;-20
-43;44;-20
-43;43;-20
-43;43;-20
-43;43;-19
-43;43;-20
-43;43;-20
-43;43;-20
-43;43;-20
-43;43;-20
-43;43;-20
-43;43;-20
-43;43;-20
-43;43;-20
-43;43;-20
-43;43;-20
-43;43;-20
-43;43;-20
-43;43;-20
-43;43;-20
-43;43;-20
-43;43;-19
-43;43;-19
-43;43;-19
-44;43;-20
-43;43;-19
-43;44;-20
-43;44;-20
-43;44;-20
-43;44;-20
-42;44;-20
-42;44;-20
-41;44;-20
-41;44;-20
-40;45;-21
-40;45;-19
-41;45;-20
-41;45;-20
-42;44;-20
-42;44;-19
-42;45;-20
-42;45;-20
-42;45;-21
-42;44;-21
-42;44;-20
-42;44;-20
-43;44;-20
-42;44;-20
-43;43;-20
-42;44;-20
-42;44;-20
-42;44;-19
-42;44;-19
-42;44;-20
-41;44;-20
-41;45;-19
-42;45;-19
-42;45;-20
-41;44;-19
-42;45;-19
-42;45;-19
-41;45;-20
-41;45;-20
-42;45;-20
-42;45;-20
-42;45;-19
-42;44;-19
-41;44;-19
-41;44;-20
-41;45;-19
-42;45;-19
-42;45;-20
-42;45;-20
-43;45;-20
-44;45;-20
-43;45;-20
-43;45;-20
-42;45;-20
-42;44;-19
-41;44;-19
-41;45;-19
-41;45;-19
-41;45;-19
-41;45;-19
-42;45;-19
-42;46;-19
-42;45;-19
-42;45;-19
-41;45;-19
-41;45;-19
-42;45;-18
-40;45;-17
-40;45;-18
-40;46;-17
-40;46;-18
-40;47;-18
-41;47;-18
-40;46;-18
-42;46;-18
-41;46;-18
-42;47;-20
-41;47;-19
-40;47;-19
-41;46;-19
-40;47;-19
-39;47;-18
-39;47;-18
-39;47;-18
-39;47;-18
-39;47;-18
-39;47;-17
-38;47;-17
-39;47;-18
-40;47;-19
-40;47;-18
-40;47;-18
-40;47;-18
-40;47;-18
-39;47;-18
-40;47;-18
-39;47;-18
-40;47;-18
-40;48;-19
-40;47;-18
-39;47;-18
-39;47;-18
-39;47;-19
-39;47;-18
-39;47;-17
-39;47;-18
-39;47;-18
-40;48;-18
-39;47;-18
-39;47;-18
-40;47;-18
-40;47;-18
-39;47;-18
-39;47;-18
-39;47;-18
-39;47;-18
-39;47;-18
-39;47;-18
-39;47;-18
-40;47;-18
-40;47;-18
-40;47;-18
-40;47;-18
-39;47;-18
-40;47;-18
-39;47;-18
-39;47;-18
-39;47;-18
-39;47;-18
-40;47;-18
-39;47;-18
-39;47;-18
-39;47;-18
-39;47;-18
-39;47;-18
-39;47;-18
-39;47;-18
-39;48;-17
-39;47;-17
-39;48;-17
-39;49;-18
-40;49;-17
-40;47;-18
-39;47;-16
-40;49;-17
-41;46;-16
-41;47;-15
-38;46;-13
-41;47;-13
-41;47;-15
-42;47;-15
-41;47;-15
-40;47;-15
-41;47;-16
-40;47;-16
-40;47;-16
-41;47;-16
-40;47;-16
-41;47;-16
-40;47;-15
-41;47;-15
-41;47;-16
-40;47;-15
-41;47;-16
-41;47;-16
-41;47;-16
-41;47;-16
-41;47;-16
-41;47;-16
-40;47;-16
-40;47;-16
-40;47;-16
-41;47;-16
-40;47;-15
-40;47;-15
-41;47;-16
-41;48;-16
-40;48;-16
-40;47;-15
-41;47;-16
-40;47;-16
-40;47;-17
-41;47;-16
-40;47;-16
-41;47;-16
-41;47;-16
-41;47;-16
-41;47;-15
-40;47;-16
-40;47;-16
-40;47;-16
-40;47;-16
-41;47;-16
-40;47;-16
-40;47;-16
-41;47;-16
-40;47;-16
-40;47;-16
-40;47;-16
-40;47;-16
-40;47;-16
-40;48;-16
-40;48;-16
-40;47;-17
-40;47;-17
-39;48;-16
-40;47;-16
-40;48;-16
-40;48;-17
-40;48;-16
-40;48;-17
-39;48;-17
-40;48;-17
-40;47;-17
-40;48;-17
-40;47;-17
-40;47;-17
-39;48;-16
-40;47;-16
-39;47;-17
-39;48;-17
-40;47;-17
-40;48;-17
-40;48;-17
-40;48;-17
-40;47;-17
-40;47;-17
-40;47;-16
-40;48;-17
-39;48;-17
-39;47;-16
-40;47;-17
-40;48;-17
-40;47;-17
-40;47;-17
-40;47;-17
-40;48;-17
-40;47;-17
-39;47;-17
-39;47;-17
-39;47;-17
-39;47;-17
-38;47;-16
-38;47;-16
-36;47;-14
-35;46;-14
-33;43;-15
-41;43;-17
-46;45;-18
-40;45;-13
-44;44;-15
-49;43;-13
-54;47;-11
-53;43;-11
-58;42;-14
-58;37;-3
-62;35;-6
-63;34;-5
-51;34;-5
-56;34;-7
-62;29;4
-62;28;7
-59;27;5
-58;27;15
-56;28;15
-44;28;22
-66;24;12
-73;29;6
-48;32;19
-56;31;15
-64;30;14
-44;35;36
-16;41;44
-25;40;35
-26;46;23
-20;47;22
-20;46;25
-36;50;26
-22;42;34
-21;36;44
-24;36;57
-32;30;55
-33;24;56
-46;22;44
-46;24;41
-41;23;34
-37;22;38
-40;21;41
-58;16;39
-53;28;43
-40;24;37
-43;22;35
-52;21;37
-53;20;39
-47;19;43
-52;20;40
-61;22;47
-59;25;50
-58;29;40
-48;35;43
-44;38;43
-37;40;35
-36;44;31
-23;44;30
-11;44;31
-14;50;29
2;50;29
1;51;26
5;51;26
9;52;27
11;53;29
10;54;25
9;56;21
9;58;23
16;55;21
8;57;24
7;57;27
7;57;25
5;58;27
11;58;31
11;58;31
13;57;27
9;57;27
7;57;28
10;55;27
9;57;28
7;58;30
7;57;29
9;56;26
9;56;26
8;57;28
9;56;27
9;56;27
9;56;28
7;57;26
8;56;29
8;55;28
9;55;27
10;53;28
13;54;28
12;55;25
10;55;24
-2;55;32
-5;56;34
-11;57;34
-15;56;33
-21;55;34
-19;55;35
-23;54;33
-23;53;32
-24;53;32
-22;53;32
-22;53;32
-22;54;30
-23;54;29
-22;53;28
-22;52;31
-23;53;28
-22;52;28
-22;53;28
-23;52;28
-22;52;28
-24;52;29
-24;52;29
-25;53;28
-27;52;28
-28;53;30
-25;53;30
-27;53;30
-28;53;29
-28;53;30
-27;53;31
-25;53;29
-26;55;29
-26;55;31
-27;55;30
-24;53;29
-23;53;29
-21;53;31
-20;53;28
-19;53;26
-18;54;27
-14;55;28
-13;55;27
-14;55;26
-15;55;24
-15;56;22
-13;55;26
-12;54;25
-13;57;24
-10;56;26
-13;57;23
-13;57;18
-14;57;22
-8;56;28
-13;58;27
-13;59;23
-14;58;25
-12;56;27
-16;59;25
-17;59;25
-17;57;26
-18;57;26
-18;58;24
-15;57;27
-16;57;27
-15;58;25
-16;57;26
-16;57;25
-14;58;26
-12;56;29
-9;56;29
-8;56;31
-9;55;32
-9;56;32
-8;56;31
-8;56;29
-5;55;32
-7;55;31
-6;57;34
-7;57;33
-6;56;32
-12;55;30
-11;57;37
-6;57;33
-9;53;25
-14;52;29
-13;52;31
-16;51;26
-14;52;26
-13;52;30
-12;51;31
-12;55;31
-9;51;22
-14;53;25
-25;53;28
-27;52;24
-35;52;26
-39;51;28
-36;50;29
-40;47;29
-41;47;28
-42;47;27
-42;46;29
-34;45;34
-38;45;32
-36;47;30
-32;46;32
-31;46;33
-30;46;35
-31;46;33
-29;45;36
-28;46;36
-29;45;36
-30;45;37
-27;45;37
-27;45;38
-28;45;39
-26;45;39
-26;45;40
-25;45;38
-24;45;38
-24;45;38
-24;45;39
-22;45;40
-23;45;39
-24;44;41
-25;44;42
-24;44;42
-24;43;42
-25;43;42
-24;43;42
-23;43;42
-24;44;41
-22;43;41
-23;44;43
-24;45;43
-24;46;42
-23;45;40
-23;45;38
-26;42;36
-26;41;37
-26;40;39
-28;39;39
-32;37;41
-32;39;40
-33;39;39
-34;38;41
-34;37;42
-38;37;39
-40;37;39
-41;38;36
-41;37;43
-41;38;39
-36;36;37
-41;36;39
-42;38;43
-37;38;43
-30;36;39
-34;34;41
-39;35;45
-36;34;45
-28;33;41
-32;30;42
-38;30;43
-36;30;44
-37;28;43
-36;26;45
-42;30;48
-38;24;42
-41;27;43
-44;26;42
-51;24;42
-46;21;46
-57;20;45
-60;19;47
-51;22;47
-45;27;50
-38;42;29
-21;34;42
-22;27;51
-33;36;37
-42;43;26
-44;38;23
-36;38;21
-41;37;17
-52;35;14
-51;34;13
-51;36;16
-49;35;18
-50;36;14
-50;36;16
-51;36;20
-52;36;20
-54;34;24
-59;35;31
-51;35;31
-54;36;30
-55;36;30
-49;36;27
-48;35;25
-47;34;22
-44;34;22
-47;32;21
-47;31;22
-48;31;24
-48;29;30
-53;30;32
-61;38;35
-43;25;36
-43;39;32
-43;37;32
-45;36;32
-46;34;31
-46;32;31
-48;32;31
-47;31;31
-46;31;33
-45;32;33
-45;32;34
-45;32;34
-45;32;34
-45;33;33
-45;32;34
-46;32;33
-45;32;34
-45;32;34
-45;32;34
-45;32;35
-44;32;35
-45;31;35
-45;32;35
-45;31;35
-44;32;35
-44;32;35
-45;31;35
-45;32;35
-44;32;35
-44;32;35
-45;32;35
-44;32;35
-44;32;35
-44;32;35
-44;32;35
-44;32;35
-44;32;35
-44;32;35
-44;32;35
-44;33;35
-44;32;35
-44;32;35
-44;32;35
-44;32;35
-44;32;35
-44;32;35
-44;32;35
-44;32;35
-44;33;35
-44;33;35
-44;32;35
-44;32;35
-44;32;35
-44;33;34
-44;33;35
-44;33;35
-44;33;34
-44;33;34
-44;33;34
-44;33;34
-44;33;34
-44;33;35
-44;33;34
-44;33;34
-44;33;34
-44;33;34
-44;33;34
-44;33;34
-44;33;34
-44;33;34
-44;33;34
-44;33;34
-44;33;34
-44;33;34
-44;33;34
-44;33;35
-44;33;34
-44;33;34
-44;33;34
-44;33;34
-44;33;34
-44;33;34
-44;34;34
-44;34;33
-44;34;34
-43;34;35
-43;34;35
-44;32;35
-48;29;33
-49;27;33
-59;18;32
-66;31;26
-65;33;21
-59;33;21
-47;35;20
-43;35;19
-40;36;23
-35;37;29
-32;37;33
-33;37;35
-34;37;35
-38;37;32
-43;37;31
-50;36;23
-49;37;19
-50;33;6
-58;29;-1
-64;29;-2
-59;27;7
-61;25;5
-59;26;-3
-61;25;-3
-61;25;1
-54;26;-2
-55;26;-4
-65;25;-5
-71;23;-7
-71;24;-8
-70;24;-8
-56;23;7
-52;21;17
-49;22;24
-68;26;10
-56;24;15
-49;27;25
-57;26;18
-49;25;28
-43;24;37
-44;28;31
-51;28;29
-49;26;38
-44;29;35
-46;30;32
-44;31;37
-48;30;35
-45;25;43
-42;27;42
-48;24;31
-50;22;39
-52;24;43
-47;23;36
-46;22;36
-55;23;36
-52;22;33
-43;21;37
-46;22;39
-49;23;40
-47;25;36
-48;26;36
-46;26;39
-47;26;37
-47;25;37
-47;26;38
-47;27;38
-46;25;36
-47;26;36
-45;26;39
-48;27;37
-46;27;35
-47;26;36
-47;26;36
-47;27;36
-45;26;37
-47;27;37
-48;26;37
-45;25;38
-47;26;35
-45;25;38
-49;27;35
-49;27;34
-47;27;35
-46;26;37
-49;28;33
-44;26;38
-46;26;37
-47;27;35
-47;28;35
-47;27;35
-49;28;34
-46;27;37
-47;28;35
-47;28;35
-46;27;37
-46;26;36
-47;28;35
-46;28;36
-46;27;37
-46;28;35
-47;28;35
-47;28;35
-47;28;35
-46;28;36
-47;28;34
-48;28;35
-47;27;35
-48;28;35
-47;28;35
-48;28;33
-49;28;32
-49;28;32
-49;28;33
-49;29;32
-49;28;32
-47;27;36
-47;28;32
-48;27;31
-48;28;35
-48;29;34
-51;28;32
-50;27;30
-50;26;31
-51;26;32
-54;31;31
-48;35;33
-48;32;36
-47;31;33
-46;30;34
-44;29;32
-44;30;31
-43;30;35
-42;29;38
-44;31;38
-43;31;38
-39;32;38
-40;32;35
-40;32;35
-42;34;40
-41;33;42
-39;33;39
-40;34;37
-41;32;37
-43;32;37
-43;34;36
-42;31;38
-43;31;36
-45;34;34
-45;33;35
-45;31;35
-47;30;31
-47;31;33
-45;31;32
-46;31;32
-44;31;32
-46;30;33
-49;34;30
-57;37;31
-46;33;30
-43;30;34
-43;30;31
-47;29;35
-47;28;38
-50;29;39
-45;29;39
-49;28;34
-46;26;39
-47;24;38
-47;25;38
-47;24;46
-54;18;45
-57;18;50
-59;15;51
-56;18;49
-40;30;47
-24;19;56
-17;19;63
-46;30;31
-50;41;21
-60;29;7
-59;33;3
-37;33;1
-48;36;1
-48;36;16
-28;43;27
-34;38;36
-22;37;49
-17;34;59
-16;29;55
-21;28;55
-20;21;63
-25;21;72
-18;24;68
-23;24;56
-18;24;68
-28;25;51
-30;28;45
-16;22;57
-15;21;58
-21;23;52
-16;25;60
-34;27;50
-19;24;54
-36;27;48
-20;23;51
-15;25;58
-15;28;55
-31;32;37
-39;36;11
-44;42;4
-59;44;-9
-50;41;-19
-52;43;-31
-37;38;-31
-26;38;-34
-39;40;-41
-51;37;-41
-42;38;-38
-39;42;-51
-46;38;-44
-45;34;-32
-43;35;-37
-40;32;-37
-38;32;-42
-46;34;-43
-39;32;-41
-33;31;-29
-33;29;-29
-36;31;-29
-35;28;-32
-39;30;-38
-42;30;-33
-42;23;-12
-43;30;-31
-40;26;-21
-54;23;-18
-56;26;-25
-55;30;-35
-69;23;-18
-64;31;-36
-48;30;-23
-48;29;-18
-67;33;-26
-62;34;-21
-47;32;-15
-60;30;-21
-58;28;-15
-58;26;-15
-62;25;-18
-53;24;-13
-55;24;-13
-59;24;-17
-59;21;-17
-51;20;-13
-60;25;-18
-62;28;-17
-64;28;-11
-64;29;-11
-57;27;-12
-56;26;-17
-59;22;-19
-59;21;-18
-58;22;-17
-58;22;-16
-59;22;-15
-56;24;-16
-58;24;-16
-57;25;-17
-56;24;-17
-56;25;-19
-56;24;-20
-56;23;-21
-58;21;-23
-58;24;-23
-55;23;-23
-56;24;-22
-56;23;-21
-57;23;-22
-57;24;-24
-55;24;-23
-55;24;-23
-55;24;-22
-56;24;-22
-56;24;-21
-55;24;-22
-56;24;-22
-56;24;-22
-55;24;-20
-56;24;-22
-56;24;-22
-55;24;-21
-55;24;-21
-57;24;-22
-56;24;-22
-56;25;-21
-55;24;-21
-56;24;-20
-56;24;-20
-56;24;-21
-57;24;-21
-55;25;-20
-57;24;-22
-55;24;-21
-57;25;-20
-55;25;-22
-55;25;-20
-55;24;-20
-56;24;-21
-57;24;-20
-57;24;-20
-55;25;-21
-54;26;-20
-57;25;-19
-56;24;-22
-55;25;-22
-57;24;-20
-57;25;-20
-55;25;-21
-55;24;-20
-56;25;-21
-55;25;-21
-56;25;-19
-56;25;-21
-56;25;-21
-55;25;-21
-55;25;-21
-56;25;-21
-55;25;-21
-55;25;-21
-56;25;-21
-55;25;-21
-56;25;-21
-56;25;-21
-55;25;-22
-55;25;-21
-56;26;-21
-55;26;-22
-55;25;-22
-55;25;-21
-56;25;-21
-54;25;-22
-54;25;-23
-55;25;-22
-56;25;-22
-55;26;-23
-55;26;-23
-54;25;-22
-55;25;-22
-54;25;-22
-55;25;-21
-55;25;-21
-56;25;-22
-55;25;-22
-55;25;-23
-55;25;-22
-56;25;-23
-56;24;-22
-54;24;-21
-54;26;-21
-55;24;-21
-56;24;-23
-56;25;-23
-56;25;-22
-56;25;-22
-55;25;-23
-54;25;-22
-55;25;-22
-54;25;-22
-55;25;-22
-55;25;-22
-55;25;-22
-55;25;-22
-55;25;-22
-55;25;-21
-54;26;-23
-54;26;-22
-55;26;-21
-55;26;-22
-55;26;-22
-56;25;-22
-55;25;-22
-55;26;-22
-55;26;-22
-55;26;-22
-55;26;-22
-55;26;-22
-55;26;-22
-54;26;-22
-54;26;-22
-55;26;-22
-55;26;-22
-55;26;-22
-55;26;-21
-55;26;-22
-55;26;-22
-54;26;-22
-54;27;-22
-53;26;-22
-55;26;-21
-54;27;-23
-55;26;-22
-54;26;-21
-56;25;-21
-55;26;-22
-55;26;-22
-55;26;-21
-54;26;-21
-55;26;-22
-55;25;-22
-55;26;-22
-54;26;-21
-56;26;-22
-55;26;-22
-54;26;-22
-55;26;-21
-55;26;-22
-55;26;-22
-54;26;-21
-55;26;-21
-55;26;-21
-55;26;-21
-55;26;-21
-55;26;-21
-55;26;-21
-55;26;-21
-55;26;-21
-55;26;-21
-55;26;-21
-55;26;-21
-55;26;-21
-56;26;-20
-55;26;-20
-55;26;-20
-56;27;-20
-56;27;-19
-56;27;-16
-51;26;-16
-55;25;-15
-55;27;-16
-57;26;-17
-56;27;-17
-57;27;-17
-56;26;-16
-57;26;-17
-56;27;-17
-56;27;-17
-56;27;-17
-56;27;-17
-57;27;-17
-56;26;-17
-56;27;-17
-56;27;-17
-56;26;-17
-56;27;-16
-56;27;-17
-56;26;-17
-56;27;-17
-56;27;-17
-56;27;-17
-56;27;-17
-56;27;-17
-56;27;-18
-57;26;-16
-57;27;-16
-56;27;-17
-56;26;-16
-56;26;-17
-56;27;-17
-56;26;-16
-55;27;-15
-57;26;-16
-58;27;-18
-56;27;-17
-55;27;-15
-57;27;-16
-56;27;-18
-56;27;-16
-56;26;-15
-57;27;-17
-56;27;-17
-57;26;-16
-56;27;-17
-56;28;-17
-58;26;-17
-56;27;-17
-56;27;-17
-56;27;-15
-56;27;-17
-56;27;-17
-57;27;-19
-55;27;-18
-55;27;-18
-58;26;-19
-56;27;-19
-56;27;-19
-56;26;-17
-57;26;-14
-57;27;-18
-55;27;-18
-57;27;-16
-56;27;-16
-55;27;-19
-54;27;-16
-58;27;-18
-56;26;-18
-56;27;-18
-56;27;-16
-57;27;-18
-55;27;-17
-56;27;-17
-56;27;-18
-56;27;-18
-56;27;-17
-55;27;-18
-56;26;-18
-56;26;-18
-56;27;-17
-56;27;-17
-56;27;-17
-55;27;-17
-56;27;-18
-56;27;-18
-56;27;-18
-56;26;-18
-56;27;-17
-56;27;-18
-56;27;-17
-56;27;-18
-55;27;-17
-56;27;-17
-56;27;-19
-55;27;-20
-56;27;-18
-56;27;-19
-55;27;-19
-56;27;-18
-55;27;-17
-56;27;-18
-55;27;-18
-57;27;-19
-54;25;-19
-55;28;-16
-56;27;-19
-56;27;-19
-55;27;-18
-56;26;-18
-56;27;-18
-55;27;-18
-56;26;-19
-56;27;-19
-55;27;-18
-56;27;-19
-56;27;-19
-55;27;-19
-55;27;-18
-55;27;-19
-55;27;-19
-55;27;-19
-56;27;-19
-55;27;-18
-56;27;-18
-56;27;-18
-56;27;-19
-54;27;-19
-56;27;-18
-56;27;-20
-54;26;-19
-56;26;-18
-57;26;-19
-56;27;-20
-56;27;-20
-55;27;-18
-56;28;-18
-56;26;-20
-55;27;-19
-55;27;-18
-56;26;-19
-56;27;-19
-55;27;-19
-55;27;-19
-56;27;-19
-56;27;-19
-57;27;-20
-54;27;-18
-56;27;-18
-55;27;-18
-56;28;-19
-56;27;-19
-55;27;-18
-55;27;-19
-55;27;-19
-55;27;-18
-55;27;-17
-55;27;-19
-56;27;-19
-55;27;-18
-55;27;-19
-56;27;-18
-54;27;-18
-55;27;-18
-54;27;-19
-56;27;-18
-54;27;-19
-57;27;-19
-55;27;-18
-55;28;-20
-54;27;-17
-56;27;-19
-55;27;-19
-54;27;-17
-55;27;-19
-55;27;-20
-54;27;-18
-56;27;-19
-55;27;-19
-56;28;-19
-56;27;-19
-55;27;-19
-55;27;-19
-55;27;-19
-55;27;-19
-55;28;-19
-55;27;-19
-55;27;-19
-55;27;-19
-55;27;-19
-56;27;-19
-55;27;-19
-55;27;-19
-55;27;-19
-55;27;-19
-55;28;-19
-55;27;-19
-55;27;-19
-55;27;-19
-55;27;-19
-55;28;-19
-55;27;-19
-55;27;-19
-55;27;-19
-55;27;-19
-55;27;-19
-55;27;-19
-55;27;-19
-55;27;-19
-55;28;-19
-56;28;-19
-55;27;-19
-55;28;-19
-55;27;-18
-55;28;-19
-54;27;-20
-56;28;-18
-55;28;-20
-55;27;-18
-55;27;-18
-55;27;-18
-55;28;-18
-55;27;-18
-55;28;-19
-55;28;-19
-56;28;-21
-54;27;-19
-55;27;-19
-55;27;-20
-56;28;-20
-55;27;-19
-55;27;-19
-55;27;-20
-54;28;-19
-56;26;-19
-55;27;-18
-55;28;-20
-55;27;-20
-55;27;-19
-55;28;-20
-55;27;-20
-55;28;-19
-55;27;-20
-55;28;-19
-55;27;-20
-55;27;-19
-55;27;-19
-55;28;-19
-55;27;-19
-55;27;-19
-55;27;-19
-55;27;-19
-55;27;-19
-55;28;-19
-55;27;-19
-55;28;-19
-55;27;-16
-54;28;-17
-58;24;-21
-58;13;-26
-50;11;-23
-53;10;-26
-58;15;-31
-59;19;-31
-51;23;-30
-54;25;-30
-51;28;-31
-50;29;-31
-48;28;-31
-48;30;-33
-48;30;-34
-46;27;-32
-47;26;-33
-50;25;-34
-49;24;-33
-49;23;-34
-50;23;-39
-48;24;-38
-47;22;-36
-47;22;-36
-48;22;-36
-46;22;-36
-45;23;-37
-46;23;-37
-44;23;-35
-46;24;-37
-49;22;-37
-45;23;-39
-47;23;-40
-49;23;-40
-46;22;-38
-47;22;-41
-49;21;-40
-47;21;-41
-47;21;-40
-46;21;-39
-46;22;-41
-45;22;-39
-46;21;-39
-45;21;-40
-46;22;-42
-47;21;-38
-45;22;-39
-49;22;-40
-46;22;-38
-46;22;-38
-44;23;-37
-46;22;-37
-45;23;-38
-44;22;-38
-44;23;-40
-45;23;-40
-44;23;-38
-45;23;-38
-45;23;-38
-48;22;-38
-46;22;-38
-46;23;-37
-45;22;-37
-47;23;-40
-45;22;-39
-47;23;-41
-45;22;-40
-45;22;-39
-44;22;-38
-46;22;-39
-46;22;-39
-45;22;-39
-46;22;-40
-45;22;-39
-46;22;-39
-45;22;-39
-46;23;-39
-46;22;-39
-46;22;-39
-46;22;-40
-45;22;-39
-47;22;-41
-45;22;-38
-45;22;-38
-46;21;-37
-46;22;-39
-47;22;-38
-49;23;-39
-48;22;-37
-49;22;-36
-51;23;-36
-50;24;-36
-49;25;-34
-49;26;-32
-48;27;-28
-49;28;-28
-51;28;-29
-54;32;-34
-55;30;-31
-50;30;-34
-47;30;-31
-52;29;-26
-51;29;-24
-49;31;-25
-52;32;-24
-53;31;-23
-52;30;-25
-53;28;-26
-52;27;-20
-51;26;-19
-55;27;-24
-55;27;-23
-51;25;-18
-52;24;-23
-52;23;-23
-53;21;-22
-53;21;-22
-53;22;-20
-55;21;-21
-59;24;-23
-61;25;-21
-55;25;-15
-56;27;-20
-53;27;-20
-56;27;-20
-56;26;-20
-56;25;-20
-56;25;-22
-56;25;-21
-56;25;-21
-53;26;-21
-54;25;-22
-54;25;-20
-57;25;-21
-55;25;-21
-55;24;-22
-55;24;-21
-61;25;-27
-51;21;-21
-62;24;-26
-54;19;-28
-52;18;-29
-54;20;-28
-56;20;-28
-55;22;-28
-54;23;-28
-53;25;-29
-53;27;-31
-52;27;-29
-49;28;-26
-50;28;-26
-50;29;-24
-50;29;-22
-53;30;-21
-53;29;-22
-55;29;-26
-54;27;-26
-54;25;-25
-53;23;-28
-54;22;-31
-52;20;-32
-54;19;-32
-50;20;-33
-50;20;-32
-51;21;-32
-50;23;-35
-53;24;-35
-49;23;-34
-50;24;-36
-50;23;-36
-50;23;-36
-49;23;-34
-48;23;-35
-48;23;-35
-50;23;-37
-49;22;-34
-51;22;-34
-50;22;-35
-47;22;-36
-49;22;-35
-48;23;-35
-49;23;-36
-49;23;-35
-46;24;-35
-48;24;-35
-49;23;-35
-47;23;-35
-49;23;-35
-48;23;-33
-49;23;-34
-49;24;-35
-47;23;-34
-49;23;-36
-49;23;-35
-47;24;-35
-48;23;-35
-49;23;-35
-48;24;-36
-48;23;-35
-48;23;-35
-47;23;-35
-50;23;-35
-50;23;-34
-51;23;-35
-49;24;-34
-49;26;-34
-54;28;-33
-52;30;-32
-53;33;-30
-54;35;-30
-57;34;-31
-53;34;-30
-48;31;-28
-51;30;-30
-51;27;-26
-51;23;-24
-50;24;-24
-51;24;-23
-50;22;-21
-51;21;-15
-54;20;-19
-59;21;-24
-50;20;-17
-51;24;-14
-57;27;-18
-55;25;-16
-53;24;-14
-61;23;-20
-54;23;-16
-55;23;-15
-58;25;-18
-56;26;-15
-58;26;-17
-56;24;-16
-57;27;-17
-61;26;-17
-59;26;-14
-56;25;-16
-57;25;-15
-58;24;-13
-61;22;-17
-59;23;-18
-58;22;-16
-58;22;-15
-59;22;-16
-58;22;-15
-58;22;-16
-59;22;-16
-59;22;-17
-59;22;-17
-59;22;-17
-57;22;-16
-58;22;-16
-58;22;-17
-58;22;-17
-58;22;-16
-57;22;-17
-59;22;-17
-57;22;-18
-57;22;-17
-58;22;-17
-57;22;-17
-58;22;-18
-58;23;-18
-58;22;-17
-58;22;-17
-58;22;-17
-58;22;-17
-58;22;-18
-58;22;-18
-58;22;-18
-57;22;-18
-58;22;-18
-57;22;-18
-58;22;-18
-58;22;-18
-58;22;-18
-58;22;-17
-58;22;-18
-58;22;-18
-58;23;-18
-58;22;-18
-58;23;-18
-58;22;-17
-58;22;-17
-58;23;-18
-58;23;-18
-59;23;-17
-58;23;-17
-58;23;-18
-58;23;-17
-58;23;-17
-58;23;-18
-57;23;-18
-58;23;-18
-58;23;-17
-58;23;-17
-58;22;-17
-58;23;-17
-58;23;-18
-58;23;-18
-58;23;-17
-58;23;-18
-58;22;-17
-58;23;-17
-58;22;-17
-58;23;-18
-58;23;-17
-58;23;-18
-58;22;-18
-58;23;-17
-58;23;-17
-58;22;-17
-58;23;-17
-58;23;-17
-58;23;-18
-58;23;-18
-58;23;-17
-58;23;-18
-58;23;-17
-58;23;-17
-58;23;-17
-58;23;-18
-58;23;-17
-58;23;-17
-58;23;-17
-58;22;-17
-58;23;-17
-58;23;-17
-58;23;-18
-58;23;-17
-58;23;-17
-58;23;-18
-57;22;-17
-58;23;-17
-58;23;-17
-58;23;-17
-58;23;-17
-58;23;-18
-57;23;-17
-58;23;-17
-58;23;-18
-58;23;-17
-58;23;-17
-58;23;-17
-58;23;-17
-57;23;-17
-57;23;-18
-58;23;-18
-58;23;-17
-58;23;-17
-58;23;-18
-58;22;-17
-58;23;-18
-58;23;-18
-58;23;-18
-58;23;-18
-57;23;-18
-58;23;-18
-57;23;-17
-58;23;-18
-58;23;-18
-58;23;-18
-57;23;-18
-58;23;-18
-58;23;-18
-57;23;-18
-58;23;-18
-58;23;-18
-58;23;-18
-58;23;-19
-58;23;-18
-58;23;-18
-58;23;-18
-58;23;-18
-58;23;-18
-58;23;-18
-57;23;-18
-57;23;-18
-58;23;-18
-58;23;-18
-57;23;-18
-58;23;-18
-58;23;-17
-58;22;-18
-58;23;-18
-57;23;-18
-58;23;-18
-58;23;-18
-58;23;-18
-58;23;-18
-58;23;-18
-58;23;-18
-58;23;-18
-58;22;-18
-58;23;-18
-58;23;-18
-58;23;-18
-57;23;-18
-57;23;-18
-58;23;-18
-58;23;-17
-58;23;-18
-57;23;-18
-58;23;-17
-58;23;-18
-58;23;-18
-57;23;-18
-58;23;-18
-57;23;-18
-58;23;-17
-57;23;-18
-58;23;-18
-58;23;-18
-58;23;-18
-58;23;-18
-57;23;-18
-58;23;-18
-58;23;-18
-58;23;-17
-58;23;-17
-58;23;-18
-58;23;-18
-58;23;-18
-58;23;-18
-58;23;-18
-58;23;-18
-58;23;-18
-57;23;-18
-58;23;-18
-58;23;-18
-57;23;-18
-58;23;-18
-58;23;-18
-57;23;-18
-58;23;-17
-58;23;-17
-58;23;-18
-58;23;-18
-58;23;-18
-57;23;-18
-58;23;-18
-58;23;-18
-58;23;-18
-58;23;-18
-58;23;-18
-58;23;-18
-58;23;-18
-58;23;-18
-58;23;-18
-58;23;-18
-58;23;-18
-57;23;-18
-58;23;-18
-57;22;-17
-57;22;-17
-58;22;-18
-58;23;-18
-58;23;-19
-57;23;-18
-58;23;-18
-58;23;-18
-58;23;-18
-57;23;-18
-57;23;-18
-57;23;-18
-57;23;-19
-57;23;-18
-57;23;-18
-58;23;-18
-58;23;-19
-57;23;-18
-58;23;-18
-57;23;-18
-57;23;-18
-58;23;-18
-58;23;-18
-58;23;-18
-58;23;-18
-58;23;-18
-58;23;-19
-58;23;-18
-57;23;-18
-58;23;-18
-58;23;-18
-57;23;-18
-57;23;-19
-57;23;-18
-58;23;-18
-57;23;-19
-57;23;-18
-58;23;-18
-58;23;-18
-57;23;-18
-57;23;-18
-57;23;-18
-57;23;-18
-58;23;-18
-57;23;-18
-58;23;-18
-57;23;-18
-58;23;-18
-57;23;-18
-57;23;-19
-57;23;-19
-58;23;-18
-58;23;-19
-58;23;-18
-57;23;-19
-58;23;-18
-56;23;-18
-58;22;-18
-58;22;-18
-59;23;-19
-55;23;-18
-57;23;-18
-58;23;-19
-57;23;-19
-57;23;-17
-58;23;-18
-58;23;-18
-57;23;-18
-57;23;-18
-57;24;-18
-57;23;-19
-56;23;-18
-57;23;-18
-58;22;-20
-58;22;-17
-58;23;-18
-58;22;-18
-58;23;-19
-57;23;-20
-57;23;-18
-57;23;-18
-58;23;-19
-57;23;-19
-58;23;-18
-58;23;-18
-58;23;-19
-56;23;-18
-58;23;-18
-58;23;-19
-56;23;-19
-57;23;-19
-57;23;-19
-57;23;-19
-58;23;-18
-58;23;-18
-57;23;-18
-58;23;-18
-58;23;-19
-57;23;-19
-57;23;-19
-57;23;-19
-57;23;-18
-57;23;-18
-57;23;-18
-58;23;-18
-57;23;-18
-58;23;-18
-58;23;-19
-57;23;-18
-57;23;-19
-57;23;-19
-57;23;-18
-57;23;-17
-55;23;-16
-58;22;-19
-58;22;-21
-60;22;-21
-56;22;-20
-57;23;-21
-58;24;-23
-54;24;-22
-54;21;-24
-54;19;-24
-50;14;-25
-55;19;-27
-50;20;-23
-56;25;-27
-58;27;-29
-55;26;-27
-55;28;-27
-54;28;-28
-53;27;-26
-55;27;-27
-54;26;-28
-53;27;-29
-51;26;-27
-51;25;-27
-51;25;-27
-53;25;-28
-54;23;-29
-51;22;-26
-51;23;-27
-51;22;-27
-50;23;-28
-51;24;-30
-48;25;-29
-53;24;-26
-64;27;-31
-54;26;-29
-54;26;-31
-47;25;-31
-47;23;-30
-53;21;-31
-54;22;-32
-51;22;-33
-52;22;-32
-49;22;-32
-51;23;-33
-50;23;-32
-50;23;-32
-50;23;-32
-50;23;-33
-49;24;-34
-49;24;-33
-50;23;-34
-50;23;-33
-49;24;-34
-49;23;-33
-49;24;-34
-50;24;-35
-50;24;-35
-48;24;-33
-49;24;-35
-50;23;-34
-47;24;-34
-47;24;-36
-49;23;-33
-49;22;-33
-49;22;-34
-49;22;-35
-51;24;-36
-52;25;-37
-47;23;-36
-48;24;-35
-48;23;-34
-50;23;-34
-49;23;-34
-48;23;-35
-49;23;-35
-48;23;-36
-48;23;-36
-49;23;-35
-49;23;-35
-48;23;-35
-47;23;-35
-48;23;-36
-47;23;-35
-49;23;-35
-49;23;-34
-50;23;-35
-50;23;-34
-52;24;-32
-52;25;-32
-53;28;-30
-52;30;-30
-58;32;-29
-57;33;-29
-51;34;-30
-50;33;-27
-54;30;-26
-52;29;-25
-52;27;-23
-50;26;-19
-54;25;-21
-56;24;-25
-52;25;-21
-53;24;-20
-56;21;-20
-53;21;-19
-52;23;-18
-54;24;-19
-51;28;-16
-54;27;-16
-53;28;-14
-54;28;-13
-57;29;-19
-52;27;-16
-53;28;-16
-56;27;-18
-56;27;-18
-55;26;-17
-57;25;-19
-60;25;-20
-57;25;-17
-56;24;-18
-63;25;-24
-59;25;-19
-58;25;-16
-63;25;-18
-58;26;-19
-58;25;-19
-58;23;-17
-58;22;-17
-58;22;-18
-58;23;-18
-56;22;-17
-60;23;-19
-61;26;-19
-56;24;-18
-59;23;-20
-57;22;-19
-59;24;-20
-58;23;-19
-59;22;-19
-59;22;-18
-57;23;-19
-56;22;-18
-57;22;-18
-57;23;-18
-57;23;-20
-57;22;-18
-57;23;-18
-58;23;-19
-58;23;-19
-57;22;-19
-58;23;-18
-58;23;-19
-57;23;-19
-57;23;-19
-57;23;-19
-57;23;-19
-57;23;-19
-56;23;-19
-57;22;-18
-57;23;-18
-57;22;-19
-58;23;-19
-58;22;-19
-57;22;-19
-58;22;-19
-57;22;-19
-57;23;-19
-57;22;-19
-58;22;-19
-58;23;-19
-57;22;-19
-58;22;-19
-57;23;-19
-57;23;-19
-57;23;-19
-58;23;-19
-57;23;-19
-57;23;-19
-57;23;-19
-57;23;-19
-58;23;-19
-57;23;-19
-57;23;-19
-57;23;-19
-57;22;-19
-57;23;-19
-57;23;-19
-58;23;-20
-57;23;-19
-57;23;-19
-58;23;-19
-57;23;-19
-57;23;-18
-58;23;-18
-57;23;-19
-57;23;-20
-57;24;-18
-57;24;-20
-57;23;-19
-57;23;-18
-58;23;-19
-57;23;-19
-58;23;-19
-57;23;-18
-57;23;-18
-57;23;-19
-57;24;-19
-57;23;-19
-57;23;-19
-57;23;-19
-57;23;-19
-57;23;-19
-57;23;-19
-57;23;-19
-57;23;-19
-57;23;-18
-57;23;-19
-57;23;-19
-58;23;-19
-58;23;-19
-57;23;-19
-57;24;-19
-57;23;-19
-57;23;-18
-57;23;-18
-57;23;-19
-57;23;-19
-57;23;-19
-58;23;-19
-57;23;-19
-57;23;-18
-57;23;-19
-57;23;-19
-57;23;-18
-57;23;-19
-57;23;-19
-57;23;-19
-57;23;-19
-57;23;-18
-57;23;-19
-57;23;-19
-57;23;-19
-56;23;-19
-57;23;-19
-57;23;-19
-57;23;-19
-57;23;-19
-57;23;-19
-57;23;-19
-57;23;-19
-57;23;-19
-57;23;-19
-57;23;-19
-57;23;-19
-57;23;-20
-57;23;-19
-57;23;-19
-57;23;-20
-57;23;-19
-57;23;-19
-57;23;-19
-57;23;-19
-57;23;-19
-57;23;-20
-57;23;-19
-57;23;-19
-57;23;-19
-57;23;-19
-57;23;-19
-57;23;-19
-57;23;-20
-57;23;-19
-57;23;-19
-57;23;-19
-56;23;-19
-58;22;-19
-57;23;-20
-57;23;-20
-57;23;-19
-57;23;-19
-57;23;-20
-57;23;-19
-58;23;-19
-57;23;-20
-57;23;-19
-57;23;-19
-57;23;-19
-57;23;-19
-57;23;-19
-57;23;-20
-57;23;-20
-57;23;-20
-57;23;-19
-57;23;-20
-57;23;-19
-57;23;-19
-57;23;-20
-56;23;-20
-58;23;-20
-57;23;-20
-57;23;-20
-57;23;-20
-57;23;-20
-57;23;-20
-57;23;-20
-57;23;-20
-57;22;-19
-57;22;-20
-56;23;-20
-57;23;-20
-57;23;-20
-57;23;-20
-57;23;-19
-57;23;-19
-57;23;-20
-57;23;-19
-57;22;-20
-57;23;-19
-57;23;-20
-57;23;-20
-57;23;-20
-57;23;-20
-57;23;-20
-56;23;-20
-57;23;-20
-57;23;-20
-57;22;-20
-57;23;-21
-55;23;-19
-57;23;-18
-57;23;-21
-58;22;-20
-57;22;-19
-58;23;-20
-57;23;-20
-56;23;-20
-56;23;-19
-57;23;-21
-57;23;-20
-57;23;-20
-57;23;-20
-57;23;-20
-57;22;-20
-57;23;-20
-57;23;-20
-57;23;-20
-57;23;-20
-57;23;-20
-56;23;-20
-56;23;-20
-56;23;-20
-56;23;-20
-56;23;-20
-57;23;-20
-57;23;-20
-57;23;-20
-58;23;-21
-56;23;-22
-56;23;-20
-57;24;-20
-56;24;-21
-55;23;-20
-56;24;-20
-58;23;-21
-56;22;-20
-55;24;-19
-56;23;-20
-58;23;-21
-57;23;-21
-57;23;-19
-57;23;-20
-56;23;-19
-57;24;-20
-56;24;-20
-57;24;-20
-56;23;-20
-56;24;-20
-56;24;-19
-58;23;-21
-56;23;-19
-57;23;-19
-57;23;-20
-57;23;-20
-57;23;-19
-56;24;-20
-57;24;-20
-56;23;-20
-57;23;-20
-57;23;-20
-57;23;-20
-56;23;-20
-57;23;-20
-56;23;-20
-56;23;-20
-56;24;-20
-57;23;-20
-56;24;-20
-57;23;-20
-56;24;-20
-56;24;-20
-56;23;-20
-57;24;-20
-57;23;-20
-56;24;-20
-56;24;-20
-57;23;-20
-57;23;-20
-57;23;-20
-57;23;-20
-56;23;-20
-56;23;-20
-57;23;-21
-57;23;-20
-57;23;-20
-57;24;-20
-56;24;-20
-56;23;-20
-56;23;-20
-57;23;-20
-56;24;-20
-58;23;-20
-57;23;-21
-57;23;-21
-56;24;-20
-57;23;-20
-57;23;-20
-56;23;-20
-57;23;-21
-56;23;-20
-57;23;-20
-57;23;-20
-56;23;-21
-57;23;-21
-56;23;-20
-56;24;-20
-57;23;-20
-56;23;-20
-56;23;-20
-57;23;-21
-56;23;-21
-56;24;-21
-56;23;-20
-56;24;-20
-56;24;-21
-57;23;-21
-57;23;-21
-56;24;-20
-56;23;-20
-57;23;-21
-56;24;-21
-57;23;-20
-57;23;-21
-57;24;-20
-56;24;-20
-56;24;-20
-56;24;-21
-56;24;-20
-56;24;-20
-56;24;-21
-56;24;-20
-56;24;-20
-56;24;-20
-57;23;-20
-57;23;-20
-56;23;-20
-57;23;-20
-57;23;-20
-57;23;-20
-56;24;-20
-56;24;-20
-56;24;-20
-56;24;-20
-56;24;-20
-57;24;-20
-57;24;-20
-56;23;-20
-56;24;-20
-56;24;-20
-56;23;-20
-57;23;-20
-57;24;-20
-56;24;-20
-56;24;-20
-56;24;-20
-56;24;-20
-57;24;-20
-56;24;-20
-56;24;-20
-57;23;-20
-57;23;-20
-56;24;-20
-56;24;-20
-56;24;-20
-56;24;-20
-56;24;-20
-56;23;-20
-56;24;-20
-56;24;-20
-57;23;-20
-56;24;-20
-57;23;-21
-56;24;-20
-57;23;-20
-56;24;-20
-58;24;-20
-57;23;-21
-56;24;-20
-56;23;-20
-57;24;-20
-56;23;-20
-56;23;-20
-56;24;-21
-56;23;-20
-57;23;-20
-56;24;-20
-56;24;-20
-56;24;-20
-56;24;-20
-56;23;-20
-56;23;-20
-57;24;-21
-56;24;-20
-56;24;-20
-56;24;-20
-56;24;-20
-56;23;-21
-56;24;-20
-56;23;-20
-56;23;-20
-56;24;-20
-57;23;-21
-57;23;-21
-56;24;-20
-57;23;-20
-57;23;-21
-56;23;-20
-56;24;-21
-56;23;-21
-56;23;-20
-56;23;-20
-56;24;-21
-56;23;-21
-56;23;-21
-57;23;-20
-57;23;-20
-56;24;-21
-57;23;-20
-57;24;-21
-57;23;-21
-57;24;-20
-57;23;-21
-56;24;-20
-56;23;-20
-56;24;-21
-56;24;-21
-56;24;-20
-56;24;-20
-56;24;-21
-56;23;-21
-57;23;-21
-56;23;-20
-57;23;-20
-56;23;-21
-56;24;-20
-57;23;-21
-56;23;-21
-55;23;-20
-56;23;-19
-56;23;-21
-59;23;-21
-57;23;-21
-56;23;-21
-56;23;-20
-56;23;-21
-56;22;-20
-55;24;-21
-56;24;-22
-56;23;-20
-57;23;-21
-56;23;-21
-57;23;-20
-57;23;-21
-56;23;-21
-56;23;-21
-56;24;-21
-57;23;-22
-56;23;-22
-56;23;-21
-57;22;-21
-56;23;-22
-57;23;-22
-56;23;-21
-58;22;-20
-63;21;-17
-68;20;-24
-59;16;-25
-56;15;-22
-61;15;-18
-51;17;9
-47;15;10
-50;29;6
-45;24;24
-43;28;25
-72;31;4
-54;28;12
-58;27;14
-58;26;15
-60;24;14
-59;23;16
-66;19;18
-73;18;10
-73;17;16
-32;30;39
-9;28;52
-12;33;48
-21;38;35
-24;38;31
-26;39;25
-37;37;20
-45;32;37
-36;31;47
-37;31;49
-34;32;53
-34;32;47
-29;29;50
-34;28;55
-36;28;47
-41;25;40
-39;22;49
-35;23;47
-44;24;46
-41;23;55
-43;23;44
-46;25;42
-42;25;44
-44;26;46
-43;26;43
-42;29;44
-34;28;48
-32;28;44
-34;27;46
-31;29;46
-32;26;45
-36;30;46
-29;30;49
-29;30;50
-30;31;47
-22;28;48
-28;29;51
-32;30;50
-32;31;48
-30;32;47
-27;32;47
-30;32;49
-26;33;50
-27;34;49
-28;33;47
-31;34;51
-30;33;49
-26;33;46
-35;36;42
-30;35;47
-31;35;46
-28;34;48
-28;34;47
-29;35;46
-33;33;43
-37;35;40
-37;36;39
-35;36;39
-36;37;39
-37;37;36
-38;36;33
-42;36;34
-44;36;35
-41;36;34
-45;36;29
-47;37;23
-45;36;24
-50;36;20
-53;37;17
-50;36;19
-49;35;19
-49;34;18
-57;41;8
-58;37;16
-50;38;21
-49;38;9
-53;35;8
-46;35;11
-47;36;10
-53;36;15
-54;36;16
-56;36;13
-55;36;13
-53;36;12
-54;35;11
-53;36;9
-53;35;11
-54;36;12
-52;36;10
-54;36;8
-55;35;16
-52;35;17
-53;37;12
-53;36;15
-51;35;18
-51;36;17
-49;36;19
-46;35;24
-49;37;23
-44;36;29
-42;36;33
-43;36;32
-42;36;33
-42;36;34
-39;36;36
-41;36;36
-39;37;37
-39;37;37
-39;36;37
-39;36;37
-38;36;38
-37;37;38
-36;37;38
-36;37;38
-36;37;39
-35;37;41
-35;38;39
-34;37;40
-32;39;40
-32;39;41
-30;38;43
-28;37;42
-30;37;44
-28;37;45
-28;36;46
-29;35;46
-26;35;47
-28;36;47
-27;36;47
-26;37;47
-27;37;46
-24;37;46
-23;37;47
-29;37;46
-27;37;46
-29;38;43
-32;38;38
-29;37;40
-35;38;43
-35;39;39
-34;38;39
-39;38;37
-36;39;36
-39;38;36
-39;38;37
-37;38;37
-38;38;36
-41;37;33
-42;38;32
-38;35;34
-42;38;32
-43;38;31
-47;39;28
-39;37;31
-45;37;30
-47;37;29
-46;37;28
-47;36;28
-48;36;28
-46;37;27
-45;37;26
-50;36;25
-48;36;27
-46;36;27
-46;37;25
-52;36;25
-40;35;29
-49;36;28
-48;35;26
-48;37;27
-48;37;23
-53;38;17
-49;35;22
-50;36;22
-50;37;18
-50;37;18
-47;36;22
-49;36;15
-50;35;12
-52;36;14
-49;35;16
-51;36;11
-52;36;9
-54;35;8
-54;36;7
-55;36;5
-53;37;9
-52;35;8
-51;36;6
-54;37;2
-53;36;2
-55;36;1
-53;36;1
-53;36;-1
-54;36;-1
-55;38;-3
-57;37;-8
-50;35;2
-56;35;-3
-53;35;0
-53;36;-2
-54;37;-5
-53;37;-4
-54;36;-4
-53;36;-4
-54;36;-4
-54;36;-4
-53;36;-3
-54;37;-4
-54;36;-4
-54;36;-2
-55;36;-2
-51;35;1
-54;37;-4
-54;38;-4
-54;38;-5
-52;37;-6
-51;36;-1
-53;35;-2
-58;35;-8
-52;37;-5
-52;37;-3
-52;36;-3
-53;37;-5
-53;35;-4
-53;36;-3
-53;37;-6
-54;36;-7
-53;36;-4
-52;36;-3
-52;35;-3
-61;38;-16
-51;34;-3
-48;36;-4
-53;34;-8
-54;35;-7
-55;36;-8
-50;36;-8
-53;36;-11
-52;35;-8
-53;35;-13
-51;35;-13
-51;36;-15
-50;36;-16
-52;35;-18
-51;35;-19
-48;35;-20
-49;35;-22
-50;34;-23
-54;36;-21
-49;34;-28
-47;34;-22
-48;34;-20
-48;35;-23
-47;37;-28
-47;35;-29
-47;35;-26
-47;35;-26
-48;34;-25
-47;35;-26
-47;34;-26
-47;35;-26
-47;35;-28
-47;35;-26
-47;35;-25
-47;35;-26
-47;35;-25
-47;35;-26
-48;34;-26
-48;35;-25
-48;34;-28
-49;34;-25
-48;35;-24
-49;35;-25
-50;33;-24
-51;34;-24
-51;37;-24
-51;33;-20
-52;33;-14
-54;34;-14
-52;35;-10
-53;34;-7
-53;34;-6
-52;34;-5
-55;34;-6
-55;33;-3
-59;34;-4
-54;34;-4
-56;33;-2
-55;34;-3
-55;35;-4
-56;34;-4
-55;34;0
-56;34;1
-57;34;1
-54;33;5
-51;33;9
-53;34;11
-54;34;10
-54;34;10
-54;34;11
-52;34;14
-53;35;13
-54;34;11
-55;36;10
-52;33;14
-53;34;12
-53;34;11
-55;35;10
-52;35;13
-54;35;8
-57;35;6
-55;35;10
-54;36;10
-53;35;9
-54;34;9
-53;34;9
-54;35;7
-55;36;5
-54;35;6
-53;36;6
-55;35;4
-57;35;2
-55;35;2
-52;34;4
-55;35;3
-54;35;-3
-56;36;6
-56;36;0
-54;35;5
-54;35;6
-53;34;8
-54;35;7
-54;35;6
-54;35;5
-55;35;5
-55;35;5
-54;35;6
-54;35;6
-54;35;6
-54;35;5
-54;35;5
-54;35;6
-54;35;6
-54;35;6
-54;35;5
-54;35;5
-54;34;5
-56;37;5
-54;35;6
-54;35;5
-54;35;7
-54;35;6
-54;35;5
-54;35;6
-54;35;5
-54;35;6
-54;35;6
-55;35;5
-54;35;6
-54;35;8
-55;35;6
-53;37;5
-55;36;3
-59;35;-1
-56;39;-2
-61;38;-4
-58;38;-2
-56;39;-2
-57;39;-1
-59;40;-2
-54;41;0
-49;43;2
-49;43;2
-45;44;1
-44;44;1
-40;45;3
-39;45;2
-41;45;1
-38;46;3
-35;47;6
-41;49;5
-40;50;5
-32;49;14
-33;49;15
-45;52;9
-37;52;14
-36;52;17
-38;50;15
-39;52;17
-28;51;23
-31;51;23
-34;50;21
-28;50;25
-32;52;24
-27;51;26
-27;51;25
-27;51;28
-26;51;30
-27;51;27
-29;50;27
-23;49;32
-21;48;31
-26;49;32
-28;48;34
-28;48;31
-26;49;33
-26;48;34
-25;49;32
-26;49;31
-26;47;33
-33;50;32
-42;49;33
-44;51;29
-15;47;38
-31;42;28
-44;40;25
-51;45;30
-45;46;30
-39;44;29
-40;43;32
-35;44;34
-38;45;31
-35;45;32
-37;46;29
-35;45;28
-38;48;24
-35;47;24
-29;48;27
-30;48;25
-31;49;27
-31;51;25
-30;50;22
-35;48;21
-33;49;22
-29;49;17
-30;49;15
-36;50;17
-33;50;17
-46;50;19
-39;50;18
-37;52;18
-37;52;19
-32;50;23
-36;50;21
-38;51;20
-33;51;24
-32;50;23
-30;49;28
-28;48;31
-29;47;32
-31;48;35
-29;48;34
-24;47;29
-23;46;31
-28;44;35
-30;45;31
-29;48;28
-33;44;34
-47;41;33
-35;37;32
-51;37;27
-47;41;33
-43;40;32
-37;40;28
-44;40;33
-40;40;38
-36;41;35
-40;38;33
-41;39;37
-40;38;37
-39;38;35
-39;39;36
-39;39;35
-39;40;33
-50;38;23
-36;38;24
-42;38;22
-52;40;20
-47;41;21
-50;42;19
-46;43;15
-44;42;18
-41;40;21
-46;39;20
-45;40;23
-48;42;21
-45;41;27
-41;41;25
-44;41;25
-35;40;31
-38;41;28
-41;41;32
-39;42;32
-37;41;34
-38;42;35
-33;41;37
-34;41;38
-34;41;37
-28;41;41
-28;42;39
-28;41;41
-29;41;42
-27;41;42
-27;40;43
-27;40;43
-24;41;43
-24;41;44
-24;41;45
-26;41;43
-26;40;44
-25;40;44
-25;41;44
-25;40;42
-24;40;44
-25;40;43
-26;40;44
-27;40;43
-25;40;43
-24;40;44
-24;39;44
-24;37;43
-32;37;43
-33;38;41
-32;39;41
-32;39;41
-35;40;39
-34;39;40
-37;37;39
-36;38;40
-35;39;39
-34;38;39
-36;37;40
-34;36;40
-34;37;40
-36;37;40
-35;37;41
-34;37;41
-36;37;40
-37;36;39
-35;37;40
-36;36;40
-38;36;39
-36;36;40
-39;37;36
-40;37;35
-37;35;39
-40;36;39
-36;36;38
-39;36;38
-38;37;37
-40;36;36
-41;36;35
-37;36;37
-39;37;37
-41;36;36
-41;35;38
-38;37;39
-38;37;36
-41;36;36
-35;34;42
-39;36;38
-35;37;41
-34;34;42
-36;35;38
-36;34;42
-35;35;41
-35;37;43
-31;36;42
-31;37;42
-29;36;43
-33;34;43
-34;34;47
-25;34;49
-37;36;41
-29;36;45
-30;35;46
-28;35;47
-29;35;48
-28;35;47
-24;34;49
-25;35;48
-27;34;47
-28;34;48
-30;36;45
-27;35;49
-28;34;48
-28;34;47
-26;33;47
-31;33;45
-32;33;46
-31;35;44
-32;36;45
-31;34;48
-33;35;42
-31;35;44
-32;36;42
-33;35;43
-30;34;46
-31;34;46
-34;35;41
-33;34;45
-37;34;41
-30;35;46
-32;34;45
-36;36;40
-32;35;42
-32;35;43
-35;34;42
-37;35;40
-31;35;44
-34;33;45
-36;35;42
-33;35;43
-35;35;41
-35;35;42
-35;34;42
-37;36;41
-34;36;43
-34;35;42
-36;32;36
-34;34;43
-36;36;41
-34;36;42
-35;36;41
-35;35;43
-30;34;44
-30;32;48
-38;33;41
-38;33;38
-32;36;45
-32;38;43
-41;31;43
-35;36;40
-32;35;44
-32;34;44
-33;33;43
-32;34;45
-32;33;45
-32;34;45
-31;35;45
-31;34;46
-31;34;46
-29;34;46
-28;34;48
-27;34;47
-30;33;47
-28;34;48
-28;34;48
-27;33;48
-28;33;48
-28;34;48
-27;34;48
-30;33;46
-28;32;47
-33;33;44
-33;34;43
-31;35;46
-34;35;43
-33;34;44
-34;34;43
-34;34;42
-34;33;44
-33;34;44
-36;34;43
-37;34;40
-36;35;41
-37;34;40
-34;33;43
-36;34;41
-35;33;43
-37;33;40
-37;34;43
-37;35;41
-34;35;42
-38;34;41
-37;36;41
-37;34;41
-39;34;39
-33;33;45
-35;35;40
-36;34;41
-34;34;45
-33;33;45
-32;34;44
-31;33;48
-32;33;46
-24;34;47
-23;33;47
-32;33;48
-28;33;49
-25;34;47
-26;34;47
-24;33;49
-31;34;48
-25;33;48
-28;32;50
-29;32;48
-27;33;53
-24;34;51
-32;34;44
-42;33;36
-40;37;36
-35;36;39
-40;35;39
-48;34;28
-39;35;37
-43;37;30
-47;38;22
-43;35;28
-51;40;10
-53;39;10
-46;36;15
-52;39;7
-52;38;6
-48;36;10
-55;38;-2
-50;38;2
-56;37;-3
-52;39;-9
-54;38;-12
-53;38;-8
-48;36;-3
-53;37;-14
-53;36;-11
-57;35;-14
-51;36;-14
-54;37;-20
-54;35;-18
-54;36;-19
-52;38;-21
-48;38;-27
-49;36;-15
-50;35;-17
-48;36;-18
-52;36;-21
-53;33;-13
-50;35;-21
-48;35;-21
-50;34;-21
-52;34;-22
-50;31;-23
-47;32;-21
-46;32;-27
-47;31;-31
-46;31;-36
-40;32;-35
-36;30;-37
-40;31;-38
-38;28;-42
-35;27;-42
-30;24;-38
-40;25;-48
-40;24;-51
-34;23;-48
-32;22;-49
-32;23;-50
-30;23;-51
-38;24;-51
-31;20;-51
-37;21;-48
-36;20;-49
-33;20;-50
-34;20;-51
-31;22;-53
-31;21;-51
-26;21;-51
-29;20;-51
-26;22;-51
-27;22;-50
-32;22;-55
-27;23;-53
-23;24;-52
-29;22;-55
-28;23;-55
-26;22;-53
-26;23;-57
-30;23;-53
-27;23;-49
-31;23;-52
-31;24;-53
-29;24;-53
-29;23;-52
-27;23;-52
-25;24;-52
-27;24;-52
-29;24;-52
-24;23;-51
-28;24;-52
-30;24;-52
-29;24;-53
-32;25;-53
-29;25;-51
-27;25;-48
-31;25;-51
-35;24;-53
-34;25;-51
-33;25;-49
-36;24;-43
-38;24;-42
-40;24;-40
-38;27;-38
-42;27;-44
-47;29;-41
-41;29;-27
-36;33;-30
-46;35;-31
-49;33;-30
-50;35;-34
-39;28;-24
-52;31;-31
-53;31;-35
-42;31;-37
-39;31;-31
-45;32;-30
-46;29;-31
-45;30;-32
-47;28;-33
-44;32;-35
-44;33;-34
-44;32;-34
-45;32;-31
-45;32;-32
-44;32;-35
-44;32;-33
-45;32;-33
-45;31;-34
-45;31;-32
-46;31;-32
-46;30;-33
-46;31;-32
-46;30;-33
-46;31;-31
-46;32;-32
-46;31;-31
-46;32;-31
-47;30;-30
-47;30;-33
-47;30;-31
-46;31;-31
-46;31;-33
-46;32;-32
-46;32;-32
-46;31;-31
-46;31;-32
-46;32;-32
-46;32;-32
-46;32;-30
-46;32;-32
-46;31;-32
-46;32;-31
-46;32;-30
-47;32;-33
-46;32;-31
-52;28;-30
-54;38;-38
-50;34;-33
-48;33;-27
-56;33;-22
-60;32;-18
-56;39;-16
-50;35;-1
-52;36;2
-35;36;18
-41;37;26
-48;34;28
-44;35;34
-45;35;31
-52;35;31
-49;35;35
-46;36;33
-28;31;37
-38;32;37
-50;36;29
-50;37;23
-40;35;34
-44;35;33
-46;39;22
-44;37;25
-44;37;27
-49;38;25
-49;36;26
-48;36;27
-50;38;24
-48;36;26
-47;36;27
-47;36;24
-47;36;24
-47;35;24
-48;34;24
-49;36;21
-49;35;19
-46;36;23
-52;37;20
-50;36;20
-54;36;21
-56;37;20
-52;36;19
-52;36;20
-52;36;19
-46;30;20
-40;32;31
-56;34;19
-54;37;12
-45;34;21
-42;34;24
-59;40;2
-55;35;5
-53;35;4
-58;37;-4
-57;37;-3
-52;35;1
-53;34;0
-57;35;-6
-52;34;-5
-56;32;-7
-61;33;-11
-55;36;-10
-55;36;-11
-55;36;-11
-54;34;-9
-57;35;-14
-52;34;-11
-55;33;-9
-50;32;-4
-53;33;-5
-56;33;-13
-58;34;-15
-51;35;-12
-45;33;-11
-58;36;-19
-50;32;-15
-59;35;-27
-50;32;-25
-49;32;-22
-50;32;-23
-54;31;-27
-46;34;-24
-49;34;-25
-48;33;-27
-48;33;-29
-48;32;-28
-48;32;-29
-48;30;-31
-51;31;-30
-36;27;-16
-54;30;-27
-48;31;-26
-44;31;-27
-41;36;-25
-48;33;-33
-45;32;-31
-41;31;-33
-40;32;-36
-42;30;-41
-46;29;-42
-35;30;-41
-43;32;-43
-41;32;-43
-38;31;-43
-38;31;-41
-35;34;-39
-41;31;-42
-43;31;-44
-39;30;-31
-43;28;-39
-35;31;-40
-37;32;-40
-38;30;-38
-44;34;-44
-34;30;-40
-35;30;-43
-36;30;-44
-38;29;-42
-35;29;-49
-35;31;-47
-35;31;-45
-32;31;-45
-30;31;-45
-33;31;-47
-34;31;-48
-33;31;-48
-29;29;-41
-33;28;-39
-29;30;-41
-27;27;-41
-36;33;-49
-33;31;-43
-29;30;-46
-30;30;-50
-32;30;-49
-29;30;-47
-28;30;-47
-29;28;-49
-32;29;-49
-28;29;-49
-28;28;-51
-33;28;-50
-30;26;-49
-29;28;-52
-25;27;-50
-25;26;-48
-28;23;-51
-28;22;-53
-30;21;-53
-31;19;-54
-32;17;-52
-29;16;-51
-31;16;-54
-32;14;-53
-31;13;-52
-28;14;-52
-34;15;-56
-29;11;-53
-32;11;-55
-33;10;-56
-34;9;-53
-39;9;-55
-32;9;-53
-30;10;-51
-32;11;-50
-31;11;-48
-38;13;-50
-42;13;-52
-38;15;-53
-39;15;-53
-40;16;-52
-39;15;-51
-41;16;-51
-39;16;-52
-41;15;-51
-44;15;-48
-35;15;-44
-38;16;-41
-48;18;-34
-48;18;-35
-48;21;-36
-49;22;-31
-49;24;-28
-52;25;-31
-45;26;-21
-58;29;-33
-53;28;-31
-46;29;-19
-52;32;-21
-53;32;-31
-59;36;-22
-51;32;-24
-53;37;-35
-50;36;-10
-54;35;-15
-63;37;-20
-54;35;-8
-49;35;-5
-51;38;-11
-43;35;-2
-50;35;0
-51;34;-2
-56;36;-2
-52;35;1
-52;37;1
-55;36;3
-51;36;8
-51;36;6
-54;38;4
-54;36;7
-44;35;14
-52;35;8
-59;38;5
-54;36;7
-53;38;5
-52;37;5
-54;37;5
-52;37;8
-50;34;12
-49;36;7
-52;36;5
-57;35;4
-53;39;7
-52;37;7
-54;36;5
-54;36;7
-55;37;8
-48;33;13
-55;36;6
-61;36;6
-54;39;8
-56;37;8
-54;37;8
-56;38;4
-50;37;5
-44;35;11
-47;35;20
-51;36;17
-57;36;11
-49;37;15
-48;35;16
-54;33;15
-46;39;16
-51;35;17
-48;41;16
-62;31;9
-58;37;14
-56;39;11
-56;38;10
-50;39;12
-42;40;17
-43;37;24
-48;35;23
-40;37;29
-45;33;34
-42;35;39
-39;35;38
-35;36;39
-39;35;37
-27;35;46
-30;35;47
-27;34;55
-26;32;52
-26;32;50
-23;33;52
-18;33;56
-21;32;50
-21;33;51
-21;33;47
-15;31;48
-25;33;53
-28;34;52
-26;34;49
-27;35;45
-28;36;45
-26;35;46
-26;36;45
-27;36;47
-26;36;48
-27;35;48
-26;34;49
-27;34;50
-24;34;48
-24;34;48
-25;34;48
-25;35;48
-25;35;47
-25;36;48
-25;36;47
-27;36;46
-26;35;47
-26;34;49
-25;34;48
-23;34;49
-22;34;51
-20;34;50
-20;34;51
-22;34;51
-22;34;49
-26;35;49
-19;36;50
-15;34;50
-32;36;47
-24;36;49
-21;36;49
-20;36;49
-20;35;51
-27;37;49
-21;34;54
-25;34;46
-35;34;44
-30;37;48
-39;40;29
-41;37;36
-24;38;46
-36;40;33
-50;38;25
-36;37;35
-40;37;26
-54;38;17
-43;37;23
-48;36;12
-59;37;4
-48;36;15
-47;37;11
-61;38;-2
-53;38;5
-51;38;-4
-52;38;-3
-52;35;5
-52;37;-8
-51;36;-5
-56;35;-5
-53;37;-15
-53;35;-9
-57;33;-6
-54;35;-18
-57;32;-12
-54;31;-10
-53;33;-24
-57;33;-23
-52;30;-16
-51;30;-21
-56;32;-23
-52;29;-20
-52;26;-20
-53;27;-27
-52;25;-25
-46;23;-27
-49;25;-33
-49;22;-39
-59;21;-39
-44;15;-41
-47;16;-41
-48;13;-42
-52;10;-46
-54;12;-46
-47;8;-40
-48;9;-41
-49;6;-41
-49;6;-44
-44;3;-38
-47;2;-40
-46;-1;-37
-45;1;-41
-50;3;-41
-51;0;-41
-49;1;-38
-55;3;-39
-52;0;-39
-51;2;-44
-45;2;-36
-57;2;-34
-62;2;-39
-59;3;-40
-46;7;-36
-49;12;-43
-53;14;-27
-52;11;-30
-55;16;-30
-62;12;-31
-63;14;-34
-45;13;-24
-53;12;-28
-64;13;-26
-56;14;-28
-54;14;-29
-56;15;-27
-54;11;-24
-54;14;-23
-57;13;-26
-62;14;-29
-55;15;-22
-57;16;-26
-60;17;-32
-56;17;-23
-58;17;-26
-58;15;-26
-59;15;-24
-60;17;-27
-56;18;-32
-50;19;-25
-52;17;-17
-57;19;-23
-60;20;-20
-58;19;-18
-64;21;-20
-57;21;-15
-55;22;-16
-59;21;-15
-58;21;-14
-61;21;-13
-57;20;-8
-65;20;-13
-60;23;-9
-56;20;-4
-62;22;-10
-64;22;-10
-55;22;-6
-62;22;-10
-57;21;-3
-58;23;-6
-62;23;-4
-58;23;-4
-66;23;-7
-59;23;-2
-59;23;-2
-63;24;-3
-58;25;-1
-62;26;-1
-62;25;0
-65;26;0
-60;26;5
-58;25;9
-59;27;9
-62;27;9
-59;29;14
-49;26;21
-51;30;21
-42;29;31
-37;29;32
-25;26;51
-30;27;50
-40;31;39
-39;32;39
-16;31;47
-27;33;43
-20;32;51
-19;33;50
-15;33;54
-9;33;53
3;33;63
-2;32;57
-2;32;58
-6;32;57
-4;32;59
-8;32;58
-4;32;59
-5;32;55
-9;32;53
-12;31;53
-16;32;54
-19;33;51
-18;35;52
-16;35;51
-17;34;52
-18;34;55
-19;34;55
-20;32;53
-19;32;54
-20;31;55
-17;31;52
-18;29;52
-18;30;52
-22;30;49
-22;31;50
-22;32;52
-27;34;47
-27;33;48
-32;32;46
-32;32;46
-30;32;47
-38;31;37
-40;31;37
-37;30;41
-39;29;42
-42;27;43
-44;28;41
-37;30;39
-34;28;39
-41;29;39
-37;28;39
-36;28;45
-33;27;48
-37;30;46
-32;30;51
-30;29;53
-47;28;50
-45;28;52
-40;26;52
-29;25;45
-31;23;43
-34;22;46
-37;24;43
-33;20;49
-36;22;47
-37;23;52
-36;22;57
-35;21;59
-35;18;64
-30;18;63
-34;17;49
-36;19;54
-34;14;66
-31;18;64
-19;25;53
-20;29;43
-23;31;41
-22;33;42
-32;35;41
-29;32;39
-38;32;33
-40;28;46
-38;29;52
-42;27;40
-43;28;42
-40;30;41
-42;30;42
-39;30;43
-38;30;40
-41;35;44
-37;36;47
-41;32;42
-46;31;45
-39;27;46
-36;26;47
-38;29;43
-38;28;41
-32;29;40
-32;31;39
-33;31;42
-34;31;42
-34;33;42
-36;32;43
-39;31;41
-41;33;39
-38;33;40
-37;35;40
-40;38;38
-42;43;37
-45;48;34
-45;47;29
-41;47;22
-39;45;21
-45;36;21
-48;35;27
-36;34;45
-33;31;45
-35;28;44
-21;29;55
-22;29;54
-23;22;58
-21;21;57
-13;20;62
-14;18;62
-20;23;59
-19;23;59
-19;25;58
-23;27;57
-30;28;63
-29;24;69
-30;25;63
-31;33;48
-31;35;43
-24;37;36
-28;42;31
-28;43;31
-24;44;28
-25;45;25
-28;45;24
-29;44;27
-27;44;29
-30;42;30
-34;42;34
-31;43;38
-30;44;39
-30;45;38
-31;45;36
-33;45;32
-35;45;31
-35;43;33
-34;43;35
-34;41;37
-37;39;39
-38;39;36
-36;36;34
-33;37;40
-30;35;37
-31;37;35
-23;37;37
-27;42;37
-30;41;37
-29;39;42
-26;38;42
-26;40;46
-24;39;53
-28;41;56
-29;41;54
-38;37;54
-35;35;52
-33;33;48
-28;31;41
-30;32;44
-32;41;49
-31;43;49
-27;44;47
-27;43;43
-25;38;41
-21;36;48
-20;34;48
-19;30;55
-21;30;57
-18;32;52
-18;32;52
-18;35;52
-15;39;53
-14;41;50
-20;47;48
-20;47;51
-21;49;43
-22;47;40
-15;44;48
-7;43;47
-11;40;52
-21;37;54
-12;36;45
-18;32;45
-22;34;49
5;30;39
-2;29;50
-24;29;48
-16;30;49
-7;26;49
-8;23;47
-23;21;49
-17;16;63
-20;14;71
-17;12;78
-27;16;74
-15;18;55
-35;20;56
-28;21;56
-20;27;49
-17;28;43
-24;31;42
-23;39;49
-21;41;50
-18;40;51
-12;36;52
-17;35;56
-25;31;61
-12;32;54
-10;32;52
-24;37;38
-32;44;26
-35;49;25
-18;57;25
-12;54;17
-5;44;53
-16;40;52
-17;36;57
0;31;66
-4;29;61
-9;28;62
7;22;70
13;19;70
0;24;57
1;20;56
-18;17;43
-26;7;70
-16;11;76
-16;20;60
-43;20;49
-16;22;59
-12;19;66
-16;25;56
-26;23;39
-38;29;31
-45;36;16
-54;43;7
-38;46;8
-41;49;3
-50;51;-3
-60;51;-2
-52;49;16
