37333.29
0.0;1.15630292892456
0.906290054321,0.906291484832764
1.84383010864,0.937542915344238
2.76574993134,0.921917259693146
12.484940052,0.859414339065552
29.2044599056,0.953168630599976
30.1732499599,0.968794345855713
31.0482900143,0.875040054321289
31.9389600754,0.890665829181671
32.8452501297,0.906291484832764
33.7827899456,0.937542915344238
46.0333499908,0.937542915344238
47.0802800655,1.0469229221344
48.0647001266,0.98442006111145
48.9553599358,0.890665829181671
49.8772799969,0.921917259693146
50.830450058,0.953168630599976
51.7523701191,0.921917259693146
52.5648999214,0.81253719329834
59.5183501244,0.875040054321289
60.4246399403,0.906291484832764
61.3309299946,0.906291484832764
62.2528500557,0.921917259693146
63.0966300964,0.843788623809814
63.9560499191,0.859414339065552
64.8779699802,0.921917259693146
65.8311300278,0.953168630599976
66.5811700821,0.750034332275391
67.518709898,0.937542915344238
68.4562499523,0.937542915344238
69.3625500202,0.906291484832764
77.3160400391,0.859414339065552
78.1598200798,0.843788623809814
97.8794801235,0.859414339065552
98.7857699394,0.906291484832764
112.239510059,0.890665829181671
113.098920107,0.859414339065552
113.98958993,0.890665829181671
114.958379984,0.968794345855713
116.005310059,1.0469229221344
505.523139954,0.609402894973755
510.617120028,0.781285762786865
511.242150068,0.625028610229492
512.007810116,0.765660047531128
512.742219925,0.734408617019653
524.680259943,0.750034332275391
525.367789984,0.687531471252441
620.090879917,0.843788623809814
620.700279951,0.609402894973755
631.919549942,0.765660047531128
632.68520999,0.765660047531128
633.40399003,0.718782901763916
634.138400078,0.734408617019653
634.935310125,0.796911478042603
635.638469934,0.703157186508179
636.372879982,0.734408617019653
669.405640125,0.781285762786865
674.358989954,0.625028610229492
675.093400002,0.734408617019653
757.175280094,1.00004577636719
757.95656991,0.781285762786865
758.737849951,0.781285762786865
928.855010033,0.875040054321289
929.714430094,0.859414339065552
930.62071991,0.906291484832764
931.542639971,0.921917259693146
936.495990038,0.765660047531128
955.918750048,1.01567149162292
956.903170109,0.98442006111145
957.981349945,1.07817435264587
958.981389999,1.00004577636719
960.028310061,1.0469229221344
1041.09453011,0.906291484832764
1042.07894993,0.98442006111145
1043.04773998,0.968794345855713
1050.75121999,0.765660047531128
1051.57938004,0.828162908554077
1116.47298002,0.921917259693146
1117.34802008,0.875040054321289
1118.08242011,0.734408617019653
1118.95745993,0.875040054321289
1119.76999998,0.81253719329834
1120.66067004,0.890665829181671
1121.5357101,0.875040054321289
1122.52012992,0.98442006111145
1123.39516997,0.875040054321289
1134.84881997,0.921917259693146
1135.59885001,0.750034332275391
1136.38014007,0.781285762786865
1137.23955011,0.859414339065552
1138.00520992,0.765660047531128
1138.80211997,0.796911478042603
1139.55216002,0.750034332275391
1140.31782007,0.765660047531128
1141.16161013,0.843788623809814
1142.03664994,0.875040054321289
1142.84917998,0.81253719329834
1143.77110004,0.921917259693146
1144.6461401,0.875040054321289
1145.53680992,0.890665829181671
1146.31808996,0.781285762786865
1147.17751002,0.859414339065552
1148.00567007,0.828162908554077
1148.84946012,0.843788623809814
1149.66199994,0.81253719329834
1150.56829,0.906291484832764
1151.47458005,0.906291484832764
1152.3183701,0.843788623809814
1153.17777991,0.859414339065552
1154.03719997,0.859414339065552
1154.89661002,0.859414339065552
1155.72477007,0.828162908554077
1156.61544013,0.890665829181671
1157.52172995,0.906291484832764
1158.44365001,0.921917259693146
1159.34994006,0.906291484832764
1160.16248012,0.81253719329834
1161.02188993,0.859414339065552
1161.78754997,0.765660047531128
1162.56884003,0.781285762786865
1163.35012007,0.781285762786865
1164.16266012,0.81253719329834
1164.99081993,0.828162908554077
1165.89710999,0.906291484832764
1166.56902003,0.671905755996704
1167.31905007,0.750034332275391
1168.02221012,0.703157186508179
1168.77223992,0.750034332275391
1231.54074001,0.843788623809814
1270.87067008,0.937542915344238
1271.76133013,0.890665829181671
1272.66762996,0.906291484832764
1273.51141,0.843788623809814
1274.32395005,0.81253719329834
1275.24587011,0.921917259693146
1276.16778994,0.921917259693146
1277.05844998,0.890665829181671
1277.94912004,0.890665829181671
1278.9804101,1.03129720687866
1279.96482992,0.98442006111145
1285.59009004,0.890665829181671
1286.43388009,0.843788623809814
1287.2620399,0.828162908554077
1288.18395996,0.921917259693146
1288.96525002,0.781285762786865
1289.85591006,0.890665829181671
1290.76220012,0.906291484832764
1325.35754013,0.828162908554077
1326.15444994,0.796911478042603
1326.98260999,0.828162908554077
1341.54577994,0.81253719329834
1342.34268999,0.796911478042603
1352.17126012,0.890665829181671
1353.04629993,0.875040054321289
1421.59631991,0.968794345855713
1422.40884995,0.81253719329834
1423.26827002,0.859414339065552
1424.08081007,0.81253719329834
1424.95585012,0.875040054321289
1425.84650993,0.890665829181671
1466.12961006,0.953168630599976
1466.95777011,0.828162908554077
1512.88175011,0.81253719329834
1513.72552991,0.843788623809814
1514.52244997,0.796911478042603
1524.2885201,0.875040054321289
1525.13230991,0.843788623809814
1526.02296996,0.890665829181671
1526.91364002,0.890665829181671
1539.30483007,0.81253719329834
1540.21112013,0.906291484832764
1541.08615994,0.875040054321289
1541.99245,0.906291484832764
1542.75811005,0.765660047531128
1543.61753011,0.859414339065552
1558.13382006,1.07817435264587
1602.24520993,0.906291484832764
1603.16712999,0.921917259693146
1604.07342005,0.906291484832764
1605.05784011,0.98442006111145
1606.05788994,1.00004577636719
1607.07356,1.01567149162292
1608.05798006,0.98442006111145
1609.02677011,0.968794345855713
1609.93305993,0.906291484832764
1610.85497999,0.921917259693146
1611.77690005,0.921917259693146
1612.6050601,0.828162908554077
1613.52697992,0.921917259693146
1619.94915009,1.06254863739014
1620.93356991,0.98442006111145
1621.93360996,1.00004577636719
1622.87116003,0.937542915344238
1623.71494007,0.843788623809814
1624.49623013,0.781285762786865
1625.32438993,0.828162908554077
1626.15256,0.828162908554077
1627.12135005,0.968794345855713
1628.04327011,0.921917259693146
1637.96560001,1.07817435264587
1638.95002007,0.98442006111145
1661.74794006,0.81253719329834
1662.70110011,0.953168630599976
1666.74816012,0.968794345855713
1667.81070995,1.06254863739014
1709.2032299,0.796911478042603
1724.50080991,0.921917259693146
1725.34459996,0.843788623809814
1726.18839002,0.843788623809814
1727.12593007,0.937542915344238
1728.1884799,1.06254863739014
1729.12601995,0.937542915344238
1730.06356001,0.937542915344238
1792.8320601,0.828162908554077
1793.72272992,0.890665829181671
1838.8185401,0.906291484832764
1853.31920004,0.875040054321289
1854.2098701,0.890665829181671
1854.99115992,0.781285762786865
1865.8666501,0.796911478042603
1866.71043992,0.843788623809814
1867.74173999,1.03129720687866
1868.55428004,0.81253719329834
1869.44494009,0.890665829181671
1870.39810991,0.953168630599976
1871.46065998,1.06254863739014
1872.36695004,0.906291484832764
1873.3826201,1.01567149162292
1874.33578992,0.953168630599976
1875.21082997,0.875040054321289
1876.10150003,0.890665829181671
1877.1171701,1.01567149162292
1878.08595991,0.968794345855713
1878.94537997,0.859414339065552
1879.88292003,0.937542915344238
1880.92984009,1.0469229221344
1881.8361299,0.906291484832764
1882.82054996,0.98442006111145
1883.66434002,0.843788623809814
1884.63314009,0.968794345855713
1890.00837994,0.921917259693146
1891.03968,1.03129720687866
1891.93035007,0.890665829181671
1892.77414012,0.843788623809814
1893.69604993,0.921917259693146
1894.58671999,0.890665829181671
1895.43051004,0.843788623809814
1896.3055501,0.875040054321289
1897.24308991,0.937542915344238
1898.22750998,0.98442006111145
1899.07130003,0.843788623809814
1946.66723013,0.875040054321289
1947.57351995,0.906291484832764
1948.47981,0.906291484832764
1949.32360005,0.843788623809814
1950.26114011,0.937542915344238
1951.26118994,1.00004577636719
1952.15184999,0.890665829181671
1953.05815005,0.906291484832764
1953.99569011,0.937542915344238
1954.87072992,0.875040054321289
1959.79282999,0.937542915344238
1960.80850005,1.01567149162292
1961.76167011,0.953168630599976
1962.65232992,0.890665829181671
1963.63674998,0.98442006111145
1964.60555005,0.968794345855713
1965.48059011,0.875040054321289
1966.35562992,0.875040054321289
1967.23066998,0.875040054321289
1968.15259004,0.921917259693146
1975.19977999,0.953168630599976
1976.05920005,0.859414339065552
1976.9186101,0.859414339065552
1977.74677992,0.828162908554077
1978.65306997,0.906291484832764
1979.49686003,0.843788623809814
1990.71612,0.781285762786865
1991.59116006,0.875040054321289
1992.48182011,0.890665829181671
1993.29435992,0.81253719329834
1994.16939998,0.875040054321289
1995.07569003,0.906291484832764
1995.98198009,0.906291484832764
1996.81014991,0.828162908554077
1997.70080996,0.890665829181671
1998.62273002,0.921917259693146
1999.57590008,0.953168630599976
2000.29468012,0.718782901763916
2001.31034994,1.01567149162292
2002.23227,0.921917259693146
2003.15419006,0.921917259693146
2004.02923012,0.875040054321289
2004.93551993,0.906291484832764
2006.04495001,1.10942578315735
2012.0764699,0.890665829181671
2012.93588996,0.859414339065552
2013.90468001,0.968794345855713
2014.88910007,0.98442006111145
2015.76414013,0.875040054321289
2016.70167994,0.937542915344238
2017.62360001,0.921917259693146
2018.46739006,0.843788623809814
2019.32680011,0.859414339065552
2020.18621993,0.859414339065552
2021.10812998,0.921917259693146
2021.96755004,0.859414339065552
2022.87384009,0.906291484832764
2023.81137991,0.937542915344238
2024.70204997,0.890665829181671
2025.56146002,0.859414339065552
2026.48338008,0.921917259693146
2032.71803999,0.921917259693146
2033.65558004,0.937542915344238
2034.4993701,0.843788623809814
2035.40565991,0.906291484832764
2036.34320998,0.937542915344238
2037.18700004,0.843788623809814
2038.04641008,0.859414339065552
2038.9526999,0.906291484832764
2039.87461996,0.921917259693146
2040.73403001,0.859414339065552
2041.57782006,0.843788623809814
2042.46849012,0.890665829181671
2043.39039993,0.921917259693146
2044.23418999,0.843788623809814
2045.09361005,0.859414339065552
2045.9999001,0.906291484832764
2046.89056993,0.890665829181671
2052.31269002,0.906291484832764
2053.21898007,0.906291484832764
2054.1096499,0.890665829181671
2054.98468995,0.875040054321289
2055.93785,0.953168630599976
2056.81289005,0.875040054321289
2057.68793011,0.875040054321289
2058.65672994,0.968794345855713
2059.57865,0.921917259693146
2060.45369005,0.875040054321289
2061.3756001,0.921917259693146
2062.31314993,0.937542915344238
2063.14130998,0.828162908554077
2064.00072002,0.859414339065552
2065.06327009,1.06254863739014
2070.40726995,0.859414339065552
2071.29793,0.890665829181671
2072.09484005,0.796911478042603
2073.00114012,0.906291484832764
2073.86054993,0.859414339065552
2074.70433998,0.843788623809814
2075.50125003,0.796911478042603
2076.37629008,0.875040054321289
2077.29820991,0.921917259693146
2078.14199996,0.843788623809814
2078.95453,0.81253719329834
2079.82957006,0.875040054321289
2080.79837012,0.968794345855713
2081.64215994,0.843788623809814
2082.51719999,0.875040054321289
2104.0338099,0.937542915344238
2115.29995012,0.98442006111145
2116.15935993,0.859414339065552
2117.06564999,0.906291484832764
2118.03445005,0.968794345855713
2209.92928004,1.06254863739014
2210.8355701,0.906291484832764
2211.81998992,0.98442006111145
2212.88253999,1.06254863739014
2213.94509006,1.06254863739014
2214.89826012,0.953168630599976
2215.89829993,1.00004577636719
2216.97648001,1.07817435264587
2217.92964005,0.953168630599976
2218.88281012,0.953168630599976
2219.83597994,0.953168630599976
2220.92978001,1.09380006790161
2221.88295007,0.953168630599976
2227.86759996,0.98442006111145
2228.77389002,0.906291484832764
2229.74269009,0.968794345855713
2230.8052299,1.06254863739014
2231.82090998,1.01567149162292
2232.71157002,0.890665829181671
2233.64911008,0.937542915344238
2234.6335299,0.98442006111145
2235.57107997,0.937542915344238
2236.58675003,1.01567149162292
2237.6805501,1.09380006790161
2238.68058991,1.00004577636719
2239.57125998,0.890665829181671
2240.50880003,0.937542915344238
2241.52447009,1.01567149162292
2242.58701992,1.06254863739014
2243.50893998,0.921917259693146
2244.49336004,0.98442006111145
2245.4465301,0.953168630599976
2246.36844993,0.921917259693146
2247.19660997,0.828162908554077
2248.04040003,0.843788623809814
2248.85293007,0.81253719329834
2249.63422012,0.781285762786865
2250.44675994,0.81253719329834
2255.93138003,1.00004577636719
2256.9001801,0.968794345855713
2257.77521992,0.875040054321289
2258.83776999,1.06254863739014
2259.97844005,1.14067721366882
2260.93161011,0.953168630599976
2261.88477993,0.953168630599976
2262.88483,1.00004577636719
2263.83800006,0.953168630599976
2264.91617012,1.07817435264587
2266.13497996,1.21880578994751
2267.11940002,0.98442006111145
2268.07256007,0.953168630599976
2269.0101099,0.937542915344238
2282.41697001,1.23443150520325
2283.37014008,0.953168630599976
2284.46393991,1.09380006790161
2285.47960997,1.01567149162292
2300.40216994,1.07817435264587
2301.33971,0.937542915344238
2302.38664007,1.0469229221344
2303.32418013,0.937542915344238
2304.32421994,1.00004577636719
2305.24614,0.921917259693146
2305.98055005,0.734408617019653
2311.1370399,0.968794345855713
2312.10582995,0.968794345855713
2313.07462001,0.968794345855713
2313.87154007,0.796911478042603
2315.01221013,1.14067721366882
2316.02787995,1.01567149162292
2328.90347004,1.03129720687866
2329.7316401,0.828162908554077
2330.74730992,1.01567149162292
2331.79422998,1.0469229221344
2332.80990005,1.01567149162292
2333.84120011,1.03129720687866
2334.91936994,1.07817435264587
2335.74754,0.828162908554077
2336.76321006,1.01567149162292
2337.74763012,0.98442006111145
2338.63828993,0.890665829181671
2339.49770999,0.859414339065552
2340.43525004,0.937542915344238
2348.51375008,0.953168630599976
2349.4669199,0.953168630599976
2350.49820995,1.03129720687866
2351.42013001,0.921917259693146
2352.45143008,1.03129720687866
2353.67022991,1.21880578994751
2354.79527998,1.12505149841309
2355.76408005,0.968794345855713
2356.7328701,0.968794345855713
2357.71728992,0.98442006111145
2358.68608999,0.968794345855713
2359.62363005,0.937542915344238
2360.65493011,1.03129720687866
2361.67059994,1.01567149162292
2362.56125998,0.890665829181671
2363.54568005,0.98442006111145
2364.60823011,1.06254863739014
2365.51451993,0.906291484832764
2366.57707,1.06254863739014
2367.54587007,0.968794345855713
2374.70245004,1.01567149162292
2375.65561008,0.953168630599976
2376.65565991,1.00004577636719
2377.59319997,0.937542915344238
2378.45262003,0.859414339065552
2391.64072013,1.10942578315735
2405.28197002,0.781285762786865
2424.87662005,1.15630292892456
2439.90856004,0.937542915344238
2447.54953003,1.03129720687866
2448.40894008,0.859414339065552
2449.42461991,1.01567149162292
2450.33090997,0.906291484832764
2458.19063997,0.921917259693146
2459.26882005,1.07817435264587
2460.47200012,1.20318007469177
2461.34703994,0.875040054321289
2462.33146,0.98442006111145
2463.45651007,1.12505149841309
2480.48853993,1.06254863739014
2481.45732999,0.968794345855713
2482.34800005,0.890665829181671
2483.2855401,0.937542915344238
2484.36371994,1.07817435264587
2485.30125999,0.937542915344238
2486.20755005,0.906291484832764
2487.23885012,1.03129720687866
2488.36389995,1.12505149841309
2489.30144,0.937542915344238
2490.30149007,1.00004577636719
2491.3640399,1.06254863739014
2492.34845996,0.98442006111145
2493.42663002,1.07817435264587
2494.45793009,1.03129720687866
2495.3798399,0.921917259693146
2496.14549994,0.765660047531128
2496.97367001,0.828162908554077
2497.92684007,0.953168630599976
2498.64562011,0.718782901763916
2533.60034013,1.01567149162292
2568.52381992,0.843788623809814
2569.57073998,1.0469229221344
2570.72704005,1.15630292892456
2635.04249001,0.875040054321289
2635.93315005,0.890665829181671
2643.83977008,0.98442006111145
2644.80855989,0.968794345855713
2645.73047996,0.921917259693146
2646.60552001,0.875040054321289
2647.62119007,1.01567149162292
2648.55873013,0.937542915344238
2649.44939995,0.890665829181671
2650.44944,1.00004577636719
2663.02814007,0.859414339065552
2669.43469,0.906291484832764
2670.43473005,1.00004577636719
2671.45040011,1.01567149162292
2672.34106994,0.890665829181671
2673.30985999,0.968794345855713
2674.27866006,0.968794345855713
2675.35683012,1.07817435264587
2676.29437995,0.937542915344238
2677.26317,0.968794345855713
2678.15384007,0.890665829181671
2678.98200011,0.828162908554077
2679.95078993,0.968794345855713
