76266.9100001
0.0;0.625028610229492
24.6573801041,0.625028610229492
25.266780138,0.609402894973755
25.9230601788,0.656280040740967
26.5949599743,0.671905755996704
27.2668700218,0.671905755996704
27.9700300694,0.703157186508179
28.6419301033,0.671905755996704
29.3138401508,0.671905755996704
29.9544899464,0.640654325485229
30.6107699871,0.656280040740967
31.2826800346,0.671905755996704
37.8298499584,0.656280040740967
38.501760006,0.671905755996704
39.1424100399,0.640654325485229
39.7830700874,0.640654325485229
40.4393501282,0.656280040740967
41.1268801689,0.687531471252441
41.7675299644,0.640654325485229
42.4238100052,0.656280040740967
43.0957200527,0.671905755996704
43.7832500935,0.687531471252441
44.423910141,0.640654325485229
45.0958101749,0.671905755996704
45.7520899773,0.656280040740967
46.408370018,0.656280040740967
47.0490300655,0.640654325485229
47.7053101063,0.656280040740967
48.361590147,0.656280040740967
49.0178699493,0.656280040740967
49.6741499901,0.656280040740967
50.3304300308,0.656280040740967
51.0023300648,0.671905755996704
51.7054901123,0.703157186508179
52.4086501598,0.703157186508179
53.0805499554,0.671905755996704
53.7680799961,0.687531471252441
54.4556100368,0.687531471252441
55.1275200844,0.671905755996704
55.7994301319,0.671905755996704
56.4557101727,0.656280040740967
57.1588599682,0.703157186508179
57.8463900089,0.687531471252441
58.5495500565,0.703157186508179
59.252710104,0.703157186508179
59.9871201515,0.734408617019653
60.6746499538,0.687531471252441
61.3778100014,0.703157186508179
62.0653400421,0.687531471252441
62.7372400761,0.671905755996704
63.4091501236,0.671905755996704
64.0810501575,0.671905755996704
64.7529599667,0.671905755996704
65.3779900074,0.625028610229492
66.0342700481,0.656280040740967
66.6749200821,0.640654325485229
67.3155801296,0.640654325485229
67.9406101704,0.625028610229492
68.5812599659,0.640654325485229
69.2844200134,0.703157186508179
69.9094500542,0.625028610229492
70.5501000881,0.640654325485229
71.2063801289,0.656280040740967
71.8782901764,0.671905755996704
72.5033199787,0.625028610229492
73.1596000195,0.656280040740967
73.8002500534,0.640654325485229
74.4409000874,0.640654325485229
105.207940102,0.703157186508179
105.895470142,0.687531471252441
106.583000183,0.687531471252441
107.254909992,0.671905755996704
107.864310026,0.609402894973755
108.53621006,0.671905755996704
109.239370108,0.703157186508179
109.973780155,0.734408617019653
110.676939964,0.703157186508179
111.364470005,0.687531471252441
112.005120039,0.640654325485229
116.817840099,0.718782901763916
117.521000147,0.703157186508179
118.239779949,0.718782901763916
118.911689997,0.671905755996704
119.614850044,0.703157186508179
120.318000078,0.703157186508179
121.021160126,0.703157186508179
121.708690166,0.687531471252441
122.396219969,0.687531471252441
123.083760023,0.687531471252441
123.755660057,0.671905755996704
124.458820105,0.703157186508179
125.130720139,0.671905755996704
125.802629948,0.671905755996704
126.412029982,0.609402894973755
130.474720001,0.671905755996704
131.146620035,0.671905755996704
131.787280083,0.640654325485229
132.427930117,0.640654325485229
133.084210157,0.656280040740967
133.74048996,0.656280040740967
134.39677,0.656280040740967
135.068680048,0.671905755996704
140.475180149,0.81253719329834
144.287850142,0.656280040740967
144.944130182,0.656280040740967
145.569159985,0.625028610229492
146.194190025,0.625028610229492
146.803590059,0.609402894973755
147.569250107,0.765660047531128
148.319290161,0.750034332275391
151.49131012,0.671905755996704
152.116330147,0.625028610229492
152.772609949,0.656280040740967
153.507019997,0.734408617019653
154.178930044,0.671905755996704
154.725830078,0.546900033950806
158.11661005,0.625028610229492
158.710390091,0.593777179718018
159.351040125,0.640654325485229
159.960440159,0.609402894973755
160.694849968,0.734408617019653
175.226770163,0.718782901763916
175.851799965,0.625028610229492
176.508080006,0.656280040740967
180.773900032,0.828162908554077
184.008419991,0.687531471252441
184.680330038,0.671905755996704
185.352230072,0.671905755996704
186.02414012,0.671905755996704
186.74292016,0.718782901763916
187.305449963,0.562525749206543
188.024230003,0.718782901763916
188.727390051,0.703157186508179
189.430540085,0.703157186508179
190.102450132,0.671905755996704
190.852480173,0.750034332275391
191.555639982,0.703157186508179
192.274420023,0.718782901763916
192.961950064,0.687531471252441
193.665110111,0.703157186508179
194.368270159,0.703157186508179
195.133929968,0.765660047531128
195.805830002,0.671905755996704
196.446490049,0.640654325485229
197.087140083,0.640654325485229
197.743420124,0.656280040740967
198.555960178,0.81253719329834
199.134109974,0.57815146446228
199.884150028,0.750034332275391
200.524800062,0.640654325485229
201.212330103,0.687531471252441
206.775089979,0.656280040740967
220.97886014,0.640654325485229
221.650769949,0.671905755996704
222.33829999,0.687531471252441
223.05708003,0.718782901763916
223.666480064,0.609402894973755
224.510270119,0.843788623809814
227.682290077,0.718782901763916
228.291700125,0.609402894973755
228.916730165,0.625028610229492
229.557379961,0.640654325485229
230.213660002,0.656280040740967
230.869940042,0.656280040740967
231.526220083,0.656280040740967
232.166870117,0.640654325485229
232.776280165,0.609402894973755
233.44817996,0.671905755996704
234.088840008,0.640654325485229
234.666990042,0.57815146446228
235.385770082,0.718782901763916
236.073300123,0.687531471252441
236.698330164,0.625028610229492
237.338989973,0.640654325485229
237.995270014,0.656280040740967
238.635920048,0.640654325485229
243.245510101,0.671905755996704
243.901790142,0.656280040740967
244.511190176,0.609402894973755
249.855180025,0.687531471252441
250.527090073,0.671905755996704
251.19900012,0.671905755996704
251.808400154,0.609402894973755
252.527179956,0.718782901763916
262.402630091,0.640654325485229
263.043290138,0.640654325485229
263.683940172,0.640654325485229
264.496479988,0.81253719329834
265.105880022,0.609402894973755
265.699660063,0.593777179718018
266.340310097,0.640654325485229
267.027840137,0.687531471252441
267.684120178,0.656280040740967
268.324779987,0.640654325485229
268.996680021,0.671905755996704
269.637340069,0.640654325485229
270.277990103,0.640654325485229
270.98115015,0.703157186508179
271.637429953,0.656280040740967
272.37184,0.734408617019653
272.981240034,0.609402894973755
273.746900082,0.765660047531128
276.872050047,0.687531471252441
277.465820074,0.593777179718018
278.200230122,0.734408617019653
287.419399977,0.57815146446228
288.106930017,0.687531471252441
288.763210058,0.656280040740967
289.419490099,0.656280040740967
290.091400146,0.671905755996704
290.747679949,0.656280040740967
291.43520999,0.687531471252441
292.075870037,0.640654325485229
292.810270071,0.734408617019653
293.388430119,0.57815146446228
294.091580153,0.703157186508179
294.732239962,0.640654325485229
295.388520002,0.656280040740967
296.060420036,0.671905755996704
296.732330084,0.671905755996704
297.435490131,0.703157186508179
298.123020172,0.687531471252441
298.826179981,0.703157186508179
299.498080015,0.671905755996704
300.185610056,0.687531471252441
300.951270103,0.765660047531128
306.060880184,0.640654325485229
306.826539993,0.765660047531128
307.420320034,0.593777179718018
308.060970068,0.640654325485229
308.717250109,0.656280040740967
309.373530149,0.656280040740967
310.014189959,0.640654325485229
310.670469999,0.656280040740967
311.29550004,0.625028610229492
311.936150074,0.640654325485229
312.529930115,0.593777179718018
313.123700142,0.593777179718018
313.826859951,0.703157186508179
318.373939991,0.718782901763916
319.014600039,0.640654325485229
319.702130079,0.687531471252441
320.42091012,0.718782901763916
321.061570168,0.640654325485229
321.78034997,0.718782901763916
322.514760017,0.734408617019653
323.108540058,0.593777179718018
323.811690092,0.703157186508179
324.51485014,0.703157186508179
325.186759949,0.671905755996704
325.843039989,0.656280040740967
326.62432003,0.781285762786865
327.296230078,0.671905755996704
340.562460184,0.687531471252441
341.281239986,0.718782901763916
341.906270027,0.625028610229492
342.656310081,0.750034332275391
343.328210115,0.671905755996704
350.812930107,0.687531471252441
351.531710148,0.718782901763916
352.21923995,0.687531471252441
352.891149998,0.671905755996704
353.422420025,0.531274318695068
354.141210079,0.718782901763916
354.89124012,0.750034332275391
358.157020092,0.703157186508179
362.235330105,0.718782901763916
362.875980139,0.640654325485229
363.43851018,0.562525749206543
364.157289982,0.718782901763916
368.251230001,0.718782901763916
368.938760042,0.687531471252441
369.61067009,0.671905755996704
370.32945013,0.718782901763916
371.048230171,0.718782901763916
377.736040115,0.640654325485229
378.392320156,0.656280040740967
379.189229965,0.796911478042603
380.048640013,0.859414339065552
383.298789978,0.703157186508179
383.970700026,0.671905755996704
384.67385006,0.703157186508179
385.408260107,0.734408617019653
386.064540148,0.656280040740967
386.736449957,0.671905755996704
387.361479998,0.625028610229492
388.127140045,0.765660047531128
388.752170086,0.625028610229492
389.470950127,0.718782901763916
390.095980167,0.625028610229492
394.486799955,0.718782901763916
395.221210003,0.734408617019653
395.971250057,0.750034332275391
396.674400091,0.703157186508179
397.408810139,0.734408617019653
398.143219948,0.734408617019653
398.830749989,0.687531471252441
399.580790043,0.750034332275391
400.237070084,0.656280040740967
400.908970118,0.671905755996704
405.174790144,0.687531471252441
405.799819946,0.625028610229492
406.471729994,0.671905755996704
410.690670013,0.703157186508179
411.393830061,0.703157186508179
412.128240108,0.734408617019653
412.925150156,0.796911478042603
413.643929958,0.718782901763916
414.393970013,0.750034332275391
415.081500053,0.687531471252441
415.862780094,0.781285762786865
416.659690142,0.796911478042603
417.378479958,0.718782901763916
426.222630024,0.671905755996704
426.910160065,0.687531471252441
433.363579988,0.718782901763916
434.035490036,0.671905755996704
434.707400084,0.671905755996704
435.379300117,0.671905755996704
436.051210165,0.671905755996704
436.723109961,0.671905755996704
437.410640001,0.687531471252441
438.145050049,0.734408617019653
438.83258009,0.687531471252441
439.629500151,0.796911478042603
440.270149946,0.640654325485229
441.020179987,0.750034332275391
441.723340034,0.703157186508179
442.410870075,0.687531471252441
443.114030123,0.703157186508179
443.801560163,0.687531471252441
444.489089966,0.687531471252441
445.161000013,0.671905755996704
445.895410061,0.734408617019653
446.551690102,0.656280040740967
450.676880121,0.750034332275391
451.458160162,0.781285762786865
452.067559958,0.609402894973755
452.755100012,0.687531471252441
453.458250046,0.703157186508179
454.2707901,0.81253719329834
457.677200079,0.781285762786865
458.255350113,0.57815146446228
458.942880154,0.687531471252441
459.646039963,0.703157186508179
460.333570004,0.687531471252441
461.083600044,0.750034332275391
461.755510092,0.671905755996704
462.458670139,0.703157186508179
463.130570173,0.671905755996704
463.833729982,0.703157186508179
464.521260023,0.687531471252441
465.240040064,0.718782901763916
465.896320105,0.656280040740967
466.536980152,0.640654325485229
467.208879948,0.671905755996704
467.912039995,0.703157186508179
468.568320036,0.656280040740967
469.255850077,0.687531471252441
470.037140131,0.781285762786865
470.646540165,0.609402894973755
471.318449974,0.671905755996704
471.990350008,0.671905755996704
472.693510056,0.703157186508179
473.334160089,0.640654325485229
473.99044013,0.656280040740967
474.709229946,0.718782901763916
475.38112998,0.671905755996704
475.974910021,0.593777179718018
476.678070068,0.703157186508179
477.412470102,0.734408617019653
486.381639957,0.671905755996704
487.100419998,0.718782901763916
491.241230011,0.656280040740967
491.944390059,0.703157186508179
492.600670099,0.656280040740967
493.35070014,0.750034332275391
494.131989956,0.781285762786865
494.850769997,0.718782901763916
495.460180044,0.609402894973755
496.272710085,0.81253719329834
503.148030043,0.750034332275391
503.804310083,0.656280040740967
507.929500103,0.625028610229492
508.679530144,0.750034332275391
509.398309946,0.718782901763916
510.2421,0.843788623809814
513.492249966,0.562525749206543
514.211030006,0.718782901763916
514.851690054,0.640654325485229
515.632970095,0.781285762786865
523.2427001,0.640654325485229
523.883350134,0.640654325485229
524.524010181,0.640654325485229
525.195909977,0.671905755996704
525.961570024,0.765660047531128
526.617850065,0.656280040740967
527.274130106,0.656280040740967
527.899160147,0.625028610229492
528.555439949,0.656280040740967
529.227349997,0.671905755996704
530.071140051,0.843788623809814
543.212360144,0.703157186508179
543.931139946,0.718782901763916
555.666059971,0.625028610229492
556.384840012,0.718782901763916
557.213000059,0.828162908554077
560.525650024,0.687531471252441
561.244440079,0.718782901763916
561.916340113,0.671905755996704
562.58825016,0.671905755996704
563.166399956,0.57815146446228
570.291730165,0.734408617019653
576.432630062,0.750034332275391
591.667700052,0.593777179718018
592.4021101,0.734408617019653
593.089640141,0.687531471252441
593.964679956,0.875040054321289
594.605340004,0.640654325485229
595.199120045,0.593777179718018
595.886650085,0.687531471252441
600.777500153,0.750034332275391
601.590029955,0.81253719329834
607.668440104,0.609402894973755
614.090610027,0.81253719329834
617.387629986,0.687531471252441
618.075160027,0.687531471252441
618.856450081,0.781285762786865
624.903599977,0.640654325485229
636.216619968,0.734408617019653
636.935400009,0.718782901763916
637.59168005,0.656280040740967
638.294840097,0.703157186508179
638.966740131,0.671905755996704
639.591770172,0.625028610229492
651.295430183,0.671905755996704
652.061089993,0.765660047531128
652.779880047,0.718782901763916
653.529910088,0.750034332275391
654.233070135,0.703157186508179
654.936230183,0.703157186508179
655.701889992,0.765660047531128
656.451920033,0.750034332275391
657.15508008,0.703157186508179
657.967610121,0.81253719329834
658.577020168,0.609402894973755
659.327049971,0.750034332275391
660.092710018,0.765660047531128
660.686490059,0.593777179718018
661.4052701,0.718782901763916
662.12405014,0.718782901763916
665.530460119,0.734408617019653
666.09299016,0.562525749206543
666.811769962,0.718782901763916
667.421169996,0.609402894973755
668.077450037,0.656280040740967
680.890540123,0.703157186508179
681.531190157,0.640654325485229
682.187469959,0.656280040740967
682.859380007,0.671905755996704
683.531280041,0.671905755996704
684.203190088,0.671905755996704
684.859470129,0.656280040740967
685.48450017,0.625028610229492
686.109529972,0.625028610229492
686.765810013,0.656280040740967
687.422090054,0.656280040740967
688.078370094,0.656280040740967
688.734650135,0.656280040740967
689.515930176,0.781285762786865
690.187839985,0.671905755996704
690.844120026,0.656280040740967
691.62541008,0.781285762786865
692.359810114,0.734408617019653
693.047350168,0.687531471252441
693.766129971,0.718782901763916
694.453660011,0.687531471252441
695.203690052,0.750034332275391
696.063110113,0.859414339065552
696.813140154,0.750034332275391
697.56317997,0.750034332275391
703.547830105,0.81253719329834
704.360360146,0.81253719329834
705.094769955,0.734408617019653
705.829180002,0.734408617019653
706.53234005,0.703157186508179
707.25112009,0.718782901763916
708.001150131,0.750034332275391
708.719939947,0.718782901763916
709.391839981,0.671905755996704
710.032500029,0.640654325485229
717.31408,0.750034332275391
717.985990047,0.671905755996704
730.408430099,0.781285762786865
731.236590147,0.828162908554077
731.924119949,0.687531471252441
736.346199989,0.765660047531128
736.955600023,0.609402894973755
737.815020084,0.859414339065552
738.455670118,0.640654325485229
739.221330166,0.765660047531128
740.002619982,0.781285762786865
740.627650023,0.625028610229492
744.862220049,0.718782901763916
745.61225009,0.750034332275391
746.33103013,0.718782901763916
747.034190178,0.703157186508179
747.75296998,0.718782901763916
748.471760035,0.718782901763916
749.206170082,0.734408617019653
749.924950123,0.718782901763916
750.643730164,0.718782901763916
751.300009966,0.656280040740967
763.331809998,0.703157186508179
764.034970045,0.703157186508179
774.504199982,0.796911478042603
775.222980022,0.718782901763916
779.348170042,0.734408617019653
780.02008009,0.671905755996704
780.629480124,0.609402894973755
781.379510164,0.750034332275391
785.489079952,0.625028610229492
786.25474,0.765660047531128
786.848510027,0.593777179718018
787.582920074,0.734408617019653
788.254830122,0.671905755996704
789.11424017,0.859414339065552
792.489400148,0.859414339065552
798.755310059,0.734408617019653
799.364710093,0.609402894973755
800.052240133,0.687531471252441
800.724150181,0.671905755996704
801.380429983,0.656280040740967
802.146090031,0.765660047531128
806.33378005,0.609402894973755
806.990060091,0.656280040740967
807.708840132,0.718782901763916
808.412000179,0.703157186508179
816.740509987,0.562525749206543
817.490540028,0.750034332275391
829.397340059,0.609402894973755
830.0848701,0.687531471252441
830.772400141,0.687531471252441
851.6171,0.734408617019653
852.242130041,0.625028610229492
853.101550102,0.859414339065552
857.726760149,0.640654325485229
858.398660183,0.671905755996704
859.070569992,0.671905755996704
859.758100033,0.687531471252441
860.476880074,0.718782901763916
861.211290121,0.734408617019653
861.992580175,0.781285762786865
862.726989985,0.734408617019653
873.399350166,0.750034332275391
874.180639982,0.781285762786865
874.94630003,0.765660047531128
875.743210077,0.796911478042603
876.446370125,0.703157186508179
877.118270159,0.671905755996704
881.430969954,0.750034332275391
882.196630001,0.765660047531128
882.946660042,0.750034332275391
883.665450096,0.718782901763916
884.415480137,0.750034332275391
885.181139946,0.765660047531128
885.946799994,0.765660047531128
886.618710041,0.671905755996704
887.384370089,0.765660047531128
888.087520123,0.703157186508179
888.82193017,0.734408617019653
889.603219986,0.781285762786865
890.431380033,0.828162908554077
891.322050095,0.890665829181671
894.650320053,0.687531471252441
904.885169983,0.843788623809814
905.666450024,0.781285762786865
906.338360071,0.671905755996704
907.135270119,0.796911478042603
907.791550159,0.656280040740967
908.494709969,0.703157186508179
909.322870016,0.828162908554077
909.93227005,0.609402894973755
910.666680098,0.734408617019653
911.385460138,0.718782901763916
912.072999954,0.687531471252441
912.776149988,0.703157186508179
913.463680029,0.687531471252441
914.166840076,0.703157186508179
914.854370117,0.687531471252441
915.557530165,0.703157186508179
916.245059967,0.687531471252441
916.916970015,0.671905755996704
917.588870049,0.671905755996704
918.307660103,0.718782901763916
918.995190144,0.687531471252441
919.713969946,0.718782901763916
920.448379993,0.734408617019653
921.167160034,0.718782901763916
921.885950089,0.718782901763916
922.604730129,0.718782901763916
923.29226017,0.687531471252441
923.964169979,0.671905755996704
924.65170002,0.687531471252441
925.354850054,0.703157186508179
926.026760101,0.671905755996704
926.729920149,0.703157186508179
927.448699951,0.718782901763916
928.167479992,0.718782901763916
928.855010033,0.687531471252441
929.55817008,0.703157186508179
930.276950121,0.718782901763916
930.964490175,0.687531471252441
931.636389971,0.671905755996704
932.323920012,0.687531471252441
932.980200052,0.656280040740967
933.6208601,0.640654325485229
934.292760134,0.671905755996704
935.07404995,0.781285762786865
935.995970011,0.921917259693146
944.13696003,0.671905755996704
944.79324007,0.656280040740967
945.543280125,0.750034332275391
946.246440172,0.703157186508179
946.933969975,0.687531471252441
947.652750015,0.718782901763916
948.371530056,0.718782901763916
949.137190104,0.765660047531128
949.855980158,0.718782901763916
950.54350996,0.687531471252441
954.887459993,0.734408617019653
955.496860027,0.609402894973755
956.262520075,0.765660047531128
957.059430122,0.796911478042603
957.809460163,0.750034332275391
958.512619972,0.703157186508179
959.30953002,0.796911478042603
960.043940067,0.734408617019653
960.731470108,0.687531471252441
961.419000149,0.687531471252441
962.169039965,0.750034332275391
962.809689999,0.640654325485229
963.559730053,0.750034332275391
964.169130087,0.609402894973755
978.451030016,0.843788623809814
981.748059988,0.671905755996704
982.466840029,0.718782901763916
983.201250076,0.734408617019653
983.904410124,0.703157186508179
984.607570171,0.703157186508179
985.357599974,0.750034332275391
990.545340061,0.718782901763916
991.264120102,0.718782901763916
991.998530149,0.734408617019653
992.701689959,0.703157186508179
993.404839993,0.703157186508179
994.13925004,0.734408617019653
994.826780081,0.687531471252441
995.529940128,0.703157186508179
996.264350176,0.734408617019653
996.936259985,0.671905755996704
997.733170033,0.796911478042603
998.451950073,0.718782901763916
1005.65540004,0.687531471252441
1006.32731009,0.671905755996704
1006.98359013,0.656280040740967
1021.43738008,0.750034332275391
1031.93786001,0.750034332275391
1032.65664005,0.718782901763916
1033.3598001,0.703157186508179
1034.06295013,0.703157186508179
1034.76611018,0.703157186508179
1035.5474,0.781285762786865
1036.29743004,0.750034332275391
1071.7521801,0.703157186508179
1077.26805997,0.734408617019653
1099.48782015,0.765660047531128
1100.22222996,0.734408617019653
1100.89414001,0.671905755996704
1101.64417005,0.750034332275391
1159.77183008,0.81253719329834
1160.55312014,0.781285762786865
1161.35003018,0.796911478042603
1162.11568999,0.765660047531128
1162.97511005,0.859414339065552
1225.66548014,0.734408617019653
1226.44676018,0.781285762786865
1227.24366999,0.796911478042603
1227.99371004,0.750034332275391
1228.74374008,0.750034332275391
1229.50940013,0.765660047531128
1230.29069018,0.781285762786865
1231.02509999,0.734408617019653
1231.80638003,0.781285762786865
1232.63454008,0.828162908554077
1233.41583014,0.781285762786865
1234.19711995,0.781285762786865
1234.97839999,0.781285762786865
1235.79094005,0.81253719329834
1236.50972009,0.718782901763916
1237.24413013,0.734408617019653
1237.97854018,0.734408617019653
1238.71294999,0.734408617019653
1239.41610003,0.703157186508179
1240.18176007,0.765660047531128
1240.94742012,0.765660047531128
1241.71308017,0.765660047531128
1242.49436998,0.781285762786865
1243.26003003,0.765660047531128
1259.33889008,0.734408617019653
1260.05767012,0.718782901763916
1260.74521017,0.687531471252441
1261.51086998,0.765660047531128
1262.13589001,0.625028610229492
1262.77655005,0.640654325485229
1263.4797101,0.703157186508179
1264.16724014,0.687531471252441
1264.80789018,0.640654325485229
1265.58917999,0.781285762786865
1266.24546003,0.656280040740967
1266.97987008,0.734408617019653
1267.71428013,0.734408617019653
1268.41743016,0.703157186508179
1269.08933997,0.671905755996704
1276.82406998,0.718782901763916
1277.57410002,0.750034332275391
1278.18350005,0.609402894973755
1278.87104011,0.687531471252441
1279.54294014,0.671905755996704
1285.74635005,0.750034332275391
1286.5588901,0.81253719329834
1287.49643016,0.937542915344238
1300.41890001,0.703157186508179
1301.15331006,0.734408617019653
1301.9033401,0.750034332275391
1302.62212014,0.718782901763916
1303.38777995,0.765660047531128
1324.8418901,0.828162908554077
1325.59192014,0.750034332275391
1326.23257995,0.640654325485229
1326.92010999,0.687531471252441
1327.60764003,0.687531471252441
1328.31080008,0.703157186508179
1328.99833012,0.687531471252441
1329.68586016,0.687531471252441
1330.38901997,0.703157186508179
1331.13905001,0.750034332275391
1331.85784006,0.718782901763916
1332.5766201,0.718782901763916
1338.84253001,0.687531471252441
1339.51444006,0.671905755996704
1350.01492,0.703157186508179
1350.76495004,0.750034332275391
1351.59311008,0.828162908554077
1352.24939013,0.656280040740967
1353.03068018,0.781285762786865
1353.78070998,0.750034332275391
1354.48387003,0.703157186508179
1355.20265007,0.718782901763916
1355.98394012,0.781285762786865
1356.64022017,0.656280040740967
1357.35899997,0.718782901763916
1358.12466002,0.765660047531128
1358.87470007,0.750034332275391
1375.82860017,0.765660047531128
1376.51612997,0.687531471252441
1377.20366001,0.687531471252441
1377.92244005,0.718782901763916
1378.67248011,0.750034332275391
1379.37564015,0.703157186508179
1380.09441996,0.718782901763916
1380.89133,0.796911478042603
1381.57886004,0.687531471252441
1382.31327009,0.734408617019653
1383.04768014,0.734408617019653
1383.78208995,0.734408617019653
1384.53211999,0.750034332275391
1385.29778004,0.765660047531128
1386.06344008,0.765660047531128
1386.81348014,0.750034332275391
1387.56351018,0.750034332275391
1393.47003007,0.687531471252441
1394.17319012,0.703157186508179
1394.89197016,0.718782901763916
1395.61074996,0.718782901763916
1396.29829001,0.687531471252441
1397.03269005,0.734408617019653
1397.7514801,0.718782901763916
1398.51714015,0.765660047531128
1399.25154996,0.734408617019653
1399.98594999,0.734408617019653
1400.73599005,0.750034332275391
1401.45477009,0.718782901763916
1402.15793014,0.703157186508179
1402.87671018,0.718782901763916
1403.62674999,0.750034332275391
1404.37678003,0.750034332275391
1405.03306007,0.656280040740967
1405.76747012,0.734408617019653
1406.53313017,0.765660047531128
1407.18940997,0.656280040740967
1412.93967009,0.718782901763916
1413.67408013,0.734408617019653
1492.67770004,0.734408617019653
1493.44336009,0.765660047531128
1494.08401012,0.640654325485229
1512.7411201,0.796911478042603
1513.47552013,0.734408617019653
1514.38181996,0.906291484832764
1517.72572017,0.750034332275391
1518.49137998,0.765660047531128
1519.19454002,0.703157186508179
1519.94457006,0.750034332275391
1520.72586012,0.781285762786865
1521.53839016,0.81253719329834
1522.28842998,0.750034332275391
1523.08534002,0.796911478042603
1523.83537006,0.750034332275391
1524.56978011,0.734408617019653
1525.28857017,0.718782901763916
1526.00734997,0.718782901763916
1526.75738001,0.750034332275391
1527.46054006,0.703157186508179
1528.2262001,0.765660047531128
1528.99186015,0.765660047531128
1529.74188995,0.750034332275391
1530.46068001,0.718782901763916
1531.17946005,0.718782901763916
1531.9138701,0.734408617019653
1532.66390014,0.750034332275391
1533.39830995,0.734408617019653
1534.14835,0.750034332275391
1534.89838004,0.750034332275391
1535.63279009,0.734408617019653
1536.38282013,0.750034332275391
1537.14848018,0.765660047531128
1537.88288999,0.734408617019653
1538.61730003,0.734408617019653
1539.35171008,0.734408617019653
1540.10174012,0.750034332275391
1540.85178018,0.750034332275391
1541.64868999,0.796911478042603
1542.46123004,0.81253719329834
1543.22689009,0.765660047531128
1543.99255013,0.765660047531128
1544.75821018,0.765660047531128
1545.50823998,0.750034332275391
1546.22702003,0.718782901763916
1546.94581008,0.718782901763916
1547.69584012,0.750034332275391
1548.39900017,0.703157186508179
1549.13340998,0.734408617019653
1549.86782002,0.734408617019653
1550.60222006,0.734408617019653
1551.32101011,0.718782901763916
1552.03979015,0.718782901763916
1552.78981996,0.750034332275391
1553.50861001,0.718782901763916
1554.22739005,0.718782901763916
1554.94617009,0.718782901763916
1555.68058014,0.734408617019653
1556.39936018,0.718782901763916
1557.13376999,0.734408617019653
1557.88381004,0.750034332275391
1558.63384008,0.750034332275391
1559.38388014,0.750034332275391
1560.16516018,0.781285762786865
1560.93081999,0.765660047531128
1561.68086004,0.750034332275391
1562.46214008,0.781285762786865
1563.27468014,0.81253719329834
1564.04033995,0.765660047531128
1564.80599999,0.765660047531128
1565.57166004,0.765660047531128
1566.32169008,0.750034332275391
1567.02485013,0.703157186508179
1567.75926018,0.734408617019653
1568.46241999,0.703157186508179
1569.11870003,0.656280040740967
1584.49440002,0.718782901763916
1585.24443007,0.750034332275391
1586.01009011,0.765660047531128
1586.76013017,0.750034332275391
1587.51015997,0.750034332275391
1588.26020002,0.750034332275391
1589.04148006,0.781285762786865
1787.31617999,0.687531471252441
1788.01934004,0.703157186508179
1788.78500009,0.765660047531128
1789.44128013,0.656280040740967
1790.16006017,0.718782901763916
1790.94134998,0.781285762786865
1811.16103005,0.703157186508179
1811.83293009,0.671905755996704
1834.45897007,0.625028610229492
1835.08400011,0.625028610229492
1843.36562014,0.562525749206543
1843.95940018,0.593777179718018
1844.52192998,0.562525749206543
1845.10008001,0.57815146446228
1845.67823005,0.57815146446228
1846.25638008,0.57815146446228
1864.22595,0.703157186508179
1864.88223004,0.656280040740967
1865.61664009,0.734408617019653
1866.50731015,0.890665829181671
1912.72817016,0.687531471252441
1913.43132997,0.703157186508179
1914.15011001,0.718782901763916
1914.86890006,0.718782901763916
1915.60331011,0.734408617019653
1916.40022016,0.796911478042603
1917.11899996,0.718782901763916
1917.82216001,0.703157186508179
1918.54094005,0.718782901763916
1919.25972009,0.718782901763916
1919.96288013,0.703157186508179
1920.68166018,0.718782901763916
1926.96320009,0.687531471252441
1927.69761014,0.734408617019653
1928.29139018,0.593777179718018
1929.04141998,0.750034332275391
1929.71333003,0.671905755996704
1930.40086007,0.687531471252441
1931.04151011,0.640654325485229
1931.71342015,0.671905755996704
1932.41657996,0.703157186508179
1943.63584018,0.703157186508179
1944.35461998,0.718782901763916
1945.04215002,0.687531471252441
1945.74531007,0.703157186508179
1946.46409011,0.718782901763916
1947.15163016,0.687531471252441
1947.85477996,0.703157186508179
1948.55794001,0.703157186508179
1949.26110005,0.703157186508179
1949.96425009,0.703157186508179
1950.65179014,0.687531471252441
2090.23629999,0.734408617019653
2091.00196004,0.765660047531128
2091.73637009,0.734408617019653
2092.43953013,0.703157186508179
2093.15831017,0.718782901763916
2093.90833998,0.750034332275391
2094.62713003,0.718782901763916
2095.47091007,0.843788623809814
2096.12719011,0.656280040740967
2096.86160016,0.734408617019653
2097.65850997,0.796911478042603
2109.83095002,0.750034332275391
2110.56536007,0.734408617019653
2111.22164011,0.656280040740967
2111.98730016,0.765660047531128
2112.70607996,0.718782901763916
2113.44049001,0.734408617019653
2114.15927005,0.718782901763916
2114.8936801,0.734408617019653
2115.67496014,0.781285762786865
2116.39374995,0.718782901763916
2117.11252999,0.718782901763916
2117.81569004,0.703157186508179
2189.86585999,0.718782901763916
2190.56902003,0.703157186508179
2191.25655007,0.687531471252441
2191.94408011,0.687531471252441
2192.60036016,0.656280040740967
2193.38164997,0.781285762786865
2213.46069002,0.718782901763916
2214.11697006,0.656280040740967
2214.82013011,0.703157186508179
2215.55454016,0.734408617019653
2226.64879012,0.750034332275391
2227.38320017,0.734408617019653
2228.07072997,0.687531471252441
2228.77389002,0.703157186508179
2229.46142006,0.687531471252441
2230.1489501,0.687531471252441
2610.19760013,0.656280040740967
2610.90076017,0.703157186508179
2611.61953998,0.718782901763916
2612.38520002,0.765660047531128
2613.07273006,0.687531471252441
2613.83839011,0.765660047531128
2614.61968017,0.781285762786865
2725.01536012,0.765660047531128
2746.03193998,0.703157186508179
2746.79760003,0.765660047531128
2747.50076008,0.703157186508179
2748.25080013,0.750034332275391
2758.42314005,0.687531471252441
2759.2200501,0.796911478042603
2759.97008014,0.750034332275391
2969.47967005,0.656280040740967
2970.1828301,0.703157186508179
2970.85474014,0.671905755996704
2971.57352018,0.718782901763916
2987.85551,0.750034332275391
2988.51179004,0.656280040740967
2989.19933009,0.687531471252441
2989.88686013,0.687531471252441
2990.54314017,0.656280040740967
2991.29316998,0.750034332275391
2991.93383002,0.640654325485229
2996.84030008,0.734408617019653
2997.54346013,0.703157186508179
2998.24661016,0.703157186508179
2998.96539998,0.718782901763916
2999.69981003,0.734408617019653
3000.41859007,0.718782901763916
3001.13737011,0.718782901763916
3001.84053016,0.703157186508179
3002.52805996,0.687531471252441
3003.24684,0.718782901763916
3003.91875005,0.671905755996704
3004.6219101,0.703157186508179
3005.32506013,0.703157186508179
3006.02822018,0.703157186508179
3006.74699998,0.718782901763916
3007.43453002,0.687531471252441
3008.15332007,0.718782901763916
3008.87210011,0.718782901763916
3009.55963016,0.687531471252441
3010.27840996,0.718782901763916
3010.99720001,0.718782901763916
3011.70035005,0.703157186508179
3012.37226009,0.671905755996704
3013.09104013,0.718782901763916
3013.80982995,0.718782901763916
3014.52860999,0.718782901763916
3015.23177004,0.703157186508179
3015.96618009,0.734408617019653
3016.73184013,0.765660047531128
3017.41937017,0.687531471252441
3018.15377998,0.734408617019653
3018.81006002,0.656280040740967
3019.56009007,0.750034332275391
3020.29450011,0.734408617019653
3021.04453015,0.750034332275391
3021.77893996,0.734408617019653
3022.41960001,0.640654325485229
3023.13838005,0.718782901763916
3023.81028008,0.671905755996704
3024.49782014,0.687531471252441
3025.26347995,0.765660047531128
3025.93537998,0.671905755996704
3026.70104003,0.765660047531128
3027.46670008,0.765660047531128
3028.23236012,0.765660047531128
3029.04490018,0.81253719329834
3029.79492998,0.750034332275391
3030.60747004,0.81253719329834
3031.34188008,0.734408617019653
3032.02941012,0.687531471252441
3032.74819016,0.718782901763916
3033.45134997,0.703157186508179
3034.10763001,0.656280040740967
3034.82641006,0.718782901763916
3035.51395011,0.687531471252441
3036.09210014,0.57815146446228
3036.84213018,0.750034332275391
3037.62342,0.781285762786865
3038.23282003,0.609402894973755
3038.92035007,0.687531471252441
3039.63913012,0.718782901763916
3040.32667017,0.687531471252441
3044.65498996,0.687531471252441
3045.37377,0.718782901763916
3051.82719016,0.765660047531128
3052.51471996,0.687531471252441
3053.24913001,0.734408617019653
3053.92104006,0.671905755996704
3054.6398201,0.718782901763916
3055.46798015,0.828162908554077
3056.09300995,0.625028610229492
3056.84305,0.750034332275391
3057.57745004,0.734408617019653
3058.28061008,0.703157186508179
3059.01502013,0.734408617019653
3059.60880017,0.593777179718018
3064.03087997,0.765660047531128
3064.74966002,0.718782901763916
3065.45282006,0.703157186508179
3066.1716001,0.718782901763916
3066.89038014,0.718782901763916
3067.62478995,0.734408617019653
3068.31231999,0.687531471252441
3069.06236005,0.750034332275391
3069.78114009,0.718782901763916
3070.46867013,0.687531471252441
3071.18745017,0.718782901763916
3071.93748999,0.750034332275391
3072.65627003,0.718782901763916
3073.42193007,0.765660047531128
3074.12509012,0.703157186508179
3074.81262016,0.687531471252441
3075.53139997,0.718782901763916
3076.31269002,0.781285762786865
3077.00022006,0.687531471252441
3077.7502501,0.750034332275391
3078.46904016,0.718782901763916
3079.15656996,0.687531471252441
3079.87535,0.718782901763916
3080.64101005,0.765660047531128
3081.3910501,0.750034332275391
3082.12545013,0.734408617019653
3082.89111018,0.765660047531128
3083.6724,0.781285762786865
3084.39118004,0.718782901763916
3085.18809009,0.796911478042603
3085.87563014,0.687531471252441
3086.59441018,0.718782901763916
3087.34443998,0.750034332275391
3088.14135003,0.796911478042603
3088.90701008,0.765660047531128
3089.67267013,0.765660047531128
3090.43833017,0.765660047531128
3091.20398998,0.765660047531128
3091.93840003,0.734408617019653
3092.67281008,0.734408617019653
3093.39159012,0.718782901763916
3094.14163017,0.750034332275391
3094.82915998,0.687531471252441
3095.53232002,0.703157186508179
3096.37611008,0.843788623809814
3102.11073995,0.703157186508179
3102.81389999,0.703157186508179
3103.56393003,0.750034332275391
3104.28272009,0.718782901763916
3104.98588014,0.703157186508179
3105.70466018,0.718782901763916
3106.40781999,0.703157186508179
3107.09535003,0.687531471252441
3107.82976007,0.734408617019653
3108.56416011,0.734408617019653
3109.32982016,0.765660047531128
3110.07985997,0.750034332275391
3110.78302002,0.703157186508179
3111.53305006,0.750034332275391
3112.2518301,0.718782901763916
3113.00187016,0.750034332275391
3113.72064996,0.718782901763916
3114.40818,0.687531471252441
3115.14259005,0.734408617019653
3115.89262009,0.750034332275391
3116.61141014,0.718782901763916
3117.34581995,0.734408617019653
3118.14273,0.796911478042603
3118.86151004,0.718782901763916
3119.51779008,0.656280040740967
3120.20532012,0.687531471252441
3121.00223017,0.796911478042603
3121.62725997,0.625028610229492
3122.33042002,0.703157186508179
3123.04920006,0.718782901763916
3123.78361011,0.734408617019653
3124.51802015,0.734408617019653
3125.28367996,0.765660047531128
3126.01809001,0.734408617019653
3126.73687005,0.718782901763916
3127.45565009,0.718782901763916
3128.17444015,0.718782901763916
3128.86196995,0.687531471252441
3129.56513,0.703157186508179
3130.28391004,0.718782901763916
3131.00269008,0.718782901763916
3131.73710012,0.734408617019653
3132.47151017,0.734408617019653
3133.23716998,0.765660047531128
3133.95595002,0.718782901763916
3134.69036007,0.734408617019653
3135.45602012,0.765660047531128
3136.14355016,0.687531471252441
3136.86232996,0.718782901763916
3137.58112001,0.718782901763916
3138.29990005,0.718782901763916
3138.9874301,0.687531471252441
3139.70621014,0.718782901763916
3140.37812018,0.671905755996704
3141.06564999,0.687531471252441
3141.75318003,0.687531471252441
3142.45634007,0.703157186508179
3143.15950012,0.703157186508179
3143.86265016,0.703157186508179
3144.59705997,0.734408617019653
3145.36272001,0.765660047531128
3146.08151007,0.718782901763916
3146.8159101,0.734408617019653
3147.55032015,0.734408617019653
3148.28472996,0.734408617019653
3149.00351,0.718782901763916
3149.70667005,0.703157186508179
3150.4254601,0.718782901763916
3151.15986013,0.734408617019653
3151.90989995,0.750034332275391
3152.64431,0.734408617019653
3153.37872005,0.734408617019653
3154.09750009,0.718782901763916
3154.86316013,0.765660047531128
3155.62882018,0.765660047531128
3156.34759998,0.718782901763916
3157.08201003,0.734408617019653
3157.83204007,0.750034332275391
3158.59770012,0.765660047531128
3159.31649017,0.718782901763916
3160.03526998,0.718782901763916
3160.76968002,0.734408617019653
3161.50409007,0.734408617019653
3162.19162011,0.687531471252441
3162.91040015,0.718782901763916
3163.62917995,0.718782901763916
3164.39484,0.765660047531128
3170.83264017,0.718782901763916
3171.56704998,0.734408617019653
3175.67660999,0.687531471252441
3176.34852004,0.671905755996704
3177.03605008,0.687531471252441
3177.75483012,0.718782901763916
3178.44236016,0.687531471252441
3179.16114998,0.718782901763916
3179.95806003,0.796911478042603
3180.56746006,0.609402894973755
3181.36437011,0.796911478042603
3182.09878016,0.734408617019653
3182.72380996,0.625028610229492
3183.47384,0.750034332275391
3184.14575005,0.671905755996704
3184.86453009,0.718782901763916
3185.56769013,0.703157186508179
3186.27085018,0.703157186508179
3187.05212998,0.781285762786865
3187.72404003,0.671905755996704
3188.44282007,0.718782901763916
3189.19285011,0.750034332275391
3189.89601016,0.703157186508179
3190.61478996,0.718782901763916
3191.33358002,0.718782901763916
3192.05236006,0.718782901763916
3192.7711401,0.718782901763916
3193.45867014,0.687531471252441
3194.17745996,0.718782901763916
3194.83374,0.656280040740967
3195.55252004,0.718782901763916
3196.25568008,0.703157186508179
3196.99009013,0.734408617019653
3197.70887017,0.718782901763916
3198.42764997,0.718782901763916
3199.16206002,0.734408617019653
3232.02294016,0.765660047531128
3232.71046996,0.687531471252441
3233.398,0.687531471252441
3234.08553004,0.687531471252441
3234.78869009,0.703157186508179
3235.46060014,0.671905755996704
3236.16375017,0.703157186508179
3236.83565998,0.671905755996704
3237.60132003,0.765660047531128
3238.25760007,0.656280040740967
3239.00763011,0.750034332275391
3239.71079016,0.703157186508179
3240.42956996,0.718782901763916
3241.16398001,0.734408617019653
3241.83589005,0.671905755996704
3274.60301018,0.828162908554077
3275.19678998,0.593777179718018
3275.86870003,0.671905755996704
3297.57281995,0.859414339065552
3298.24471998,0.671905755996704
3298.96350002,0.718782901763916
3299.71354008,0.750034332275391
3300.43232012,0.718782901763916
3301.04172015,0.609402894973755
3301.77612996,0.734408617019653
3302.52617002,0.750034332275391
3303.24495006,0.718782901763916
3303.9012301,0.656280040740967
3304.71377015,0.81253719329834
3305.40129995,0.687531471252441
3309.69836998,0.765660047531128
3310.40153003,0.703157186508179
3311.08906007,0.687531471252441
3311.80784011,0.718782901763916
3312.44850016,0.640654325485229
3313.15164995,0.703157186508179
3313.93294001,0.781285762786865
3314.54234004,0.609402894973755
3315.22987008,0.687531471252441
3315.96428013,0.734408617019653
3316.63619018,0.671905755996704
3343.71555018,0.640654325485229
3344.46559,0.750034332275391
3345.15312004,0.687531471252441
3345.90315008,0.750034332275391
3346.57506013,0.671905755996704
3347.26259017,0.687531471252441
3360.27881002,0.609402894973755
3360.98197007,0.703157186508179
3361.60700011,0.625028610229492
3362.24765015,0.640654325485229
3362.88830996,0.640654325485229
3363.51332998,0.625028610229492
3364.15399003,0.640654325485229
3364.77902007,0.625028610229492
3365.4196701,0.640654325485229
3366.01345015,0.593777179718018
3366.62285018,0.609402894973755
3367.21662998,0.593777179718018
3367.79478002,0.57815146446228
3368.38856006,0.593777179718018
3368.96671009,0.57815146446228
3369.56049013,0.593777179718018
3370.15426016,0.593777179718018
3378.88903999,0.57815146446228
3385.93623996,0.687531471252441
3386.65502,0.718782901763916
3387.29567003,0.640654325485229
3387.99883008,0.703157186508179
3388.71761012,0.718782901763916
3389.43640018,0.718782901763916
3390.13954997,0.703157186508179
3390.92084002,0.781285762786865
3391.63962007,0.718782901763916
3392.37403011,0.734408617019653
3392.98343015,0.609402894973755
3393.73346996,0.750034332275391
3394.45225,0.718782901763916
3400.71816015,0.781285762786865
3404.28082013,0.765660047531128
3405.06210995,0.781285762786865
3405.76526999,0.703157186508179
3427.36001015,0.718782901763916
3428.09441018,0.734408617019653
3428.78195,0.687531471252441
3429.53198004,0.750034332275391
3430.18826008,0.656280040740967
3430.92267013,0.734408617019653
3431.64145017,0.718782901763916
3432.32897997,0.687531471252441
3433.00089002,0.671905755996704
3433.71967006,0.718782901763916
3434.4540801,0.734408617019653
3435.14161015,0.687531471252441
3435.90726995,0.765660047531128
3448.23596001,0.671905755996704
3449.00162005,0.765660047531128
3449.7985301,0.796911478042603
3450.57982016,0.781285762786865
3451.37672997,0.796911478042603
3452.14239001,0.765660047531128
3452.92368007,0.781285762786865
3460.92404008,0.734408617019653
3461.65845013,0.734408617019653
3462.40849018,0.750034332275391
3463.14288998,0.734408617019653
3463.90855002,0.765660047531128
3464.70547009,0.796911478042603
3465.51800013,0.81253719329834
3466.29929018,0.781285762786865
3467.09619999,0.796911478042603
3467.87749004,0.781285762786865
3468.67440009,0.796911478042603
3469.47131014,0.796911478042603
3470.25259018,0.781285762786865
3471.06513,0.81253719329834
3471.90892005,0.843788623809814
3472.7058301,0.796911478042603
3473.51837015,0.81253719329834
3489.86286998,0.750034332275391
3490.64415002,0.781285762786865
3491.44106007,0.796911478042603
3492.20672011,0.765660047531128
3492.97238016,0.765660047531128
3493.72241998,0.750034332275391
3494.47245002,0.750034332275391
3495.19124007,0.718782901763916
3495.94127011,0.750034332275391
3496.69130015,0.750034332275391
3497.42570996,0.734408617019653
3498.19137001,0.765660047531128
3498.95703006,0.765660047531128
3499.72269011,0.765660047531128
3500.50398016,0.781285762786865
3501.30088997,0.796911478042603
3502.09780002,0.796911478042603
3502.89471006,0.796911478042603
3503.72288013,0.828162908554077
3504.50416017,0.781285762786865
3505.26981997,0.765660047531128
3506.05111003,0.781285762786865
3506.84802008,0.796911478042603
3507.59805012,0.750034332275391
3508.36371017,0.765660047531128
3509.12936997,0.765660047531128
3509.84816003,0.718782901763916
3510.55131006,0.703157186508179
3511.23885012,0.687531471252441
3511.95763016,0.718782901763916
3512.67640996,0.718782901763916
3513.42645001,0.750034332275391
3514.16085005,0.734408617019653
3514.8796401,0.718782901763916
3515.58279014,0.703157186508179
3516.27032995,0.687531471252441
3516.98910999,0.718782901763916
3517.67664003,0.687531471252441
3518.39542007,0.718782901763916
3532.77108002,0.765660047531128
3533.52112007,0.750034332275391
3534.23990011,0.718782901763916
3534.98993015,0.750034332275391
3535.77121997,0.781285762786865
3536.55250001,0.781285762786865
3537.34942007,0.796911478042603
3538.16195011,0.81253719329834
3538.94324017,0.781285762786865
3539.70889997,0.765660047531128
3540.45893002,0.750034332275391
3541.20897007,0.750034332275391
3553.19389009,0.718782901763916
3553.94393015,0.750034332275391
3554.69395995,0.750034332275391
3555.45962,0.765660047531128
3556.19403005,0.734408617019653
3556.94406009,0.750034332275391
3557.66285014,0.718782901763916
3558.38163018,0.718782901763916
3559.08478999,0.703157186508179
3571.56973004,0.765660047531128
3572.33539009,0.765660047531128
3573.06980014,0.734408617019653
3573.80420995,0.734408617019653
3583.42965007,0.734408617019653
3584.19531012,0.765660047531128
3584.94534016,0.750034332275391
3585.69537997,0.750034332275391
3586.46104002,0.765660047531128
3587.16420007,0.703157186508179
3587.92986012,0.765660047531128
3588.66426015,0.734408617019653
3589.46117997,0.796911478042603
3590.17996001,0.718782901763916
3590.89874005,0.718782901763916
3591.6644001,0.765660047531128
3592.41444016,0.750034332275391
3593.18009996,0.765660047531128
3593.97701001,0.796911478042603
3594.75829005,0.781285762786865
3595.47708011,0.718782901763916
3596.30524015,0.828162908554077
3596.97714996,0.671905755996704
3597.69593,0.718782901763916
3598.41471004,0.718782901763916
3599.1960001,0.781285762786865
3599.94603014,0.750034332275391
3600.71168995,0.765660047531128
3601.53985,0.828162908554077
3602.21176004,0.671905755996704
3617.89998007,0.687531471252441
3618.60314012,0.703157186508179
3628.47859001,0.734408617019653
3629.16612005,0.687531471252441
3633.41631007,0.703157186508179
3634.11947012,0.703157186508179
3634.88513017,0.765660047531128
3635.60390997,0.718782901763916
3636.29144001,0.687531471252441
3642.68236017,0.718782901763916
3676.98081017,0.609402894973755
3683.6842401,0.750034332275391
3684.40302014,0.718782901763916
3685.19992995,0.796911478042603
3685.88747001,0.687531471252441
3686.65313005,0.765660047531128
3694.46598005,0.718782901763916
3695.18477011,0.718782901763916
3695.82542014,0.640654325485229
3696.49732995,0.671905755996704
3697.16922998,0.671905755996704
3697.82551003,0.656280040740967
3698.60680008,0.781285762786865
3699.27870011,0.671905755996704
3699.96623015,0.687531471252441
3700.66938996,0.703157186508179
3701.37255001,0.703157186508179
3702.01320004,0.640654325485229
3702.71636009,0.703157186508179
3703.43514013,0.718782901763916
3704.15392995,0.718782901763916
3704.95084,0.796911478042603
3705.54461002,0.593777179718018
3715.71695995,0.750034332275391
3716.43573999,0.718782901763916
3717.17015004,0.734408617019653
3717.87330008,0.703157186508179
3718.56084013,0.687531471252441
3719.24837017,0.687531471252441
3733.29589009,0.750034332275391
3750.93731999,0.734408617019653
3751.57797003,0.640654325485229
3755.68754005,0.703157186508179
3756.4063201,0.718782901763916
3757.10948014,0.703157186508179
3757.81263018,0.703157186508179
3758.53141999,0.718782901763916
3759.23457003,0.703157186508179
3759.90648007,0.671905755996704
3760.57838011,0.671905755996704
3761.26592016,0.687531471252441
3761.95344996,0.687531471252441
3762.64098001,0.687531471252441
3763.35976005,0.718782901763916
3764.1098001,0.750034332275391
3764.87546015,0.765660047531128
3765.65673995,0.781285762786865
3766.45365,0.796911478042603
3767.26619005,0.81253719329834
3768.07873011,0.81253719329834
3768.87564015,0.796911478042603
3769.67254996,0.796911478042603
3770.43821001,0.765660047531128
3771.20387006,0.765660047531128
3771.96953011,0.765660047531128
3772.70394015,0.734408617019653
3773.42271996,0.718782901763916
3774.11025,0.687531471252441
3800.89273,0.656280040740967
3801.56464005,0.671905755996704
3802.26779008,0.703157186508179
3803.01783013,0.750034332275391
3803.78349018,0.765660047531128
3804.56476998,0.781285762786865
3805.36168003,0.796911478042603
3806.15860009,0.796911478042603
3806.89300013,0.734408617019653
3807.64304018,0.750034332275391
3808.43994999,0.796911478042603
3809.20561004,0.765660047531128
3809.98690009,0.781285762786865
3810.78381014,0.796911478042603
3811.54946995,0.765660047531128
3812.31513,0.765660047531128
3813.09641004,0.781285762786865
3813.83082008,0.734408617019653
3814.59648013,0.765660047531128
3815.34651995,0.750034332275391
3816.08091998,0.734408617019653
3816.81533003,0.734408617019653
3817.56537008,0.750034332275391
3818.33103013,0.765660047531128
3819.06544018,0.734408617019653
3819.83109999,0.765660047531128
3820.59676003,0.765660047531128
3821.33117008,0.734408617019653
3822.08120012,0.750034332275391
3822.87811017,0.796911478042603
3823.62814999,0.750034332275391
3824.42506003,0.796911478042603
3825.19072008,0.765660047531128
3825.90950012,0.718782901763916
3826.62828016,0.718782901763916
3827.37831998,0.750034332275391
3828.09710002,0.718782901763916
3828.81588006,0.718782901763916
3829.61279011,0.796911478042603
3830.39408016,0.781285762786865
3831.22223997,0.828162908554077
3832.06603003,0.843788623809814
3832.84732008,0.781285762786865
3833.56610012,0.718782901763916
3834.25363016,0.687531471252441
3834.95678997,0.703157186508179
3835.70682001,0.750034332275391
3836.45686007,0.750034332275391
3837.19127011,0.734408617019653
3837.98818016,0.796911478042603
3838.83196998,0.843788623809814
3839.70701003,0.875040054321289
3840.47267008,0.765660047531128
3841.22270012,0.750034332275391
3841.98836017,0.765660047531128
3842.75401998,0.765660047531128
3843.50405002,0.750034332275391
3844.25409007,0.750034332275391
3844.95725012,0.703157186508179
3845.67603016,0.718782901763916
3846.41043997,0.734408617019653
3847.14485002,0.734408617019653
3847.86363006,0.718782901763916
3848.5667901,0.703157186508179
3849.28557014,0.718782901763916
3850.01997995,0.734408617019653
3850.77000999,0.750034332275391
3851.53567004,0.765660047531128
3852.23883009,0.703157186508179
3852.97324014,0.734408617019653
3853.69202018,0.718782901763916
3854.44205999,0.750034332275391
3855.17646003,0.734408617019653
3855.89525008,0.718782901763916
3856.61403012,0.718782901763916
3857.34844017,0.734408617019653
3858.08284998,0.734408617019653
3858.78600001,0.703157186508179
3859.53604007,0.750034332275391
3860.30170012,0.765660047531128
3861.05173016,0.750034332275391
3861.80176997,0.750034332275391
3862.55180001,0.750034332275391
3863.31746006,0.765660047531128
3864.0362401,0.718782901763916
3864.80190015,0.765660047531128
3865.56755996,0.765660047531128
3866.31760001,0.750034332275391
3873.61480999,0.750034332275391
3874.47422004,0.859414339065552
3875.17738008,0.703157186508179
3875.92741013,0.750034332275391
3876.69307017,0.765660047531128
3877.45872998,0.765660047531128
3878.14627004,0.687531471252441
3878.80255008,0.656280040740967
3879.52133012,0.718782901763916
3880.19323015,0.671905755996704
3880.91201997,0.718782901763916
3881.58392,0.671905755996704
3882.27145004,0.687531471252441
3882.94336009,0.671905755996704
3883.69339013,0.750034332275391
3884.41217995,0.718782901763916
3885.09970999,0.687531471252441
3885.89662004,0.796911478042603
3886.56853008,0.671905755996704
3887.30293012,0.734408617019653
3888.05297017,0.750034332275391
3888.72486997,0.671905755996704
3889.47491002,0.750034332275391
3890.17807007,0.703157186508179
3890.91248012,0.734408617019653
3891.60001016,0.687531471252441
3892.31878996,0.718782901763916
3893.03757,0.718782901763916
3893.70948005,0.671905755996704
3900.13164997,0.703157186508179
3900.86606002,0.734408617019653
3901.60046005,0.734408617019653
3902.35050011,0.750034332275391
3903.20991015,0.859414339065552
3906.75695014,0.765660047531128
3907.53823996,0.781285762786865
3908.22577,0.687531471252441
3908.94455004,0.718782901763916
3909.67896008,0.734408617019653
3910.36649013,0.687531471252441
3911.05402017,0.687531471252441
3940.03972006,0.734408617019653
3940.78976011,0.750034332275391
3941.50854015,0.718782901763916
3942.24294996,0.734408617019653
3942.97736001,0.734408617019653
3943.72739005,0.750034332275391
3944.4930501,0.765660047531128
3945.27434015,0.781285762786865
3946.05561996,0.781285762786865
3946.82128,0.765660047531128
3947.60257006,0.781285762786865
3948.3994801,0.796911478042603
3949.18077016,0.781285762786865
3949.93079996,0.750034332275391
3950.72771001,0.796911478042603
3951.52462006,0.796911478042603
3952.1965301,0.671905755996704
3952.94656014,0.750034332275391
3961.30631995,0.718782901763916
3962.00948,0.703157186508179
3962.72826004,0.718782901763916
3963.44705009,0.718782901763916
3964.32209015,0.875040054321289
3967.60349011,0.718782901763916
3968.25977015,0.656280040740967
3968.96291995,0.703157186508179
3969.65044999,0.687531471252441
3970.36924005,0.718782901763916
3971.05677009,0.687531471252441
3971.74430013,0.687531471252441
3972.47871017,0.734408617019653
3977.40081,0.734408617019653
3978.11959004,0.718782901763916
3978.82275009,0.703157186508179
3979.54153013,0.718782901763916
3980.24469018,0.703157186508179
3980.96346998,0.718782901763916
3981.71351004,0.750034332275391
3982.36979008,0.656280040740967
3983.10420012,0.734408617019653
3983.76048017,0.656280040740967
3984.57300997,0.81253719329834
3985.22929001,0.656280040740967
3985.99495006,0.765660047531128
3986.6043601,0.609402894973755
3987.35439014,0.750034332275391
3988.04191995,0.687531471252441
3988.77632999,0.734408617019653
3989.52636003,0.750034332275391
3990.21390009,0.687531471252441
3996.63606,0.687531471252441
3997.40172005,0.765660047531128
3998.1205101,0.718782901763916
3998.80804014,0.687531471252441
3999.51119995,0.703157186508179
4000.24559999,0.734408617019653
4000.90188003,0.656280040740967
4001.69880009,0.796911478042603
4002.29257011,0.593777179718018
4003.02698016,0.734408617019653
4003.71450996,0.687531471252441
4004.40204,0.687531471252441
4005.19896007,0.796911478042603
4005.88649011,0.687531471252441
4006.57402015,0.687531471252441
4007.29279995,0.718782901763916
4008.02721,0.734408617019653
4008.74599004,0.718782901763916
4009.48040009,0.734408617019653
4010.19919014,0.718782901763916
4015.79319,0.718782901763916
4016.48072004,0.687531471252441
4017.2307601,0.750034332275391
4017.90266013,0.671905755996704
4018.62144995,0.718782901763916
4019.41835999,0.796911478042603
4020.05901003,0.640654325485229
4020.77779007,0.718782901763916
4021.49658012,0.718782901763916
4022.16848016,0.671905755996704
4022.80913997,0.640654325485229
4023.51229,0.703157186508179
4024.18420005,0.671905755996704
4024.8873601,0.703157186508179
4025.60614014,0.718782901763916
4026.41867995,0.81253719329834
4027.34059,0.921917259693146
4030.51261997,0.687531471252441
4031.23140001,0.718782901763916
4032.02831006,0.796911478042603
4032.82522011,0.796911478042603
4033.62213016,0.796911478042603
4034.40341997,0.781285762786865
4035.13783002,0.734408617019653
4035.84098005,0.703157186508179
4036.52852011,0.687531471252441
4037.20042014,0.671905755996704
4037.91920018,0.718782901763916
4038.66924,0.750034332275391
4039.41927004,0.750034332275391
4040.18493009,0.765660047531128
4040.93497014,0.750034332275391
4041.65375018,0.718782901763916
4042.35690999,0.703157186508179
4043.07569003,0.718782901763916
4043.79447007,0.718782901763916
4044.57576013,0.781285762786865
4045.26329017,0.687531471252441
4046.04457998,0.781285762786865
4046.70086002,0.656280040740967
4047.41964006,0.718782901763916
4048.1071701,0.687531471252441
4048.81033015,0.703157186508179
4049.51347995,0.703157186508179
4050.20102,0.687531471252441
4050.91980004,0.718782901763916
4051.62296009,0.703157186508179
4052.29486012,0.671905755996704
4053.09177017,0.796911478042603
4053.71679997,0.625028610229492
4054.41996002,0.703157186508179
4055.07624006,0.656280040740967
4055.77940011,0.703157186508179
4056.49818015,0.718782901763916
4057.21695995,0.718782901763916
4057.84198999,0.625028610229492
4058.57640004,0.734408617019653
4059.4201901,0.843788623809814
4060.10772014,0.687531471252441
4060.81088018,0.703157186508179
4061.59215999,0.781285762786865
4062.31095004,0.718782901763916
4063.02973008,0.718782901763916
4063.76414013,0.734408617019653
4064.49855018,0.734408617019653
4065.27982998,0.781285762786865
4065.92049003,0.640654325485229
4066.70177007,0.781285762786865
4067.40493011,0.703157186508179
4068.13934016,0.734408617019653
4068.87374997,0.734408617019653
4069.54565001,0.671905755996704
4070.24881005,0.703157186508179
4070.93634009,0.687531471252441
4071.59262013,0.656280040740967
4072.28015018,0.687531471252441
4072.96767998,0.687531471252441
4073.67084002,0.703157186508179
4074.43650007,0.765660047531128
4075.20216012,0.765660047531128
4075.98345017,0.781285762786865
4076.70222998,0.718782901763916
4077.42101002,0.718782901763916
4086.17141008,0.718782901763916
4086.85894012,0.687531471252441
4087.56210017,0.703157186508179
4088.23400998,0.671905755996704
4088.95279002,0.718782901763916
4089.62470007,0.671905755996704
4090.34348011,0.718782901763916
4091.07789016,0.734408617019653
4091.79666996,0.718782901763916
4092.5467,0.750034332275391
4093.28111005,0.734408617019653
4093.96864009,0.687531471252441
4094.65618014,0.687531471252441
4095.34371018,0.687531471252441
4096.06248999,0.718782901763916
4096.78127003,0.718782901763916
4097.42193007,0.640654325485229
4098.18759012,0.765660047531128
4098.84387016,0.656280040740967
4099.51576996,0.671905755996704
4100.23456001,0.718782901763916
4100.84396005,0.609402894973755
4101.42211008,0.57815146446228
4102.10964012,0.687531471252441
4102.76592016,0.656280040740967
4107.57863998,0.765660047531128
4108.26617002,0.687531471252441
4109.00058007,0.734408617019653
4117.36034012,0.703157186508179
4118.03225017,0.671905755996704
4118.68852997,0.656280040740967
4119.34481001,0.656280040740967
4119.98546004,0.640654325485229
4120.61049008,0.625028610229492
4121.23552012,0.625028610229492
4121.89180017,0.656280040740967
4122.54807997,0.656280040740967
4123.25124002,0.703157186508179
4124.00127006,0.750034332275391
4124.7669301,0.765660047531128
4125.48571014,0.718782901763916
4126.22011995,0.734408617019653
4126.95453,0.734408617019653
4127.67331004,0.718782901763916
4128.37647009,0.703157186508179
4129.09525013,0.718782901763916
4129.86091018,0.765660047531128
4130.62656999,0.765660047531128
4136.47059011,0.687531471252441
4137.25188017,0.781285762786865
4138.01753998,0.765660047531128
4138.75194001,0.734408617019653
4139.51760006,0.765660047531128
4140.23639011,0.718782901763916
4140.97080016,0.734408617019653
4141.75207996,0.781285762786865
4142.48649001,0.734408617019653
4143.22090006,0.734408617019653
4143.95531011,0.734408617019653
4144.68972015,0.734408617019653
4145.40849996,0.718782901763916
4146.12728,0.718782901763916
4146.83044004,0.703157186508179
4147.53360009,0.703157186508179
4148.22113013,0.687531471252441
4148.90866017,0.687531471252441
4149.61181998,0.703157186508179
4150.31497002,0.703157186508179
4151.00251007,0.687531471252441
4151.7056601,0.703157186508179
4152.44007015,0.734408617019653
4153.17447996,0.734408617019653
4153.92451,0.750034332275391
4154.67455006,0.750034332275391
4155.4245801,0.750034332275391
4156.15899014,0.734408617019653
4156.89339995,0.734408617019653
4157.62781,0.734408617019653
4158.36222005,0.734408617019653
4159.08100009,0.718782901763916
4159.79978013,0.718782901763916
4160.53419018,0.734408617019653
4161.31547999,0.781285762786865
4162.04989004,0.734408617019653
4162.81555009,0.765660047531128
4163.59683013,0.781285762786865
4164.33124018,0.734408617019653
4165.08126998,0.750034332275391
4165.86256003,0.781285762786865
4166.59697008,0.734408617019653
4167.34700012,0.750034332275391
4168.08141017,0.734408617019653
4168.83144999,0.750034332275391
4169.58148003,0.750034332275391
4170.36277008,0.781285762786865
4171.15968013,0.796911478042603
4171.90971017,0.750034332275391
4172.67536998,0.765660047531128
4173.44103003,0.765660047531128
4174.19107008,0.750034332275391
4174.95673013,0.765660047531128
4175.72239017,0.765660047531128
4176.50366998,0.781285762786865
4177.25371003,0.750034332275391
4178.01937008,0.765660047531128
4178.80065012,0.781285762786865
4179.47256017,0.671905755996704
4180.22258997,0.750034332275391
4180.98825002,0.765660047531128
4181.72266006,0.734408617019653
4182.48832011,0.765660047531128
4183.30086017,0.81253719329834
4184.08213997,0.781285762786865
4184.83218002,0.750034332275391
4185.58221006,0.750034332275391
4186.34787011,0.765660047531128
4187.08228016,0.734408617019653
4187.83231997,0.750034332275391
4188.58235002,0.750034332275391
4189.33238006,0.750034332275391
4190.05117011,0.718782901763916
4190.78558016,0.734408617019653
4191.51998997,0.734408617019653
4192.23877001,0.718782901763916
4192.98880005,0.750034332275391
4193.7388401,0.750034332275391
4194.45762014,0.718782901763916
4195.17639995,0.718782901763916
4195.89519,0.718782901763916
4196.61397004,0.718782901763916
4197.31713009,0.703157186508179
4198.03591013,0.718782901763916
4198.77032018,0.734408617019653
4199.48909998,0.718782901763916
4200.20788002,0.718782901763916
4200.91104007,0.703157186508179
4201.61420012,0.703157186508179
4202.28610015,0.671905755996704
4202.97362995,0.687531471252441
4203.70804,0.734408617019653
4204.44245005,0.734408617019653
4205.20811009,0.765660047531128
4205.98940015,0.781285762786865
4206.81755996,0.828162908554077
4207.63010001,0.81253719329834
4208.47389007,0.843788623809814
4209.31767011,0.843788623809814
4210.09896016,0.781285762786865
4210.88024998,0.781285762786865
4211.64591002,0.765660047531128
4212.36469007,0.718782901763916
4213.11472011,0.750034332275391
4213.86476016,0.750034332275391
4214.58353996,0.718782901763916
4215.33358002,0.750034332275391
4215.98986006,0.656280040740967
4216.69301009,0.703157186508179
4223.91209006,0.750034332275391
4224.63088012,0.718782901763916
4225.33403015,0.703157186508179
4229.52172017,0.718782901763916
4230.24050999,0.718782901763916
4231.05304003,0.81253719329834
4234.49070001,0.750034332275391
4235.22511005,0.734408617019653
4235.91264009,0.687531471252441
4240.91287017,0.81253719329834
4247.28816009,0.750034332275391
4248.03820014,0.750034332275391
4248.91323996,0.875040054321289
4249.6789,0.765660047531128
4250.42893004,0.750034332275391
4251.25709009,0.828162908554077
4251.99150014,0.734408617019653
4252.77278996,0.781285762786865
4253.55407,0.781285762786865
4254.28848004,0.734408617019653
4255.0385201,0.750034332275391
4255.71042013,0.671905755996704
4256.44483018,0.734408617019653
4257.13235998,0.687531471252441
4257.96053004,0.828162908554077
4261.49194002,0.734408617019653
4262.19510007,0.703157186508179
4262.91388011,0.718782901763916
4263.63266015,0.718782901763916
4264.36706996,0.734408617019653
4265.08585,0.718782901763916
4265.75776005,0.671905755996704
4266.4921701,0.734408617019653
4267.14845014,0.656280040740967
4267.80473018,0.656280040740967
4268.49225998,0.687531471252441
4269.35167003,0.859414339065552
4273.63312006,0.765660047531128
4274.39878011,0.765660047531128
4275.16444016,0.765660047531128
4275.91446996,0.750034332275391
4276.63326001,0.718782901763916
4277.32079005,0.687531471252441
4278.02394009,0.703157186508179
4278.72710013,0.703157186508179
4279.43026018,0.703157186508179
4280.18028998,0.750034332275391
4280.91470003,0.734408617019653
4281.66474009,0.750034332275391
4282.38352013,0.718782901763916
4283.11793017,0.734408617019653
4283.86795998,0.750034332275391
4284.63362002,0.765660047531128
4285.41491008,0.781285762786865
4286.14932013,0.734408617019653
4286.86810017,0.718782901763916
4287.60250998,0.734408617019653
4288.36817002,0.765660047531128
4289.11820006,0.750034332275391
4289.83699012,0.718782901763916
4290.57139015,0.734408617019653
4291.32142997,0.750034332275391
4292.08709002,0.765660047531128
4292.80587006,0.718782901763916
4293.55591011,0.750034332275391
4294.29031014,0.734408617019653
4294.97784996,0.687531471252441
4295.69663,0.718782901763916
4296.41541004,0.718782901763916
4297.14982009,0.734408617019653
4297.86860013,0.718782901763916
4298.58738995,0.718782901763916
4299.33741999,0.750034332275391
4300.10308003,0.765660047531128
4300.80624008,0.703157186508179
4301.54065013,0.734408617019653
4302.27505016,0.734408617019653
4303.05633998,0.781285762786865
4303.80637002,0.750034332275391
4304.54078007,0.734408617019653
4305.29082012,0.750034332275391
4305.99398017,0.703157186508179
4306.74400997,0.750034332275391
4307.44717002,0.703157186508179
4308.15032005,0.703157186508179
4308.83786011,0.687531471252441
4309.52539015,0.687531471252441
4310.21291995,0.687531471252441
4310.91608,0.703157186508179
4311.63486004,0.718782901763916
4312.33802009,0.703157186508179
4313.04117012,0.703157186508179
4313.75996017,0.718782901763916
4331.8545301,0.718782901763916
4332.57332015,0.718782901763916
4333.29209995,0.718782901763916
4334.01087999,0.718782901763916
4334.74529004,0.734408617019653
4335.43282008,0.687531471252441
4336.13598013,0.703157186508179
4336.85476017,0.718782901763916
4337.54228997,0.687531471252441
4338.22983003,0.687531471252441
4338.94861007,0.718782901763916
4339.66739011,0.718782901763916
4340.38617015,0.718782901763916
4341.13620996,0.750034332275391
4341.87062001,0.734408617019653
4342.60503006,0.734408617019653
4343.2925601,0.687531471252441
4343.99571013,0.703157186508179
4344.71449995,0.718782901763916
4345.38639998,0.671905755996704
4346.05831003,0.671905755996704
4346.77709007,0.718782901763916
4347.51150012,0.734408617019653
4348.24591017,0.734408617019653
4348.98031998,0.734408617019653
4349.74598002,0.765660047531128
4350.49601007,0.750034332275391
4351.23042011,0.734408617019653
4352.01171017,0.781285762786865
4352.77736998,0.765660047531128
4353.51178002,0.734408617019653
4354.24618006,0.734408617019653
4354.98059011,0.734408617019653
4355.68375015,0.703157186508179
4356.43377995,0.750034332275391
4357.18382001,0.750034332275391
4357.96510005,0.781285762786865
4358.7307601,0.765660047531128
4359.52768016,0.796911478042603
4360.32458997,0.796911478042603
4361.07462001,0.750034332275391
4361.82466006,0.750034332275391
4362.59032011,0.765660047531128
4363.32472014,0.734408617019653
4364.05912995,0.734408617019653
4364.79354,0.734408617019653
4373.55957007,0.750034332275391
4374.27835011,0.718782901763916
4375.02839017,0.750034332275391
4375.96592999,0.937542915344238
4376.65346003,0.687531471252441
4383.90379,0.750034332275391
4384.60695004,0.703157186508179
4385.35698009,0.750034332275391
4386.09139013,0.734408617019653
4386.84142995,0.750034332275391
4390.96660995,0.625028610229492
4391.59164,0.625028610229492
4392.16979003,0.57815146446228
4398.63883996,0.734408617019653
4403.46719003,0.640654325485229
4418.70226002,0.734408617019653
4423.8743701,0.593777179718018
4424.40565014,0.531274318695068
4424.99942017,0.593777179718018
4425.60882998,0.609402894973755
4459.64163017,0.81253719329834
4462.90741014,0.671905755996704
4463.62618995,0.718782901763916
4464.31371999,0.687531471252441
4465.04813004,0.734408617019653
4465.70441008,0.656280040740967
4466.54820013,0.843788623809814
4467.28261018,0.734408617019653
4467.95450997,0.671905755996704
4468.76705003,0.81253719329834
4469.42333007,0.656280040740967
4470.15774012,0.734408617019653
4470.81402016,0.656280040740967
4471.54842997,0.734408617019653
4472.28284001,0.734408617019653
4485.00217009,0.625028610229492
4485.64282012,0.640654325485229
4486.29910016,0.656280040740967
4486.97100997,0.671905755996704
4487.72104001,0.750034332275391
4488.47108006,0.750034332275391
4489.29924011,0.828162908554077
4490.20553017,0.906291484832764
4491.00243998,0.796911478042603
4491.89311004,0.890665829181671
4492.7837801,0.890665829181671
4493.65882015,0.875040054321289
4494.61197996,0.953168630599976
4495.45577002,0.843788623809814
4496.28394008,0.828162908554077
4497.11210012,0.828162908554077
4500.5497601,0.843788623809814
4501.28416014,0.734408617019653
4502.04981995,0.765660047531128
4502.84674001,0.796911478042603
4503.67490005,0.828162908554077
4510.75335002,0.843788623809814
4556.61482,0.796911478042603
4557.42736006,0.81253719329834
4642.5406301,0.687531471252441
4681.05802011,0.734408617019653
4681.80805016,0.750034332275391
4688.4333601,0.796911478042603
4689.07401013,0.640654325485229
4689.79279017,0.718782901763916
4690.41781998,0.625028610229492
4691.16786003,0.750034332275391
4691.94914007,0.781285762786865
4692.55854011,0.609402894973755
4693.29295015,0.734408617019653
4694.02735996,0.734408617019653
4694.79302001,0.765660047531128
4695.57431006,0.781285762786865
4696.2462101,0.671905755996704
4696.96500015,0.718782901763916
4697.65252995,0.687531471252441
4704.52784014,0.781285762786865
4705.18412018,0.656280040740967
4713.63762999,0.718782901763916
4714.30954003,0.671905755996704
4714.99707007,0.687531471252441
4715.73148012,0.734408617019653
4716.40339017,0.671905755996704
4717.21591997,0.81253719329834
4720.59107995,0.750034332275391
4721.21610999,0.625028610229492
4724.84126997,0.703157186508179
4725.60693002,0.765660047531128
4726.31009007,0.703157186508179
4727.09138012,0.781285762786865
4727.76328015,0.671905755996704
4728.57581997,0.81253719329834
4729.29460001,0.718782901763916
4730.01338005,0.718782901763916
4730.87280011,0.859414339065552
4731.51345015,0.640654325485229
4735.93552995,0.718782901763916
