47404.8599999
0.0;0.609402894973755
0.718780040741,0.718782901763916
1.45319008827,0.734408617019653
2.14072012901,0.687531471252441
2.84388017654,0.703157186508179
3.57828998566,0.734408617019653
4.37520003319,0.796911478042603
25.173030138,0.656280040740967
25.907430172,0.734408617019653
26.5012099743,0.593777179718018
27.2512500286,0.750034332275391
27.9387800694,0.687531471252441
35.5328700542,0.625028610229492
36.157900095,0.625028610229492
36.8923101425,0.734408617019653
37.5173401833,0.625028610229492
38.1579899788,0.640654325485229
38.9236500263,0.765660047531128
39.6736900806,0.750034332275391
40.4237201214,0.750034332275391
41.1268801689,0.703157186508179
41.8769099712,0.750034332275391
42.6113200188,0.734408617019653
43.3144800663,0.703157186508179
44.002010107,0.687531471252441
44.7364201546,0.734408617019653
45.4708302021,0.734408617019653
46.2364900112,0.765660047531128
46.924020052,0.687531471252441
47.6740601063,0.750034332275391
48.4084601402,0.734408617019653
49.0960001945,0.687531471252441
49.7366499901,0.640654325485229
50.4241800308,0.687531471252441
54.7837600708,0.750034332275391
62.5497400761,0.625028610229492
63.3935201168,0.843788623809814
66.6749300957,0.687531471252441
67.3312101364,0.656280040740967
68.0499901772,0.718782901763916
68.6593899727,0.609402894973755
69.3469200134,0.687531471252441
70.0657100677,0.718782901763916
70.7532401085,0.687531471252441
71.3626401424,0.609402894973755
83.4725701809,0.609402894973755
89.2853300571,0.57815146446228
89.8947401047,0.609402894973755
95.9106400013,0.718782901763916
96.566920042,0.656280040740967
97.1919500828,0.625028610229492
97.7701001167,0.57815146446228
103.53599,0.593777179718018
111.864490032,0.671905755996704
124.474450111,0.656280040740967
129.193410158,0.703157186508179
129.740310192,0.546900033950806
130.318459988,0.57815146446228
148.991190195,0.609402894973755
149.647469997,0.656280040740967
150.319380045,0.671905755996704
150.960030079,0.640654325485229
155.100850105,0.718782901763916
155.725880146,0.625028610229492
156.288400173,0.562525749206543
160.741729975,0.718782901763916
161.523020029,0.781285762786865
162.319930077,0.796911478042603
163.116840124,0.796911478042603
163.866870165,0.750034332275391
164.554409981,0.687531471252441
165.257560015,0.703157186508179
165.898220062,0.640654325485229
166.523250103,0.625028610229492
167.179530144,0.656280040740967
167.851430178,0.671905755996704
168.53895998,0.687531471252441
169.242120028,0.703157186508179
169.945280075,0.703157186508179
170.742190123,0.796911478042603
171.382840157,0.640654325485229
172.054750204,0.671905755996704
172.773530006,0.718782901763916
173.461060047,0.687531471252441
174.132970095,0.671905755996704
174.820500135,0.687531471252441
175.461150169,0.640654325485229
176.148689985,0.687531471252441
176.789340019,0.640654325485229
177.492500067,0.703157186508179
178.164400101,0.671905755996704
178.867560148,0.703157186508179
179.461340189,0.593777179718018
183.445890188,0.656280040740967
184.102169991,0.656280040740967
184.727200031,0.625028610229492
185.414730072,0.687531471252441
186.05539012,0.640654325485229
186.71167016,0.656280040740967
187.336700201,0.625028610229492
187.992980003,0.656280040740967
188.649260044,0.656280040740967
189.352420092,0.703157186508179
190.039950132,0.687531471252441
190.758730173,0.718782901763916
197.712170124,0.765660047531128
198.446580172,0.734408617019653
199.227869987,0.781285762786865
200.009150028,0.781285762786865
200.790440083,0.781285762786865
201.462340117,0.671905755996704
202.196750164,0.734408617019653
202.899909973,0.703157186508179
203.618690014,0.718782901763916
204.321850061,0.703157186508179
204.993760109,0.671905755996704
205.71254015,0.718782901763916
206.446950197,0.734408617019653
207.19698,0.750034332275391
207.85326004,0.656280040740967
208.572050095,0.718782901763916
209.290830135,0.718782901763916
210.009610176,0.718782901763916
210.728389978,0.718782901763916
215.478610039,0.687531471252441
216.197390079,0.718782901763916
216.85367012,0.656280040740967
217.588080168,0.734408617019653
218.322489977,0.734408617019653
219.041270018,0.718782901763916
219.775680065,0.734408617019653
220.478840113,0.703157186508179
221.103870153,0.625028610229492
221.760150194,0.656280040740967
222.385179996,0.625028610229492
223.072710037,0.687531471252441
223.728990078,0.656280040740967
224.432150126,0.703157186508179
225.150930166,0.718782901763916
225.916589975,0.765660047531128
226.619750023,0.703157186508179
227.291650057,0.671905755996704
227.994810104,0.703157186508179
228.682340145,0.687531471252441
229.385500193,0.703157186508179
230.026149988,0.640654325485229
230.729310036,0.703157186508179
231.432470083,0.703157186508179
232.104370117,0.671905755996704
232.776280165,0.671905755996704
233.416930199,0.640654325485229
234.151340008,0.734408617019653
234.995130062,0.843788623809814
235.838920116,0.843788623809814
236.713960171,0.875040054321289
237.54211998,0.828162908554077
238.307780027,0.765660047531128
238.995310068,0.687531471252441
239.698470116,0.703157186508179
240.417250156,0.718782901763916
241.057910204,0.640654325485229
241.839190006,0.781285762786865
242.542350054,0.703157186508179
253.120959997,0.718782901763916
253.824120045,0.703157186508179
254.558530092,0.734408617019653
255.308560133,0.750034332275391
266.246560097,0.687531471252441
266.934090137,0.687531471252441
267.668500185,0.734408617019653
268.371659994,0.703157186508179
269.090440035,0.718782901763916
269.824850082,0.734408617019653
270.496750116,0.671905755996704
271.215540171,0.718782901763916
271.887439966,0.671905755996704
272.543720007,0.656280040740967
273.231250048,0.687531471252441
273.903160095,0.671905755996704
274.621940136,0.718782901763916
275.293850183,0.671905755996704
290.18516016,0.609402894973755
290.70080018,0.515648603439331
294.107210159,0.718782901763916
294.810369968,0.703157186508179
295.560400009,0.750034332275391
296.21668005,0.656280040740967
300.091860056,0.640654325485229
300.748140097,0.656280040740967
301.435670137,0.687531471252441
302.138830185,0.703157186508179
309.482910156,0.687531471252441
310.186070204,0.703157186508179
310.857980013,0.671905755996704
311.529880047,0.671905755996704
312.217410088,0.687531471252441
312.873690128,0.656280040740967
313.529970169,0.656280040740967
314.170629978,0.640654325485229
314.826910019,0.656280040740967
315.467560053,0.640654325485229
316.1394701,0.671905755996704
316.795750141,0.656280040740967
317.483280182,0.687531471252441
318.170809984,0.687531471252441
318.858340025,0.687531471252441
319.483370066,0.625028610229492
320.124030113,0.640654325485229
320.764680147,0.640654325485229
321.405330181,0.640654325485229
322.07723999,0.671905755996704
322.733520031,0.656280040740967
323.405430079,0.671905755996704
324.124210119,0.718782901763916
324.84299016,0.718782901763916
325.530520201,0.687531471252441
326.26493001,0.734408617019653
327.030590057,0.765660047531128
327.811880112,0.781285762786865
328.483780146,0.671905755996704
329.2338202,0.750034332275391
329.936980009,0.703157186508179
330.671380043,0.734408617019653
331.327660084,0.656280040740967
331.999570131,0.671905755996704
332.702730179,0.703157186508179
333.452759981,0.750034332275391
334.124670029,0.671905755996704
334.827820063,0.703157186508179
335.577860117,0.750034332275391
336.374770164,0.796911478042603
337.15605998,0.781285762786865
337.906090021,0.750034332275391
341.328119993,0.671905755996704
342.046900034,0.718782901763916
342.750060081,0.703157186508179
343.437590122,0.687531471252441
357.078840017,0.500022888183594
376.079710007,0.671905755996704
376.751620054,0.671905755996704
377.532900095,0.781285762786865
378.142310143,0.609402894973755
378.845460176,0.703157186508179
379.439239979,0.593777179718018
380.204900026,0.765660047531128
380.892430067,0.687531471252441
381.533090115,0.640654325485229
382.204990149,0.671905755996704
382.923780203,0.718782901763916
383.611310005,0.687531471252441
384.251960039,0.640654325485229
385.017620087,0.765660047531128
385.705150127,0.687531471252441
386.611440182,0.906291484832764
396.408770084,0.640654325485229
397.080670118,0.671905755996704
397.815080166,0.734408617019653
398.486989975,0.671905755996704
399.174520016,0.687531471252441
399.862050056,0.687531471252441
400.47145009,0.609402894973755
401.221490145,0.750034332275391
401.784010172,0.562525749206543
402.440289974,0.656280040740967
403.112200022,0.671905755996704
403.815360069,0.703157186508179
404.518510103,0.703157186508179
405.221670151,0.703157186508179
405.909200191,0.687531471252441
424.566310167,0.671905755996704
425.37883997,0.81253719329834
426.222630024,0.843788623809814
433.051069975,0.828162908554077
433.769850016,0.718782901763916
434.51989007,0.750034332275391
441.598340034,0.81253719329834
442.270240068,0.671905755996704
443.020280123,0.750034332275391
443.707810163,0.687531471252441
444.364090204,0.656280040740967
445.020370007,0.656280040740967
445.676650047,0.656280040740967
446.364180088,0.687531471252441
447.098590136,0.734408617019653
447.848620176,0.750034332275391
448.583029985,0.734408617019653
449.39557004,0.81253719329834
450.129980087,0.734408617019653
450.848760128,0.718782901763916
451.583170176,0.734408617019653
452.255069971,0.671905755996704
452.958230019,0.703157186508179
453.614510059,0.656280040740967
454.2707901,0.656280040740967
454.942700148,0.671905755996704
455.598980188,0.656280040740967
456.270879984,0.671905755996704
456.958410025,0.687531471252441
457.755330086,0.796911478042603
458.33348012,0.57815146446228
458.974130154,0.640654325485229
459.69291997,0.718782901763916
460.38045001,0.687531471252441
461.021100044,0.640654325485229
461.583630085,0.562525749206543
462.193030119,0.609402894973755
462.81806016,0.625028610229492
466.708860159,0.671905755996704
467.412019968,0.703157186508179
468.162050009,0.750034332275391
468.84958005,0.687531471252441
469.615240097,0.765660047531128
470.302780151,0.687531471252441
470.927800179,0.625028610229492
471.599709988,0.671905755996704
472.255990028,0.656280040740967
472.912270069,0.656280040740967
473.59980011,0.687531471252441
474.349840164,0.750034332275391
474.943610191,0.593777179718018
475.568639994,0.625028610229492
476.224920034,0.656280040740967
476.803070068,0.57815146446228
477.287470102,0.484397172927856
477.865620136,0.57815146446228
478.41252017,0.546900033950806
478.990670204,0.57815146446228
479.615700006,0.625028610229492
480.271980047,0.656280040740967
480.928260088,0.656280040740967
481.631420135,0.703157186508179
482.318950176,0.687531471252441
482.928349972,0.609402894973755
483.584630013,0.656280040740967
484.131530046,0.546900033950806
487.303550005,0.671905755996704
487.944210052,0.640654325485229
488.537990093,0.593777179718018
489.116140127,0.57815146446228
489.772420168,0.656280040740967
490.413070202,0.640654325485229
491.038100004,0.625028610229492
491.694380045,0.656280040740967
492.397540092,0.703157186508179
493.069440126,0.671905755996704
493.710100174,0.640654325485229
494.366379976,0.656280040740967
494.991410017,0.625028610229492
495.663310051,0.671905755996704
496.382090092,0.718782901763916
497.163380146,0.781285762786865
497.9446702,0.781285762786865
498.725950003,0.781285762786865
499.413480043,0.687531471252441
500.085390091,0.671905755996704
500.741670132,0.656280040740967
501.397950172,0.656280040740967
502.085479975,0.687531471252441
502.788640022,0.703157186508179
503.491790056,0.703157186508179
504.226200104,0.734408617019653
505.007490158,0.781285762786865
505.788779974,0.781285762786865
506.460680008,0.671905755996704
507.132590055,0.671905755996704
507.835740089,0.703157186508179
508.476400137,0.640654325485229
509.163930178,0.687531471252441
509.78895998,0.625028610229492
510.445240021,0.656280040740967
511.101520061,0.656280040740967
511.757800102,0.656280040740967
512.414080143,0.656280040740967
513.085980177,0.671905755996704
513.773519993,0.687531471252441
514.429800034,0.656280040740967
515.148580074,0.718782901763916
515.804860115,0.656280040740967
516.445510149,0.640654325485229
517.10179019,0.656280040740967
517.883080006,0.781285762786865
522.289530039,0.687531471252441
522.930180073,0.640654325485229
523.555210114,0.625028610229492
524.305250168,0.750034332275391
524.93027997,0.625028610229492
525.633430004,0.703157186508179
526.274090052,0.640654325485229
526.930370092,0.656280040740967
527.617900133,0.687531471252441
528.274180174,0.656280040740967
528.914829969,0.640654325485229
529.555490017,0.640654325485229
530.227390051,0.671905755996704
530.914930105,0.687531471252441
531.555580139,0.640654325485229
532.21186018,0.656280040740967
532.868139982,0.656280040740967
533.477540016,0.609402894973755
534.19633007,0.718782901763916
534.805730104,0.609402894973755
535.415130138,0.609402894973755
536.040160179,0.625028610229492
536.665189981,0.625028610229492
537.321470022,0.656280040740967
537.993370056,0.671905755996704
538.665280104,0.671905755996704
539.305930138,0.640654325485229
539.977840185,0.671905755996704
540.618489981,0.640654325485229
541.290400028,0.671905755996704
541.899800062,0.609402894973755
542.54046011,0.640654325485229
543.181110144,0.640654325485229
543.790510178,0.609402894973755
544.44678998,0.656280040740967
545.087450027,0.640654325485229
545.743730068,0.656280040740967
546.400010109,0.656280040740967
547.11879015,0.718782901763916
547.83757019,0.718782901763916
548.60323,0.765660047531128
549.181390047,0.57815146446228
549.884540081,0.703157186508179
550.525200129,0.640654325485229
551.150230169,0.625028610229492
551.806509972,0.656280040740967
552.415910006,0.609402894973755
553.072190046,0.656280040740967
553.728470087,0.656280040740967
554.462880135,0.734408617019653
555.134780169,0.671905755996704
555.853569984,0.718782901763916
556.556720018,0.703157186508179
557.197380066,0.640654325485229
557.8380301,0.640654325485229
558.463060141,0.625028610229492
559.088090181,0.625028610229492
559.728739977,0.640654325485229
560.385020018,0.656280040740967
561.010050058,0.625028610229492
561.713210106,0.703157186508179
562.416370153,0.703157186508179
566.604060173,0.703157186508179
567.229089975,0.625028610229492
567.869740009,0.640654325485229
568.510400057,0.640654325485229
569.151050091,0.640654325485229
569.854210138,0.703157186508179
570.557360172,0.703157186508179
571.244899988,0.687531471252441
571.932430029,0.687531471252441
572.666840076,0.734408617019653
573.448120117,0.781285762786865
574.166910172,0.718782901763916
574.916939974,0.750034332275391
575.635720015,0.718782901763916
576.354510069,0.718782901763916
577.026410103,0.671905755996704
577.72957015,0.703157186508179
578.432730198,0.703157186508179
579.135879993,0.703157186508179
579.807790041,0.671905755996704
580.510950089,0.703157186508179
581.214100122,0.703157186508179
581.995390177,0.781285762786865
582.667289972,0.671905755996704
583.37045002,0.703157186508179
584.089230061,0.718782901763916
584.823640108,0.734408617019653
585.511170149,0.687531471252441
586.16745019,0.656280040740967
586.823729992,0.656280040740967
587.464390039,0.640654325485229
588.167550087,0.703157186508179
588.839450121,0.671905755996704
589.620740175,0.781285762786865
590.402019978,0.781285762786865
591.198930025,0.796911478042603
591.902090073,0.703157186508179
602.621330023,0.593777179718018
603.199480057,0.57815146446228
603.777640104,0.57815146446228
604.340160131,0.562525749206543
604.918310165,0.57815146446228
605.512089968,0.593777179718018
606.121490002,0.609402894973755
606.777770042,0.656280040740967
607.48093009,0.703157186508179
608.184090137,0.703157186508179
608.871620178,0.687531471252441
609.606029987,0.734408617019653
610.356060028,0.750034332275391
611.090470076,0.734408617019653
611.746750116,0.656280040740967
612.465530157,0.718782901763916
613.199939966,0.734408617019653
613.918720007,0.718782901763916
614.606260061,0.687531471252441
615.325040102,0.718782901763916
616.09070015,0.765660047531128
616.84073019,0.750034332275391
617.543889999,0.703157186508179
618.309550047,0.765660047531128
619.028330088,0.718782901763916
619.762740135,0.734408617019653
620.434650183,0.671905755996704
621.153429985,0.718782901763916
621.934720039,0.781285762786865
628.341260195,0.625028610229492
629.138170004,0.796911478042603
629.716320038,0.57815146446228
634.450910091,0.687531471252441
635.154070139,0.703157186508179
635.794730186,0.640654325485229
641.935630083,0.656280040740967
642.513780117,0.57815146446228
643.154440165,0.640654325485229
643.841969967,0.687531471252441
644.592000008,0.750034332275391
645.404540062,0.81253719329834
650.732910156,0.671905755996704
660.436480045,0.734408617019653
661.155260086,0.718782901763916
661.780290127,0.625028610229492
662.389690161,0.609402894973755
663.06159997,0.671905755996704
663.639750004,0.57815146446228
664.249150038,0.609402894973755
664.842930079,0.593777179718018
665.483590126,0.640654325485229
666.09299016,0.609402894973755
666.780520201,0.687531471252441
667.421169996,0.640654325485229
668.155580044,0.734408617019653
668.858740091,0.703157186508179
669.624400139,0.765660047531128
670.31193018,0.687531471252441
671.108839989,0.796911478042603
674.671509981,0.796911478042603
675.405910015,0.734408617019653
676.171570063,0.765660047531128
676.90598011,0.734408617019653
677.656020164,0.750034332275391
678.296670198,0.640654325485229
678.968580008,0.671905755996704
679.640480042,0.671905755996704
680.343640089,0.703157186508179
681.124930143,0.781285762786865
682.015590191,0.890665829181671
682.6875,0.671905755996704
683.562540054,0.875040054321289
684.296950102,0.734408617019653
685.062610149,0.765660047531128
685.984520197,0.921917259693146
692.562950134,0.828162908554077
693.375490189,0.81253719329834
694.188019991,0.81253719329834
694.938060045,0.750034332275391
695.656840086,0.718782901763916
696.53188014,0.875040054321289
697.172540188,0.640654325485229
697.844439983,0.671905755996704
698.500720024,0.656280040740967
699.188250065,0.687531471252441
699.938290119,0.750034332275391
700.68832016,0.750034332275391
701.516479969,0.828162908554077
702.329020023,0.81253719329834
703.141560078,0.81253719329834
703.907220125,0.765660047531128
704.657250166,0.750034332275391
705.422909975,0.765660047531128
706.110440016,0.687531471252441
706.86048007,0.750034332275391
707.641760111,0.781285762786865
708.423050165,0.781285762786865
709.126209974,0.703157186508179
709.923120022,0.796911478042603
710.704400063,0.781285762786865
711.423190117,0.718782901763916
712.204470158,0.781285762786865
712.970129967,0.765660047531128
713.688920021,0.718782901763916
714.407700062,0.718782901763916
715.157730103,0.750034332275391
715.954650164,0.796911478042603
716.673430204,0.718782901763916
717.454710007,0.781285762786865
718.220370054,0.765660047531128
718.939160109,0.718782901763916
719.689190149,0.750034332275391
720.454850197,0.765660047531128
721.267390013,0.81253719329834
721.939290047,0.671905755996704
722.767460108,0.828162908554077
744.393450022,0.781285762786865
745.112230062,0.718782901763916
778.754390001,0.703157186508179
779.363800049,0.609402894973755
780.223210096,0.859414339065552
813.412230015,0.609402894973755
814.052890062,0.640654325485229
871.852410078,0.687531471252441
872.508690119,0.656280040740967
873.383730173,0.875040054321289
879.337120056,0.640654325485229
880.134040117,0.796911478042603
883.274800062,0.625028610229492
900.213080168,0.828162908554077
900.86935997,0.656280040740967
905.697710037,0.718782901763916
914.807500124,0.671905755996704
915.370020151,0.562525749206543
915.979430199,0.609402894973755
916.588829994,0.609402894973755
917.182610035,0.593777179718018
917.760760069,0.57815146446228
918.323280096,0.562525749206543
922.057830095,0.640654325485229
922.589100122,0.531274318695068
930.526970148,0.640654325485229
931.183250189,0.656280040740967
931.870779991,0.687531471252441
932.511430025,0.640654325485229
933.230220079,0.718782901763916
933.964620113,0.734408617019653
934.636530161,0.671905755996704
935.33968997,0.703157186508179
936.042840004,0.703157186508179
936.714750051,0.671905755996704
937.386660099,0.671905755996704
938.089810133,0.703157186508179
938.792970181,0.703157186508179
939.46487999,0.671905755996704
940.15241003,0.687531471252441
940.839940071,0.687531471252441
941.543100119,0.703157186508179
942.215000153,0.671905755996704
942.902530193,0.687531471252441
943.605690002,0.703157186508179
944.168220043,0.562525749206543
944.840120077,0.671905755996704
945.433900118,0.593777179718018
946.043300152,0.609402894973755
946.746460199,0.703157186508179
947.308990002,0.562525749206543
947.887140036,0.57815146446228
948.52779007,0.640654325485229
949.15282011,0.625028610229492
949.684090137,0.531274318695068
964.012870073,0.640654325485229
964.700410128,0.687531471252441
965.387940168,0.687531471252441
966.059840202,0.671905755996704
966.763000011,0.703157186508179
967.513030052,0.750034332275391
968.231820107,0.718782901763916
968.950600147,0.718782901763916
969.669380188,0.718782901763916
970.372539997,0.703157186508179
971.028820038,0.656280040740967
971.716350079,0.687531471252441
972.403880119,0.687531471252441
973.122670174,0.718782901763916
973.778949976,0.656280040740967
974.560230017,0.781285762786865
975.185260057,0.625028610229492
996.576870203,0.656280040740967
997.264400005,0.687531471252441
1008.1867702,0.859414339065552
1008.82743001,0.640654325485229
1013.85891008,0.703157186508179
1014.60894012,0.750034332275391
1015.39023018,0.781285762786865
1016.07775998,0.687531471252441
1016.82779002,0.750034332275391
1017.56220007,0.734408617019653
1025.07817006,0.734408617019653
1025.7657001,0.687531471252441
1026.46886015,0.703157186508179
1027.18764019,0.718782901763916
1027.90641999,0.718782901763916
1028.59396005,0.687531471252441
1029.32836008,0.734408617019653
1030.06277013,0.734408617019653
1030.81281018,0.750034332275391
1031.54721999,0.734408617019653
1032.28162003,0.734408617019653
1033.03166008,0.750034332275391
1033.78169012,0.750034332275391
1034.48485017,0.703157186508179
1035.21925998,0.734408617019653
1035.93804002,0.718782901763916
1036.67245007,0.734408617019653
1037.37561011,0.703157186508179
1038.12564015,0.750034332275391
1038.87567997,0.750034332275391
1039.67259002,0.796911478042603
1040.39137006,0.718782901763916
1041.17266011,0.781285762786865
1041.96957016,0.796911478042603
1042.73522997,0.765660047531128
1043.45401001,0.718782901763916
1044.18842006,0.734408617019653
1044.9384501,0.750034332275391
1045.62599015,0.687531471252441
1046.29789019,0.671905755996704
1047.00105,0.703157186508179
1047.73546004,0.734408617019653
1048.50112009,0.765660047531128
1049.28240013,0.781285762786865
1050.09494019,0.81253719329834
1050.89184999,0.796911478042603
1051.62626004,0.734408617019653
1052.4075501,0.781285762786865
1058.1421802,0.734408617019653
1058.82971001,0.687531471252441
1059.57975006,0.750034332275391
1060.34541011,0.765660047531128
1061.06419015,0.718782901763916
1061.8298502,0.765660047531128
1062.61114001,0.781285762786865
1063.37680006,0.765660047531128
1064.0643301,0.687531471252441
1064.79874015,0.734408617019653
1065.51752019,0.718782901763916
1066.20504999,0.687531471252441
1066.90821004,0.703157186508179
1067.62699008,0.718782901763916
1068.36140013,0.734408617019653
1069.01768017,0.656280040740967
1069.76771998,0.750034332275391
1070.51775002,0.750034332275391
1071.20528007,0.687531471252441
1071.93969011,0.734408617019653
1072.65847015,0.718782901763916
1073.40850997,0.750034332275391
1074.09604001,0.687531471252441
1074.84607005,0.750034332275391
1075.53360009,0.687531471252441
1076.22114015,0.687531471252441
1076.89304018,0.671905755996704
1077.61181998,0.718782901763916
1078.33061004,0.718782901763916
1079.03376007,0.703157186508179
1079.75255013,0.718782901763916
1080.51821017,0.765660047531128
1081.26823997,0.750034332275391
1081.97140002,0.703157186508179
1082.69018006,0.718782901763916
1083.40897012,0.718782901763916
1084.08087015,0.671905755996704
1084.79965019,0.718782901763916
1085.51844001,0.718782901763916
1086.26847005,0.750034332275391
1086.9716301,0.703157186508179
1087.72166014,0.750034332275391
1088.45607018,0.734408617019653
1089.17484999,0.718782901763916
1089.89364004,0.718782901763916
1090.62805009,0.734408617019653
1091.36245012,0.734408617019653
1092.01873016,0.656280040740967
1092.75313997,0.734408617019653
1093.48755002,0.734408617019653
1094.17508006,0.687531471252441
1094.8626101,0.687531471252441
1095.58140016,0.718782901763916
1096.3158102,0.734408617019653
1097.06584001,0.750034332275391
1097.76900005,0.703157186508179
1098.5346601,0.765660047531128
1099.28469014,0.750034332275391
1099.97222018,0.687531471252441
1100.69101,0.718782901763916
1101.39416003,0.703157186508179
1102.09732008,0.703157186508179
1102.75360012,0.656280040740967
1103.42551017,0.671905755996704
1104.11303997,0.687531471252441
1104.80057001,0.687531471252441
1105.51935005,0.718782901763916
1106.2225101,0.703157186508179
1106.87879014,0.656280040740967
1107.51944017,0.640654325485229
1108.19134998,0.671905755996704
1108.95701003,0.765660047531128
1109.73830009,0.781285762786865
1110.55083013,0.81253719329834
1111.39462018,0.843788623809814
1112.08214998,0.687531471252441
1112.80094004,0.718782901763916
1113.62910008,0.828162908554077
1114.41038013,0.781285762786865
1115.14479017,0.734408617019653
1115.83231997,0.687531471252441
1116.53548002,0.703157186508179
1117.26989007,0.734408617019653
1118.01992011,0.750034332275391
1118.70746017,0.687531471252441
1119.4418602,0.734408617019653
1120.17627001,0.734408617019653
1120.91068006,0.734408617019653
1121.6450901,0.734408617019653
1122.42638016,0.781285762786865
1123.1451602,0.718782901763916
1123.91082001,0.765660047531128
1124.59835005,0.687531471252441
1125.34838009,0.750034332275391
1126.05154014,0.703157186508179
1126.78595018,0.734408617019653
1127.48910999,0.703157186508179
1128.23914003,0.750034332275391
1129.02043009,0.781285762786865
1129.73921013,0.718782901763916
1130.45799017,0.718782901763916
1131.17677999,0.718782901763916
1131.89556003,0.718782901763916
1132.58309007,0.687531471252441
1133.25500011,0.671905755996704
1138.22397017,0.656280040740967
1138.86462998,0.640654325485229
1139.52091002,0.656280040740967
1140.20844007,0.687531471252441
1140.92722011,0.718782901763916
1141.67726016,0.750034332275391
1142.38041019,0.703157186508179
1143.11482,0.734408617019653
1151.08394003,1.10942578315735
1172.53804016,0.656280040740967
1173.17869997,0.640654325485229
1173.99124002,0.81253719329834
1174.83502007,0.843788623809814
1175.53818011,0.703157186508179
1176.25697017,0.718782901763916
1176.8663702,0.609402894973755
1177.50702,0.640654325485229
1178.10080004,0.593777179718018
1185.00737,0.703157186508179
1185.74177003,0.734408617019653
1191.88268018,0.703157186508179
1192.55458999,0.671905755996704
1193.32025003,0.765660047531128
1203.5707202,0.781285762786865
1204.39888,0.828162908554077
1205.22704005,0.828162908554077
1206.00833011,0.781285762786865
1206.80524015,0.796911478042603
1207.6021502,0.796911478042603
1208.39906001,0.796911478042603
1209.10222006,0.703157186508179
1209.86788011,0.765660047531128
1210.66479015,0.796911478042603
1211.44607997,0.781285762786865
1212.14923,0.703157186508179
1212.86802006,0.718782901763916
1213.6180501,0.750034332275391
1214.36808014,0.750034332275391
1215.07124019,0.703157186508179
1215.82128,0.750034332275391
1216.61819005,0.796911478042603
1217.3838501,0.765660047531128
1218.18076015,0.796911478042603
1218.96204019,0.781285762786865
1219.71208,0.750034332275391
1220.38398004,0.671905755996704
1221.08714008,0.703157186508179
1221.77467012,0.687531471252441
1222.49346018,0.718782901763916
1223.16535997,0.671905755996704
1223.89977002,0.734408617019653
1224.61855006,0.718782901763916
1225.39984012,0.781285762786865
1226.19675016,0.796911478042603
1226.97803998,0.781285762786865
1234.21274018,0.81253719329834
1235.04091001,0.828162908554077
1235.83782005,0.796911478042603
1236.54097009,0.703157186508179
1237.29101014,0.750034332275391
1238.04104018,0.750034332275391
1238.74419999,0.703157186508179
1239.41611004,0.671905755996704
1240.15051007,0.734408617019653
1240.90055013,0.750034332275391
1241.66621017,0.765660047531128
1242.33810997,0.671905755996704
1243.08815002,0.750034332275391
1243.82256007,0.734408617019653
1244.58822012,0.765660047531128
1245.26012015,0.671905755996704
1245.94765997,0.687531471252441
1246.66644001,0.718782901763916
1247.40085006,0.734408617019653
1262.22965002,0.656280040740967
1263.05781007,0.828162908554077
1263.80785012,0.750034332275391
1264.54226017,0.734408617019653
1265.22978997,0.687531471252441
1265.94857001,0.718782901763916
1266.62048006,0.671905755996704
1267.3392601,0.718782901763916
1268.02679014,0.687531471252441
1268.7768302,0.750034332275391
1269.52686,0.750034332275391
1270.30815005,0.781285762786865
1271.02693009,0.718782901763916
1271.79259014,0.765660047531128
1272.54262018,0.750034332275391
1273.29266,0.750034332275391
1273.98019004,0.687531471252441
1274.71460009,0.734408617019653
1275.43338013,0.718782901763916
1276.15216017,0.718782901763916
1276.83968997,0.687531471252441
1277.58973002,0.750034332275391
1278.29289007,0.703157186508179
1278.98042011,0.687531471252441
1279.79295015,0.81253719329834
1280.62111998,0.828162908554077
1281.41803002,0.796911478042603
1282.21494007,0.796911478042603
1283.04310012,0.828162908554077
1283.79314017,0.750034332275391
1284.52754998,0.734408617019653
1285.34008002,0.81253719329834
1291.23098016,0.781285762786865
1292.02788997,0.796911478042603
1292.77792001,0.750034332275391
1293.54358006,0.765660047531128
1294.3092401,0.765660047531128
1294.98115015,0.671905755996704
1295.7155602,0.734408617019653
1296.43434,0.718782901763916
1297.15312004,0.718782901763916
1297.8406601,0.687531471252441
1298.57506013,0.734408617019653
1299.32510018,0.750034332275391
1300.04387999,0.718782901763916
1300.76266003,0.718782901763916
1301.54395008,0.781285762786865
1302.30961013,0.765660047531128
1303.04402018,0.734408617019653
1303.82529998,0.781285762786865
1347.49918008,0.796911478042603
1359.10909009,0.968794345855713
1384.82901001,0.562525749206543
1385.42279005,0.593777179718018
1394.76697016,0.703157186508179
1395.37637019,0.609402894973755
1396.00139999,0.625028610229492
1396.67330003,0.671905755996704
1397.34521008,0.671905755996704
1398.03274012,0.687531471252441
1398.72027016,0.687531471252441
1399.43905997,0.718782901763916
1400.11096001,0.671905755996704
1400.73599005,0.625028610229492
1406.48625016,0.81253719329834
1407.1112802,0.625028610229492
1438.58147001,0.687531471252441
1439.30026007,0.718782901763916
1440.05029011,0.750034332275391
1440.78470016,0.734408617019653
1441.5659802,0.781285762786865
1456.33229017,0.703157186508179
1456.9573102,0.625028610229492
1478.38017011,0.703157186508179
1479.22396016,0.843788623809814
1480.17712998,0.953168630599976
1490.89637017,0.765660047531128
1491.66202998,0.765660047531128
1492.41206002,0.750034332275391
1493.09959006,0.687531471252441
1493.84963012,0.750034332275391
1494.55279016,0.703157186508179
1495.30281997,0.750034332275391
1496.05285001,0.750034332275391
1496.86539006,0.81253719329834
1497.56855011,0.703157186508179
1498.28733015,0.718782901763916
1499.0842402,0.796911478042603
1499.86553001,0.781285762786865
1500.50618005,0.640654325485229
1501.2718401,0.765660047531128
1502.13126016,0.859414339065552
1518.36637998,0.81253719329834
1523.91350007,0.625028610229492
1529.80439997,0.765660047531128
1533.32018018,0.687531471252441
1534.00771999,0.687531471252441
1544.46132016,0.671905755996704
1545.2113502,0.750034332275391
1548.57088017,0.750034332275391
1561.27459002,0.703157186508179
1604.32343006,0.734408617019653
1605.05784011,0.734408617019653
1605.79225016,0.734408617019653
1606.5266602,0.734408617019653
1613.13634014,0.703157186508179
1613.93325019,0.796911478042603
1614.60516,0.671905755996704
1615.33956003,0.734408617019653
1616.02710009,0.687531471252441
1616.73025012,0.703157186508179
1617.41778016,0.687531471252441
1618.10531998,0.687531471252441
1618.83972001,0.734408617019653
1619.66789007,0.828162908554077
1620.54293013,0.875040054321289
1624.04309011,0.703157186508179
1624.80875015,0.765660047531128
1625.62128019,0.81253719329834
1626.26194,0.640654325485229
1627.01197004,0.750034332275391
1627.6995101,0.687531471252441
1628.43391013,0.734408617019653
1629.18395019,0.750034332275391
1629.94960999,0.765660047531128
1630.80902004,0.859414339065552
1631.44968009,0.640654325485229
1632.27784014,0.828162908554077
1632.94975019,0.671905755996704
1633.71540999,0.765660047531128
1634.49669003,0.781285762786865
1635.23110008,0.734408617019653
1635.96551013,0.734408617019653
1636.87180018,0.906291484832764
1646.37223005,0.671905755996704
1647.15352011,0.781285762786865
1657.43524003,0.687531471252441
1658.13840008,0.703157186508179
1658.84156013,0.703157186508179
1665.27935004,0.703157186508179
1665.98251009,0.703157186508179
1666.71692014,0.734408617019653
1667.48258018,0.765660047531128
1668.31073999,0.828162908554077
1669.01390004,0.703157186508179
1669.82643008,0.81253719329834
1670.65460014,0.828162908554077
1671.51401019,0.859414339065552
1672.20153999,0.687531471252441
1672.96720004,0.765660047531128
1673.7953701,0.828162908554077
1686.03030014,0.890665829181671
1686.76471019,0.734408617019653
1697.84334016,0.671905755996704
1698.4058702,0.562525749206543
1702.81231999,0.859414339065552
1713.37530017,0.609402894973755
1714.18783998,0.81253719329834
1714.92225003,0.734408617019653
1715.71916008,0.796911478042603
1716.40669012,0.687531471252441
1717.17235017,0.765660047531128
1717.90675998,0.734408617019653
1718.64117002,0.734408617019653
1719.39120007,0.750034332275391
1720.17249012,0.781285762786865
1720.87565017,0.703157186508179
1721.6100502,0.734408617019653
1722.36009002,0.750034332275391
1723.12575006,0.765660047531128
1728.96977019,0.625028610229492
1729.70416999,0.734408617019653
1730.40733004,0.703157186508179
1731.14174008,0.734408617019653
1731.87615013,0.734408617019653
1732.46993017,0.593777179718018
1733.23558998,0.765660047531128
1733.79811001,0.562525749206543
1734.57940006,0.781285762786865
1735.31381011,0.734408617019653
1736.03259015,0.718782901763916
1736.8920002,0.859414339065552
1737.65766001,0.765660047531128
1738.36082006,0.703157186508179
1739.1577301,0.796911478042603
1739.93902016,0.781285762786865
1745.22051001,0.875040054321289
1751.95519018,0.875040054321289
1752.59584999,0.640654325485229
1753.36151004,0.765660047531128
1754.15842009,0.796911478042603
1754.90845013,0.750034332275391
1755.59598017,0.687531471252441
1756.33038998,0.734408617019653
1757.04918003,0.718782901763916
1757.73671007,0.687531471252441
1758.53362012,0.796911478042603
1759.22115016,0.687531471252441
1760.14306998,0.921917259693146
1770.67480016,0.859414339065552
1774.12808013,0.656280040740967
1774.94062018,0.81253719329834
1775.64377999,0.703157186508179
1776.39381003,0.750034332275391
1777.11259007,0.718782901763916
1777.87825012,0.765660047531128
1778.61266017,0.734408617019653
1779.39394999,0.781285762786865
1780.09711003,0.703157186508179
1780.87839007,0.781285762786865
1781.65968013,0.781285762786865
1782.37846017,0.718782901763916
1783.06598997,0.687531471252441
1783.78477001,0.718782901763916
1784.55043006,0.765660047531128
1785.30047011,0.750034332275391
1786.08175015,0.781285762786865
1786.7536602,0.671905755996704
1787.51932001,0.765660047531128
1788.25373006,0.734408617019653
1788.9412601,0.687531471252441
1789.62879014,0.687531471252441
1790.42570019,0.796911478042603
1791.16011,0.734408617019653
1791.83202004,0.671905755996704
1792.56643009,0.734408617019653
1793.28521013,0.718782901763916
1793.98837018,0.703157186508179
1794.64464998,0.656280040740967
1795.36343002,0.718782901763916
1796.03534007,0.671905755996704
1796.86350012,0.828162908554077
1797.56666017,0.703157186508179
1798.39481997,0.828162908554077
1799.08235002,0.687531471252441
1799.75426006,0.671905755996704
1800.4730401,0.718782901763916
1801.11369014,0.640654325485229
1801.83248019,0.718782901763916
1802.55125999,0.718782901763916
1810.09847999,0.734408617019653
1810.77038002,0.671905755996704
1811.55167007,0.781285762786865
1812.47359014,0.921917259693146
1815.62998009,0.687531471252441
1816.41127014,0.781285762786865
1817.11443019,0.703157186508179
1817.89570999,0.781285762786865
1818.66137004,0.765660047531128
1819.42703009,0.765660047531128
1820.13019013,0.703157186508179
1820.80209017,0.671905755996704
1821.45836997,0.656280040740967
1822.16153002,0.703157186508179
1822.88031006,0.718782901763916
1830.11502004,0.57815146446228
1834.09958005,0.796911478042603
1834.8027401,0.703157186508179
1859.89762998,0.625028610229492
1860.55391002,0.656280040740967
1861.25707006,0.703157186508179
1861.99148011,0.734408617019653
1862.69464016,0.703157186508179
1863.46029997,0.765660047531128
1864.22596002,0.765660047531128
1864.97599006,0.750034332275391
1865.6166501,0.640654325485229
1866.44481015,0.828162908554077
1867.1479702,0.703157186508179
1867.8355,0.687531471252441
1868.52303004,0.687531471252441
1869.25744009,0.734408617019653
1870.06997013,0.81253719329834
1870.88251019,0.81253719329834
1871.74193001,0.859414339065552
1872.66384006,0.921917259693146
1873.52326012,0.859414339065552
1874.28892016,0.765660047531128
1875.05457997,0.765660047531128
1875.83586001,0.781285762786865
1876.57027006,0.734408617019653
1877.32031012,0.750034332275391
1878.11722016,0.796911478042603
1878.94537997,0.828162908554077
1884.49251008,0.734408617019653
1885.14879012,0.656280040740967
1886.03946018,0.890665829181671
1886.75823998,0.718782901763916
1887.46140003,0.703157186508179
1888.21143007,0.750034332275391
1888.93021011,0.718782901763916
1889.85213017,0.921917259693146
1896.3055501,0.703157186508179
1896.96183014,0.656280040740967
1897.64936018,0.687531471252441
1908.07171011,0.750034332275391
1908.82175016,0.750034332275391
1909.58740997,0.765660047531128
1910.38432002,0.796911478042603
1911.16561007,0.781285762786865
1911.90001011,0.734408617019653
1912.69693017,0.796911478042603
1913.46258998,0.765660047531128
1914.19699001,0.734408617019653
1914.94703007,0.750034332275391
1915.68144011,0.734408617019653
1916.46272016,0.781285762786865
1917.18150997,0.718782901763916
1917.97842002,0.796911478042603
1918.79095006,0.81253719329834
1919.52536011,0.734408617019653
1920.33790016,0.81253719329834
1921.11918998,0.781285762786865
1921.85359001,0.734408617019653
1922.58800006,0.734408617019653
1923.32241011,0.734408617019653
1924.10370016,0.781285762786865
1924.83810997,0.734408617019653
1925.63502002,0.796911478042603
1926.46318007,0.828162908554077
1927.33822012,0.875040054321289
1928.02575016,0.687531471252441
1928.77578998,0.750034332275391
1929.44769001,0.671905755996704
1930.08835006,0.640654325485229
1930.7446301,0.656280040740967
1931.36966014,0.625028610229492
1931.96343017,0.593777179718018
1932.61970997,0.656280040740967
1933.26037002,0.640654325485229
1934.04165006,0.781285762786865
1934.90107012,0.859414339065552
1943.41708016,0.875040054321289
1949.58924007,0.843788623809814
1953.10503006,0.718782901763916
1953.77693009,0.671905755996704
1954.41759014,0.640654325485229
1955.04261017,0.625028610229492
1955.68326998,0.640654325485229
1956.32392001,0.640654325485229
1956.96458006,0.640654325485229
1957.6521101,0.687531471252441
1958.37089014,0.718782901763916
1959.12093019,0.750034332275391
1959.85532999,0.734408617019653
1960.54287004,0.687531471252441
1961.26165009,0.718782901763916
1962.01168013,0.750034332275391
1962.68359017,0.671905755996704
1963.48049998,0.796911478042603
1979.27810001,0.687531471252441
1980.04376006,0.765660047531128
1980.7000401,0.656280040740967
1981.54383016,0.843788623809814
1986.99720001,0.750034332275391
1987.76286006,0.765660047531128
1988.66915011,0.906291484832764
2005.70117998,0.656280040740967
2006.43559003,0.734408617019653
2007.23250008,0.796911478042603
2012.07647014,0.781285762786865
2012.71713018,0.640654325485229
2013.38902998,0.671905755996704
2014.02969003,0.640654325485229
2014.68597007,0.656280040740967
2015.3578701,0.671905755996704
2016.07666016,0.718782901763916
2023.49887013,0.843788623809814
2024.24891019,0.750034332275391
2024.96768999,0.718782901763916
2025.88961005,0.921917259693146
2032.42115998,0.687531471252441
2033.26494002,0.843788623809814
2034.03060007,0.765660047531128
2034.71814013,0.687531471252441
2035.45254016,0.734408617019653
2036.34320998,0.890665829181671
2037.03074002,0.687531471252441
2066.28208017,0.734408617019653
2077.47009015,0.687531471252441
2078.18887997,0.718782901763916
2079.07954001,0.890665829181671
2082.79846001,0.890665829181671
2083.56412005,0.765660047531128
2084.31416011,0.750034332275391
2085.09544015,0.781285762786865
2085.8923502,0.796911478042603
2086.61114001,0.718782901763916
2087.40805006,0.796911478042603
2088.22059011,0.81253719329834
2088.92374015,0.703157186508179
2089.7206502,0.796911478042603
2090.50194001,0.781285762786865
2091.23635006,0.734408617019653
2092.00201011,0.765660047531128
2092.76767015,0.765660047531128
2093.5020802,0.734408617019653
2099.6429801,0.828162908554077
2107.50272012,0.859414339065552
2108.25275016,0.750034332275391
2108.9402802,0.687531471252441
2109.72157001,0.781285762786865
2110.40910006,0.687531471252441
2111.1435101,0.734408617019653
2111.86229014,0.718782901763916
2112.56545019,0.703157186508179
2124.84726,0.687531471252441
2125.47229004,0.625028610229492
2126.17545009,0.703157186508179
2126.84735012,0.671905755996704
2127.50363016,0.656280040740967
2128.1286602,0.625028610229492
2128.75369,0.625028610229492
2129.40997005,0.656280040740967
2130.08188009,0.671905755996704
2130.83191013,0.750034332275391
2131.67570019,0.843788623809814
2132.37886,0.703157186508179
2133.17577004,0.796911478042603
2133.94143009,0.765660047531128
2134.58208013,0.640654325485229
2135.28524017,0.703157186508179
2136.03526998,0.750034332275391
2136.67593002,0.640654325485229
2137.39471006,0.718782901763916
2138.09787011,0.703157186508179
2138.76977015,0.671905755996704
2143.92625999,0.687531471252441
2144.56691003,0.640654325485229
2145.23882008,0.671905755996704
2145.97323012,0.734408617019653
2146.78577018,0.81253719329834
2147.56704998,0.781285762786865
2152.83292007,0.703157186508179
2153.48920012,0.656280040740967
2154.27048016,0.781285762786865
2155.0673902,0.796911478042603
2155.77055001,0.703157186508179
2156.62997007,0.859414339065552
2157.44250011,0.81253719329834
2158.23942018,0.796911478042603
2159.20820999,0.968794345855713
2171.58378005,0.734408617019653
2183.22493005,0.750034332275391
2188.52205014,0.640654325485229
2189.16271019,0.640654325485229
2189.83460999,0.671905755996704
2190.47527003,0.640654325485229
2191.16280007,0.687531471252441
2191.89721012,0.734408617019653
2192.50661016,0.609402894973755
2193.1941402,0.687531471252441
2193.8973,0.703157186508179
2194.61608005,0.718782901763916
2195.27236009,0.656280040740967
2196.00677013,0.734408617019653
2196.72555017,0.718782901763916
2197.42870998,0.703157186508179
2198.11624002,0.687531471252441
2198.85065007,0.734408617019653
2199.60068011,0.750034332275391
2200.28821015,0.687531471252441
2201.03824997,0.750034332275391
2201.78828001,0.750034332275391
2202.49144006,0.703157186508179
2209.39801002,0.750034332275391
2210.13242006,0.734408617019653
2210.9449501,0.81253719329834
2211.58561015,0.640654325485229
2212.30439019,0.718782901763916
2213.02316999,0.718782901763916
2213.67945004,0.656280040740967
2214.36698008,0.687531471252441
2215.02326012,0.656280040740967
2215.77330017,0.750034332275391
2216.50770998,0.734408617019653
2217.27337003,0.765660047531128
2218.10153008,0.828162908554077
2218.91407013,0.81253719329834
2219.77348018,0.859414339065552
2220.55476999,0.781285762786865
2221.30480003,0.750034332275391
2222.03921008,0.734408617019653
2222.74237013,0.703157186508179
2223.42990017,0.687531471252441
2224.21117997,0.781285762786865
2225.03935003,0.828162908554077
2225.77376008,0.734408617019653
2226.60192013,0.828162908554077
2227.35195017,0.750034332275391
2228.05510998,0.703157186508179
2228.66451001,0.609402894973755
2229.25829005,0.593777179718018
2229.77394009,0.515648603439331
2243.80583,0.625028610229492
2244.41523004,0.609402894973755
2251.49368,0.781285762786865
2252.39998007,0.906291484832764
2253.16564012,0.765660047531128
2256.35328007,0.656280040740967
2257.07206011,0.718782901763916
2257.91585016,0.843788623809814
2258.65025997,0.734408617019653
2266.52561998,0.750034332275391
2267.16628003,0.640654325485229
2267.77568007,0.609402894973755
2268.61947012,0.843788623809814
2269.27575016,0.656280040740967
2279.51059008,0.781285762786865
2280.22937012,0.718782901763916
2286.63592005,0.765660047531128
2287.3703301,0.734408617019653
2288.19849014,0.828162908554077
2288.83914018,0.640654325485229
2289.60479999,0.765660047531128
2290.46422005,0.859414339065552
2291.08925009,0.625028610229492
2291.87053013,0.781285762786865
2292.71432018,0.843788623809814
2293.41747999,0.703157186508179
2294.13626003,0.718782901763916
2295.02693009,0.890665829181671
2295.65196013,0.625028610229492
2296.33949018,0.687531471252441
2297.01138997,0.671905755996704
2297.77705002,0.765660047531128
2298.44896007,0.671905755996704
2312.54334998,0.750034332275391
2330.15353012,0.671905755996704
2330.99732018,0.843788623809814
2334.51311016,0.734408617019653
2335.07563019,0.562525749206543
2339.84148002,0.750034332275391
2340.52901006,0.687531471252441
2341.2477901,0.718782901763916
2341.96658015,0.718782901763916
2342.71661019,0.750034332275391
2343.46664,0.750034332275391
2344.38856006,0.921917259693146
2345.29485011,0.906291484832764
2348.71688008,0.859414339065552
2349.46692014,0.750034332275391
2361.9674902,0.796911478042603
2362.71753001,0.750034332275391
2363.40506005,0.687531471252441
2364.07696009,0.671905755996704
2364.71762013,0.640654325485229
2365.54578018,0.828162908554077
2371.74919009,0.750034332275391
2372.42109013,0.671905755996704
2373.15550017,0.734408617019653
2373.90553999,0.750034332275391
2409.09465003,0.796911478042603
2409.87593007,0.781285762786865
2410.51659012,0.640654325485229
2411.29787016,0.781285762786865
2412.00102997,0.703157186508179
2412.73544002,0.734408617019653
2413.36047006,0.625028610229492
2414.0636301,0.703157186508179
2414.78241014,0.718782901763916
2415.53244019,0.750034332275391
2416.25123,0.718782901763916
2417.04814005,0.796911478042603
2417.67317009,0.625028610229492
2418.32945013,0.656280040740967
2419.09511018,0.765660047531128
2431.84569001,0.687531471252441
2432.58010006,0.734408617019653
2433.25200009,0.671905755996704
2433.95516014,0.703157186508179
2434.59582019,0.640654325485229
2435.45523,0.859414339065552
2439.00226998,0.781285762786865
2439.70542002,0.703157186508179
2444.8462801,0.687531471252441
2445.48694015,0.640654325485229
2446.26822019,0.781285762786865
2447.08076,0.81253719329834
2474.66015005,0.781285762786865
2475.25393009,0.593777179718018
2475.92583013,0.671905755996704
2476.67587018,0.750034332275391
2477.42589998,0.750034332275391
2478.17594004,0.750034332275391
2478.83222008,0.656280040740967
2479.61350012,0.781285762786865
2480.37916017,0.765660047531128
2481.12919998,0.750034332275391
2482.06674004,0.937542915344238
2487.20760012,0.718782901763916
2487.86388016,0.656280040740967
2488.59828997,0.734408617019653
2489.33270001,0.734408617019653
2490.11398005,0.781285762786865
2490.95777011,0.843788623809814
2495.16109014,0.703157186508179
2495.77049017,0.609402894973755
2496.61427999,0.843788623809814
2502.09891009,0.671905755996704
2502.77081013,0.671905755996704
2503.38021016,0.609402894973755
2507.7085402,0.765660047531128
2508.50545001,0.796911478042603
2509.19298005,0.687531471252441
2510.08365011,0.890665829181671
2510.72430015,0.640654325485229
2511.44308019,0.718782901763916
2512.05249,0.609402894973755
2512.75564003,0.703157186508179
2513.53693008,0.781285762786865
2518.63091016,0.609402894973755
2522.59984016,0.687531471252441
2528.39698005,0.640654325485229
2529.1157701,0.718782901763916
2529.86580014,0.750034332275391
2530.6158402,0.750034332275391
2531.47525001,0.859414339065552
2532.13153005,0.656280040740967
2532.95969009,0.828162908554077
2533.77223015,0.81253719329834
2534.6160202,0.843788623809814
2535.36605,0.750034332275391
2536.19422007,0.828162908554077
2537.06926012,0.875040054321289
2540.94443011,0.968794345855713
2561.66412997,0.718782901763916
2562.42979002,0.765660047531128
2563.14857006,0.718782901763916
2563.86736012,0.718782901763916
2564.71115017,0.843788623809814
2565.4143002,0.703157186508179
2566.22684002,0.81253719329834
2567.05500007,0.828162908554077
2567.74254012,0.687531471252441
2568.43007016,0.687531471252441
2569.1332202,0.703157186508179
2575.21163011,0.750034332275391
2575.94604015,0.734408617019653
2576.7429502,0.796911478042603
2577.50861001,0.765660047531128
2578.22739005,0.718782901763916
2578.9930501,0.765660047531128
2579.78996015,0.796911478042603
2580.61812019,0.828162908554077
2581.36816001,0.750034332275391
2591.41549015,0.734408617019653
2592.00927019,0.593777179718018
2592.68118,0.671905755996704
2593.39996004,0.718782901763916
2594.2437501,0.843788623809814
2595.04066014,0.796911478042603
2595.8532002,0.81253719329834
2596.63448,0.781285762786865
2597.38452005,0.750034332275391
2598.13455009,0.750034332275391
2601.88472009,0.718782901763916
2602.61913013,0.734408617019653
2603.33791018,0.718782901763916
2604.13483,0.796911478042603
2604.96299005,0.828162908554077
2605.88491011,0.921917259693146
2609.65070009,0.734408617019653
2610.44761014,0.796911478042603
2611.3070302,0.859414339065552
2611.94768,0.640654325485229
2612.72897005,0.781285762786865
2613.44775009,0.718782901763916
2614.13528013,0.687531471252441
2614.90094018,0.765660047531128
2615.65098,0.750034332275391
2616.47914004,0.828162908554077
2617.2604301,0.781285762786865
2617.93233013,0.671905755996704
2618.71362019,0.781285762786865
2619.43239999,0.718782901763916
2633.47992015,0.734408617019653
2634.26120019,0.781285762786865
2634.90186,0.640654325485229
2637.68324018,0.640654325485229
2638.44889998,0.765660047531128
2645.91798997,0.859414339065552
2646.57427001,0.656280040740967
2647.24617004,0.671905755996704
2647.87120008,0.625028610229492
2648.69937015,0.828162908554077
2649.46503019,0.765660047531128
2650.13692999,0.671905755996704
2650.94947004,0.81253719329834
2651.71513009,0.765660047531128
2652.44954014,0.734408617019653
2653.23082018,0.781285762786865
2653.85584998,0.625028610229492
2654.52776003,0.671905755996704
2655.27779007,0.750034332275391
2656.01220012,0.734408617019653
2656.87161016,0.859414339065552
2684.63850999,0.750034332275391
2716.32746005,0.718782901763916
2717.0931201,0.765660047531128
2717.70252013,0.609402894973755
2718.56194019,0.859414339065552
2719.49948001,0.937542915344238
2723.1559,0.750034332275391
2723.84343004,0.687531471252441
2724.7653501,0.921917259693146
2728.04675007,0.718782901763916
2751.48532009,0.796911478042603
2752.25098014,0.765660047531128
2753.04789019,0.796911478042603
2753.79793,0.750034332275391
2754.56359005,0.765660047531128
2755.31362009,0.750034332275391
2760.45448017,0.718782901763916
2761.18888998,0.734408617019653
2762.09518003,0.906291484832764
2762.81396008,0.718782901763916
2770.17368007,0.734408617019653
2770.92371011,0.750034332275391
2771.65812016,0.734408617019653
2772.3456502,0.687531471252441
2773.22069001,0.875040054321289
2783.92430997,0.781285762786865
2784.75247002,0.828162908554077
2785.48688006,0.734408617019653
2786.22129011,0.734408617019653
2787.00257015,0.781285762786865
2791.5027802,0.703157186508179
2792.28406,0.781285762786865
2792.97159004,0.687531471252441
2793.7216301,0.750034332275391
2794.45604014,0.734408617019653
2795.28420019,0.828162908554077
2807.37849998,0.750034332275391
2808.17542005,0.796911478042603
2809.01920009,0.843788623809814
2809.76924014,0.750034332275391
2810.55052018,0.781285762786865
2811.31617999,0.765660047531128
2816.61330009,0.875040054321289
2824.5042901,0.718782901763916
2825.28557014,0.781285762786865
2826.0356102,0.750034332275391
2826.83252001,0.796911478042603
2827.64506006,0.81253719329834
2828.41072011,0.765660047531128
2829.16075015,0.750034332275391
2829.84828019,0.687531471252441
2830.59832001,0.750034332275391
2831.36398005,0.765660047531128
2832.1452601,0.781285762786865
2832.87967014,0.734408617019653
2833.6297102,0.750034332275391
2834.52037001,0.890665829181671
2839.62998009,0.750034332275391
2840.45814013,0.828162908554077
2846.50530005,0.906291484832764
2847.31783009,0.81253719329834
2848.05224013,0.734408617019653
2848.75540018,0.703157186508179
2849.48980999,0.734408617019653
2850.25547004,0.765660047531128
2850.88050008,0.625028610229492
2862.25602007,0.640654325485229
2862.97480011,0.718782901763916
2863.69358015,0.718782901763916
2881.55377007,0.750034332275391
2882.19443011,0.640654325485229
2912.82083011,0.718782901763916
2913.61774015,0.796911478042603
2914.3052702,0.687531471252441
2920.82120013,0.609402894973755
2925.29015017,0.640654325485229
2925.94642997,0.656280040740967
2926.61834002,0.671905755996704
2927.25899005,0.640654325485229
2928.1027801,0.843788623809814
2928.83719015,0.734408617019653
2946.00985003,0.593777179718018
2974.93305016,0.640654325485229
2975.6362102,0.703157186508179
2976.27686,0.640654325485229
2976.87064004,0.593777179718018
2982.02712011,0.828162908554077
3007.32516003,0.81253719329834
3007.93456006,0.609402894973755
3008.70022011,0.765660047531128
3011.93474007,0.671905755996704
3012.74728012,0.81253719329834
3034.42015004,0.796911478042603
3035.20143008,0.781285762786865
3036.09210014,0.890665829181671
3048.88955998,0.781285762786865
3049.76460004,0.875040054321289
3053.07725,0.57815146446228
3053.62415004,0.546900033950806
3093.26659012,0.640654325485229
3104.65774012,0.718782901763916
3105.34527016,0.687531471252441
3106.0015502,0.656280040740967
3119.22090006,0.750034332275391
3119.90844011,0.687531471252441
3120.64284015,0.734408617019653
3121.3616302,0.718782901763916
3122.11166,0.750034332275391
3122.87732005,0.765660047531128
3123.53360009,0.656280040740967
3134.58098006,0.765660047531128
3135.34664011,0.765660047531128
3136.06542015,0.718782901763916
3136.8310802,0.765660047531128
3137.59674001,0.765660047531128
3138.25302005,0.656280040740967
3138.9718101,0.718782901763916
3139.65934014,0.687531471252441
3140.36250019,0.703157186508179
3141.06564999,0.703157186508179
3141.73756003,0.671905755996704
3165.44177008,0.625028610229492
3191.13045001,0.57815146446228
3191.83360004,0.703157186508179
3192.5523901,0.718782901763916
3193.30242014,0.750034332275391
3194.06808019,0.765660047531128
3194.72435999,0.656280040740967
3195.34939003,0.625028610229492
3196.06817007,0.718782901763916
3196.63070011,0.562525749206543
3197.24010015,0.609402894973755
3197.81825018,0.57815146446228
3205.8029902,0.703157186508179
3206.55303001,0.750034332275391
3207.28743005,0.734408617019653
3217.44414997,0.750034332275391
3218.25669003,0.81253719329834
3219.03797007,0.781285762786865
3219.75676012,0.718782901763916
3220.49116015,0.734408617019653
3221.44432998,0.953168630599976
3225.13199997,0.781285762786865
3225.88204002,0.750034332275391
3226.67895007,0.796911478042603
3227.30398011,0.625028610229492
3227.94463015,0.640654325485229
3228.60091019,0.656280040740967
3229.35093999,0.750034332275391
3230.08535004,0.734408617019653
3230.92914009,0.843788623809814
3231.85106015,0.921917259693146
3232.66359997,0.81253719329834
3233.47613001,0.81253719329834
3234.31992006,0.843788623809814
3235.13246012,0.81253719329834
3235.91375017,0.781285762786865
3236.71065998,0.796911478042603
3237.42944002,0.718782901763916
3238.16385007,0.734408617019653
3238.97639012,0.81253719329834
3239.77330017,0.796911478042603
3240.44519997,0.671905755996704
3241.24211001,0.796911478042603
3242.07028008,0.828162908554077
3242.74218011,0.671905755996704
3243.50784016,0.765660047531128
3244.25787997,0.750034332275391
3244.99229002,0.734408617019653
3245.75795007,0.765660047531128
3246.57048011,0.81253719329834
3247.27364016,0.703157186508179
3248.05492997,0.781285762786865
3248.80496001,0.750034332275391
3249.66437006,0.859414339065552
3250.57067013,0.906291484832764
3256.91471004,0.718782901763916
3257.63349009,0.718782901763916
3258.44603014,0.81253719329834
3259.27419019,0.828162908554077
3260.08673,0.81253719329834
3260.94614005,0.859414339065552
3261.7743001,0.828162908554077
3262.55559015,0.781285762786865
3263.33687997,0.781285762786865
3264.13379002,0.796911478042603
3264.79007006,0.656280040740967
3265.5401001,0.750034332275391
3266.33701015,0.796911478042603
3267.0870502,0.750034332275391
3267.93084002,0.843788623809814
3268.72775006,0.796911478042603
3269.5402801,0.81253719329834
3270.29032016,0.750034332275391
3270.9153502,0.625028610229492
3271.58724999,0.671905755996704
3272.29041004,0.703157186508179
3272.99357009,0.703157186508179
3273.68110013,0.687531471252441
3274.47801018,0.796911478042603
3275.29054999,0.81253719329834
3276.05621004,0.765660047531128
3276.9000001,0.843788623809814
3277.66566014,0.765660047531128
3278.33756018,0.671905755996704
3279.05634999,0.718782901763916
3279.77513003,0.718782901763916
3280.49391007,0.718782901763916
3293.97890019,0.687531471252441
3316.44868016,0.81253719329834
3317.12058997,0.671905755996704
3317.82374001,0.703157186508179
3318.57378006,0.750034332275391
3319.21443009,0.640654325485229
3319.94884014,0.734408617019653
3320.7301302,0.781285762786865
3321.41766,0.687531471252441
3322.08956003,0.671905755996704
3322.90210009,0.81253719329834
3323.66776013,0.765660047531128
3368.82608008,0.734408617019653
3369.62299013,0.796911478042603
3370.43553019,0.81253719329834
3382.81108999,0.781285762786865
3383.45175004,0.640654325485229
3384.09240007,0.640654325485229
3384.74868011,0.656280040740967
3385.46747017,0.718782901763916
3386.2018702,0.734408617019653
3387.07691002,0.875040054321289
3387.87383008,0.796911478042603
3388.68636012,0.81253719329834
3389.38952017,0.703157186508179
3390.0301702,0.640654325485229
3390.79583001,0.765660047531128
3391.51462007,0.718782901763916
3392.24903011,0.734408617019653
3406.78094006,0.609402894973755
3407.39034009,0.609402894973755
3416.79702997,0.828162908554077
3427.20375013,0.796911478042603
3427.81315017,0.609402894973755
3428.54755998,0.734408617019653
3429.15697002,0.609402894973755
3429.82887006,0.671905755996704
3430.64141011,0.81253719329834
3431.46957016,0.828162908554077
3439.00117016,0.703157186508179
3451.47048998,0.562525749206543
3452.12677002,0.656280040740967
3452.67367005,0.546900033950806
3453.18932009,0.515648603439331
3509.95754004,0.671905755996704
3510.67632008,0.718782901763916
3528.02086997,0.703157186508179
3528.77090001,0.750034332275391
3529.45843005,0.687531471252441
3530.2240901,0.765660047531128
3531.03663015,0.81253719329834
3546.88110018,0.718782901763916
3547.50612998,0.625028610229492
3548.25617003,0.750034332275391
3548.86557007,0.609402894973755
3549.49060011,0.625028610229492
3550.19376016,0.703157186508179
3550.92816019,0.734408617019653
3551.64695001,0.718782901763916
3552.35010004,0.703157186508179
3553.00639009,0.656280040740967
3553.78767014,0.781285762786865
3554.55333018,0.765660047531128
3555.28773999,0.734408617019653
3555.97527003,0.687531471252441
3556.77218008,0.796911478042603
3582.49211001,0.750034332275391
3595.03956008,0.750034332275391
3621.80641007,0.625028610229492
3622.60332012,0.796911478042603
3623.47836018,0.875040054321289
3626.80664015,0.718782901763916
3632.52565002,0.593777179718018
3633.18193007,0.656280040740967
3633.86946011,0.687531471252441
3634.51012015,0.640654325485229
3639.63534999,0.609402894973755
3640.24475002,0.609402894973755
3640.85416007,0.609402894973755
3641.4479301,0.593777179718018
3642.04171014,0.593777179718018
3642.60424018,0.562525749206543
3643.18238997,0.57815146446228
3643.72929001,0.546900033950806
3644.30744004,0.57815146446228
3644.85434008,0.546900033950806
3645.40124011,0.546900033950806
3645.93251014,0.531274318695068
3646.51066017,0.57815146446228
3646.99505997,0.484397172927856
3647.58884001,0.593777179718018
3648.08886003,0.500022888183594
3648.63576007,0.546900033950806
3649.1826601,0.546900033950806
3649.71394014,0.531274318695068
3650.35459018,0.640654325485229
3653.99538016,0.781285762786865
3654.69853997,0.703157186508179
3655.43295002,0.734408617019653
3656.10485005,0.671905755996704
3661.18321013,0.828162908554077
3668.15228009,0.781285762786865
3668.98044014,0.828162908554077
3669.79298019,0.81253719329834
3670.60552001,0.81253719329834
3671.37118006,0.765660047531128
3672.16809011,0.796911478042603
3672.99625015,0.828162908554077
3673.7306602,0.734408617019653
3674.63695002,0.906291484832764
3675.30886006,0.671905755996704
3676.0276401,0.718782901763916
3676.74642015,0.718782901763916
3677.4652102,0.718782901763916
3678.16835999,0.703157186508179
3678.93402004,0.765660047531128
3683.76237011,0.718782901763916
3684.46553016,0.703157186508179
3685.30931997,0.843788623809814
3694.29410005,0.671905755996704
3694.95038009,0.656280040740967
3695.59104013,0.640654325485229
3696.38795018,0.796911478042603
3697.09110999,0.703157186508179
3706.6696701,0.515648603439331
3707.24782014,0.57815146446228
3707.81035018,0.562525749206543
3708.40411997,0.593777179718018
3708.99790001,0.593777179718018
3709.62293005,0.625028610229492
3710.24796009,0.625028610229492
3710.95111012,0.703157186508179
3711.57614017,0.625028610229492
3712.21679997,0.640654325485229
3712.84183002,0.625028610229492
3713.54498005,0.703157186508179
3714.2168901,0.671905755996704
3714.93567014,0.718782901763916
3715.68571019,0.750034332275391
3716.51387,0.828162908554077
3719.82651997,0.687531471252441
3720.54530001,0.718782901763916
3721.24846005,0.703157186508179
3721.9672401,0.718782901763916
3722.60790014,0.640654325485229
3723.38918018,0.781285762786865
3724.18610001,0.796911478042603
3742.74944997,0.671905755996704
3743.43698001,0.687531471252441
3772.48518014,0.781285762786865
3773.20396018,0.718782901763916
3774.00088,0.796911478042603
3774.73528004,0.734408617019653
3775.45407009,0.718782901763916
3784.09509015,0.625028610229492
3784.65761018,0.562525749206543
3788.54842019,0.859414339065552
3789.23594999,0.687531471252441
3789.89223003,0.656280040740967
3797.40820003,0.765660047531128
3810.31504011,0.750034332275391
3810.90882015,0.593777179718018
3811.58072019,0.671905755996704
3812.39326,0.81253719329834
3813.11204004,0.718782901763916
3813.83082008,0.718782901763916
3814.75274014,0.921917259693146
3836.81625009,0.81253719329834
3837.50378013,0.687531471252441
3838.14444017,0.640654325485229
3842.34775019,0.671905755996704
3850.98877001,0.656280040740967
3851.66068006,0.671905755996704
3852.3638401,0.703157186508179
3853.14512014,0.781285762786865
3853.80140018,0.656280040740967
3854.50455999,0.703157186508179
3855.17647004,0.671905755996704
3855.83275008,0.656280040740967
3856.52028012,0.687531471252441
3857.23906016,0.718782901763916
3858.00471997,0.765660047531128
3862.25492001,0.750034332275391
3863.03620005,0.781285762786865
3863.73936009,0.703157186508179
3896.78775001,0.750034332275391
3897.53778005,0.750034332275391
3912.38221002,0.609402894973755
3913.14787006,0.765660047531128
