Mandatory;Pressed;Strength;BeginingTime;TimeSaved;EndTime;Comment;Emotion;
1;0;2;24109.11676;583476109.11676;26012.279259;583478012.279259;24349.116775;583476349.116775;;2/2/event/none/Mood;
1;0;1;64714.4835839;583516714.483584;65444.5020928;583517444.502093;64954.4836001;583516954.4836;;4/1/none/Mood;
