42042.6700001
0.0;0.562525749206543
0.609400033951,0.609402894973755
1.32817983627,0.718782901763916
1.90632987022,0.57815146446228
2.53135991096,0.625028610229492
3.2032699585,0.671905755996704
3.75016999245,0.546900033950806
4.3908200264,0.640654325485229
37.1266999245,0.468771457672119
49.2991299629,0.890665829181671
131.537269831,0.687531471252441
132.193549871,0.656280040740967
132.990459919,0.796911478042603
140.225169897,0.750034332275391
147.881769896,0.625028610229492
148.55366993,0.671905755996704
153.39763999,0.57815146446228
154.085170031,0.687531471252441
157.007179976,0.562525749206543
243.057999849,0.546900033950806
249.652050018,0.57815146446228
250.261450052,0.609402894973755
253.761610031,0.593777179718018
254.386639833,0.625028610229492
254.964789867,0.57815146446228
255.652319908,0.687531471252441
256.214849949,0.562525749206543
270.199869871,0.546900033950806
270.778019905,0.57815146446228
271.418669939,0.640654325485229
398.346359968,0.687531471252441
399.049510002,0.703157186508179
399.674540043,0.625028610229492
406.878000021,0.718782901763916
407.518649817,0.640654325485229
425.769490004,0.687531471252441
426.425770044,0.656280040740967
427.12891984,0.703157186508179
427.769579887,0.640654325485229
428.457109928,0.687531471252441
429.144639969,0.687531471252441
429.816550016,0.671905755996704
430.535329819,0.718782901763916
431.175979853,0.640654325485229
431.863519907,0.687531471252441
432.566669941,0.703157186508179
433.207329988,0.640654325485229
433.879230022,0.671905755996704
434.535509825,0.656280040740967
435.238669872,0.703157186508179
435.957449913,0.718782901763916
436.613729954,0.656280040740967
437.270009995,0.656280040740967
437.941920042,0.671905755996704
438.613819838,0.671905755996704
439.270099878,0.656280040740967
439.942009926,0.671905755996704
440.613919973,0.671905755996704
441.301450014,0.687531471252441
442.020229816,0.718782901763916
442.645259857,0.625028610229492
443.332789898,0.687531471252441
443.942189932,0.609402894973755
444.551599979,0.609402894973755
445.176620007,0.625028610229492
445.817279816,0.640654325485229
446.504809856,0.687531471252441
447.176719904,0.671905755996704
447.879869938,0.703157186508179
448.583029985,0.703157186508179
449.254940033,0.671905755996704
449.958089828,0.703157186508179
450.567499876,0.609402894973755
451.23939991,0.671905755996704
451.926929951,0.687531471252441
452.630089998,0.703157186508179
453.302000046,0.671905755996704
454.005149841,0.703157186508179
454.723939896,0.718782901763916
455.458349943,0.734408617019653
456.224009991,0.765660047531128
456.958410025,0.734408617019653
457.724069834,0.765660047531128
458.411609888,0.687531471252441
459.083509922,0.671905755996704
459.739789963,0.656280040740967
460.38045001,0.640654325485229
461.021100044,0.640654325485229
461.693009853,0.671905755996704
462.427409887,0.734408617019653
463.130569935,0.703157186508179
463.880609989,0.750034332275391
464.66189003,0.781285762786865
465.349419832,0.687531471252441
466.08382988,0.734408617019653
466.771359921,0.687531471252441
467.458889961,0.687531471252441
468.146430016,0.687531471252441
468.771450043,0.625028610229492
469.443359852,0.671905755996704
470.115269899,0.671905755996704
470.880929947,0.765660047531128
471.568459988,0.687531471252441
472.318490028,0.750034332275391
473.115399837,0.796911478042603
473.943569899,0.828162908554077
474.646719933,0.703157186508179
475.459259987,0.81253719329834
476.162420034,0.703157186508179
476.83431983,0.671905755996704
477.724989891,0.890665829181671
482.787719965,0.703157186508179
483.553380013,0.765660047531128
487.616070032,0.640654325485229
488.241099834,0.625028610229492
488.912999868,0.671905755996704
489.584909916,0.671905755996704
490.303689957,0.718782901763916
491.069350004,0.765660047531128
491.835010052,0.765660047531128
492.694419861,0.859414339065552
493.319449902,0.625028610229492
494.069489956,0.750034332275391
494.803900003,0.734408617019653
495.553930044,0.750034332275391
496.225839853,0.671905755996704
496.897739887,0.671905755996704
497.569649935,0.671905755996704
498.241549969,0.671905755996704
498.944710016,0.703157186508179
499.632239819,0.687531471252441
500.366649866,0.734408617019653
501.132309914,0.765660047531128
501.866719961,0.734408617019653
502.601130009,0.734408617019653
503.335539818,0.734408617019653
504.038689852,0.703157186508179
504.757479906,0.718782901763916
505.46062994,0.703157186508179
506.179419994,0.718782901763916
506.898200035,0.718782901763916
507.570109844,0.671905755996704
508.273259878,0.703157186508179
508.992049932,0.718782901763916
509.695199966,0.703157186508179
510.382730007,0.687531471252441
511.085889816,0.703157186508179
511.835929871,0.750034332275391
512.507829905,0.671905755996704
513.226609945,0.718782901763916
513.929769993,0.703157186508179
514.63293004,0.703157186508179
515.367339849,0.734408617019653
516.007989883,0.640654325485229
516.711149931,0.703157186508179
517.398679972,0.687531471252441
518.101840019,0.703157186508179
518.804990053,0.703157186508179
519.508149862,0.703157186508179
520.226929903,0.718782901763916
520.976969957,0.750034332275391
521.726999998,0.750034332275391
522.492660046,0.765660047531128
523.164569855,0.671905755996704
523.898979902,0.734408617019653
524.570879936,0.671905755996704
525.242789984,0.671905755996704
525.930320024,0.687531471252441
526.617849827,0.687531471252441
527.336639881,0.718782901763916
527.946039915,0.609402894973755
528.649199963,0.703157186508179
529.352349997,0.703157186508179
530.086760044,0.734408617019653
530.821169853,0.734408617019653
543.712389946,0.703157186508179
544.38428998,0.671905755996704
545.024950027,0.640654325485229
545.759349823,0.734408617019653
546.384379864,0.625028610229492
546.993789911,0.609402894973755
547.743819952,0.750034332275391
548.57198,0.828162908554077
549.337640047,0.765660047531128
550.134549856,0.796911478042603
550.900209904,0.765660047531128
551.681499958,0.781285762786865
552.431529999,0.750034332275391
553.165940046,0.734408617019653
553.915979862,0.750034332275391
554.587879896,0.671905755996704
555.275409937,0.687531471252441
555.947319984,0.671905755996704
556.634850025,0.687531471252441
557.306759834,0.671905755996704
567.057199955,0.703157186508179
567.822860003,0.765660047531128
568.635399818,0.81253719329834
569.354179859,0.718782901763916
570.057339907,0.703157186508179
570.807379961,0.750034332275391
571.448029995,0.640654325485229
572.182440042,0.734408617019653
583.776720047,0.656280040740967
584.589259863,0.81253719329834
585.308039904,0.718782901763916
585.995569944,0.687531471252441
586.714349985,0.718782901763916
587.448760033,0.734408617019653
588.198799849,0.750034332275391
588.839449883,0.640654325485229
589.558229923,0.718782901763916
590.245769978,0.687531471252441
590.917670012,0.671905755996704
591.652079821,0.734408617019653
592.323989868,0.671905755996704
592.949009895,0.625028610229492
593.652169943,0.703157186508179
594.32407999,0.671905755996704
594.964730024,0.640654325485229
595.699139833,0.734408617019653
596.402299881,0.703157186508179
597.152329922,0.750034332275391
597.792989969,0.640654325485229
598.496140003,0.703157186508179
599.246179819,0.750034332275391
599.96495986,0.718782901763916
600.761869907,0.796911478042603
601.433779955,0.671905755996704
602.136929989,0.703157186508179
603.043229818,0.906291484832764
635.747849941,0.750034332275391
636.419749975,0.671905755996704
637.10729003,0.687531471252441
637.810439825,0.703157186508179
638.513599873,0.703157186508179
639.24800992,0.734408617019653
639.998039961,0.750034332275391
640.763700008,0.765660047531128
641.451230049,0.687531471252441
645.732679844,0.718782901763916
646.451459885,0.718782901763916
664.092900038,0.765660047531128
664.87417984,0.781285762786865
665.671089888,0.796911478042603
666.436749935,0.765660047531128
667.249289989,0.81253719329834
667.96807003,0.718782901763916
668.639979839,0.671905755996704
669.29625988,0.656280040740967
669.968159914,0.671905755996704
670.640069962,0.671905755996704
671.265100002,0.625028610229492
671.99951005,0.734408617019653
672.765169859,0.765660047531128
673.3901999,0.625028610229492
674.10897994,0.718782901763916
674.812139988,0.703157186508179
675.530920029,0.718782901763916
676.202819824,0.671905755996704
676.937229872,0.734408617019653
677.624759912,0.687531471252441
678.29666996,0.671905755996704
678.999830008,0.703157186508179
679.671730042,0.671905755996704
680.312389851,0.640654325485229
681.015539885,0.703157186508179
681.749949932,0.734408617019653
682.51560998,0.765660047531128
683.343780041,0.828162908554077
684.015679836,0.671905755996704
684.734469891,0.718782901763916
685.500129938,0.765660047531128
686.172029972,0.671905755996704
686.87519002,0.703157186508179
687.531469822,0.656280040740967
688.265879869,0.734408617019653
688.92215991,0.656280040740967
689.594059944,0.671905755996704
690.344099998,0.750034332275391
690.984750032,0.640654325485229
691.703529835,0.718782901763916
692.422319889,0.718782901763916
693.07859993,0.656280040740967
693.797379971,0.718782901763916
694.453660011,0.656280040740967
695.109940052,0.656280040740967
695.813099861,0.703157186508179
696.484999895,0.671905755996704
697.125659943,0.640654325485229
697.797559977,0.671905755996704
698.469470024,0.671905755996704
699.11011982,0.640654325485229
699.828909874,0.718782901763916
700.516439915,0.687531471252441
701.172719955,0.656280040740967
701.907130003,0.734408617019653
702.625910044,0.718782901763916
703.344689846,0.718782901763916
704.079099894,0.734408617019653
704.704129934,0.625028610229492
705.407289982,0.703157186508179
706.094820023,0.687531471252441
706.766719818,0.671905755996704
707.391749859,0.625028610229492
708.063659906,0.671905755996704
708.688689947,0.625028610229492
709.298089981,0.609402894973755
709.923120022,0.625028610229492
710.579399824,0.656280040740967
711.282559872,0.703157186508179
711.907579899,0.625028610229492
715.313989878,0.625028610229492
715.907769918,0.593777179718018
716.532799959,0.625028610229492
717.204699993,0.671905755996704
717.939110041,0.734408617019653
718.548509836,0.609402894973755
719.157919884,0.609402894973755
719.782939911,0.625028610229492
720.392349958,0.609402894973755
721.064249992,0.671905755996704
727.564549923,0.656280040740967
757.503419876,0.750034332275391
887.243739843,0.484397172927856
887.868759871,0.625028610229492
921.354670048,1.10942578315735
1084.00273991,0.640654325485229
1084.70589995,0.703157186508179
1097.90962982,0.703157186508179
1098.45652986,0.546900033950806
1099.06592989,0.609402894973755
1110.41019988,0.593777179718018
1110.98834991,0.57815146446228
1111.53524995,0.546900033950806
1112.12902999,0.593777179718018
1112.67593002,0.546900033950806
1113.22282982,0.546900033950806
1113.83222985,0.609402894973755
1114.41037989,0.57815146446228
1115.00415993,0.593777179718018
1120.92630982,0.609402894973755
1121.44195986,0.515648603439331
1121.98885989,0.546900033950806
1122.50449991,0.515648603439331
1125.73902988,0.609402894973755
1126.44217992,0.703157186508179
1127.02033997,0.57815146446228
1127.72349,0.703157186508179
1128.28602004,0.562525749206543
1138.17709994,0.718782901763916
1138.86462998,0.687531471252441
1139.56779003,0.703157186508179
1140.25531983,0.687531471252441
1140.92721987,0.671905755996704
1141.56787992,0.640654325485229
1142.16164994,0.593777179718018
1142.81792998,0.656280040740967
1143.41171002,0.593777179718018
1144.02110982,0.609402894973755
1144.58363986,0.562525749206543
1150.80267,0.57815146446228
1151.33395004,0.531274318695068
1151.95897985,0.625028610229492
1152.44336987,0.484397172927856
1152.9902699,0.546900033950806
1153.52154994,0.531274318695068
1154.03719997,0.515648603439331
1154.56847,0.531274318695068
1155.17787004,0.609402894973755
1155.74039984,0.562525749206543
1156.41230989,0.671905755996704
1156.94357991,0.531274318695068
1157.52172995,0.57815146446228
1158.14675999,0.625028610229492
1158.72491002,0.57815146446228
1159.34993982,0.625028610229492
1159.89683986,0.546900033950806
1160.47498989,0.57815146446228
1161.05313993,0.57815146446228
1161.66254997,0.609402894973755
1162.28758001,0.625028610229492
1162.85010004,0.562525749206543
1171.50674987,0.609402894973755
1172.13177991,0.625028610229492
1172.75679994,0.625028610229492
1173.28807998,0.531274318695068
1173.89748001,0.609402894973755
1174.50688004,0.609402894973755
1175.10065985,0.593777179718018
1175.71005988,0.609402894973755
1186.69493985,0.562525749206543
1229.40001988,0.500022888183594
1229.97816992,0.57815146446228
1230.49381995,0.515648603439331
1231.05634999,0.562525749206543
1231.60325003,0.546900033950806
1232.22827983,0.625028610229492
1232.79079986,0.562525749206543
1313.9195199,0.640654325485229
1314.48203993,0.562525749206543
1341.79578996,0.718782901763916
1342.32707,0.531274318695068
1343.07710004,0.750034332275391
1343.63962984,0.562525749206543
1349.60864997,0.57815146446228
1350.32743001,0.718782901763916
1361.5467,0.531274318695068
1362.04672003,0.500022888183594
1386.79784989,0.531274318695068
1387.34474993,0.546900033950806
1388.07915998,0.734408617019653
1388.59481001,0.515648603439331
1389.14171004,0.546900033950806
1407.59568,0.546900033950806
1408.26758003,0.671905755996704
1424.39331985,0.671905755996704
1425.03397989,0.640654325485229
1436.15948987,0.546900033950806
1436.7220099,0.562525749206543
1437.34703994,0.625028610229492
1437.81580997,0.468771457672119
1438.36271,0.546900033950806
1438.90961003,0.546900033950806
1439.55026984,0.640654325485229
1440.01903987,0.468771457672119
1440.5503099,0.531274318695068
1441.05032992,0.500022888183594
1441.67535996,0.625028610229492
1442.22226,0.546900033950806
1442.86292005,0.640654325485229
1451.17579985,0.593777179718018
1451.84769988,0.671905755996704
1457.92611003,0.546900033950806
1458.45737982,0.531274318695068
1459.14490986,0.687531471252441
1459.69180989,0.546900033950806
1503.02191997,0.640654325485229
1503.66258001,0.640654325485229
1504.30323005,0.640654325485229
1511.35043001,0.671905755996704
1512.00671005,0.656280040740967
1512.66298985,0.656280040740967
1513.3192699,0.656280040740967
1513.97554994,0.656280040740967
1514.64744997,0.671905755996704
1515.30373001,0.656280040740967
1515.94438982,0.640654325485229
1516.64754987,0.703157186508179
1517.30382991,0.656280040740967
1517.97572994,0.671905755996704
1518.61638999,0.640654325485229
1519.27267003,0.656280040740967
1519.96019983,0.687531471252441
1520.58522987,0.625028610229492
1521.16337991,0.57815146446228
1521.77277994,0.609402894973755
1522.42905998,0.656280040740967
1523.11659002,0.687531471252441
1528.21056986,0.531274318695068
1528.78872991,0.57815146446228
1529.44500995,0.656280040740967
1530.03877997,0.593777179718018
1530.57006001,0.531274318695068
1531.10133004,0.531274318695068
1531.69510984,0.593777179718018
1532.33575988,0.640654325485229
1533.02328992,0.687531471252441
1539.61734986,0.562525749206543
1540.17986989,0.562525749206543
1540.77364993,0.593777179718018
1541.41429996,0.640654325485229
1542.00808001,0.593777179718018
1542.61748004,0.609402894973755
1543.21125984,0.593777179718018
1543.82065988,0.609402894973755
1544.44568992,0.625028610229492
1545.08634996,0.640654325485229
1545.63325,0.546900033950806
1546.27390003,0.640654325485229
1546.93017983,0.656280040740967
1547.49270988,0.562525749206543
1548.14898992,0.656280040740967
1548.72713995,0.57815146446228
1549.39903998,0.671905755996704
1549.93032002,0.531274318695068
1550.53971982,0.609402894973755
1551.07099986,0.531274318695068
1551.68039989,0.609402894973755
1552.21166992,0.531274318695068
1552.80544996,0.593777179718018
1553.35235,0.546900033950806
1553.89925003,0.546900033950806
1554.41489983,0.515648603439331
1555.05554986,0.640654325485229
1555.57119989,0.515648603439331
1556.13372993,0.562525749206543
1556.69624996,0.562525749206543
1557.27441001,0.57815146446228
1557.85256004,0.57815146446228
1558.44632983,0.593777179718018
1558.99322987,0.546900033950806
1559.5088799,0.515648603439331
1560.05577993,0.546900033950806
1560.61830997,0.562525749206543
1561.10271001,0.484397172927856
1564.08721995,0.57815146446228
1564.72786999,0.640654325485229
1571.50942993,0.625028610229492
1572.05632997,0.546900033950806
1572.68136001,0.625028610229492
1581.77552986,0.656280040740967
1696.96829987,0.593777179718018
1697.5151999,0.546900033950806
1698.07772994,0.562525749206543
1698.57774997,0.500022888183594
1699.0934,0.515648603439331
1699.62467003,0.531274318695068
1700.14031982,0.515648603439331
1700.68721986,0.546900033950806
1701.2809999,0.593777179718018
1701.79664993,0.515648603439331
1741.50159001,0.562525749206543
1742.23599982,0.734408617019653
1769.39348984,0.57815146446228
1770.06539989,0.671905755996704
1820.78646994,0.515648603439331
1850.05342984,0.640654325485229
1850.58470988,0.531274318695068
1851.27223992,0.687531471252441
1851.75662994,0.484397172927856
1852.39728999,0.640654325485229
1955.15198994,0.546900033950806
1955.74576998,0.593777179718018
1956.30830002,0.562525749206543
1956.96457982,0.656280040740967
1957.44896984,0.484397172927856
1958.01149988,0.562525749206543
1958.58964992,0.57815146446228
1959.12091994,0.531274318695068
1967.40254998,0.500022888183594
1968.01196003,0.609402894973755
2027.21778989,0.671905755996704
2027.88969994,0.671905755996704
2028.54597998,0.656280040740967
2029.20226002,0.656280040740967
2029.82728982,0.625028610229492
2030.45230985,0.625028610229492
2031.12421989,0.671905755996704
2031.68674994,0.562525749206543
2032.31177998,0.625028610229492
2055.76596999,0.609402894973755
2267.10377002,0.625028610229492
2267.72879982,0.625028610229492
2268.36945987,0.640654325485229
2294.54252982,0.640654325485229
2341.10715985,0.593777179718018
2341.73218989,0.625028610229492
2342.41971993,0.687531471252441
2376.99942994,0.609402894973755
2408.96964002,0.640654325485229
2409.71967983,0.750034332275391
2410.37595987,0.656280040740967
2542.36636996,0.718782901763916
2543.00703001,0.640654325485229
2598.46268988,1.00004577636719
2619.54177999,0.609402894973755
2620.08868003,0.546900033950806
2620.77620983,0.687531471252441
2621.33873987,0.562525749206543
2738.71911001,0.437520027160645
2739.29726005,0.57815146446228
2739.85978985,0.562525749206543
2740.53168988,0.671905755996704
2741.15671992,0.625028610229492
2741.71924996,0.562525749206543
2756.78243995,0.57815146446228
2757.34495997,0.562525749206543
2757.96999002,0.625028610229492
2805.12839985,0.625028610229492
2805.65966988,0.531274318695068
2806.20656991,0.546900033950806
2806.87847996,0.671905755996704
2819.48843002,0.562525749206543
2820.08220983,0.593777179718018
2838.92682004,0.546900033950806
2839.55184984,0.625028610229492
2840.08311987,0.531274318695068
2840.6300199,0.546900033950806
2869.64698005,0.609402894973755
2912.60206985,0.671905755996704
2913.18021989,0.57815146446228
2913.75836992,0.57815146446228
2914.41464996,0.656280040740967
2914.9303,0.515648603439331
2924.8526299,0.562525749206543
2925.57140994,0.718782901763916
2926.19643998,0.625028610229492
2992.60572982,0.531274318695068
3047.09259987,0.593777179718018
3047.6394999,0.546900033950806
3181.7706399,0.718782901763916
3182.36441994,0.593777179718018
3205.64672995,0.625028610229492
3206.22487998,0.57815146446228
3206.84991002,0.625028610229492
