71046.6300001
0.0;0.609402894973755
0.640660047531,0.640654325485229
169.210870028,0.609402894973755
172.398519993,0.671905755996704
172.992300034,0.593777179718018
173.679829836,0.687531471252441
174.32047987,0.640654325485229
174.945509911,0.625028610229492
195.790220022,0.609402894973755
245.933140039,0.734408617019653
246.605039835,0.671905755996704
247.183189869,0.57815146446228
247.917599916,0.734408617019653
492.14752984,0.625028610229492
492.772559881,0.625028610229492
493.444469929,0.671905755996704
494.210129976,0.765660047531128
497.179009914,0.656280040740967
564.27583003,1.42194008827209
590.308269978,0.640654325485229
590.995810032,0.687531471252441
622.934769869,0.765660047531128
623.68479991,0.750034332275391
636.810400009,0.750034332275391
637.513560057,0.703157186508179
638.263589859,0.750034332275391
638.997999907,0.734408617019653
639.779289961,0.781285762786865
640.513700008,0.734408617019653
641.216860056,0.703157186508179
641.966889858,0.750034332275391
642.685669899,0.718782901763916
643.404459953,0.718782901763916
644.123239994,0.718782901763916
644.779520035,0.656280040740967
645.45141983,0.671905755996704
646.123329878,0.671905755996704
646.810859919,0.687531471252441
647.420259953,0.609402894973755
652.498620033,0.750034332275391
653.201779842,0.703157186508179
653.873679876,0.671905755996704
654.623719931,0.750034332275391
655.342499971,0.718782901763916
661.795919895,0.703157186508179
662.545959949,0.750034332275391
663.23348999,0.687531471252441
663.952270031,0.718782901763916
664.65542984,0.703157186508179
665.405459881,0.750034332275391
670.421319962,0.781285762786865
671.155730009,0.734408617019653
671.749500036,0.593777179718018
672.499539852,0.750034332275391
673.202689886,0.703157186508179
689.812829971,0.718782901763916
690.500360012,0.687531471252441
691.047260046,0.546900033950806
691.672289848,0.625028610229492
701.875880003,0.671905755996704
702.516540051,0.640654325485229
703.172819853,0.656280040740967
703.782219887,0.609402894973755
704.360369921,0.57815146446228
708.45430994,0.671905755996704
709.110589981,0.656280040740967
720.454859972,0.656280040740967
721.142390013,0.687531471252441
721.783040047,0.640654325485229
722.470569849,0.687531471252441
723.173729897,0.703157186508179
723.830009937,0.656280040740967
724.486289978,0.656280040740967
725.142570019,0.656280040740967
725.83010006,0.687531471252441
726.502009869,0.671905755996704
727.189539909,0.687531471252441
727.892699957,0.703157186508179
728.564599991,0.671905755996704
729.267760038,0.703157186508179
729.986539841,0.718782901763916
730.674069881,0.687531471252441
731.361609936,0.687531471252441
732.03350997,0.671905755996704
732.705420017,0.671905755996704
733.408580065,0.703157186508179
734.096109867,0.687531471252441
734.768009901,0.671905755996704
735.439919949,0.671905755996704
736.127449989,0.687531471252441
736.830610037,0.703157186508179
740.94017005,0.656280040740967
741.612079859,0.671905755996704
742.2683599,0.656280040740967
742.971509933,0.703157186508179
743.643419981,0.671905755996704
744.299700022,0.656280040740967
744.987230062,0.687531471252441
745.690389872,0.703157186508179
752.909469843,0.687531471252441
753.565749884,0.656280040740967
754.253279924,0.687531471252441
754.956439972,0.703157186508179
755.659590006,0.703157186508179
756.34713006,0.687531471252441
757.019029856,0.671905755996704
757.706559896,0.687531471252441
758.425349951,0.718782901763916
759.128499985,0.703157186508179
759.800410032,0.671905755996704
760.487939835,0.687531471252441
761.191099882,0.703157186508179
761.878629923,0.687531471252441
762.628659964,0.750034332275391
763.378700018,0.750034332275391
764.097480059,0.718782901763916
764.863139868,0.765660047531128
765.581919909,0.718782901763916
766.316329956,0.734408617019653
767.019490004,0.703157186508179
767.738270044,0.718782901763916
768.457049847,0.718782901763916
769.160209894,0.703157186508179
769.863369942,0.703157186508179
770.550899982,0.687531471252441
771.28531003,0.734408617019653
771.988469839,0.703157186508179
778.926280022,0.687531471252441
779.613819838,0.687531471252441
780.254469872,0.640654325485229
781.051379919,0.796911478042603
781.61390996,0.562525749206543
782.254559994,0.640654325485229
782.942090034,0.687531471252441
783.598369837,0.656280040740967
784.348409891,0.750034332275391
785.035939932,0.687531471252441
785.692219973,0.656280040740967
786.379750013,0.687531471252441
787.051660061,0.671905755996704
787.770439863,0.718782901763916
788.442339897,0.671905755996704
789.129879951,0.687531471252441
789.801779985,0.671905755996704
790.458060026,0.656280040740967
791.161219835,0.703157186508179
791.848749876,0.687531471252441
792.536279917,0.687531471252441
793.208189964,0.671905755996704
793.926970005,0.718782901763916
794.645750046,0.718782901763916
795.411409855,0.765660047531128
796.145819902,0.734408617019653
796.833349943,0.687531471252441
797.536509991,0.703157186508179
798.239670038,0.703157186508179
798.942819834,0.703157186508179
799.630359888,0.687531471252441
800.286639929,0.656280040740967
800.94291997,0.656280040740967
801.614820004,0.671905755996704
802.286730051,0.671905755996704
802.958629847,0.671905755996704
803.614909887,0.656280040740967
804.286819935,0.671905755996704
804.911849976,0.625028610229492
805.55250001,0.640654325485229
806.20878005,0.656280040740967
806.865059853,0.656280040740967
807.490089893,0.625028610229492
820.568809986,0.687531471252441
821.25635004,0.687531471252441
821.959499836,0.703157186508179
822.67828989,0.718782901763916
823.397069931,0.718782901763916
824.053349972,0.656280040740967
824.756510019,0.703157186508179
825.428410053,0.671905755996704
826.162819862,0.734408617019653
826.83472991,0.671905755996704
827.522259951,0.687531471252441
828.209789991,0.687531471252441
828.928570032,0.718782901763916
829.631729841,0.703157186508179
838.132119894,0.656280040740967
838.788399935,0.656280040740967
839.460299969,0.671905755996704
840.116580009,0.656280040740967
840.850990057,0.734408617019653
841.554149866,0.703157186508179
842.226059914,0.671905755996704
842.929209948,0.703157186508179
843.632369995,0.703157186508179
844.319900036,0.687531471252441
844.991809845,0.671905755996704
845.679339886,0.687531471252441
846.398119926,0.718782901763916
847.101279974,0.703157186508179
847.757560015,0.656280040740967
848.429470062,0.671905755996704
849.101369858,0.671905755996704
849.788899899,0.687531471252441
850.460809946,0.671905755996704
851.117089987,0.656280040740967
851.788990021,0.671905755996704
852.49214983,0.703157186508179
853.179679871,0.687531471252441
853.851589918,0.671905755996704
854.539119959,0.687531471252441
855.242280006,0.703157186508179
855.961060047,0.718782901763916
856.632969856,0.671905755996704
857.30486989,0.671905755996704
857.992399931,0.687531471252441
858.664309978,0.671905755996704
859.336210012,0.671905755996704
859.961240053,0.625028610229492
860.586269855,0.625028610229492
861.258179903,0.671905755996704
861.867579937,0.609402894973755
862.523859978,0.656280040740967
863.195770025,0.671905755996704
863.883299828,0.687531471252441
864.586449862,0.703157186508179
865.242729902,0.656280040740967
865.94588995,0.703157186508179
866.617799997,0.671905755996704
867.320950031,0.703157186508179
867.977229834,0.656280040740967
868.633509874,0.656280040740967
869.321049929,0.687531471252441
869.992949963,0.671905755996704
870.680480003,0.687531471252441
871.368020058,0.687531471252441
872.071169853,0.703157186508179
872.758699894,0.687531471252441
873.477489948,0.718782901763916
874.133769989,0.656280040740967
874.82130003,0.687531471252441
875.508829832,0.687531471252441
876.196359873,0.687531471252441
876.89951992,0.703157186508179
877.602679968,0.703157186508179
878.274580002,0.671905755996704
878.962110043,0.687531471252441
879.649639845,0.687531471252441
880.384049892,0.734408617019653
881.102839947,0.718782901763916
881.852869987,0.750034332275391
882.462270021,0.609402894973755
883.134179831,0.671905755996704
883.868589878,0.734408617019653
884.587369919,0.718782901763916
885.259279966,0.671905755996704
885.96243,0.703157186508179
886.681220055,0.718782901763916
887.431249857,0.750034332275391
888.181279898,0.750034332275391
888.962569952,0.781285762786865
889.681349993,0.718782901763916
890.400140047,0.718782901763916
891.134539843,0.734408617019653
891.884579897,0.750034332275391
892.603359938,0.718782901763916
893.275269985,0.671905755996704
894.11906004,0.843788623809814
894.744089842,0.625028610229492
895.494119883,0.750034332275391
896.29102993,0.796911478042603
896.978559971,0.687531471252441
897.728600025,0.750034332275391
898.478629827,0.750034332275391
899.244289875,0.765660047531128
900.009949923,0.765660047531128
900.71310997,0.703157186508179
901.416270018,0.703157186508179
902.150670052,0.734408617019653
902.869459867,0.718782901763916
903.619489908,0.750034332275391
904.307019949,0.687531471252441
905.041429996,0.734408617019653
905.791470051,0.750034332275391
906.55712986,0.765660047531128
907.307159901,0.750034332275391
908.041569948,0.734408617019653
908.760349989,0.718782901763916
909.510390043,0.750034332275391
910.276049852,0.765660047531128
919.542099953,0.687531471252441
920.260879993,0.718782901763916
1159.11556005,0.750034332275391
1209.63349986,0.781285762786865
1254.11991,0.875040054321289
1264.08911991,0.734408617019653
1264.87039995,0.781285762786865
1275.12086987,0.484397172927856
1286.12137985,0.750034332275391
1976.12171006,0.687531471252441
1976.68423986,0.562525749206543
1977.2311399,0.546900033950806
1992.6380899,0.703157186508179
1995.62259984,0.640654325485229
2309.04320002,0.656280040740967
2309.59010005,0.546900033950806
2403.0943799,0.609402894973755
2403.78190994,0.687531471252441
2404.43818998,0.656280040740967
2405.11010003,0.671905755996704
2405.79762983,0.687531471252441
2571.71146989,0.703157186508179
2584.21204996,0.546900033950806
2584.82145,0.609402894973755
2585.44648004,0.625028610229492
2586.00900006,0.562525749206543
2586.60277987,0.593777179718018
2587.1809299,0.57815146446228
2587.74345994,0.562525749206543
2588.30597997,0.562525749206543
2588.89976001,0.593777179718018
2591.83739996,0.593777179718018
2592.36866999,0.531274318695068
2592.99370003,0.625028610229492
2913.86775994,0.562525749206543
2914.50841999,0.640654325485229
2915.13344002,0.625028610229492
2915.74284983,0.609402894973755
3219.05360985,0.57815146446228
3219.60050988,0.546900033950806
3220.17865992,0.57815146446228
3220.78805995,0.609402894973755
3221.36620998,0.57815146446228
3221.91311002,0.546900033950806
3222.56939006,0.656280040740967
3223.17878985,0.609402894973755
3223.7569499,0.57815146446228
3503.22285986,0.625028610229492
3503.89476991,0.671905755996704
3504.53541994,0.640654325485229
3517.52039003,0.609402894973755
3518.11416984,0.593777179718018
3518.75481987,0.640654325485229
3519.37984991,0.625028610229492
3523.22377992,0.671905755996704
3523.89568996,0.671905755996704
3524.59884,0.703157186508179
3525.22387004,0.625028610229492
3525.92702985,0.703157186508179
3526.55205989,0.625028610229492
3533.69300985,0.718782901763916
3534.38053989,0.687531471252441
3720.82657003,0.640654325485229
3721.42034984,0.593777179718018
3725.82679987,0.562525749206543
3726.46745992,0.640654325485229
3727.07685995,0.609402894973755
3727.67063999,0.593777179718018
3732.56149006,0.687531471252441
3733.26463985,0.703157186508179
3733.9209199,0.656280040740967
3734.60844994,0.687531471252441
3735.29598999,0.687531471252441
3736.01477003,0.718782901763916
3739.4368,0.687531471252441
3740.12433004,0.687531471252441
3740.81185985,0.687531471252441
3741.5618999,0.750034332275391
3744.95267987,0.687531471252441
3745.64020991,0.687531471252441
3746.29648995,0.656280040740967
3746.95276999,0.656280040740967
3747.60905004,0.656280040740967
3748.28095984,0.671905755996704
3748.93723989,0.656280040740967
3832.87857985,1.01567149162292
3839.72264004,0.57815146446228
3847.39487004,0.640654325485229
3921.13261986,0.625028610229492
3921.74201989,0.609402894973755
3922.35141993,0.609402894973755
3922.96082997,0.609402894973755
3923.58586001,0.625028610229492
3924.19526005,0.609402894973755
3924.83590984,0.640654325485229
3925.42968988,0.593777179718018
3926.05471992,0.625028610229492
3926.69536996,0.640654325485229
3927.35165,0.656280040740967
3927.94543004,0.593777179718018
3928.66420984,0.718782901763916
3931.91436005,0.671905755996704
3932.57063985,0.656280040740967
3933.2112999,0.640654325485229
3933.86757994,0.656280040740967
3934.47697997,0.609402894973755
3935.16451001,0.687531471252441
3935.78954005,0.625028610229492
3936.43018985,0.640654325485229
3937.08646989,0.656280040740967
3937.72712994,0.640654325485229
3938.41465998,0.687531471252441
3939.11782002,0.703157186508179
3939.74284005,0.625028610229492
3940.43037987,0.687531471252441
3941.05539989,0.625028610229492
3941.72730994,0.671905755996704
3942.38358998,0.656280040740967
3943.02425003,0.640654325485229
3943.66490006,0.640654325485229
3944.33680987,0.671905755996704
3947.50882983,0.625028610229492
3948.18072987,0.671905755996704
3948.80575991,0.625028610229492
3949.41515994,0.609402894973755
3950.00893998,0.593777179718018
3950.66522002,0.656280040740967
3951.27462006,0.609402894973755
3951.93089986,0.656280040740967
3952.5559299,0.625028610229492
3953.21220994,0.656280040740967
3953.86848998,0.656280040740967
3954.50915003,0.640654325485229
3955.16542983,0.656280040740967
3955.82170987,0.656280040740967
3956.46235991,0.640654325485229
3957.10300994,0.640654325485229
3957.77491999,0.671905755996704
3958.41557002,0.640654325485229
3959.07185006,0.656280040740967
3959.75938988,0.687531471252441
3960.3844099,0.625028610229492
3961.08756995,0.703157186508179
3961.75948,0.671905755996704
3962.41576004,0.656280040740967
3963.10328984,0.687531471252441
3963.77518988,0.671905755996704
3964.44709992,0.671905755996704
3965.15025997,0.703157186508179
3965.77529001,0.625028610229492
3966.46282005,0.687531471252441
3967.10346985,0.640654325485229
3973.57252002,0.656280040740967
3974.18192005,0.609402894973755
3974.83819985,0.656280040740967
3975.43197989,0.593777179718018
3981.77602005,0.656280040740967
3982.43229985,0.656280040740967
3983.05732989,0.625028610229492
3983.69797993,0.640654325485229
3984.32300997,0.625028610229492
3984.94804001,0.625028610229492
3985.58869004,0.640654325485229
3986.19809985,0.609402894973755
3986.83874989,0.640654325485229
3987.46377993,0.625028610229492
3988.08880997,0.625028610229492
3988.72946,0.640654325485229
3989.38574004,0.656280040740967
3990.04201984,0.656280040740967
3990.69829988,0.656280040740967
3991.38582993,0.687531471252441
3992.04210997,0.656280040740967
3992.68277001,0.640654325485229
3993.33905005,0.656280040740967
3993.97969985,0.640654325485229
3994.6203599,0.640654325485229
3995.27663994,0.656280040740967
3995.91728997,0.640654325485229
3996.55795002,0.640654325485229
3997.19860005,0.640654325485229
3997.85487986,0.656280040740967
3998.4799099,0.625028610229492
3999.13618994,0.656280040740967
3999.79246998,0.656280040740967
4000.44875002,0.656280040740967
4001.10503006,0.656280040740967
4001.76130986,0.656280040740967
4002.4175899,0.656280040740967
4003.05823994,0.640654325485229
4003.69889998,0.640654325485229
4191.50436997,0.656280040740967
4192.12940001,0.625028610229492
4192.69192004,0.562525749206543
4201.7860899,0.656280040740967
4204.98935986,0.640654325485229
4205.6456399,0.656280040740967
4206.28629994,0.640654325485229
4206.91131997,0.625028610229492
4207.55198002,0.640654325485229
4208.19263005,0.640654325485229
4208.88015985,0.687531471252441
4209.5208199,0.640654325485229
4210.17709994,0.656280040740967
4210.83337998,0.656280040740967
4211.47403002,0.640654325485229
4212.11468983,0.640654325485229
4212.77096987,0.656280040740967
4213.4116199,0.640654325485229
4214.05227995,0.640654325485229
4214.66167998,0.609402894973755
4215.30233002,0.640654325485229
4215.94299006,0.640654325485229
4216.58363986,0.640654325485229
4217.2086699,0.625028610229492
4217.84931993,0.640654325485229
4218.48997998,0.640654325485229
4219.14626002,0.656280040740967
4219.75566006,0.609402894973755
4220.41193986,0.656280040740967
4221.02134991,0.609402894973755
4221.66199994,0.640654325485229
4222.27139997,0.609402894973755
4222.91206002,0.640654325485229
4223.53709006,0.625028610229492
4224.17773986,0.640654325485229
4224.81838989,0.640654325485229
4225.44341993,0.625028610229492
4226.08407998,0.640654325485229
4226.72473001,0.640654325485229
4227.38101006,0.656280040740967
4228.00603986,0.625028610229492
4228.6310699,0.625028610229492
4229.25609994,0.625028610229492
4229.89674997,0.640654325485229
4230.53741002,0.640654325485229
4231.17806005,0.640654325485229
4231.81870985,0.640654325485229
4232.44373989,0.625028610229492
4233.08439994,0.640654325485229
4233.70942998,0.625028610229492
4234.35008001,0.640654325485229
4234.97511005,0.625028610229492
4235.61575985,0.640654325485229
4236.24078989,0.625028610229492
4236.85018992,0.609402894973755
4237.50646996,0.656280040740967
4238.13150001,0.625028610229492
4238.72528005,0.593777179718018
4239.39718986,0.671905755996704
4239.94408989,0.546900033950806
4240.58473992,0.640654325485229
4241.16288996,0.57815146446228
4241.7723,0.609402894973755
4242.35045004,0.57815146446228
4242.94421983,0.593777179718018
4243.55362988,0.609402894973755
4244.1473999,0.593777179718018
4244.74117994,0.593777179718018
4245.33495998,0.593777179718018
4245.89748001,0.562525749206543
4246.47564006,0.57815146446228
4247.05378985,0.57815146446228
4247.60068989,0.546900033950806
4248.17883992,0.57815146446228
4248.72573996,0.546900033950806
4249.28825998,0.562525749206543
4249.83516002,0.546900033950806
4250.38206005,0.546900033950806
4250.92895985,0.546900033950806
4251.47585988,0.546900033950806
4252.02275991,0.546900033950806
4252.58528996,0.562525749206543
4253.14782,0.562525749206543
4253.71034002,0.562525749206543
4254.28849006,0.57815146446228
4254.86663985,0.57815146446228
4255.42916989,0.562525749206543
4256.02294993,0.593777179718018
4256.63234997,0.609402894973755
4257.2105,0.57815146446228
4257.83553004,0.625028610229492
4258.41367984,0.57815146446228
4259.05433989,0.640654325485229
4259.64810991,0.593777179718018
4260.27313995,0.625028610229492
4260.9138,0.640654325485229
4261.53882003,0.625028610229492
4262.16384983,0.625028610229492
4262.80450988,0.640654325485229
4263.41390991,0.609402894973755
4264.05456996,0.640654325485229
4264.66396999,0.609402894973755
4265.25775003,0.593777179718018
4265.83589983,0.57815146446228
4266.44529986,0.609402894973755
4267.0703299,0.625028610229492
4267.71097994,0.640654325485229
4268.36725998,0.656280040740967
4269.02354002,0.656280040740967
4273.02373004,0.671905755996704
4273.69562984,0.671905755996704
4274.36753988,0.671905755996704
4275.05506992,0.687531471252441
4275.71134996,0.656280040740967
4276.38325,0.671905755996704
4277.03953004,0.656280040740967
4277.69580984,0.656280040740967
4278.35208988,0.656280040740967
4279.02399993,0.671905755996704
4279.68027997,0.656280040740967
4280.35219002,0.671905755996704
4281.00847006,0.656280040740967
4281.64911985,0.640654325485229
4282.30539989,0.656280040740967
4282.94604993,0.640654325485229
4283.60232997,0.656280040740967
4284.22736001,0.625028610229492
4284.86802006,0.640654325485229
4285.49304986,0.625028610229492
4286.11806989,0.625028610229492
4286.75872993,0.640654325485229
4287.39937997,0.640654325485229
4288.00879002,0.609402894973755
4288.64944005,0.640654325485229
4289.25883985,0.609402894973755
4289.88386989,0.625028610229492
4290.54014993,0.656280040740967
4291.16517997,0.625028610229492
4291.79021001,0.625028610229492
4292.41524005,0.625028610229492
4293.05588984,0.640654325485229
4293.68091989,0.625028610229492
4294.33719993,0.656280040740967
4294.94659996,0.609402894973755
4295.57163,0.625028610229492
4296.19666004,0.625028610229492
4296.82168984,0.625028610229492
4297.44671988,0.625028610229492
4298.07174993,0.625028610229492
4298.66551995,0.593777179718018
4299.27493,0.609402894973755
4299.89996004,0.625028610229492
4300.50935984,0.609402894973755
4301.08750987,0.57815146446228
4301.68128991,0.593777179718018
4302.27505994,0.593777179718018
4302.86883998,0.593777179718018
4303.47824001,0.609402894973755
4304.08765006,0.609402894973755
4304.69704986,0.609402894973755
4305.30644989,0.609402894973755
4305.91585994,0.609402894973755
4306.54087996,0.625028610229492
4426.74951005,0.687531471252441
4434.95300984,0.625028610229492
4450.15682983,0.57815146446228
4491.29934001,0.625028610229492
4509.72205997,0.593777179718018
4510.31584001,0.593777179718018
4510.97212005,0.656280040740967
4511.53463984,0.562525749206543
4512.14404988,0.609402894973755
4512.76906991,0.625028610229492
4513.37847996,0.609402894973755
4514.03476,0.656280040740967
4514.69104004,0.656280040740967
4515.33168983,0.640654325485229
4515.97234988,0.640654325485229
4516.61299992,0.640654325485229
4517.28490996,0.671905755996704
4517.94119,0.656280040740967
4518.58184004,0.640654325485229
4525.31651998,0.625028610229492
4525.97280002,0.656280040740967
4526.61346006,0.640654325485229
4527.28535986,0.671905755996704
4527.9416399,0.656280040740967
4528.58229995,0.640654325485229
4529.23857999,0.656280040740967
4529.87923002,0.640654325485229
4530.53551006,0.656280040740967
4531.19178987,0.656280040740967
4531.81681991,0.625028610229492
4532.44184995,0.625028610229492
4533.06687999,0.625028610229492
4533.70753002,0.640654325485229
4534.33256006,0.625028610229492
4535.00446987,0.671905755996704
4535.62949991,0.625028610229492
4536.27014995,0.640654325485229
4536.91080999,0.640654325485229
4537.56709003,0.656280040740967
4538.25461984,0.687531471252441
4538.89526987,0.640654325485229
4539.55154991,0.656280040740967
4540.19220996,0.640654325485229
4540.83285999,0.640654325485229
4541.50477004,0.671905755996704
4545.30181003,0.640654325485229
4545.94246984,0.640654325485229
4549.78638983,0.656280040740967
4550.44266987,0.656280040740967
4551.03644991,0.593777179718018
4551.61459994,0.57815146446228
4552.19274998,0.57815146446228
4552.84903002,0.656280040740967
4553.52093983,0.671905755996704
4554.22409987,0.703157186508179
4554.89599991,0.671905755996704
4555.58352995,0.687531471252441
4556.28669,0.703157186508179
4559.67746997,0.640654325485229
4560.34938002,0.671905755996704
4561.03691006,0.687531471252441
4561.69318986,0.656280040740967
4562.3494699,0.656280040740967
4563.03699994,0.687531471252441
4563.67765999,0.640654325485229
4569.56854987,0.625028610229492
4570.22482991,0.656280040740967
4570.84985995,0.625028610229492
4571.49050999,0.640654325485229
4572.13117003,0.640654325485229
4572.77181983,0.640654325485229
4575.86571002,0.609402894973755
4576.52199006,0.656280040740967
4577.11576986,0.593777179718018
4577.7564199,0.640654325485229
4578.36582994,0.609402894973755
4579.00647998,0.640654325485229
4579.61588001,0.609402894973755
4580.27216005,0.656280040740967
4580.86593986,0.593777179718018
4581.5065999,0.640654325485229
4582.11599994,0.609402894973755
4582.74102998,0.625028610229492
4586.47556996,0.625028610229492
4587.08498001,0.609402894973755
4587.67875004,0.593777179718018
4588.30377984,0.625028610229492
4588.89755988,0.593777179718018
4589.53820992,0.640654325485229
4590.14761996,0.609402894973755
4590.77265,0.625028610229492
4594.38218999,0.57815146446228
4594.99159002,0.609402894973755
4595.58537006,0.593777179718018
4596.21038985,0.625028610229492
4596.8197999,0.609402894973755
4597.38231993,0.562525749206543
4598.02297997,0.640654325485229
4601.03873992,0.609402894973755
4606.91401005,0.562525749206543
4607.50778985,0.593777179718018
4624.64919996,0.625028610229492
4625.28985,0.640654325485229
4625.93050003,0.640654325485229
4626.58677983,0.656280040740967
4627.24305987,0.656280040740967
4627.86808991,0.625028610229492
4628.50874996,0.640654325485229
4629.10253,0.593777179718018
4629.72755003,0.625028610229492
4630.35257983,0.625028610229492
4630.96198988,0.609402894973755
4631.55575991,0.593777179718018
4635.3059299,0.609402894973755
4639.69675994,0.625028610229492
4640.33740997,0.640654325485229
4640.97807002,0.640654325485229
4641.58747005,0.609402894973755
4642.19686985,0.609402894973755
4642.82189989,0.625028610229492
4643.44692993,0.625028610229492
4644.08758998,0.640654325485229
4644.69699001,0.609402894973755
4645.32202005,0.625028610229492
4645.94704986,0.625028610229492
4646.58769989,0.640654325485229
4647.22834992,0.640654325485229
4647.85337996,0.625028610229492
4648.49404001,0.640654325485229
4649.13469005,0.640654325485229
4649.79096985,0.656280040740967
4650.4316299,0.640654325485229
4651.08790994,0.656280040740967
4651.69730997,0.609402894973755
4652.32234001,0.625028610229492
4652.83799005,0.515648603439331
4653.54113984,0.703157186508179
4654.11929989,0.57815146446228
4654.69744992,0.57815146446228
4655.30684996,0.609402894973755
4655.88499999,0.57815146446228
4656.46315002,0.57815146446228
4657.05692983,0.593777179718018
4657.65070987,0.593777179718018
4658.27573991,0.625028610229492
4661.32274985,0.640654325485229
4661.93214989,0.609402894973755
4662.55717993,0.625028610229492
4663.16657996,0.609402894973755
4663.80724001,0.640654325485229
4668.08868003,0.609402894973755
4668.69808984,0.609402894973755
4669.30748987,0.609402894973755
4669.90126991,0.593777179718018
4670.52629995,0.625028610229492
4671.15131998,0.625028610229492
4671.79198003,0.640654325485229
4672.44825983,0.656280040740967
4673.08890986,0.640654325485229
4673.72956991,0.640654325485229
4674.35459995,0.625028610229492
4675.01087999,0.656280040740967
4678.68291998,0.609402894973755
4679.30795002,0.625028610229492
4679.88610005,0.57815146446228
4680.47987986,0.593777179718018
4681.1049099,0.625028610229492
4681.72992992,0.625028610229492
4682.33933997,0.609402894973755
4682.96437001,0.625028610229492
4683.57377005,0.609402894973755
4684.19879985,0.625028610229492
4684.82382989,0.625028610229492
4685.43322992,0.609402894973755
4686.07387996,0.640654325485229
4690.90223002,0.562525749206543
4691.51163006,0.609402894973755
4692.10540986,0.593777179718018
4692.7304399,0.625028610229492
4693.33983994,0.609402894973755
4693.96486998,0.625028610229492
4694.58990002,0.625028610229492
4695.26180005,0.671905755996704
4695.90245986,0.640654325485229
4696.57435989,0.671905755996704
4697.23063993,0.656280040740967
4697.87129998,0.640654325485229
4698.52758002,0.656280040740967
4699.15261006,0.625028610229492
4699.79325986,0.640654325485229
4700.37140989,0.57815146446228
4700.99643993,0.625028610229492
4701.59021997,0.593777179718018
4702.21525002,0.625028610229492
4702.82465005,0.609402894973755
4703.43404984,0.609402894973755
4707.05921984,0.57815146446228
4707.62173986,0.562525749206543
4708.24676991,0.625028610229492
4708.82491994,0.57815146446228
4709.43432999,0.609402894973755
4710.05936003,0.625028610229492
4710.62188005,0.562525749206543
4711.23127985,0.609402894973755
4711.8406899,0.609402894973755
4712.45008993,0.609402894973755
4713.09073997,0.640654325485229
4713.70015001,0.609402894973755
4714.30955005,0.609402894973755
4714.90332985,0.593777179718018
4715.54397988,0.640654325485229
4716.15337992,0.609402894973755
4716.79403996,0.640654325485229
4717.41907001,0.625028610229492
4718.05972004,0.640654325485229
4718.68474984,0.625028610229492
4719.34102988,0.656280040740967
4719.99730992,0.656280040740967
4720.62233996,0.625028610229492
4721.27862,0.656280040740967
4721.91927004,0.640654325485229
4722.57554984,0.656280040740967
4723.23182988,0.656280040740967
4723.87248993,0.640654325485229
4724.49751997,0.625028610229492
4725.12255001,0.625028610229492
4725.74757004,0.625028610229492
4726.37259984,0.625028610229492
4727.02887988,0.656280040740967
4730.87280989,0.640654325485229
4731.51345992,0.640654325485229
4732.13848996,0.625028610229492
4732.77915001,0.640654325485229
4733.40417004,0.625028610229492
4734.04482985,0.640654325485229
4737.77936983,0.640654325485229
4743.37337995,0.609402894973755
4744.01403999,0.640654325485229
4744.60781002,0.593777179718018
4745.21721983,0.609402894973755
4745.84223986,0.625028610229492
4746.4672699,0.625028610229492
4747.09229994,0.625028610229492
4747.71732998,0.625028610229492
4748.32673001,0.609402894973755
4748.95176005,0.625028610229492
4749.57678986,0.625028610229492
4750.1705699,0.593777179718018
4750.76433992,0.593777179718018
4751.37374997,0.609402894973755
4751.98315001,0.609402894973755
4752.60818005,0.625028610229492
4753.23320985,0.625028610229492
4753.82697988,0.593777179718018
4754.43638992,0.609402894973755
4755.06141996,0.625028610229492
4755.67082,0.609402894973755
4756.31147003,0.640654325485229
4756.92087984,0.609402894973755
4757.53027987,0.609402894973755
4758.12405992,0.593777179718018
4758.76470995,0.640654325485229
4759.37410998,0.609402894973755
4759.99914002,0.625028610229492
4760.60854006,0.609402894973755
4761.20231986,0.593777179718018
4761.8273499,0.625028610229492
4762.42112994,0.593777179718018
4763.04615998,0.625028610229492
4766.12441993,0.625028610229492
4766.74944997,0.625028610229492
4767.35885,0.609402894973755
4767.98388004,0.625028610229492
4768.62453985,0.640654325485229
4771.64030004,0.57815146446228
4772.20282984,0.562525749206543
4772.82784986,0.625028610229492
4773.42162991,0.593777179718018
4774.01540995,0.593777179718018
4774.57792997,0.562525749206543
4775.15609002,0.57815146446228
4775.78111005,0.625028610229492
4776.35926986,0.57815146446228
4776.98428988,0.625028610229492
4777.60931993,0.625028610229492
4778.24997997,0.640654325485229
4778.89063001,0.640654325485229
4779.54691005,0.656280040740967
4797.48522997,0.57815146446228
4798.04776001,0.562525749206543
4798.65716004,0.609402894973755
4799.26655984,0.609402894973755
4799.89158988,0.625028610229492
4800.53224993,0.640654325485229
4801.15727997,0.625028610229492
4801.79793,0.640654325485229
4802.43858004,0.640654325485229
4803.09485984,0.656280040740967
4803.75113988,0.656280040740967
4804.40741992,0.656280040740967
4805.06369996,0.656280040740967
4805.71998,0.656280040740967
4806.32939005,0.609402894973755
4806.93878984,0.609402894973755
4807.59506989,0.656280040740967
4808.23571992,0.640654325485229
4808.87637997,0.640654325485229
4809.54828,0.671905755996704
4810.17331004,0.625028610229492
4810.81396985,0.640654325485229
4811.42336988,0.609402894973755
4812.07964993,0.656280040740967
4812.67342997,0.593777179718018
4813.32971001,0.656280040740967
4813.95474005,0.625028610229492
4814.57976985,0.625028610229492
4815.20478988,0.625028610229492
4815.84544992,0.640654325485229
4816.47047997,0.625028610229492
4817.11113,0.640654325485229
4817.72053003,0.609402894973755
4818.34555984,0.625028610229492
4818.95496988,0.609402894973755
4819.57998991,0.625028610229492
4820.18939996,0.609402894973755
4820.83004999,0.640654325485229
4821.43945003,0.609402894973755
4822.04885983,0.609402894973755
4822.65825987,0.609402894973755
4823.2989099,0.640654325485229
4823.92393994,0.625028610229492
4824.56459999,0.640654325485229
4825.18963003,0.625028610229492
4825.81465006,0.625028610229492
4826.43967986,0.625028610229492
4827.0647099,0.625028610229492
4827.68973994,0.625028610229492
4828.29913998,0.609402894973755
4828.90855002,0.609402894973755
4829.51795006,0.609402894973755
4830.12734985,0.609402894973755
4830.75237989,0.625028610229492
4831.34615993,0.593777179718018
4831.97118998,0.625028610229492
4832.59621,0.625028610229492
4833.22124004,0.625028610229492
4833.86189985,0.640654325485229
4834.50254989,0.640654325485229
4835.11194992,0.609402894973755
4835.75260997,0.640654325485229
4836.37764001,0.625028610229492
4837.04954004,0.671905755996704
4837.67456985,0.625028610229492
4838.29959989,0.625028610229492
4838.89337993,0.593777179718018
4839.53402996,0.640654325485229
4840.12781,0.593777179718018
4840.76846004,0.640654325485229
4841.37786984,0.609402894973755
4841.98726988,0.609402894973755
4842.61229992,0.625028610229492
4843.25294995,0.640654325485229
4843.87797999,0.625028610229492
4844.53426003,0.656280040740967
4845.15928984,0.625028610229492
4845.79993987,0.640654325485229
4846.44059992,0.640654325485229
4847.09687996,0.656280040740967
4847.73752999,0.640654325485229
4848.36256003,0.625028610229492
4848.98758984,0.625028610229492
4849.59698987,0.609402894973755
4850.22201991,0.625028610229492
4850.84704995,0.625028610229492
4851.47207999,0.625028610229492
4852.08148003,0.609402894973755
4852.72213984,0.640654325485229
4853.34715986,0.625028610229492
4853.98781991,0.640654325485229
4854.62846994,0.640654325485229
4855.28474998,0.656280040740967
4855.89416003,0.609402894973755
4856.55043983,0.656280040740967
4857.17545986,0.625028610229492
4857.8317399,0.656280040740967
4858.47239995,0.640654325485229
4859.09742999,0.625028610229492
4859.70683002,0.609402894973755
4860.33185983,0.625028610229492
4860.97250986,0.640654325485229
4861.61316991,0.640654325485229
4862.25381994,0.640654325485229
4862.87884998,0.625028610229492
4863.53513002,0.656280040740967
4864.14453006,0.609402894973755
4864.80080986,0.656280040740967
4865.44146991,0.640654325485229
4866.09774995,0.656280040740967
4869.23851991,0.640654325485229
4869.84791994,0.609402894973755
4870.45731997,0.609402894973755
4871.08235002,0.625028610229492
4871.72301006,0.640654325485229
4872.36365986,0.640654325485229
4872.97305989,0.609402894973755
4873.61371994,0.640654325485229
4879.02021003,0.57815146446228
4882.50475001,0.593777179718018
4883.09853005,0.593777179718018
4883.67667985,0.57815146446228
4884.31732988,0.640654325485229
4884.91110992,0.593777179718018
4885.55175996,0.640654325485229
4886.03615999,0.484397172927856
4889.55194998,0.625028610229492
4890.13010001,0.57815146446228
4890.75513005,0.625028610229492
4891.34889984,0.593777179718018
4891.94267988,0.593777179718018
4892.55207992,0.609402894973755
4893.13023996,0.57815146446228
4913.50617003,0.562525749206543
4916.52192998,0.625028610229492
4917.11571002,0.593777179718018
4917.72511005,0.609402894973755
4918.33450985,0.609402894973755
4918.92828989,0.593777179718018
4919.53768992,0.609402894973755
4920.14709997,0.609402894973755
4920.72525001,0.57815146446228
4921.35028005,0.625028610229492
4921.95967984,0.609402894973755
4922.60032988,0.640654325485229
4923.22535992,0.625028610229492
4923.85038996,0.625028610229492
4942.41373992,0.609402894973755
4943.05439997,0.640654325485229
4943.67941999,0.625028610229492
4944.32008004,0.640654325485229
4944.92947984,0.609402894973755
4945.60138988,0.671905755996704
4946.22641993,0.625028610229492
4946.85144997,0.625028610229492
4947.52335,0.671905755996704
4948.11713004,0.593777179718018
4948.78902984,0.671905755996704
4949.39843988,0.609402894973755
4950.03908992,0.640654325485229
4950.66411996,0.625028610229492
4951.3204,0.656280040740967
4951.91418004,0.593777179718018
4952.57045984,0.656280040740967
4953.17985988,0.609402894973755
4953.82050991,0.640654325485229
4954.44553995,0.625028610229492
4955.0862,0.640654325485229
4955.69560003,0.609402894973755
4956.33624983,0.640654325485229
4956.94565988,0.609402894973755
4957.61755991,0.671905755996704
4958.13320994,0.515648603439331
4958.85198998,0.718782901763916
4959.46140003,0.609402894973755
4960.10204983,0.640654325485229
4960.74270988,0.640654325485229
4961.38335991,0.640654325485229
4962.00838995,0.625028610229492
4962.63341999,0.625028610229492
4963.25845003,0.625028610229492
4963.88347006,0.625028610229492
4964.52412987,0.640654325485229
4968.28992987,0.656280040740967
4968.9305799,0.640654325485229
4969.58685994,0.656280040740967
4970.19625998,0.609402894973755
4970.88380003,0.687531471252441
4971.55570006,0.671905755996704
4972.14947987,0.593777179718018
4972.8213799,0.671905755996704
4973.43078995,0.609402894973755
4974.07143998,0.640654325485229
4974.68084002,0.609402894973755
4975.32150006,0.640654325485229
4975.91527987,0.593777179718018
4976.54029989,0.625028610229492
4980.24359989,0.609402894973755
4980.86862993,0.625028610229492
4981.50927997,0.640654325485229
4982.13431001,0.625028610229492
4982.77496004,0.640654325485229
4983.39998984,0.625028610229492
4984.05626988,0.656280040740967
4987.13453984,0.609402894973755
4987.75956988,0.625028610229492
4988.41584992,0.656280040740967
4989.08774996,0.671905755996704
4989.72841001,0.640654325485229
4990.36906004,0.640654325485229
4991.04096985,0.671905755996704
4991.65036988,0.609402894973755
4992.30664992,0.656280040740967
4992.93167996,0.625028610229492
4993.58796,0.656280040740967
4994.35362005,0.765660047531128
5004.57283998,0.57815146446228
5007.40108991,0.57815146446228
5014.33890986,0.593777179718018
5014.9483099,0.609402894973755
5015.55770993,0.609402894973755
5016.13586998,0.57815146446228
5016.74527001,0.609402894973755
5017.33905005,0.593777179718018
5017.96407986,0.625028610229492
5018.57347989,0.609402894973755
5019.16725993,0.593777179718018
5019.76102996,0.593777179718018
5020.37044001,0.609402894973755
5020.97984004,0.609402894973755
5021.60486984,0.625028610229492
5022.21426988,0.609402894973755
5022.82366991,0.609402894973755
5023.44869995,0.625028610229492
5024.07372999,0.625028610229492
5024.71438003,0.640654325485229
5025.33940983,0.625028610229492
5025.98006988,0.640654325485229
5026.5738399,0.593777179718018
5027.19886994,0.625028610229492
5027.82389998,0.625028610229492
5028.44893003,0.625028610229492
5029.05833006,0.609402894973755
5029.66773987,0.609402894973755
5030.2615099,0.593777179718018
5030.85528994,0.593777179718018
5031.46468997,0.609402894973755
5032.07410002,0.609402894973755
5032.68350005,0.609402894973755
5033.29289985,0.609402894973755
5033.88667989,0.593777179718018
5034.52732992,0.640654325485229
5035.15235996,0.625028610229492
5035.79302001,0.640654325485229
5036.40242004,0.609402894973755
5037.04306984,0.640654325485229
5037.66809988,0.625028610229492
5038.30875993,0.640654325485229
5038.94940996,0.640654325485229
5039.55881,0.609402894973755
5040.18384004,0.625028610229492
5040.80886984,0.625028610229492
5041.44952989,0.640654325485229
5042.07454991,0.625028610229492
5042.71520996,0.640654325485229
5043.30899,0.593777179718018
5043.91839004,0.609402894973755
5044.54341984,0.625028610229492
5045.16844988,0.625028610229492
5045.79346991,0.625028610229492
5046.40287995,0.609402894973755
5047.01227999,0.609402894973755
5047.62168002,0.609402894973755
5048.24671006,0.625028610229492
5048.88736987,0.640654325485229
5049.52801991,0.640654325485229
5050.16866994,0.640654325485229
5050.80932999,0.640654325485229
5051.43436003,0.625028610229492
5052.05938983,0.625028610229492
5052.71566987,0.656280040740967
5053.3094399,0.593777179718018
5053.91884995,0.609402894973755
5054.54386997,0.625028610229492
5055.13765001,0.593777179718018
5055.77831006,0.640654325485229
5056.35645986,0.57815146446228
5056.9814899,0.625028610229492
5057.57525992,0.593777179718018
5058.18466997,0.609402894973755
5058.80969,0.625028610229492
5059.38785005,0.57815146446228
5060.01286983,0.625028610229492
5060.59102988,0.57815146446228
5061.23167992,0.640654325485229
5061.82545996,0.593777179718018
5062.43485999,0.609402894973755
5063.02864003,0.593777179718018
5063.62241983,0.593777179718018
5064.23181987,0.609402894973755
5064.82559991,0.593777179718018
5065.38811994,0.562525749206543
5065.99751997,0.609402894973755
5066.60693002,0.609402894973755
5067.20070004,0.593777179718018
5067.79447985,0.593777179718018
5068.37262988,0.57815146446228
5068.96640992,0.593777179718018
5069.56018996,0.593777179718018
5070.15395999,0.593777179718018
5070.76337004,0.609402894973755
5071.34151983,0.57815146446228
5071.93529987,0.593777179718018
5072.54469991,0.609402894973755
5073.15409994,0.609402894973755
5073.77912998,0.625028610229492
5074.40416002,0.625028610229492
5075.02919006,0.625028610229492
5075.63858986,0.609402894973755
5076.2636199,0.625028610229492
5076.88864994,0.625028610229492
5077.52929997,0.640654325485229
5078.15433002,0.625028610229492
5078.79498005,0.640654325485229
5079.40438986,0.609402894973755
5080.0294199,0.625028610229492
5080.65443993,0.625028610229492
5081.27946997,0.625028610229492
5081.90450001,0.625028610229492
5082.52953005,0.625028610229492
5083.15455985,0.625028610229492
5083.79520988,0.640654325485229
5084.43586993,0.640654325485229
5085.07651997,0.640654325485229
5085.73280001,0.656280040740967
5086.34221005,0.609402894973755
5086.96722984,0.625028610229492
5087.59225988,0.625028610229492
5088.21728992,0.625028610229492
5088.82668996,0.609402894973755
5089.42047,0.593777179718018
5090.02987003,0.609402894973755
5090.57676983,0.546900033950806
5091.21742988,0.640654325485229
5091.81120992,0.593777179718018
5092.37372994,0.562525749206543
5092.96750998,0.593777179718018
5093.53003001,0.562525749206543
5094.13944006,0.609402894973755
5094.73320985,0.593777179718018
5095.3426199,0.609402894973755
5095.93638992,0.593777179718018
5096.54579997,0.609402894973755
5097.23333001,0.687531471252441
5097.79585004,0.562525749206543
5098.38962984,0.593777179718018
5098.96777987,0.57815146446228
5099.56155992,0.593777179718018
5100.15533996,0.593777179718018
5100.74910998,0.593777179718018
5101.32727003,0.57815146446228
5101.90542006,0.57815146446228
5102.46793985,0.562525749206543
5103.03046989,0.562525749206543
5103.59298992,0.562525749206543
5104.17114997,0.57815146446228
5104.73367,0.562525749206543
5115.28102994,0.57815146446228
5115.95293999,0.671905755996704
5116.57796001,0.625028610229492
5117.17174006,0.593777179718018
5117.76551986,0.593777179718018
5118.37491989,0.609402894973755
5118.96869993,0.593777179718018
5119.59372997,0.625028610229492
5120.125,0.531274318695068
5120.79691005,0.671905755996704
5121.39067984,0.593777179718018
5121.98445988,0.593777179718018
5122.64073992,0.656280040740967
5140.87594986,0.609402894973755
5141.48534989,0.609402894973755
5142.11037993,0.625028610229492
5142.71978998,0.609402894973755
5143.32919002,0.609402894973755
5143.95422006,0.625028610229492
5144.56361985,0.609402894973755
5145.20426989,0.640654325485229
5145.81367993,0.609402894973755
5146.42307997,0.609402894973755
5147.01686001,0.593777179718018
5147.64189005,0.625028610229492
5148.28253984,0.640654325485229
5148.93881989,0.656280040740967
5149.59509993,0.656280040740967
5150.23574996,0.640654325485229
5150.90766001,0.671905755996704
5151.54831004,0.640654325485229
5152.20458984,0.656280040740967
5152.87649989,0.671905755996704
5153.53277993,0.656280040740967
5154.15780997,0.625028610229492
5154.78284001,0.625028610229492
5155.40787005,0.625028610229492
5156.03289986,0.625028610229492
5156.67354989,0.640654325485229
5157.29857993,0.625028610229492
5157.90797997,0.609402894973755
5158.54864001,0.640654325485229
5159.18929005,0.640654325485229
5159.82993984,0.640654325485229
5160.47059989,0.640654325485229
5161.11124992,0.640654325485229
5161.75190997,0.640654325485229
5162.39256001,0.640654325485229
5163.03322005,0.640654325485229
5163.65823984,0.625028610229492
5164.28326988,0.625028610229492
5164.89267993,0.609402894973755
5165.51769996,0.625028610229492
5166.14273,0.625028610229492
5166.76776004,0.625028610229492
5167.36153984,0.593777179718018
5167.97093987,0.609402894973755
5168.59596992,0.625028610229492
5169.22099996,0.625028610229492
5169.81478,0.593777179718018
5173.53369999,0.609402894973755
5174.12747002,0.593777179718018
5174.73688006,0.609402894973755
5175.34627986,0.609402894973755
5175.9713099,0.625028610229492
5176.58070993,0.609402894973755
5177.19010997,0.609402894973755
5177.81514001,0.625028610229492
5178.44017005,0.625028610229492
5179.08082986,0.640654325485229
5179.70584989,0.625028610229492
5180.31525993,0.609402894973755
5180.92465997,0.609402894973755
5181.58094001,0.656280040740967
5182.20597005,0.625028610229492
5182.83099985,0.625028610229492
5183.44039989,0.609402894973755
5184.08104992,0.640654325485229
5184.70607996,0.625028610229492
5185.34674001,0.640654325485229
5185.97177005,0.625028610229492
5186.59678984,0.625028610229492
5187.20619988,0.609402894973755
5187.83122993,0.625028610229492
5188.44062996,0.609402894973755
5189.08127999,0.640654325485229
5189.70631003,0.625028610229492
5190.31570983,0.609402894973755
5190.94073987,0.625028610229492
5191.56576991,0.625028610229492
5192.20642996,0.640654325485229
5197.78480983,0.640654325485229
5198.37857985,0.593777179718018
5199.0192399,0.640654325485229
5199.59738994,0.57815146446228
5200.23803997,0.640654325485229
5200.84745002,0.609402894973755
5201.50373006,0.656280040740967
5202.11312985,0.609402894973755
5202.75377989,0.640654325485229
5205.89454985,0.625028610229492
5206.53520989,0.640654325485229
5207.14460993,0.609402894973755
5207.80088997,0.656280040740967
5208.42592001,0.625028610229492
5209.08220005,0.656280040740967
5209.73847985,0.656280040740967
5215.98875999,0.625028610229492
5216.59817004,0.609402894973755
5217.22319984,0.625028610229492
5217.86384988,0.640654325485229
5218.48887992,0.625028610229492
5219.11390996,0.625028610229492
5219.72330999,0.609402894973755
5220.36396003,0.640654325485229
5220.98898983,0.625028610229492
5221.61401987,0.625028610229492
5222.25467992,0.640654325485229
5222.86407995,0.609402894973755
5223.48910999,0.625028610229492
5224.09851003,0.609402894973755
5224.73916984,0.640654325485229
5225.36418986,0.625028610229492
5226.00484991,0.640654325485229
5285.25756001,0.656280040740967
5285.99197006,0.734408617019653
5325.6344099,0.609402894973755
5326.25943995,0.625028610229492
5326.86883998,0.609402894973755
5327.49387002,0.625028610229492
5328.13452005,0.640654325485229
5335.43173003,0.57815146446228
5336.07238984,0.640654325485229
5336.68178988,0.609402894973755
5337.27556992,0.593777179718018
