54593.54
0.0;0.921917259693146
0.921920061111,0.921917259693146
10.5161101818,0.781285762786865
11.2817699909,0.765660047531128
12.1724300385,0.890665829181671
13.2193601131,1.0469229221344
30.9232900143,0.828162908554077
31.6889500618,0.765660047531128
32.4702401161,0.781285762786865
33.3296501637,0.859414339065552
34.0796899796,0.750034332275391
44.1426501274,0.718782901763916
44.7989301682,0.656280040740967
45.6583399773,0.859414339065552
46.6583900452,1.00004577636719
50.9085800648,0.843788623809814
86.4414601326,0.828162908554077
87.2852499485,0.843788623809814
88.3165400028,1.03129720687866
93.4261500835,0.906291484832764
94.3637001514,0.937542915344238
95.2231099606,0.859414339065552
96.1294000149,0.906291484832764
97.020070076,0.890665829181671
134.224889994,0.734408617019653
139.021990061,0.81253719329834
139.834530115,0.81253719329834
140.584560156,0.750034332275391
167.445170164,0.828162908554077
168.195199966,0.750034332275391
347.094010115,0.921917259693146
371.892019987,0.750034332275391
484.740940094,0.734408617019653
485.537850142,0.796911478042603
486.303509951,0.765660047531128
487.069169998,0.765660047531128
487.975460052,0.906291484832764
488.850500107,0.875040054321289
489.694290161,0.843788623809814
529.11796999,0.734408617019653
697.000660181,0.937542915344238
697.86006999,0.859414339065552
698.672610044,0.81253719329834
699.641400099,0.968794345855713
700.516440153,0.875040054321289
701.500859976,0.98442006111145
702.422780037,0.921917259693146
703.329070091,0.906291484832764
704.125980139,0.796911478042603
705.016649961,0.890665829181671
705.938560009,0.921917259693146
706.782350063,0.843788623809814
707.735520124,0.953168630599976
788.754860163,0.796911478042603
789.770529985,1.01567149162292
795.411410093,0.906291484832764
796.348950148,0.937542915344238
797.130239964,0.781285762786865
1042.64147997,0.781285762786865
1056.47024012,0.765660047531128
1057.23590016,0.765660047531128
1057.92342997,0.687531471252441
1058.76722002,0.843788623809814
1059.48600006,0.718782901763916
1064.78312016,0.843788623809814
1065.68940997,0.906291484832764
1066.58007002,0.890665829181671
1076.84616995,0.81253719329834
1099.72221017,0.875040054321289
1198.69550014,0.81253719329834
1199.46116018,0.765660047531128
1200.16430998,0.703157186508179
1200.89872003,0.734408617019653
1322.51365995,0.859414339065552
1430.00295997,0.828162908554077
1435.25320005,0.859414339065552
1436.1438601,0.890665829181671
1437.03453016,0.890665829181671
1437.98769999,0.953168630599976
1438.80024004,0.81253719329834
1561.46210003,0.734408617019653
1562.36839008,0.906291484832764
1563.11843014,0.750034332275391
1563.88409019,0.765660047531128
1564.82163,0.937542915344238
1565.61854005,0.796911478042603
1566.2904501,0.671905755996704
1567.18111014,0.890665829181671
1567.96239996,0.781285762786865
1568.83744001,0.875040054321289
1575.33774018,0.81253719329834
1576.16589999,0.828162908554077
1576.94718003,0.781285762786865
1587.65079999,0.734408617019653
1588.40083003,0.750034332275391
1589.16649008,0.765660047531128
1589.93215013,0.765660047531128
1596.97935009,0.937542915344238
1600.8232801,0.796911478042603
1601.57331014,0.750034332275391
1602.41709995,0.843788623809814
1603.21401,0.796911478042603
1603.91717005,0.703157186508179
1604.69845009,0.781285762786865
1605.46411014,0.765660047531128
1606.26102996,0.796911478042603
1606.99542999,0.734408617019653
1607.82360005,0.828162908554077
1608.6517601,0.828162908554077
1609.41742015,0.765660047531128
1610.13619995,0.718782901763916
1647.95043015,0.671905755996704
1648.77859998,0.828162908554077
1649.54426003,0.765660047531128
1661.85732007,0.890665829181671
1662.70111012,0.843788623809814
1678.88935018,0.765660047531128
1679.76438999,0.875040054321289
1680.53005004,0.765660047531128
1681.28009009,0.750034332275391
1682.13950014,0.859414339065552
1682.95203996,0.81253719329834
1683.73332,0.781285762786865
1684.51461005,0.781285762786865
1685.26464009,0.750034332275391
1685.98343015,0.718782901763916
1686.74908996,0.765660047531128
1703.79674006,0.640654325485229
1704.5311501,0.734408617019653
1705.21868014,0.687531471252441
1705.89058995,0.671905755996704
1706.625,0.734408617019653
1719.59434009,0.781285762786865
1720.50063014,0.906291484832764
1721.46941996,0.968794345855713
1930.82276011,0.734408617019653
1931.55717015,0.734408617019653
1972.57467008,0.781285762786865
1973.37158012,0.796911478042603
1974.19974017,0.828162908554077
1974.96539998,0.765660047531128
1975.87169003,0.906291484832764
1976.6998601,0.828162908554077
2003.5448401,0.843788623809814
2009.65448999,0.843788623809814
2010.48265004,0.828162908554077
2011.49833012,1.01567149162292
2028.73348999,0.765660047531128
2029.70228004,0.968794345855713
2030.43669009,0.734408617019653
2039.17147017,0.828162908554077
2040.03087997,0.859414339065552
2040.93717003,0.906291484832764
2046.45305014,0.890665829181671
2047.23433995,0.781285762786865
2157.58314013,0.953168630599976
2158.36442018,0.781285762786865
2159.28634,0.921917259693146
2160.30201006,1.01567149162292
2166.69292998,0.718782901763916
2212.32001996,0.843788623809814
2213.21068001,0.890665829181671
2251.77495003,0.703157186508179
2252.68124008,0.906291484832764
2253.36877012,0.687531471252441
2264.72867012,0.796911478042603
2365.13951015,0.968794345855713
2365.95204997,0.81253719329834
2482.56676006,0.687531471252441
2524.74057007,0.765660047531128
2557.35143995,0.968794345855713
2677.21630001,0.687531471252441
2678.02884007,0.81253719329834
2688.48243999,0.875040054321289
2689.26372004,0.781285762786865
2690.10751009,0.843788623809814
2690.93568015,0.828162908554077
2715.70243001,0.765660047531128
2779.51786017,0.765660047531128
2780.37726998,0.859414339065552
2781.03355002,0.656280040740967
2781.86171007,0.828162908554077
2782.53362012,0.671905755996704
2795.08107018,0.750034332275391
2795.94047999,0.859414339065552
2796.67489004,0.734408617019653
2797.4249301,0.750034332275391
2805.56592011,0.718782901763916
2806.44096017,0.875040054321289
2807.15974998,0.718782901763916
2807.92541003,0.765660047531128
2808.67544007,0.750034332275391
2814.83196998,0.765660047531128
2815.53513002,0.703157186508179
2816.31642008,0.781285762786865
2817.09770012,0.781285762786865
2817.94149017,0.843788623809814
2818.62901998,0.687531471252441
2819.44156003,0.81253719329834
2820.28535008,0.843788623809814
2821.05101013,0.765660047531128
2821.84792018,0.796911478042603
2822.69171,0.843788623809814
2823.47299004,0.781285762786865
2824.28553009,0.81253719329834
2824.97306013,0.687531471252441
2825.73872018,0.765660047531128
2826.53562999,0.796911478042603
2827.36380005,0.828162908554077
2827.98883009,0.625028610229492
2891.42922997,0.781285762786865
2892.33552003,0.906291484832764
2893.38244009,1.0469229221344
2901.99221015,1.0469229221344
2906.07052016,1.01567149162292
2910.02383018,0.843788623809814
2911.0395,1.01567149162292
2911.78954005,0.750034332275391
2912.69583011,0.906291484832764
2941.58776999,0.687531471252441
2942.54094005,0.953168630599976
2943.46286011,0.921917259693146
2944.29102015,0.828162908554077
2945.16605997,0.875040054321289
2946.04110003,0.875040054321289
2946.86927009,0.828162908554077
2947.68180013,0.81253719329834
2948.50996995,0.828162908554077
2949.35376,0.843788623809814
3056.48365998,0.593777179718018
3269.16527009,0.859414339065552
3282.11899018,0.875040054321289
3282.96278,0.843788623809814
3283.97845006,1.01567149162292
3308.74521017,0.937542915344238
3309.47961998,0.734408617019653
3310.13590002,0.656280040740967
3318.27689004,1.06254863739014
3322.46458006,0.81253719329834
3330.98060012,0.765660047531128
3331.91814017,0.937542915344238
3332.57441998,0.656280040740967
3333.38696003,0.81253719329834
3334.24637008,0.859414339065552
3335.26205015,1.01567149162292
3339.13722014,0.875040054321289
3339.94975996,0.81253719329834
3340.80917001,0.859414339065552
3362.77892995,0.718782901763916
3363.68522,0.906291484832764
3364.40400004,0.718782901763916
3365.2009201,0.796911478042603
3365.93532014,0.734408617019653
3366.82598996,0.890665829181671
3367.59165001,0.765660047531128
3368.37294006,0.781285762786865
3369.23235011,0.859414339065552
3370.06051016,0.828162908554077
3370.76366997,0.703157186508179
3396.43672013,0.843788623809814
3397.53051996,1.09380006790161
3408.76541018,0.98442006111145
3616.46241999,0.98442006111145
3623.68149996,0.937542915344238
3637.4633801,0.81253719329834
3638.27592015,0.81253719329834
3639.04157996,0.765660047531128
3639.83849001,0.796911478042603
3640.49477005,0.656280040740967
3641.27605009,0.781285762786865
3642.01046014,0.734408617019653
3797.45508003,0.859414339065552
3798.36137009,0.906291484832764
3799.26766014,0.906291484832764
3800.37708998,1.10942578315735
3801.17400002,0.796911478042603
3934.85198998,0.781285762786865
4089.17155004,0.750034332275391
4089.98409009,0.81253719329834
4090.73413014,0.750034332275391
4132.2985301,0.625028610229492
4132.93918014,0.640654325485229
4133.64234018,0.703157186508179
4134.31424999,0.671905755996704
4135.00178003,0.687531471252441
4135.75181007,0.750034332275391
4136.56435013,0.81253719329834
4137.43939018,0.875040054321289
4138.26754999,0.828162908554077
4183.59774995,0.921917259693146
4188.75424004,0.890665829181671
4189.48865008,0.734408617019653
4190.34806013,0.859414339065552
4191.25435019,0.906291484832764
4286.22745013,0.750034332275391
4287.00873995,0.781285762786865
4287.80565,0.796911478042603
4343.08943009,0.828162908554077
4364.19976997,0.734408617019653
4417.12407017,0.703157186508179
4417.85847998,0.734408617019653
4425.37443995,0.859414339065552
4426.21823001,0.843788623809814
4426.99952006,0.781285762786865
4427.81206012,0.81253719329834
4428.67147017,0.859414339065552
4481.18950009,0.921917259693146
4495.53391004,0.953168630599976
4504.64370012,0.796911478042603
4559.06806016,0.968794345855713
4637.25914001,0.796911478042603
4638.07168007,0.81253719329834
4638.91547012,0.843788623809814
4659.68203998,0.703157186508179
4660.27582002,0.593777179718018
4660.96335006,0.687531471252441
4661.66651011,0.703157186508179
4662.40092015,0.734408617019653
4663.10407996,0.703157186508179
4663.82286,0.718782901763916
4664.63540006,0.81253719329834
4665.4010601,0.765660047531128
4666.22922015,0.828162908554077
4667.01049995,0.781285762786865
4667.77616,0.765660047531128
4668.55745006,0.781285762786865
4669.40124011,0.843788623809814
4670.15127015,0.750034332275391
4670.99505997,0.843788623809814
4758.34281015,0.796911478042603
4759.20221996,0.859414339065552
4760.06164002,0.859414339065552
4760.98356009,0.921917259693146
4774.46854997,0.796911478042603
4775.31234002,0.843788623809814
4776.12487006,0.81253719329834
4776.96866012,0.843788623809814
4777.90621018,0.937542915344238
4778.70311999,0.796911478042603
4792.50062013,0.843788623809814
4793.39128995,0.890665829181671
4794.1257,0.734408617019653
4794.95386004,0.828162908554077
4795.75077009,0.796911478042603
4796.56331015,0.81253719329834
4797.37584996,0.81253719329834
4798.20401001,0.828162908554077
4799.01655006,0.81253719329834
4799.89159012,0.875040054321289
4800.62600017,0.734408617019653
4801.37602997,0.750034332275391
4802.15732002,0.781285762786865
4802.90735006,0.750034332275391
4803.87614012,0.968794345855713
4820.68940997,0.750034332275391
4821.68946004,1.00004577636719
4829.72108006,0.781285762786865
4830.50236011,0.781285762786865
4831.29927015,0.796911478042603
4832.18993998,0.890665829181671
4832.84622002,0.656280040740967
4836.11198997,0.859414339065552
4836.84640002,0.734408617019653
4837.84645009,1.00004577636719
4838.53398013,0.687531471252441
4839.44027019,0.906291484832764
4840.11217999,0.671905755996704
4840.92471004,0.81253719329834
4841.73725009,0.81253719329834
4842.67480016,0.937542915344238
4848.05004001,0.81253719329834
4848.78445005,0.734408617019653
4849.5188601,0.734408617019653
4850.45640016,0.937542915344238
4851.23768997,0.781285762786865
4852.01897001,0.781285762786865
4852.81588006,0.796911478042603
4853.56592011,0.750034332275391
4854.36283016,0.796911478042603
4855.14411998,0.781285762786865
4855.89415002,0.750034332275391
4856.72231007,0.828162908554077
4857.45672011,0.734408617019653
4879.16084003,0.718782901763916
4879.95775008,0.796911478042603
4880.66091013,0.703157186508179
4914.99061012,0.796911478042603
4915.70939016,0.718782901763916
4916.61567998,0.906291484832764
4917.31884003,0.703157186508179
4918.19388008,0.875040054321289
4918.91266012,0.718782901763916
4919.81895018,0.906291484832764
4920.58460999,0.765660047531128
4921.31902003,0.734408617019653
4922.14718008,0.828162908554077
4922.95972013,0.81253719329834
4923.81913018,0.859414339065552
4924.61605,0.796911478042603
4925.45983005,0.843788623809814
4926.25675011,0.796911478042603
4927.16304016,0.906291484832764
4928.00682998,0.843788623809814
4928.75686002,0.750034332275391
4929.67878008,0.921917259693146
4930.47569013,0.796911478042603
4940.19488001,0.765660047531128
4941.03867006,0.843788623809814
4941.85121012,0.81253719329834
4942.63250017,0.781285762786865
4943.39815998,0.765660047531128
4944.21069002,0.81253719329834
4948.13275003,0.859414339065552
4948.88278008,0.750034332275391
4949.75782013,0.875040054321289
4950.55473018,0.796911478042603
4951.39851999,0.843788623809814
4972.57137012,0.828162908554077
4973.39953017,0.828162908554077
4974.22768998,0.828162908554077
4975.10273004,0.875040054321289
4975.86839008,0.765660047531128
4976.68093014,0.81253719329834
4977.55596995,0.875040054321289
4978.43101001,0.875040054321289
4979.21229005,0.781285762786865
4985.30631995,0.859414339065552
4986.16574001,0.859414339065552
4986.96265006,0.796911478042603
4987.82206011,0.859414339065552
4988.65023017,0.828162908554077
4989.49401999,0.843788623809814
4990.33780003,0.843788623809814
4991.19722009,0.859414339065552
4992.04101014,0.843788623809814
4992.94729996,0.906291484832764
4993.80671,0.859414339065552
4994.55675006,0.750034332275391
4995.41616011,0.859414339065552
4996.19745016,0.781285762786865
4997.07248998,0.875040054321289
4997.85377002,0.781285762786865
4998.68194008,0.828162908554077
4999.47885013,0.796911478042603
5000.29138017,0.81253719329834
5001.21329999,0.921917259693146
5004.68220997,0.687531471252441
5005.35412002,0.671905755996704
5006.02602005,0.671905755996704
5006.61980009,0.593777179718018
5012.96384001,0.718782901763916
5051.54373002,0.859414339065552
5052.32502007,0.781285762786865
5053.15318012,0.828162908554077
5058.24715996,0.843788623809814
5059.10658002,0.859414339065552
5059.99724007,0.890665829181671
5060.90353012,0.906291484832764
5061.76295018,0.859414339065552
5062.60674,0.843788623809814
5063.51303005,0.906291484832764
5064.4036901,0.890665829181671
5065.27873015,0.875040054321289
5066.12251997,0.843788623809814
5067.12257004,1.00004577636719
5067.88823009,0.765660047531128
5130.93798995,0.781285762786865
5131.7349,0.796911478042603
5147.11061001,0.718782901763916
5147.72001004,0.609402894973755
5148.5638001,0.843788623809814
5149.25133014,0.687531471252441
5150.01699018,0.765660047531128
5150.78264999,0.765660047531128
5151.57956004,0.796911478042603
5152.4233501,0.843788623809814
5153.26714015,0.843788623809814
5185.92488003,0.828162908554077
5186.59679008,0.671905755996704
5187.44058013,0.843788623809814
5188.19061017,0.750034332275391
5188.92501998,0.734408617019653
5189.80006003,0.875040054321289
5190.50322008,0.703157186508179
5191.23763013,0.734408617019653
5191.98766017,0.750034332275391
5192.81581998,0.828162908554077
5193.62836003,0.81253719329834
5194.44090009,0.81253719329834
5195.23781013,0.796911478042603
5196.14409995,0.906291484832764
5197.06602001,0.921917259693146
5197.92543006,0.859414339065552
5222.33280015,0.937542915344238
5223.16095996,0.828162908554077
5224.00475001,0.843788623809814
5224.89542007,0.890665829181671
5225.78608012,0.890665829181671
5226.66112018,0.875040054321289
5227.50490999,0.843788623809814
5228.37995005,0.875040054321289
5229.30187011,0.921917259693146
5230.22378016,0.921917259693146
5230.97381997,0.750034332275391
5231.91136003,0.937542915344238
5232.59889007,0.687531471252441
5233.50519013,0.906291484832764
5273.72578001,0.906291484832764
5274.64769006,0.921917259693146
5278.47599006,0.859414339065552
5279.2416501,0.765660047531128
5280.06982017,0.828162908554077
5280.77296996,0.703157186508179
5281.66364002,0.890665829181671
5282.46055007,0.796911478042603
5283.27309012,0.81253719329834
5284.14813018,0.875040054321289
5285.00753999,0.859414339065552
5285.86696005,0.859414339065552
5286.64824009,0.781285762786865
5287.47641015,0.828162908554077
5288.33581996,0.859414339065552
5289.11711001,0.781285762786865
5289.96089005,0.843788623809814
5290.85156012,0.890665829181671
5291.72660017,0.875040054321289
5292.52350998,0.796911478042603
5293.27355003,0.750034332275391
5294.03921008,0.765660047531128
5317.38402009,0.843788623809814
5323.88432002,0.750034332275391
5324.68123007,0.796911478042603
5325.54065013,0.859414339065552
5326.43131018,0.890665829181671
5327.30634999,0.875040054321289
5328.11889005,0.81253719329834
5328.9626801,0.843788623809814
5329.83772016,0.875040054321289
5330.75963998,0.921917259693146
5331.54092002,0.781285762786865
5332.47847009,0.937542915344238
5333.35351014,0.875040054321289
5334.18166995,0.828162908554077
5335.04108,0.859414339065552
5335.86925006,0.828162908554077
5336.91617012,1.0469229221344
5385.29338002,0.906291484832764
5386.18405008,0.890665829181671
5386.93408012,0.750034332275391
5417.52923012,0.609402894973755
5418.06051016,0.531274318695068
5446.12428999,0.875040054321289
5447.03058004,0.906291484832764
5447.8587501,0.828162908554077
5500.89242005,0.921917259693146
5524.81539011,0.781285762786865
5525.72169018,0.906291484832764
5526.73736,1.01567149162292
5527.75303006,1.01567149162292
5528.61244011,0.859414339065552
5529.59686017,0.98442006111145
5530.59691,1.00004577636719
5651.58682013,0.921917259693146
5652.71186996,1.12505149841309
5656.86830997,0.796911478042603
5657.69648004,0.828162908554077
5658.60277009,0.906291484832764
5663.83738017,0.906291484832764
5664.68116999,0.843788623809814
5665.47808003,0.796911478042603
5666.3062501,0.828162908554077
5667.11878014,0.81253719329834
5667.97819996,0.859414339065552
5668.80636001,0.828162908554077
5669.63452005,0.828162908554077
5670.4314301,0.796911478042603
5671.24397016,0.81253719329834
5672.07212996,0.828162908554077
5676.80673003,0.765660047531128
5677.77552009,0.968794345855713
5681.40069008,0.781285762786865
5682.16635013,0.765660047531128
5682.94763017,0.781285762786865
5683.76016998,0.81253719329834
5684.58833003,0.828162908554077
5691.80741,0.796911478042603
5692.61995006,0.81253719329834
5693.4481101,0.828162908554077
5694.29190016,0.843788623809814
5695.12005997,0.828162908554077
5695.91698003,0.796911478042603
5696.69826007,0.781285762786865
5708.32379007,0.81253719329834
5709.16758013,0.843788623809814
5709.96449018,0.796911478042603
5710.79266,0.828162908554077
5711.62082005,0.828162908554077
5712.4958601,0.875040054321289
5713.38653016,0.890665829181671
5720.24622011,0.906291484832764
5761.21684003,0.875040054321289
5762.04500008,0.828162908554077
5782.71782017,0.890665829181671
5783.62412,0.906291484832764
5784.43665004,0.81253719329834
5785.31169009,0.875040054321289
5792.8901701,0.828162908554077
5800.53114009,0.859414339065552
5801.37493014,0.843788623809814
5802.26558995,0.890665829181671
5802.95313001,0.687531471252441
5803.67191005,0.718782901763916
5804.4375701,0.765660047531128
5805.32823014,0.890665829181671
5806.09388995,0.765660047531128
5806.93768001,0.843788623809814
5807.60959005,0.671905755996704
5808.39087009,0.781285762786865
5809.14091015,0.750034332275391
5809.96906996,0.828162908554077
5810.87536001,0.906291484832764
5811.64102006,0.765660047531128
5812.48481011,0.843788623809814
5813.29735017,0.81253719329834
5823.48532009,0.843788623809814
5824.31348014,0.828162908554077
5825.04788995,0.734408617019653
5825.95418,0.906291484832764
5835.59525013,0.703157186508179
5836.39216018,0.796911478042603
5837.29844999,0.906291484832764
5838.15786004,0.859414339065552
5881.05045009,0.796911478042603
5881.80049014,0.750034332275391
5882.56614995,0.765660047531128
5883.22242999,0.656280040740967
5884.12872005,0.906291484832764
5887.51950002,0.734408617019653
5888.44141006,0.921917259693146
5889.30083013,0.859414339065552
5890.20712018,0.906291484832764
5891.23842001,1.03129720687866
5898.66062999,0.843788623809814
5899.45754004,0.796911478042603
5937.20927,0.765660047531128
5938.02181005,0.81253719329834
5938.8187201,0.796911478042603
6038.07326007,0.890665829181671
6038.83892012,0.765660047531128
6045.26109004,0.828162908554077
6101.07615018,0.796911478042603
6101.74804997,0.671905755996704
6102.48246002,0.734408617019653
6103.18562007,0.703157186508179
6103.93565011,0.750034332275391
6104.74819016,0.81253719329834
6105.46696997,0.718782901763916
6106.29514003,0.828162908554077
