61670.5
0.0;0.781285762786865
179.601969957,0.859414339065552
278.200230122,0.937542915344238
310.686100006,1.03129720687866
311.608010054,0.921917259693146
312.358050108,0.750034332275391
313.279970169,0.921917259693146
314.155009985,0.875040054321289
314.858160019,0.703157186508179
329.249449968,0.906291484832764
330.046360016,0.796911478042603
330.905770063,0.859414339065552
331.796440125,0.890665829181671
332.593350172,0.796911478042603
375.78283,0.750034332275391
376.532860041,0.750034332275391
385.0801301,1.0469229221344
385.877040148,0.796911478042603
684.375080109,0.828162908554077
699.047620058,0.796911478042603
699.985170126,0.937542915344238
700.860209942,0.875040054321289
701.828999996,0.968794345855713
733.455450058,0.890665829181671
734.424240112,0.968794345855713
818.756230116,0.921917259693146
819.615640163,0.859414339065552
999.217610121,0.921917259693146
1009.37433004,1.07817435264587
1010.3118701,0.937542915344238
1011.23379016,0.921917259693146
1012.23383999,1.00004577636719
1061.79859996,0.906291484832764
1086.8466301,1.14067721366882
1087.89355016,1.0469229221344
1092.15936995,0.859414339065552
1093.19067001,1.03129720687866
1093.98758006,0.796911478042603
1095.01888013,1.03129720687866
1096.03454995,1.01567149162292
1096.86271,0.828162908554077
1097.86276007,1.00004577636719
1098.83155012,0.968794345855713
1099.86284995,1.03129720687866
1100.80039001,0.937542915344238
1101.80044007,1.00004577636719
1102.75360012,0.953168630599976
1103.67551994,0.921917259693146
1104.80057001,1.12505149841309
1105.59748006,0.796911478042603
1106.45690012,0.859414339065552
1107.41006994,0.953168630599976
1108.41011,1.00004577636719
1109.37891006,0.968794345855713
1110.34770012,0.968794345855713
1111.42587996,1.07817435264587
1112.31654,0.890665829181671
1113.39472008,1.07817435264587
1114.36351013,0.968794345855713
1115.16041994,0.796911478042603
1116.20734,1.0469229221344
1117.09801006,0.890665829181671
1118.00430012,0.906291484832764
1123.22328997,0.937542915344238
1136.27076006,0.656280040740967
1140.84910011,0.890665829181671
1168.58474016,0.875040054321289
1169.52228999,0.937542915344238
1170.38170004,0.859414339065552
1171.3973701,1.01567149162292
1172.24116015,0.843788623809814
1173.17869997,0.937542915344238
1187.41373014,0.781285762786865
1188.17938995,0.765660047531128
1188.96068001,0.781285762786865
1189.96072006,1.00004577636719
1190.6795001,0.718782901763916
1191.71080017,1.03129720687866
1192.69521999,0.98442006111145
1193.61714005,0.921917259693146
1194.49218011,0.875040054321289
1205.77394009,1.0469229221344
1206.61773014,0.843788623809814
1207.53964996,0.921917259693146
1215.30562997,1.03129720687866
1219.80584002,0.890665829181671
1220.77463007,0.968794345855713
1229.69691014,0.859414339065552
1230.54069996,0.843788623809814
1238.18167996,0.750034332275391
1294.2154901,1.07817435264587
1295.34054017,1.12505149841309
1388.81357002,0.843788623809814
1389.73549008,0.921917259693146
1390.70429015,0.968794345855713
1391.79808998,1.09380006790161
1402.68920994,1.06254863739014
1403.54861999,0.859414339065552
1404.34553003,0.796911478042603
1405.45496011,1.10942578315735
1406.26750016,0.81253719329834
1407.06440997,0.796911478042603
1408.09571004,1.03129720687866
1408.89262009,0.796911478042603
1535.5859201,0.859414339065552
1536.60159016,1.01567149162292
1625.04314017,0.703157186508179
1665.76375008,1.03129720687866
1666.60754013,0.843788623809814
1667.63883996,1.03129720687866
1668.52950001,0.890665829181671
1669.49830008,0.968794345855713
1670.45147014,0.953168630599976
1732.92306995,0.734408617019653
1733.75124002,0.828162908554077
1734.61065006,0.859414339065552
1735.59507012,0.98442006111145
1736.45448995,0.859414339065552
1737.50141001,1.0469229221344
1738.37645006,0.875040054321289
1745.97055006,0.765660047531128
1746.86121011,0.890665829181671
1747.67375016,0.81253719329834
1748.37690997,0.703157186508179
1752.86149001,0.875040054321289
1753.78340006,0.921917259693146
1754.59594011,0.81253719329834
1755.50223017,0.906291484832764
1786.51927996,0.953168630599976
1787.39432001,0.875040054321289
1788.33186007,0.937542915344238
1789.25378013,0.921917259693146
1790.16006994,0.906291484832764
1791.09761,0.937542915344238
1792.06641006,0.968794345855713
1793.00395012,0.937542915344238
1793.91024017,0.906291484832764
1794.70714998,0.796911478042603
1802.61375999,0.843788623809814
1820.03644013,1.06254863739014
1820.89584994,0.859414339065552
1821.92715001,1.03129720687866
1822.91157007,0.98442006111145
1823.92724013,1.01567149162292
1824.88040996,0.953168630599976
1825.88045001,1.00004577636719
1826.86487007,0.98442006111145
1827.84929013,0.98442006111145
1828.83370996,0.98442006111145
1829.80251002,0.968794345855713
1830.80256009,1.00004577636719
1831.77135015,0.968794345855713
1832.78701997,1.01567149162292
1833.77144003,0.98442006111145
1834.7402401,0.968794345855713
1835.72466016,0.98442006111145
1836.67781997,0.953168630599976
1837.58412004,0.906291484832764
1838.53728008,0.953168630599976
1839.45920014,0.921917259693146
1840.42799997,0.968794345855713
1841.36554003,0.937542915344238
1842.30308008,0.937542915344238
1843.20937014,0.906291484832764
1844.13128996,0.921917259693146
1845.03758001,0.906291484832764
1845.99075007,0.953168630599976
1847.13143015,1.14067721366882
1851.83476996,1.07817435264587
1852.77231002,0.937542915344238
1853.70985007,0.937542915344238
1854.60052013,0.890665829181671
1855.53805995,0.937542915344238
1856.4131,0.875040054321289
1864.85099006,0.859414339065552
1865.86666012,1.01567149162292
1866.92920995,1.06254863739014
1867.92925,1.00004577636719
1881.0236001,1.01567149162292
1881.89864016,0.875040054321289
1884.99254012,0.781285762786865
1885.74257016,0.750034332275391
1886.58635998,0.843788623809814
1887.49265003,0.906291484832764
1898.64941001,0.890665829181671
1966.29313016,0.953168630599976
1967.24629998,0.953168630599976
2022.45195007,0.968794345855713
2084.18915009,0.890665829181671
2138.78540015,0.781285762786865
2139.55105996,0.765660047531128
2145.5357101,0.98442006111145
2146.56701016,1.03129720687866
2147.33266997,0.765660047531128
2148.09833002,0.765660047531128
2155.27052999,1.0469229221344
2194.66296005,1.01567149162292
2195.58488011,0.921917259693146
2196.49117017,0.906291484832764
2197.44433999,0.953168630599976
2198.35063004,0.906291484832764
2199.47568011,1.12505149841309
2206.75726008,0.843788623809814
2207.66356015,0.906291484832764
2268.80698013,0.765660047531128
2353.98274994,0.734408617019653
2364.85825014,0.890665829181671
2368.68655014,1.09380006790161
2369.68659997,1.00004577636719
2370.82727003,1.14067721366882
2371.7335701,0.906291484832764
2409.98532009,0.843788623809814
2410.64160013,0.656280040740967
2433.15825009,0.671905755996704
2434.09580016,0.937542915344238
2434.83019996,0.734408617019653
2435.64274001,0.81253719329834
2436.54903007,0.906291484832764
2437.37720013,0.828162908554077
2450.51841998,0.953168630599976
2530.81896996,0.953168630599976
2531.86590004,1.0469229221344
2532.81906009,0.953168630599976
2538.92872,0.81253719329834
2542.28824997,0.921917259693146
2543.33517003,1.0469229221344
2544.28834009,0.953168630599976
2562.55480003,0.921917259693146
2566.60186005,0.81253719329834
2567.36752009,0.765660047531128
2598.33769011,0.875040054321289
2599.04085016,0.703157186508179
2653.74646997,1.01567149162292
2654.60589004,0.859414339065552
2655.71532011,1.10942578315735
2721.57771015,0.625028610229492
2726.70293999,1.01567149162292
2727.54673004,0.843788623809814
2728.28114009,0.734408617019653
2729.28118014,1.00004577636719
2736.93778014,1.00004577636719
2737.92219996,0.98442006111145
2738.96913004,1.0469229221344
2740.0473001,1.07817435264587
2744.50063014,1.03129720687866
2745.48504996,0.98442006111145
2746.51635003,1.03129720687866
2747.48514009,0.968794345855713
2748.34456015,0.859414339065552
2749.17271996,0.828162908554077
2750.14151001,0.968794345855713
2750.90717006,0.765660047531128
2776.06456995,0.765660047531128
2782.50237012,0.890665829181671
2783.42428994,0.921917259693146
2784.29933,0.875040054321289
2785.31500006,1.01567149162292
2786.1119101,0.796911478042603
2787.01820016,0.906291484832764
2796.78427005,0.687531471252441
2805.90969014,0.859414339065552
2811.33181,1.0469229221344
2812.47249007,1.14067721366882
2813.36316013,0.890665829181671
2910.57072997,0.875040054321289
3168.64504004,1.10942578315735
3169.5982101,0.953168630599976
3170.56701016,0.968794345855713
