79933.0555601
32.000000; 32.000000; 32.000000
-56;-14;28
-56;-13;27
-57;-13;27
-57;-13;28
-57;-13;28
-56;-14;28
-56;-14;28
-56;-14;27
-56;-14;27
-56;-14;27
-56;-14;27
-56;-13;27
-57;-13;28
-57;-13;27
-57;-13;27
-57;-13;27
-57;-13;28
-57;-13;28
-57;-13;27
-56;-13;27
-57;-14;27
-56;-14;27
-57;-14;27
-57;-14;27
-57;-14;27
-57;-13;27
-57;-14;27
-57;-14;26
-57;-14;26
-57;-14;27
-57;-13;27
-57;-13;27
-57;-14;27
-57;-13;27
-57;-13;27
-57;-14;26
-57;-14;26
-57;-14;27
-57;-14;27
-57;-14;27
-57;-14;27
-57;-14;26
-57;-14;26
-56;-13;27
-58;-14;27
-58;-14;27
-57;-13;27
-56;-14;27
-57;-14;26
-57;-14;27
-57;-14;27
-57;-14;27
-56;-14;26
-56;-14;27
-56;-13;27
-57;-13;27
-57;-13;27
-57;-13;27
-57;-13;27
-57;-14;27
-57;-13;27
-57;-13;27
-57;-13;27
-57;-14;27
-56;-13;27
-57;-13;27
-57;-14;26
-57;-14;27
-57;-13;27
-57;-13;27
-57;-14;27
-57;-14;27
-57;-14;27
-57;-13;27
-56;-14;27
-56;-14;27
-56;-14;27
-56;-14;27
-57;-14;27
-57;-13;27
-57;-13;27
-57;-13;27
-57;-13;27
-57;-14;27
-56;-14;27
-57;-14;27
-58;-14;27
-57;-14;27
-57;-14;27
-56;-14;27
-56;-14;27
-57;-14;27
-57;-14;27
-57;-14;27
-57;-14;27
-57;-14;27
-57;-13;27
-56;-13;27
-57;-13;27
-57;-14;27
-57;-13;27
-57;-13;27
-57;-13;27
-57;-14;27
-57;-14;27
-56;-14;27
-56;-14;27
-57;-14;27
-57;-14;27
-57;-14;27
-57;-14;27
-56;-14;27
-57;-14;27
-56;-14;27
-57;-14;27
-56;-14;27
-56;-14;28
-57;-14;27
-57;-14;27
-57;-14;27
-57;-14;27
-56;-14;27
-57;-14;27
-57;-14;27
-57;-14;27
-57;-14;27
-57;-14;27
-56;-14;27
-56;-14;27
-57;-14;27
-57;-14;27
-57;-14;27
-56;-14;27
-57;-14;27
-57;-14;27
-56;-14;27
-56;-14;27
-56;-14;27
-56;-14;27
-56;-14;27
-56;-14;27
-57;-14;27
-57;-14;27
-57;-14;27
-56;-15;27
-56;-14;27
-56;-14;27
-56;-15;27
-57;-15;27
-56;-14;27
-56;-14;27
-56;-14;27
-57;-14;27
-57;-14;27
-56;-14;27
-56;-14;27
-56;-14;27
-57;-14;27
-57;-14;27
-57;-14;27
-56;-14;27
-56;-14;27
-57;-14;27
-57;-14;27
-56;-14;27
-56;-15;27
-56;-15;27
-56;-14;28
-56;-14;27
-57;-14;27
-57;-14;27
-57;-14;27
-56;-14;27
-57;-14;27
-57;-15;28
-57;-15;28
-56;-14;27
-55;-14;28
-56;-14;27
-56;-15;27
-56;-15;27
-56;-14;27
-57;-14;27
-57;-14;27
-55;-16;30
-56;-14;26
-56;-13;30
-57;-14;28
-57;-13;28
-58;-13;29
-56;-13;31
-51;-14;33
-53;-15;31
-56;-14;27
-54;-14;28
-53;-13;34
-53;-14;34
-56;-14;33
-55;-14;31
-53;-13;30
-55;-14;30
-55;-14;30
-55;-13;31
-55;-13;31
-54;-13;31
-56;-13;30
-55;-13;30
-54;-14;29
-55;-14;30
-56;-14;30
-56;-13;30
-56;-16;32
-56;-14;28
-56;-14;26
-55;-14;27
-55;-14;28
-55;-14;31
-54;-14;31
-56;-14;29
-56;-14;29
-56;-14;29
-55;-14;29
-55;-15;29
-56;-15;29
-55;-15;29
-56;-14;28
-56;-14;28
-56;-14;29
-56;-14;29
-56;-13;28
-56;-14;29
-56;-14;29
-55;-14;29
-55;-14;29
-56;-15;28
-56;-14;27
-57;-14;28
-57;-14;27
-56;-14;28
-55;-14;28
-57;-15;28
-57;-14;27
-58;-14;27
-55;-14;30
-55;-14;30
-55;-15;29
-57;-15;28
-56;-14;29
-59;-14;25
-57;-14;25
-59;-13;24
-57;-13;26
-58;-14;28
-57;-14;28
-57;-15;27
-57;-15;27
-56;-15;27
-56;-15;26
-57;-14;26
-56;-14;27
-56;-14;27
-56;-14;27
-57;-14;27
-57;-14;27
-56;-14;27
-56;-14;27
-57;-14;27
-57;-14;27
-56;-14;28
-57;-14;28
-56;-14;28
-56;-14;28
-56;-14;27
-56;-14;27
-56;-14;27
-56;-14;27
-56;-14;27
-56;-15;27
-57;-14;27
-57;-14;27
-57;-14;27
-57;-14;27
-56;-14;27
-57;-14;27
-57;-14;27
-57;-14;27
-56;-14;27
-56;-14;27
-56;-14;27
-56;-15;27
-57;-14;27
-56;-14;27
-56;-14;27
-56;-14;27
-56;-14;27
-57;-14;27
-56;-14;27
-57;-15;27
-56;-14;27
-56;-14;27
-57;-14;27
-57;-14;27
-57;-14;27
-57;-14;27
-56;-14;27
-57;-15;27
-57;-15;27
-56;-15;27
-56;-15;27
-57;-15;27
-57;-14;27
-56;-15;27
-57;-15;27
-56;-15;27
-57;-15;27
-57;-15;27
-57;-15;27
-56;-15;27
-57;-15;27
-57;-15;27
-56;-15;27
-56;-15;27
-56;-15;28
-56;-15;27
-56;-15;27
-55;-15;27
-55;-15;27
-56;-15;27
-56;-15;27
-56;-14;28
-56;-14;29
-56;-14;28
-57;-14;28
-56;-14;28
-56;-14;28
-56;-14;28
-56;-14;28
-56;-14;28
-56;-14;28
-56;-14;28
-56;-15;28
-56;-15;28
-56;-15;28
-56;-15;28
-56;-15;28
-56;-15;28
-55;-15;28
-56;-14;28
-55;-15;28
-56;-15;28
-56;-15;28
-56;-15;28
-55;-15;28
-55;-15;28
-56;-15;28
-56;-15;28
-56;-15;28
-56;-15;28
-56;-15;28
-56;-15;27
-57;-15;28
-56;-15;28
-56;-14;28
-55;-15;29
-56;-15;28
-55;-15;28
-56;-15;28
-56;-15;28
-56;-15;28
-56;-15;28
-55;-15;28
-56;-15;28
-57;-15;28
-55;-15;28
-55;-15;28
-55;-15;28
-56;-15;28
-57;-15;28
-55;-15;29
-56;-15;30
-57;-15;29
-54;-14;31
-54;-14;32
-56;-15;31
-52;-15;32
-51;-15;32
-53;-15;32
-53;-15;33
-52;-14;34
-52;-14;34
-52;-15;33
-51;-15;35
-52;-15;34
-53;-15;34
-53;-15;35
-52;-15;35
-52;-15;35
-52;-15;34
-53;-15;34
-52;-16;34
-52;-16;34
-52;-16;34
-52;-16;34
-52;-16;34
-53;-16;33
-52;-16;33
-52;-16;34
-52;-16;34
-52;-16;33
-52;-16;34
-52;-16;34
-52;-16;33
-52;-16;33
-52;-16;34
-53;-16;33
-53;-15;33
-52;-16;34
-52;-16;34
-53;-16;32
-54;-16;33
-53;-16;34
-53;-16;34
-53;-16;32
-53;-16;33
-53;-15;33
-52;-15;33
-52;-16;33
-54;-16;34
-54;-15;33
-52;-15;33
-52;-15;33
-53;-15;33
-53;-16;33
-53;-16;33
-53;-15;33
-53;-15;33
-53;-15;33
-53;-15;33
-53;-15;34
-53;-15;34
-53;-15;33
-53;-15;33
-52;-15;34
-52;-15;33
-52;-15;33
-53;-15;33
-53;-15;33
-53;-15;34
-53;-16;33
-53;-16;33
-53;-15;33
-52;-15;33
-53;-15;33
-52;-15;33
-53;-15;33
-52;-16;33
-52;-15;33
-53;-15;34
-53;-16;34
-53;-15;34
-52;-15;34
-53;-15;33
-53;-15;34
-53;-15;34
-53;-15;34
-52;-15;33
-52;-15;33
-52;-15;33
-52;-15;34
-53;-15;34
-53;-15;34
-53;-15;34
-52;-15;34
-52;-15;33
-52;-15;33
-53;-15;34
-52;-15;34
-52;-15;33
-53;-15;32
-53;-16;33
-52;-15;34
-52;-14;33
-53;-14;33
-53;-15;34
-53;-15;33
-53;-15;33
-52;-16;33
-52;-16;33
-53;-15;33
-53;-15;33
-53;-15;33
-53;-15;33
-53;-15;33
-53;-15;33
-53;-15;33
-52;-15;33
-52;-15;33
-52;-15;33
-51;-17;34
-55;-15;33
-53;-16;32
-53;-15;33
-53;-15;33
-53;-15;33
-53;-15;33
-53;-16;33
-53;-16;33
-53;-16;33
-53;-16;32
-53;-16;32
-53;-16;33
-53;-16;33
-53;-16;32
-53;-16;32
-53;-16;32
-53;-16;32
-54;-16;32
-54;-15;31
-54;-16;32
-54;-16;33
-53;-15;33
-54;-15;33
-52;-16;32
-51;-16;32
-52;-16;33
-53;-15;33
-52;-16;34
-52;-16;34
-53;-15;33
-52;-15;34
-52;-15;34
-51;-15;35
-51;-15;36
-52;-15;34
-52;-15;34
-52;-16;34
-52;-15;33
-53;-15;34
-53;-15;34
-52;-15;35
-52;-16;35
-52;-15;34
-51;-15;33
-53;-15;34
-52;-15;34
-53;-15;34
-52;-15;34
-52;-15;34
-53;-15;34
-52;-16;34
-52;-16;34
-52;-16;34
-52;-16;34
-52;-16;34
-52;-17;33
-52;-17;33
-53;-16;33
-53;-16;33
-52;-16;33
-53;-16;33
-53;-16;34
-53;-16;33
-53;-16;33
-52;-16;34
-53;-15;33
-53;-15;33
-53;-16;34
-53;-15;34
-53;-14;34
-54;-14;34
-53;-14;34
-50;-14;33
-53;-15;33
-56;-14;35
-53;-14;35
-51;-14;33
-52;-14;32
-52;-14;32
-52;-15;32
-53;-14;33
-53;-14;33
-53;-14;35
-54;-14;35
-54;-13;34
-51;-15;35
-53;-14;34
-53;-13;32
-53;-14;32
-51;-15;34
-52;-14;34
-52;-14;35
-52;-14;35
-53;-15;35
-53;-14;33
-52;-14;33
-53;-14;33
-53;-14;33
-53;-14;34
-53;-14;34
-53;-15;34
-53;-15;34
-52;-15;34
-53;-15;34
-53;-15;33
-53;-15;34
-53;-15;33
-53;-15;34
-53;-15;34
-53;-15;34
-52;-14;33
-52;-15;33
-53;-15;33
-54;-15;33
-52;-15;34
-52;-15;33
-53;-15;33
-54;-15;33
-53;-15;34
-52;-15;34
-52;-15;33
-53;-15;33
-52;-15;34
-53;-14;33
-53;-15;33
-54;-15;33
-54;-14;33
-53;-14;33
-53;-15;34
-53;-15;35
-52;-15;35
-52;-16;35
-52;-16;34
-52;-15;34
-52;-15;33
-52;-15;34
-52;-14;34
-52;-14;33
-52;-16;35
-54;-15;35
-52;-15;34
-52;-15;33
-52;-15;34
-52;-15;34
-52;-15;33
-53;-15;33
-53;-15;35
-53;-15;35
-52;-14;34
-53;-15;33
-53;-15;34
-53;-15;34
-52;-16;34
-52;-16;34
-52;-16;34
-52;-15;34
-52;-15;34
-53;-15;34
-52;-15;34
-53;-15;34
-52;-15;34
-52;-15;34
-52;-15;34
-52;-15;34
-51;-15;34
-52;-15;34
-52;-15;34
-53;-15;34
-52;-15;35
-52;-15;34
-52;-15;34
-52;-16;35
-51;-15;36
-52;-15;33
-53;-16;33
-52;-15;34
-52;-15;34
-52;-15;33
-53;-15;34
-53;-15;34
-53;-15;33
-52;-15;34
-52;-15;34
-52;-15;33
-52;-16;34
-52;-15;35
-52;-15;35
-51;-16;35
-52;-16;34
-52;-16;33
-51;-15;33
-53;-16;34
-53;-16;34
-53;-15;34
-53;-15;34
-52;-15;34
-53;-16;34
-52;-15;34
-52;-15;34
-53;-15;34
-53;-15;34
-52;-15;34
-52;-15;33
-52;-15;34
-53;-15;34
-52;-16;34
-52;-16;34
-52;-15;33
-52;-15;34
-53;-15;34
-53;-15;34
-52;-15;34
-52;-15;34
-52;-15;34
-52;-15;34
-52;-15;34
-53;-16;34
-53;-16;34
-52;-15;34
-52;-15;34
-52;-16;33
-52;-16;34
-52;-15;34
-52;-15;34
-52;-16;34
-53;-15;34
-52;-15;34
-52;-16;34
-51;-16;35
-53;-16;36
-52;-17;29
-52;-16;29
-55;-15;32
-55;-14;32
-52;-15;35
-52;-15;36
-53;-16;35
-52;-17;33
-51;-17;33
-52;-16;32
-52;-16;32
-52;-16;34
-53;-16;34
-53;-15;33
-52;-15;33
-53;-16;35
-52;-15;34
-52;-15;33
-52;-16;34
-52;-16;33
-52;-15;33
-52;-15;33
-52;-16;35
-53;-15;34
-53;-15;33
-52;-15;34
-51;-16;35
-52;-16;34
-52;-16;34
-51;-16;35
-51;-15;34
-50;-17;34
-51;-16;35
-53;-16;35
-50;-16;37
-51;-16;36
-53;-16;33
-52;-15;32
-52;-16;33
-52;-15;35
-52;-15;35
-51;-17;36
-51;-17;36
-50;-19;32
-48;-17;36
-52;-17;35
-52;-16;35
-52;-16;35
-52;-15;35
-52;-15;35
-52;-16;35
-52;-16;35
-51;-16;35
-51;-16;35
-51;-16;35
-52;-16;35
-51;-17;35
-51;-16;35
-51;-16;35
-51;-16;34
-52;-16;34
-52;-17;35
-51;-16;35
-51;-16;35
-51;-17;35
-51;-16;35
-51;-16;34
-51;-16;35
-52;-17;35
-52;-17;35
-52;-16;35
-51;-16;35
-51;-16;35
-51;-17;35
-52;-16;35
-51;-16;35
-51;-16;34
-52;-17;34
-52;-16;35
-51;-16;35
-51;-16;35
-52;-16;35
-53;-16;34
-51;-17;35
-52;-16;35
-51;-16;35
-51;-16;34
-51;-16;34
-51;-17;34
-52;-16;34
-51;-17;34
-52;-16;35
-51;-17;35
-51;-16;34
-51;-16;35
-52;-16;35
-52;-17;35
-51;-16;34
-51;-16;34
-52;-17;35
-52;-16;34
-51;-16;35
-51;-16;35
-52;-16;35
-52;-16;35
-51;-16;35
-51;-17;35
-52;-17;35
-51;-16;34
-51;-16;34
-52;-17;34
-52;-17;35
-52;-17;35
-51;-17;35
-51;-17;35
-51;-17;35
-52;-16;34
-52;-16;34
-51;-17;34
-51;-17;35
-52;-16;34
-52;-17;33
-52;-17;34
-52;-16;34
-51;-16;35
-52;-16;35
-51;-18;35
-51;-18;36
-52;-17;35
-51;-17;33
-51;-17;35
-52;-16;34
-52;-16;34
-52;-17;35
-52;-17;35
-51;-17;35
-51;-17;34
-51;-17;35
-52;-17;34
-51;-17;34
-52;-17;34
-51;-17;35
-51;-16;35
-52;-17;35
-52;-17;35
-51;-16;35
-51;-16;34
-52;-17;35
-52;-17;35
-52;-17;35
-51;-17;35
-51;-17;35
-51;-17;35
-52;-17;35
-51;-17;35
-51;-17;35
-51;-17;35
-51;-17;35
-51;-17;34
-51;-17;34
-51;-17;34
-52;-17;35
-52;-17;34
-50;-17;34
-51;-17;35
-52;-17;34
-52;-17;35
-51;-17;35
-51;-17;34
-52;-17;34
-52;-17;34
-51;-17;35
-51;-17;34
-52;-17;34
-51;-16;35
-51;-17;35
-49;-16;35
-52;-18;37
-53;-17;35
-51;-17;34
-52;-17;33
-52;-16;34
-52;-16;35
-51;-16;35
-52;-17;35
-52;-16;35
-51;-17;35
-52;-17;35
-52;-17;35
-53;-15;34
-52;-16;35
-52;-15;34
-54;-15;34
-53;-15;34
-53;-15;34
-54;-14;33
-54;-14;32
-54;-15;30
-54;-15;31
-56;-15;30
-57;-14;29
-56;-15;29
-56;-14;29
-57;-15;27
-53;-15;29
-52;-17;31
-54;-16;29
-55;-15;28
-53;-17;31
-52;-15;32
-54;-15;31
-52;-16;32
-54;-15;33
-56;-13;31
-55;-13;31
-57;-13;30
-58;-12;30
-58;-15;34
-54;-16;35
-60;-20;28
-68;-20;41
-64;-13;44
-55;2;43
-53;3;55
-58;12;48
-61;18;28
-56;20;16
-53;18;12
-55;18;8
-46;12;11
-41;9;19
-31;6;33
-28;3;33
-52;-19;29
-62;-28;57
-53;-35;41
-60;-9;37
-47;-16;44
-88;0;54
-60;11;48
-40;14;26
-46;7;29
-54;-2;27
-63;7;30
-64;9;30
-60;-1;17
-65;-5;52
-67;19;21
-64;26;33
-56;19;46
-52;13;37
-39;3;24
-36;-7;35
-51;-1;36
-56;18;28
-56;19;24
-51;9;47
-45;6;48
-55;-7;43
-65;-11;65
-99;23;30
-64;21;33
-56;21;28
-52;16;17
-49;7;15
-12;-33;46
-16;-38;37
-60;-26;24
-53;-18;42
-55;-11;37
-64;-10;27
-58;-12;32
-69;-3;38
-80;3;53
-83;17;32
-62;14;32
-53;10;29
-48;6;27
-33;-11;37
-45;-24;24
-48;-35;30
-45;-49;44
-54;-38;48
-54;-23;54
-46;-30;61
-60;-22;39
-55;-3;39
-49;8;41
-49;24;19
-50;25;11
-56;28;14
-50;28;14
-53;28;1
-70;28;-7
-79;15;10
-73;20;-12
-78;18;-14
-77;10;7
-81;13;7
-67;13;10
-72;10;12
-66;12;25
-61;15;27
-49;15;31
-56;16;25
-65;19;26
-54;19;29
-52;22;24
-36;20;30
-48;22;27
-48;30;22
-48;28;22
-50;26;27
-51;24;23
-46;24;21
-48;25;22
-48;24;23
-57;26;25
-59;26;25
-59;26;23
-53;28;26
-53;29;27
-52;29;28
-53;29;28
-55;27;28
-56;27;27
-50;26;29
-51;25;28
-61;23;24
-46;24;25
-49;24;21
-59;25;18
-57;25;21
-55;25;24
-56;25;25
-57;26;22
-56;25;20
-58;25;18
-59;24;16
-56;24;16
-57;23;17
-57;24;17
-57;24;18
-57;24;18
-58;24;19
-58;24;19
-58;25;18
-58;24;18
-58;24;18
-57;24;17
-57;23;18
-57;23;19
-59;23;17
-60;24;16
-57;23;18
-60;23;17
-57;23;20
-54;24;24
-57;24;23
-58;26;22
-52;26;28
-49;25;31
-47;24;34
-47;24;36
-47;24;38
-52;24;33
-53;25;31
-54;25;27
-55;25;25
-55;25;22
-54;24;19
-57;24;18
-59;23;19
-57;23;21
-56;23;23
-56;24;25
-57;24;24
-55;24;24
-56;24;22
-57;24;22
-57;24;22
-56;23;23
-57;23;22
-57;24;18
-57;24;18
-58;24;20
-57;24;19
-56;25;19
-57;24;20
-57;24;20
-57;24;19
-57;24;19
-57;24;20
-56;24;19
-56;24;19
-57;24;20
-57;24;19
-57;24;20
-57;24;20
-58;24;20
-57;23;20
-57;23;20
-58;23;20
-58;23;20
-57;23;20
-57;23;19
-57;24;20
-58;24;20
-57;23;20
-57;23;20
-57;23;21
-57;23;21
-57;23;20
-56;23;20
-56;23;20
-57;23;20
-57;23;20
-56;23;20
-57;23;20
-58;23;20
-58;23;20
-57;23;20
-57;23;20
-58;22;20
-58;23;21
-57;23;21
-57;23;20
-57;23;21
-56;23;22
-58;23;24
-56;23;25
-55;22;28
-54;22;29
-53;23;30
-52;23;30
-52;23;31
-51;24;31
-52;24;33
-50;22;31
-52;22;30
-53;23;29
-53;23;29
-53;23;29
-53;23;30
-53;23;29
-53;23;29
-55;23;26
-55;22;26
-55;22;26
-55;22;25
-57;22;21
-58;22;23
-58;22;25
-56;22;24
-57;22;20
-60;21;15
-59;22;15
-60;22;16
-58;21;20
-57;21;22
-57;21;22
-57;22;21
-58;22;20
-58;22;19
-58;22;20
-58;22;20
-58;22;20
-58;21;20
-58;21;20
-58;21;20
-58;21;20
-58;21;20
-57;22;20
-58;22;20
-58;21;20
-58;21;20
-58;21;20
-58;21;20
-58;21;20
-58;21;20
-58;21;20
-58;21;20
-58;21;20
-58;21;20
-58;21;20
-59;21;19
-58;21;20
-58;21;20
-58;21;20
-58;21;20
-58;21;20
-58;21;20
-59;21;20
-59;21;20
-58;21;20
-58;21;20
-59;21;20
-59;22;20
-58;21;20
-58;21;20
-59;21;20
-58;21;20
-58;21;20
-58;21;20
-58;21;19
-58;21;20
-58;21;20
-58;21;19
-58;21;20
-58;21;20
-58;21;20
-58;21;20
-58;21;19
-58;21;20
-59;21;20
-59;21;20
-58;21;20
-58;21;20
-59;21;20
-59;20;20
-58;21;19
-58;21;19
-58;21;19
-58;21;19
-58;21;20
-58;21;20
-58;21;20
-58;21;20
-58;21;20
-58;21;20
-58;21;20
-58;21;20
-58;21;19
-58;21;20
-58;21;20
-58;21;20
-58;21;19
-58;21;19
-58;21;20
-58;21;20
-58;21;19
-58;21;20
-58;21;20
-58;21;20
-58;21;19
-58;21;19
-58;21;20
-58;21;20
-58;21;20
-58;20;20
-58;21;19
-58;21;19
-58;21;19
-59;21;19
-58;20;19
-58;21;20
-59;20;20
-59;20;20
-58;20;20
-58;20;19
-59;21;19
-59;21;19
-59;20;19
-58;21;20
-58;21;20
-59;21;19
-59;20;19
-58;20;20
-58;21;19
-58;20;19
-58;21;19
-58;21;19
-58;21;19
-59;20;19
-59;20;19
-58;20;20
-58;20;20
-59;21;20
-58;21;19
-58;20;19
-58;20;20
-58;20;20
-59;21;19
-59;20;19
-58;20;19
-58;20;20
-58;20;20
-58;20;20
-58;21;19
-58;21;20
-58;21;20
-59;21;20
-58;21;20
-58;21;20
-58;21;20
-58;21;20
-58;21;20
-58;21;20
-59;21;20
-58;21;20
-58;21;20
-58;21;20
-58;21;20
-58;20;20
-58;21;20
-58;21;20
-58;21;20
-58;20;20
-58;21;20
-58;21;19
-58;21;19
-58;21;19
-58;21;19
-57;21;19
-58;21;19
-60;20;18
-59;22;18
-61;21;19
-60;20;20
-59;21;21
-59;21;21
-59;20;21
-59;19;21
-59;18;19
-59;18;19
-58;17;19
-58;17;19
-58;17;19
-57;16;20
-56;16;21
-57;18;23
-59;19;23
-60;19;23
-62;19;22
-61;19;22
-60;21;19
-60;21;19
-57;22;19
-57;22;19
-56;22;19
-55;21;18
-55;21;19
-57;22;19
-57;22;19
-58;23;21
-58;23;21
-59;23;20
-59;23;20
-56;22;23
-58;22;22
-58;22;22
-57;22;23
-56;22;22
-56;22;23
-55;22;24
-57;22;24
-57;22;24
-57;22;24
-58;22;23
-56;22;23
-56;22;23
-57;22;22
-57;22;22
-57;22;22
-57;20;21
-57;19;20
-57;19;21
-57;20;20
-58;20;20
-58;21;21
-57;21;22
-59;22;19
-59;21;18
-58;21;17
-58;21;17
-60;21;17
-62;21;16
-62;20;17
-61;19;19
-60;19;19
-59;19;19
-58;20;19
-58;20;19
-59;19;18
-59;19;18
-59;19;17
-59;19;17
-59;19;18
-58;19;18
-58;20;19
-58;20;19
-59;20;18
-59;20;18
-59;21;17
-59;21;17
-61;20;16
-59;20;18
-59;20;19
-58;20;21
-58;20;21
-54;19;23
-59;20;22
-58;20;21
-58;21;20
-58;21;20
-58;21;20
-60;21;19
-59;21;18
-59;21;19
-58;21;20
-59;20;19
-59;20;18
-59;20;16
-59;20;16
-59;20;17
-59;20;16
-59;20;18
-59;20;18
-59;20;18
-59;20;18
-59;20;17
-59;20;18
-59;20;18
-59;20;17
-59;20;17
-59;20;17
-59;20;18
-59;20;18
-60;20;18
-60;20;18
-59;19;18
-59;19;18
-59;19;17
-59;20;17
-59;20;18
-59;20;17
-59;21;17
-59;21;17
-59;21;17
-59;21;17
-59;21;18
-60;21;18
-60;21;18
-60;20;18
-60;20;18
-59;19;18
-59;19;17
-59;19;17
-58;19;17
-58;19;17
-59;20;17
-60;20;17
-59;20;18
-59;20;17
-59;20;17
-59;20;17
-59;20;17
-59;20;18
-59;20;18
-60;20;18
-60;19;17
-59;19;17
-59;20;18
-59;20;17
-59;20;17
-59;20;17
-59;20;17
-59;20;18
-60;20;18
-59;20;18
-59;20;18
-60;20;17
-60;19;17
-59;19;17
-59;19;18
-59;19;18
-60;19;18
-59;19;18
-59;20;18
-59;19;18
-59;20;18
-59;20;18
-59;19;18
-59;19;18
-59;20;18
-59;20;18
-59;20;18
-59;20;18
-59;20;18
-59;20;18
-59;20;18
-59;20;18
-59;20;18
-59;20;18
-59;20;18
-59;20;19
-59;20;18
-59;20;19
-59;20;18
-59;20;18
-60;20;18
-59;20;19
-59;20;19
-59;20;18
-59;20;18
-59;20;18
-59;19;18
-59;20;19
-59;20;18
-59;20;18
-58;19;18
-59;20;18
-59;20;18
-58;20;18
-59;19;19
-59;20;19
-59;20;18
-59;19;18
-59;19;19
-60;19;18
-59;20;18
-59;19;19
-59;20;19
-58;20;17
-59;19;18
-60;19;18
-59;19;19
-59;20;18
-59;19;19
-58;19;20
-60;19;21
-59;19;20
-59;19;19
-60;19;20
-59;19;20
-58;19;21
-59;19;20
-59;19;21
-59;19;20
-58;20;20
-57;19;21
-59;19;20
-58;20;20
-58;20;19
-58;20;22
-58;20;21
-59;20;21
-58;19;21
-59;19;22
-58;19;21
-58;19;21
-60;19;20
-59;19;19
-59;19;19
-60;20;20
-63;21;17
-61;21;19
-52;19;28
-54;19;30
-48;17;37
-46;16;42
-48;15;39
-58;20;28
-58;21;24
-54;21;25
-52;19;31
-50;20;39
-50;18;39
-53;17;40
-51;19;37
-50;19;34
-50;18;31
-51;18;32
-55;20;30
-56;19;29
-57;18;27
-57;18;26
-58;19;25
-57;19;24
-57;19;22
-58;19;21
-59;19;21
-57;19;22
-58;19;22
-59;19;23
-58;20;23
-58;19;23
-59;19;23
-58;19;22
-57;19;23
-57;19;23
-59;19;22
-58;19;22
-56;18;24
-58;19;21
-58;18;19
-58;18;24
-59;19;27
-50;16;34
-52;17;32
-58;18;28
-56;18;26
-53;18;25
-57;19;25
-56;19;27
-56;18;28
-57;18;27
-57;19;27
-56;19;27
-56;19;27
-57;19;26
-56;18;27
-56;18;27
-56;18;26
-58;18;26
-57;18;26
-56;18;27
-56;18;27
-57;18;26
-56;17;28
-56;17;28
-57;18;26
-56;18;25
-56;18;27
-56;18;27
-57;18;27
-57;18;27
-56;18;28
-56;18;27
-56;19;26
-56;18;27
-56;17;27
-57;18;27
-57;18;26
-56;17;27
-56;17;28
-56;18;28
-55;18;26
-53;17;27
-57;16;27
-60;18;27
-57;19;26
-55;19;27
-56;18;28
-57;18;28
-56;18;27
-56;17;27
-55;17;26
-58;17;26
-56;18;26
-57;18;24
-57;18;25
-57;18;26
-56;18;26
-58;17;26
-57;18;25
-54;17;26
-59;17;26
-59;18;27
-57;19;24
-58;19;25
-56;18;26
-59;19;23
-61;18;22
-58;18;25
-56;18;28
-51;18;35
-51;17;37
-47;17;43
-45;16;44
-43;16;41
-47;15;38
-51;16;34
-54;17;31
-54;19;30
-54;19;30
-53;18;32
-53;18;37
-56;17;33
-55;17;31
-55;17;31
-54;17;31
-54;17;31
-55;17;30
-57;18;28
-56;18;31
-52;16;36
-51;18;37
-49;17;37
-45;16;44
-46;16;43
-49;17;37
-50;17;35
-49;16;37
-50;16;38
-53;17;33
-56;17;31
-57;18;31
-56;18;29
-59;18;28
-51;17;38
-51;17;37
-48;16;40
-46;15;43
-48;17;40
-47;16;37
-51;16;35
-52;15;34
-54;16;34
-53;17;34
-53;17;33
-54;17;31
-55;17;31
-55;17;30
-55;17;29
-55;17;29
-55;17;30
-55;17;30
-56;17;30
-55;16;29
-56;16;30
-55;16;29
-56;16;28
-56;17;28
-55;17;28
-56;17;27
-57;17;27
-59;17;26
-58;17;25
-58;16;24
-58;16;24
-58;16;23
-58;16;23
-57;16;24
-59;16;23
-59;17;23
-58;17;23
-59;18;23
-59;17;23
-59;18;25
-57;18;26
-57;18;26
-57;17;25
-58;18;23
-59;17;23
-58;17;23
-57;17;24
-58;17;23
-58;18;23
-58;18;23
-58;18;24
-58;18;24
-58;18;23
-57;18;23
-58;18;24
-58;17;24
-58;18;25
-56;17;27
-56;17;27
-55;17;28
-56;18;27
-58;18;26
-57;18;25
-57;18;25
-57;19;25
-56;19;25
-57;18;26
-57;18;26
-56;18;26
-56;18;27
-56;18;28
-56;18;28
-55;17;27
-56;18;27
-56;18;27
-56;18;27
-56;18;27
-56;18;26
-56;18;25
-58;18;24
-58;18;24
-58;18;24
-57;18;25
-57;18;26
-57;17;27
-57;17;26
-58;17;25
-57;17;24
-57;17;24
-58;17;25
-58;18;24
-61;17;22
-59;17;25
-54;18;30
-54;19;32
-50;17;36
-49;17;39
-51;15;38
-55;16;31
-55;17;27
-54;18;26
-52;17;29
-51;17;36
-53;17;33
-58;19;25
-57;18;27
-57;17;29
-56;16;35
-55;15;34
-50;16;38
-50;17;38
-51;18;33
-50;17;34
-48;17;39
-48;16;39
-52;15;37
-54;16;34
-54;16;31
-57;16;26
-57;16;28
-58;17;29
-61;18;26
-52;17;28
-58;17;30
-58;17;28
-57;17;27
-57;16;27
-57;16;27
-56;16;27
-56;16;27
-57;16;28
-56;16;27
-56;16;27
-56;16;27
-57;17;27
-57;17;27
-57;16;27
-57;16;27
-58;17;25
-62;17;24
-58;17;26
-52;16;32
-53;15;34
-51;16;38
-49;16;37
-47;16;39
-48;15;40
-45;14;40
-57;15;34
-57;15;32
-55;18;28
-53;18;29
-51;17;36
-53;17;38
-52;17;39
-50;16;41
-50;15;37
-55;15;31
-58;16;28
-56;16;27
-53;16;31
-51;17;38
-49;17;40
-49;16;43
-50;16;40
-50;14;39
-52;14;34
-53;14;31
-52;16;34
-51;16;35
-51;17;37
-51;17;40
-51;17;37
-51;16;40
-49;16;43
-45;15;42
-48;15;37
-52;15;31
-53;15;32
-53;15;34
-54;16;32
-56;17;31
-55;17;32
-54;17;32
-55;17;30
-55;17;30
-55;16;31
-55;16;31
-56;16;29
-55;16;31
-53;16;36
-53;15;33
-55;16;33
-53;16;32
-54;16;31
-55;16;31
-55;16;31
-55;16;32
-55;16;32
-55;16;31
-56;17;28
-57;16;30
-54;16;34
-51;16;36
-50;16;40
-43;15;42
-47;14;38
-53;14;34
-55;15;31
-57;17;26
-57;18;24
-56;17;28
-55;17;33
-56;17;36
-54;17;36
-47;15;43
-48;15;39
-49;15;37
-54;14;32
-56;14;30
-58;15;25
-58;16;24
-54;16;31
-52;18;41
-50;18;41
-49;17;42
-47;16;43
-47;14;39
-49;13;34
-56;14;30
-57;15;31
-51;13;36
-55;15;32
-61;17;25
-58;18;23
-54;17;24
-61;15;25
-62;16;27
-58;15;25
-57;15;25
-59;15;22
-59;15;21
-58;16;22
-58;16;23
-58;16;23
-58;16;23
-59;15;23
-59;15;24
-59;15;23
-59;16;23
-60;17;22
-59;17;22
-60;16;21
-61;16;22
-56;14;26
-56;14;26
-57;15;25
-57;16;24
-57;16;24
-59;16;24
-58;16;25
-57;16;27
-58;16;27
-56;16;28
-56;16;28
-56;16;27
-54;16;28
-56;16;27
-57;16;28
-57;16;28
-54;16;26
-57;17;26
-58;17;25
-56;16;25
-59;16;27
-57;17;26
-57;17;25
-58;17;23
-58;17;23
-59;17;23
-58;17;25
-56;16;30
-55;15;33
-51;15;38
-49;16;41
-48;16;40
-45;15;39
-47;13;38
-59;15;28
-58;17;27
-56;18;27
-56;18;29
-53;17;37
-53;17;38
-53;16;37
-48;14;42
-51;15;40
-46;16;38
-45;15;38
-51;15;33
-57;16;28
-56;16;29
-58;15;30
-58;15;29
-45;16;38
-47;17;39
-54;17;35
-53;17;36
-48;16;44
-44;16;40
-50;15;37
-55;16;32
-54;16;32
-54;17;31
-55;17;30
-58;17;28
-56;17;28
-57;17;26
-57;16;26
-58;16;25
-59;16;23
-59;16;21
-59;16;21
-59;17;22
-58;17;22
-59;17;22
-59;17;21
-59;16;21
-59;16;22
-59;17;21
-59;17;21
-59;16;21
-59;17;21
-59;17;21
-60;18;20
-60;18;20
-58;16;22
-59;17;21
-60;17;21
-58;17;22
-59;17;23
-55;17;27
-58;17;26
-57;16;24
-59;17;24
-57;17;24
-57;17;24
-58;17;25
-58;17;25
-57;17;25
-57;17;25
-59;17;24
-57;17;25
-56;17;26
-57;17;25
-58;17;25
-60;17;25
-58;17;27
-52;17;31
-48;17;35
-51;16;35
-54;17;33
-53;17;30
-56;17;27
-56;16;28
-56;16;30
-57;17;27
-58;17;23
-60;17;23
-59;17;23
-58;17;22
-58;17;24
-59;17;24
-59;17;24
-57;16;25
-57;17;27
-56;17;27
-56;16;26
-56;15;26
-58;16;25
-59;17;25
-58;17;24
-59;18;23
-58;17;24
-58;17;25
-58;17;26
-57;16;25
-54;14;25
-59;14;27
-57;15;26
-59;16;25
-58;15;26
-62;18;22
-57;17;24
-55;16;29
-54;17;33
-54;17;32
-51;14;35
-53;15;34
-55;15;31
-57;15;27
-58;18;22
-54;16;29
-55;17;31
-57;17;30
-54;17;33
-52;15;37
-52;15;35
-53;16;32
-52;16;32
-54;16;30
-56;16;31
-56;15;31
-56;16;30
-56;16;31
-55;16;30
-55;16;32
-56;16;29
-54;16;30
-55;16;32
-54;16;31
-55;16;30
-55;16;29
-55;16;28
-56;16;29
-56;16;28
-57;16;27
-57;16;26
-57;16;26
-57;16;27
-57;16;26
-57;16;27
-57;16;27
-58;16;27
-57;16;26
-58;16;26
-57;16;26
-58;17;26
-58;16;25
-58;16;25
-58;17;24
-58;17;24
-59;17;24
-58;17;25
-57;17;26
-56;16;27
-56;16;29
-55;16;30
-53;16;31
-54;16;33
-55;16;33
-49;17;36
-51;17;37
-53;18;35
-49;18;39
-48;17;41
-49;17;37
-50;17;36
-49;16;36
-48;16;37
-49;16;39
-53;17;32
-53;17;31
-54;17;34
-54;18;36
-49;17;41
-49;17;40
-51;17;37
-50;17;37
-45;16;38
-49;14;36
-54;14;33
-59;16;28
-59;17;26
-54;17;30
-53;17;31
-57;17;30
-58;17;34
-53;17;38
-49;16;40
-48;15;42
-48;15;39
-48;14;37
-52;14;34
-53;15;32
-52;17;33
-50;15;39
-52;15;38
-58;15;29
-59;16;27
-57;16;26
-55;16;28
-58;16;28
-57;16;29
-56;15;28
-57;15;26
-56;15;26
-57;15;26
-57;15;26
-58;16;26
-58;16;26
-58;16;26
-58;16;26
-59;16;25
-58;16;24
-59;16;24
-60;16;23
-60;17;24
-58;17;23
-58;17;24
-59;17;24
-58;18;24
-57;19;24
-58;20;24
-59;21;24
-59;21;25
-58;20;26
-54;17;26
-54;19;27
-54;19;29
-53;20;29
-53;20;31
-48;21;34
-47;21;35
-51;20;35
-53;21;34
-49;23;34
-48;22;34
-53;23;34
-51;23;34
-51;23;34
-52;22;35
-52;22;32
-54;22;30
-54;22;31
-42;21;37
-52;23;35
-47;23;37
-47;20;41
-53;21;35
-45;21;38
-44;21;41
-48;23;40
-44;23;39
-46;21;39
-47;20;38
-47;20;37
-52;20;35
-55;20;32
-56;21;27
-57;21;25
-59;22;22
-55;21;24
-55;21;30
-55;19;28
-55;18;27
-60;19;24
-59;19;26
-51;21;35
-46;20;40
-44;17;44
-49;20;42
-47;19;40
-48;18;34
-50;18;33
-55;21;27
-52;20;30
-56;19;32
-60;19;29
-57;20;26
-52;21;28
-57;21;24
-58;21;24
-57;20;24
-55;18;31
-55;18;29
-55;18;29
-53;19;32
-46;18;37
-52;20;32
-52;20;31
-52;19;33
-53;20;32
-56;20;31
-53;19;31
-52;19;32
-55;19;30
-54;19;30
-53;19;30
-54;19;30
-55;19;30
-54;19;30
-54;19;30
-54;19;30
-56;19;29
-55;19;29
-55;19;28
-55;19;28
-55;19;29
-55;19;29
-56;18;28
-55;18;28
-55;19;28
-55;19;29
-56;19;28
-55;19;28
-55;19;28
-56;19;28
-56;19;28
-55;19;28
-55;19;28
-56;19;28
-56;19;28
-55;19;28
-55;19;28
-55;19;28
-55;19;28
-55;19;28
-55;19;28
-56;18;28
-55;19;28
-55;19;29
-55;19;28
-53;19;29
-55;19;29
-55;19;28
-55;19;29
-56;19;29
-55;19;28
-53;19;30
-52;18;31
-56;19;29
-55;19;29
-54;19;30
-54;19;30
-54;19;30
-54;18;31
-55;19;30
-54;18;30
-54;18;30
-54;18;30
-55;18;30
-54;18;30
-54;18;30
-55;18;29
-55;18;30
-55;18;30
-55;19;30
-55;18;30
-55;18;30
-55;18;30
-55;18;30
-55;18;29
-55;18;29
-55;18;30
-54;18;30
-55;18;29
-55;18;29
-55;18;30
-55;18;30
-55;19;30
-55;19;29
-55;19;28
-56;19;26
-58;19;25
-57;19;25
-57;19;25
-57;18;27
-59;18;26
-56;19;27
-54;18;29
-48;16;37
-57;18;29
-59;19;25
-54;18;29
-54;17;32
-54;18;29
-54;18;30
-56;18;29
-56;19;27
-55;18;30
-55;19;29
-55;18;29
-59;18;25
-59;19;25
-51;18;34
-50;17;38
-49;17;42
-47;18;38
-46;18;36
-53;17;30
-56;18;31
-54;18;31
-54;18;31
-55;18;31
-55;18;31
-55;18;29
-55;18;29
-56;18;29
-56;18;28
-55;18;28
-56;18;28
-56;18;28
-56;17;27
-56;17;27
-55;17;29
-56;17;28
-56;17;27
-56;17;27
-57;18;26
-58;19;23
-58;19;23
-57;19;24
-61;19;21
-59;18;23
-55;17;31
-54;18;31
-50;15;36
-47;15;38
-54;17;32
-55;17;31
-58;20;27
-56;20;27
-53;18;32
-51;18;36
-53;18;35
-46;15;41
-49;15;41
-55;18;31
-54;20;28
-51;18;36
-54;20;33
-54;20;32
-52;16;36
-52;17;39
-53;18;34
-52;17;33
-48;18;39
-47;18;38
-46;18;42
-44;18;44
-46;18;44
-49;18;38
-48;17;39
-47;18;40
-47;18;41
-48;18;39
-49;18;38
-46;18;42
-48;19;43
-48;19;43
-43;18;43
-40;18;45
-43;16;43
-48;16;39
-58;17;27
-62;20;20
-57;18;23
-52;19;35
-52;20;40
-44;19;47
-41;17;50
-44;15;46
-44;16;42
-45;16;39
-48;17;38
-52;17;37
-52;17;34
-52;16;34
-60;16;28
-60;18;25
-54;19;25
-59;18;24
-59;18;25
-56;17;27
-57;17;26
-57;17;24
-56;17;25
-56;18;25
-56;18;26
-56;18;26
-58;19;26
-57;18;25
-58;18;25
-56;18;25
-58;18;25
-57;18;25
-57;18;25
-57;18;25
-57;17;25
-57;18;25
-58;19;24
-58;18;25
-58;18;25
-60;19;22
-61;19;21
-56;18;26
-56;18;29
-53;18;33
-52;17;34
-53;17;34
-53;17;32
-54;18;30
-54;18;32
-50;19;36
-51;18;37
-52;18;36
-52;18;35
-51;17;34
-55;18;32
-55;19;27
-54;17;28
-54;18;33
-55;18;33
-53;18;34
-50;17;36
-49;17;39
-50;17;35
-50;17;35
-53;17;34
-56;18;30
-58;19;26
-57;18;28
-53;18;34
-50;18;37
-50;17;39
-44;16;45
-44;17;44
-44;16;38
-48;15;35
-59;17;28
-63;20;21
-63;21;18
-57;19;20
-59;17;24
-57;17;27
-58;18;26
-57;17;24
-57;17;23
-57;17;23
-57;18;24
-58;18;25
-58;18;26
-58;18;25
-58;18;25
-58;18;25
-58;19;23
-58;19;22
-58;18;21
-58;18;21
-57;18;22
-58;17;23
-58;17;24
-58;18;22
-59;19;21
-55;16;26
-57;18;25
-58;19;22
-58;18;24
-58;19;24
-58;18;23
-58;18;23
-58;18;23
-58;18;24
-59;19;23
-59;18;23
-56;19;22
-61;19;22
-59;19;23
-57;18;23
-58;18;22
-58;19;23
-58;19;22
-57;18;22
-57;18;23
-58;18;22
-58;19;22
-59;19;22
-58;19;23
-58;19;23
-57;19;23
-57;19;23
-58;19;22
-58;19;22
-58;19;22
-58;19;22
-59;19;21
-58;19;22
-58;19;22
-57;19;24
-57;19;25
-57;19;24
-56;19;26
-57;19;26
-57;19;24
-58;19;24
-57;19;25
-57;19;25
-57;19;25
-57;19;25
-57;19;25
-57;19;24
-57;19;24
-57;19;25
-57;19;25
-57;19;25
-57;19;25
-57;18;25
-57;18;25
-57;18;25
-57;19;25
-57;18;25
-58;18;26
-58;18;25
-57;18;25
-57;17;26
-57;18;27
-56;19;21
-59;20;20
-59;19;21
-58;19;22
-57;19;23
-58;18;23
-58;18;23
-58;18;22
-57;19;22
-58;19;23
-57;19;22
-58;20;22
-58;19;23
-59;19;22
-58;20;22
-57;20;22
-58;20;23
-58;19;22
-58;18;25
-57;19;24
-57;19;22
-57;19;22
-57;19;24
-58;20;23
-58;19;24
-56;18;24
-57;19;24
-57;19;24
-57;20;24
-57;19;24
-58;20;24
-57;20;23
-57;20;23
-57;20;23
-57;20;23
-57;20;23
-57;20;24
-58;21;24
-57;21;23
-57;21;23
-57;21;23
-57;21;22
-56;21;23
-57;20;24
-58;20;24
-57;21;23
-57;20;23
-56;20;24
-57;20;24
-57;20;23
-58;20;24
-57;20;23
-57;20;24
-57;20;23
-57;20;24
-58;20;24
-57;20;24
-57;20;23
-57;20;24
-57;21;24
-57;21;24
-57;21;23
-56;21;24
-57;20;23
-57;20;23
-56;20;24
-56;20;24
-58;19;24
-57;20;24
-57;20;24
-57;19;25
-58;20;25
-57;20;24
-57;20;24
-57;20;24
-57;20;23
-57;20;23
-57;20;24
-57;20;24
-57;20;24
-57;20;24
-57;19;24
-58;20;24
-57;20;21
-60;20;24
-56;20;30
-65;21;28
-61;20;32
-61;17;48
-60;20;50
-46;22;36
-29;23;57
-45;38;71
-42;46;48
-45;47;28
-56;55;-9
-49;55;-4
-24;52;5
-26;48;0
-35;48;-8
-37;39;-6
-43;37;-4
-10;37;-4
-21;40;-17
-75;43;-15
-46;33;3
-15;38;-9
-37;39;-25
-58;32;2
-24;59;-15
-34;60;-6
-53;43;-8
-61;38;-19
-29;38;22
-35;48;8
-13;43;-2
-30;44;-16
-47;43;-9
-17;47;6
-22;48;1
-37;43;-2
-37;41;6
-56;42;18
-71;39;22
-80;31;28
-85;34;32
-53;36;48
-29;24;39
-47;22;38
-56;23;44
-44;21;46
-48;20;42
-46;20;44
-52;18;37
-50;17;38
-50;22;42
-55;21;33
-50;20;34
-44;20;44
-46;20;44
-48;21;42
-40;20;45
-36;20;50
-43;20;47
-44;20;45
-39;19;45
-40;19;45
-50;19;42
-48;20;41
-42;18;40
-43;18;43
-46;18;46
-44;17;42
-46;17;41
-49;18;42
-50;18;40
-49;17;37
-51;18;37
-51;19;37
-50;19;35
-50;19;34
-52;19;34
-52;19;35
-51;19;35
-51;19;35
-52;19;34
-52;19;35
-51;18;35
-52;19;33
-52;19;34
-52;19;34
-52;19;34
-52;19;34
-52;19;33
-53;19;33
-52;20;33
-52;20;33
-52;20;33
-52;20;33
-52;20;33
-52;20;33
-52;20;33
-53;19;33
-52;19;33
-52;19;33
-52;19;33
-52;20;33
-52;20;33
-52;20;33
-52;20;33
-53;20;33
-52;20;34
-53;20;34
-52;20;32
-52;19;32
-52;19;34
-52;19;33
-52;19;33
-52;19;33
-53;18;34
-52;18;34
-52;18;34
-52;18;34
-52;18;34
-52;18;34
-52;18;34
-53;18;34
-52;18;34
-53;18;33
-52;18;33
-53;18;34
-52;18;34
-52;18;34
-53;18;34
-53;18;34
-52;18;33
-52;18;33
-53;18;34
-52;18;33
-52;18;34
-52;19;34
-53;18;33
-52;18;33
-52;18;34
-52;18;34
-52;18;34
-52;18;34
-52;18;34
-53;19;34
-52;18;34
-52;18;34
-52;18;34
-53;18;34
-52;18;34
-52;18;34
-51;18;35
-53;18;33
-51;18;34
-52;18;35
-52;18;35
-52;18;34
-52;18;35
-52;18;35
-52;18;35
-53;18;35
-52;18;34
-52;18;35
-52;18;34
-52;18;34
-52;18;35
-52;18;35
-52;18;34
-52;18;34
-52;18;34
-52;17;34
-52;18;34
-52;18;35
-52;18;34
-52;17;34
-52;18;35
-52;17;35
-52;17;34
-52;17;35
-52;17;35
-52;17;34
-52;17;35
-52;17;34
-52;17;35
-52;17;34
-52;17;35
-52;17;35
-52;17;35
-52;17;35
-52;17;35
-52;17;35
-52;17;35
-52;17;34
-52;17;34
-52;17;34
-53;17;35
-52;17;35
-52;17;35
-52;17;35
-52;17;35
-52;17;35
-52;17;35
-52;17;35
-52;18;34
-52;17;34
-52;17;35
-53;17;34
-52;17;35
-52;17;35
-52;17;35
-52;17;35
-53;17;35
-52;17;34
-52;17;34
-52;17;35
-52;17;34
-52;17;34
-52;17;34
-53;18;34
-53;17;34
-52;17;35
-52;17;35
-52;17;35
-52;17;34
-52;17;35
-52;17;34
-52;17;35
-52;17;35
-52;17;35
-52;17;35
-52;17;34
-52;17;34
-52;17;35
-52;17;34
-52;17;34
-52;17;35
-53;17;35
-52;17;35
-52;17;35
-52;17;35
-52;17;34
-52;17;35
-52;16;35
-52;17;35
-52;17;35
-52;17;35
-53;18;34
-52;18;35
-52;18;35
-55;19;32
-51;18;34
-52;16;36
-53;17;35
-52;16;34
-55;18;30
-52;18;32
-52;17;34
-52;18;34
-49;16;35
-51;16;35
-55;19;34
-50;18;33
-52;18;35
-53;19;36
-52;18;35
-53;17;34
-52;18;34
-52;18;34
-52;18;34
-52;17;35
-52;18;35
-52;17;35
-52;17;35
-52;17;34
-52;18;35
-53;18;34
-53;18;34
-53;18;34
-53;18;34
-52;18;35
-52;18;35
-52;18;33
-52;18;33
-52;18;35
-52;18;35
-53;18;33
-51;18;35
-53;18;34
-51;18;34
-52;17;35
-53;18;34
-53;18;34
-52;18;34
-52;18;34
-52;18;34
-52;18;34
-52;18;34
-53;18;34
-53;18;34
-52;17;34
-52;18;34
-52;18;34
-52;18;34
-52;17;34
-52;18;34
-52;18;34
-53;17;33
-53;18;33
-53;18;33
-53;18;34
-53;18;34
-54;17;34
-54;17;34
-54;16;33
-53;16;34
-52;15;34
-52;14;34
-51;13;34
-51;13;35
-51;14;35
-52;14;36
-53;15;36
-54;16;36
-54;16;36
-53;16;34
-54;17;33
-54;17;32
-54;18;32
-54;19;31
-54;19;31
-54;20;30
-54;20;30
-55;20;30
-54;20;30
-54;20;30
-54;20;31
-54;20;31
-55;20;30
-54;20;30
-55;20;30
-55;21;30
-55;20;30
-54;20;31
-54;20;31
-54;19;31
-54;19;31
-54;19;31
-54;18;31
-54;18;31
-53;17;32
-52;17;33
-53;17;33
-53;17;34
-53;16;33
-53;17;33
-53;17;33
-53;17;34
-53;17;34
-53;17;33
-53;17;33
-54;16;33
-53;17;33
-52;17;33
-52;17;34
-52;17;34
-53;18;34
-52;18;34
-53;18;33
-53;18;34
-52;18;34
-53;18;34
-53;18;34
-52;18;36
-52;18;35
-53;18;33
-53;19;33
-54;19;31
-54;19;31
-53;19;32
-53;19;32
-53;18;32
-52;18;33
-53;18;32
-55;19;29
-57;20;29
-56;20;30
-53;19;33
-48;16;40
-46;17;44
-47;18;41
-49;17;38
-50;17;39
-47;18;39
-47;19;40
-44;17;43
-46;18;42
-47;19;38
-46;18;39
-47;18;40
-49;19;40
-51;19;38
-50;18;37
-49;18;38
-50;18;38
-51;18;37
-51;18;36
-50;18;37
-51;18;36
-51;18;35
-51;18;36
-51;18;35
-51;18;35
-51;18;35
-51;17;36
-51;17;35
-52;18;35
-52;18;35
-51;18;35
-51;18;35
-53;18;35
-53;18;35
-52;18;35
-52;18;35
-53;18;35
-53;18;36
-53;17;36
-52;17;36
-51;17;35
-51;18;36
-52;19;36
-56;16;40
-53;12;41
-50;13;40
-52;12;37
-50;13;37
-41;15;35
-42;16;34
-50;18;33
-50;17;36
-49;16;38
-54;14;38
-54;13;39
-52;11;39
-52;11;38
-56;10;38
-55;10;38
-52;10;38
-53;9;37
-57;10;37
-52;10;37
-51;10;36
-51;10;37
-51;10;37
-45;11;36
-44;12;34
-54;14;34
-45;14;36
-41;17;36
-70;32;31
-78;34;32
-57;28;36
-50;25;43
-68;26;39
-66;25;34
-44;29;32
-37;28;28
-36;31;29
-43;38;27
-45;37;27
-43;42;28
-42;40;26
-40;39;25
-37;42;28
-41;40;27
-38;38;26
-34;39;26
-34;42;28
-37;43;27
-33;43;29
-31;43;30
-37;45;25
-28;45;30
-26;45;32
-33;47;29
-31;48;29
-25;47;35
-27;48;35
-25;48;37
-20;47;39
-25;48;34
-28;49;34
-30;49;36
-23;50;37
-20;47;37
-26;46;34
-24;45;36
-30;47;32
-32;47;33
-28;48;34
-30;49;29
-29;48;30
-30;48;31
-30;49;32
-29;47;33
-30;47;33
-32;47;33
-31;46;34
-36;48;32
-31;46;32
-33;47;29
-37;48;30
-35;47;30
-33;47;31
-31;45;32
-31;46;31
-32;45;31
-32;44;32
-31;45;34
-32;45;34
-36;43;32
-36;42;32
-36;42;34
-36;42;34
-38;43;33
-35;43;36
-36;43;36
-35;44;34
-34;44;34
-28;43;39
-28;43;40
-35;43;37
-35;42;34
-33;42;35
-35;42;35
-32;43;34
-34;43;35
-34;43;34
-33;43;35
-34;42;36
-36;41;36
-34;40;36
-36;42;36
-37;41;32
-35;42;31
-35;44;28
-32;44;30
-37;47;31
-36;48;30
-38;49;25
-36;47;26
-35;47;24
-41;47;23
-39;46;24
-39;46;26
-40;45;27
-37;44;27
-36;45;25
-37;45;25
-37;46;25
-37;46;25
-36;48;23
-36;50;22
-37;48;27
-36;46;28
-36;47;27
-39;47;25
-39;46;26
-39;44;26
-39;44;26
-40;43;29
-39;43;30
-37;43;32
-38;43;32
-40;42;30
-39;41;30
-39;41;29
-41;41;30
-39;40;31
-40;42;32
-40;41;31
-41;41;30
-42;42;31
-38;42;32
-33;41;37
-35;41;35
-42;42;31
-40;41;30
-39;41;31
-38;41;31
-39;41;30
-39;41;30
-37;40;32
-41;41;32
-40;41;32
-37;42;31
-40;42;31
-40;42;32
-39;41;31
-39;41;30
-39;41;31
-39;41;31
-39;41;30
-39;42;30
-39;41;30
-39;41;30
-40;40;29
-40;41;29
-39;41;30
-40;41;30
-39;40;30
-40;41;30
-41;41;30
-40;40;31
-40;40;30
-42;40;31
-41;40;32
-41;41;29
-42;39;30
-43;39;30
-41;40;30
-42;39;31
-40;38;34
-39;39;36
-41;39;36
-42;39;34
-42;39;34
-41;38;33
-41;37;33
-43;37;31
-43;37;31
-42;37;31
-41;37;31
-42;38;31
-42;38;32
-41;38;33
-39;39;35
-37;38;35
-41;38;34
-41;38;33
-39;37;34
-41;38;34
-40;39;32
-39;37;35
-39;37;39
-44;38;33
-48;38;25
-45;38;26
-43;38;29
-42;37;28
-45;36;24
-47;35;22
-46;36;25
-48;35;25
-49;33;24
-47;35;24
-44;39;30
-42;38;32
-42;38;34
-43;37;44
-40;37;43
-42;34;35
-42;30;39
-44;20;34
-41;20;31
-37;20;32
-39;21;31
-40;23;29
-46;24;29
-40;23;31
-33;25;24
-34;24;21
-45;12;28
-55;9;32
-34;7;25
-38;0;18
-53;-15;40
-39;-21;42
-34;-28;30
-43;-44;36
-41;-51;41
-34;-65;44
-38;-72;42
-44;-81;34
-37;-76;26
-34;-72;24
-29;-61;28
-31;-57;27
-31;-42;31
-23;-48;33
-14;-53;37
-26;-46;29
-32;-44;21
-32;-50;18
-32;-51;19
-28;-53;23
-28;-53;23
-29;-53;20
-29;-52;20
-28;-52;21
-28;-52;21
-28;-52;21
-27;-52;21
-27;-52;21
-25;-52;22
-24;-52;23
-23;-51;24
-24;-50;24
-25;-51;25
-27;-52;25
-28;-52;28
-33;-52;22
-41;-53;20
-54;-53;16
-54;-52;17
-46;-46;22
-50;-43;20
-54;-40;18
-54;-37;15
-50;-35;16
-45;-32;18
-46;-31;18
-42;-30;21
-42;-31;20
-40;-33;18
-35;-32;18
-36;-35;17
-24;-38;24
-21;-39;28
-34;-49;32
-43;-52;30
-44;-57;34
-49;-50;35
-40;-44;36
-41;-41;34
-41;-40;31
-36;-37;31
-35;-36;33
-38;-35;29
-40;-35;30
-42;-35;35
-41;-36;36
-40;-35;38
-41;-33;36
-41;-33;38
-41;-34;37
-39;-34;37
-36;-34;35
-35;-34;35
-34;-36;35
-34;-37;35
-32;-39;35
-33;-40;36
-33;-41;36
-32;-39;35
-32;-38;36
-35;-38;37
-35;-39;37
-36;-39;37
-36;-39;38
-35;-39;38
-34;-40;37
-33;-40;36
-32;-40;36
-32;-40;35
-33;-40;35
-33;-40;35
-33;-40;35
-34;-39;36
-33;-39;36
-34;-39;36
-35;-39;36
-35;-39;36
-34;-39;36
-35;-39;35
-35;-39;36
-34;-39;35
-34;-40;35
-34;-40;36
-33;-40;37
-33;-40;38
-35;-39;34
-36;-39;33
-36;-39;34
-36;-39;33
-35;-39;32
-34;-39;34
-35;-39;35
-34;-39;35
-34;-39;35
-32;-38;35
-32;-38;34
-33;-37;33
-33;-38;32
-35;-40;30
-39;-44;32
-39;-46;35
-36;-47;33
-37;-47;32
-36;-47;32
-35;-45;32
-33;-42;31
-32;-42;31
-31;-42;32
-31;-44;33
-31;-44;32
-32;-44;32
-33;-44;31
-32;-42;31
-32;-42;31
-35;-43;31
-34;-43;32
-34;-43;32
-35;-42;32
-33;-42;31
-33;-43;31
-33;-43;31
-32;-43;31
-32;-43;31
-33;-44;31
-34;-44;31
-33;-44;31
-34;-44;31
-34;-44;31
-33;-43;31
-33;-43;31
-33;-43;31
-32;-44;30
-33;-44;31
-32;-44;31
-32;-44;31
-32;-44;31
-32;-44;31
-33;-44;31
-33;-44;31
-32;-44;31
-33;-44;31
-32;-44;31
-32;-45;31
-32;-45;32
-32;-45;31
-32;-44;31
-33;-44;31
-33;-44;31
-31;-43;30
-31;-45;31
-33;-45;31
-33;-44;31
-33;-44;31
-33;-44;31
-34;-44;31
-34;-44;32
-32;-44;31
-30;-44;31
-32;-44;32
-31;-44;32
-32;-43;31
-33;-43;31
-33;-43;31
-32;-43;31
-32;-44;31
-33;-44;31
-33;-44;31
-32;-44;31
-33;-44;31
-33;-44;31
-33;-44;31
-33;-44;31
-33;-44;31
-32;-44;31
-32;-44;31
-32;-44;31
-33;-44;31
-32;-44;31
-32;-44;31
-32;-44;31
-32;-44;31
-32;-43;31
-32;-44;31
-33;-44;31
-32;-44;31
-32;-44;31
-32;-43;31
-32;-43;31
-32;-44;31
-33;-44;31
-33;-44;31
-32;-44;32
-32;-44;31
-33;-44;31
-32;-44;31
-32;-44;32
-33;-44;31
-33;-44;31
-32;-44;31
-32;-44;32
-32;-44;31
-32;-44;32
-33;-43;32
-33;-43;31
-33;-44;31
-32;-45;31
-32;-45;31
-32;-45;31
-31;-44;32
-31;-44;31
-31;-44;31
-32;-43;31
-33;-43;31
-33;-43;31
-33;-44;31
-33;-44;30
-32;-44;31
-31;-45;32
-29;-45;31
-31;-45;31
-31;-45;31
-30;-45;31
-30;-45;31
-32;-45;31
-32;-44;31
-32;-45;31
-31;-45;31
-32;-45;31
-31;-45;31
-32;-45;30
-31;-45;30
-31;-44;31
-32;-45;31
-31;-45;31
-32;-45;31
-32;-45;31
-32;-44;31
-32;-44;31
-32;-45;31
-31;-44;30
-31;-45;31
-31;-45;31
-32;-45;31
-31;-45;31
-32;-45;31
-32;-45;31
-32;-44;31
-31;-45;31
-31;-45;31
-31;-45;31
-31;-45;31
-31;-44;31
-31;-44;31
-31;-44;31
-32;-44;31
-32;-44;31
-31;-45;31
-32;-45;31
-32;-44;31
-32;-44;31
-33;-44;30
-31;-45;31
-31;-45;31
-32;-45;31
-31;-45;31
-31;-45;31
-31;-45;31
-31;-45;31
-31;-45;31
-31;-45;31
-31;-45;31
-31;-45;31
-31;-45;31
-31;-45;31
-31;-45;31
-31;-45;31
-31;-45;31
-31;-45;31
-30;-45;31
-31;-45;31
-32;-45;31
-32;-45;31
-31;-45;31
-31;-45;31
-32;-45;31
-31;-45;31
-31;-45;31
-32;-45;31
-31;-45;31
-31;-45;31
-31;-45;31
-31;-45;31
-31;-45;31
-32;-45;31
-31;-45;31
-31;-45;31
-31;-45;31
-31;-45;31
-32;-45;31
-31;-44;31
-32;-44;32
-32;-45;31
-31;-44;31
-32;-45;31
-32;-45;32
-31;-44;31
-31;-44;31
-31;-44;32
-32;-44;31
-32;-44;31
-32;-44;31
-31;-44;31
-31;-44;32
-31;-44;31
-31;-45;31
-32;-44;31
-32;-44;32
-32;-44;31
-32;-44;31
-31;-45;31
-31;-44;31
-31;-45;31
-31;-45;32
-31;-45;31
-31;-44;31
-30;-46;32
-32;-45;32
-31;-44;31
-31;-44;31
-31;-45;32
-31;-45;32
-32;-44;31
-31;-45;31
-31;-45;32
-30;-45;31
-30;-45;31
-31;-45;32
-31;-45;32
-31;-45;32
-30;-45;32
-30;-45;32
-30;-45;32
-30;-45;32
-30;-45;32
-31;-45;32
-31;-45;32
-30;-45;31
-31;-45;32
-29;-45;31
-29;-45;31
-30;-45;32
-31;-45;31
-30;-45;32
-31;-45;31
-30;-45;31
-29;-45;31
-30;-45;31
-30;-45;31
-30;-45;32
-31;-45;31
-30;-45;31
-30;-45;31
-31;-45;31
-30;-45;31
-30;-45;31
-31;-46;31
-30;-45;31
-31;-45;31
-30;-46;31
-30;-45;31
-30;-46;31
-30;-46;31
-30;-46;31
-31;-45;31
-31;-45;31
-31;-45;31
-31;-45;31
-31;-45;31
-30;-45;31
-31;-45;32
-31;-45;31
-31;-45;31
-31;-44;31
-30;-45;32
-29;-45;32
-30;-45;32
-31;-45;32
-33;-44;32
-32;-43;32
-33;-43;31
-33;-43;31
-35;-43;30
-32;-44;31
-32;-45;32
-37;-44;30
-36;-45;30
-34;-44;32
-36;-44;32
-39;-46;35
-39;-47;38
-47;-50;48
-49;-50;49
-47;-48;55
-41;-40;50
-46;-33;47
-57;-22;46
-66;-16;41
-87;-3;20
-90;0;13
-72;6;8
-56;12;7
-53;14;5
-40;19;2
-37;21;1
-34;18;8
-33;19;10
-31;21;11
-36;23;11
-36;25;10
-47;31;10
-46;32;19
-38;38;22
-43;39;20
-46;42;22
-42;43;24
-47;42;20
-49;42;18
-46;41;20
-46;42;20
-46;41;18
-45;42;19
-45;42;19
-44;41;18
-45;41;18
-46;42;20
-44;40;20
-47;39;19
-47;39;18
-46;41;19
-45;43;21
-49;43;18
-49;42;14
-46;42;17
-44;40;18
-47;40;14
-44;38;17
-43;34;17
-45;32;16
-44;31;15
-40;29;15
-36;28;13
-39;27;9
-44;25;3
-51;21;4
-50;21;6
-56;20;7
-60;22;12
-60;15;17
-64;12;15
-66;6;24
-62;1;32
-55;-7;46
-71;-13;41
-73;-14;36
-63;-14;33
-57;-14;36
-55;-16;38
-56;-17;33
-53;-20;29
-51;-25;29
-50;-27;28
-50;-30;22
-46;-32;24
-44;-37;30
-42;-41;31
-45;-46;28
-45;-48;27
-41;-50;29
-42;-51;28
-43;-51;27
-44;-47;24
-41;-46;24
-39;-43;25
-42;-42;25
-43;-41;22
-42;-40;22
-41;-40;24
-42;-40;25
-43;-40;24
-41;-39;28
-39;-40;31
-44;-42;27
-43;-42;25
-39;-42;25
-39;-42;24
-40;-42;23
-40;-42;21
-41;-42;21
-42;-42;22
-42;-42;23
-43;-41;24
-44;-41;24
-43;-40;24
-42;-40;24
-41;-41;24
-42;-42;24
-43;-42;23
-39;-42;24
-41;-42;23
-41;-42;23
-41;-42;22
-41;-42;22
-42;-42;23
-42;-41;23
-42;-41;24
-42;-41;24
-42;-41;24
-42;-41;24
-42;-42;23
-42;-42;23
-42;-41;23
-42;-42;24
-42;-41;23
-42;-41;24
-42;-41;23
-42;-41;24
-42;-41;23
-42;-41;23
-42;-42;24
-42;-41;23
-42;-41;23
-42;-41;23
-42;-42;23
-43;-41;23
-41;-41;24
-42;-41;23
-42;-41;23
-42;-41;23
-42;-41;23
-42;-41;23
-42;-41;23
-42;-41;24
-43;-41;23
-42;-41;23
-42;-41;24
-42;-41;23
-42;-41;23
-43;-41;23
-42;-41;23
-42;-41;23
-42;-41;23
-42;-41;23
-42;-41;23
-42;-41;24
-42;-41;23
-42;-41;23
-42;-41;23
-42;-41;24
-42;-41;23
-42;-41;23
-42;-41;24
-42;-41;23
-42;-41;23
-42;-41;23
-42;-41;23
-42;-41;24
-42;-41;24
-42;-41;24
-42;-41;23
-42;-41;23
-42;-41;23
-42;-41;23
-42;-41;23
-41;-41;24
-42;-42;24
-42;-41;24
-42;-41;24
-41;-41;24
-42;-41;24
-43;-41;24
-42;-41;23
-42;-41;24
-42;-42;24
-42;-42;24
-41;-41;24
-41;-41;24
-42;-41;24
-41;-41;24
-41;-41;24
-41;-41;24
-42;-41;24
-42;-41;24
-41;-41;24
-41;-41;24
-41;-41;24
-41;-42;24
-41;-41;24
-41;-41;24
-42;-41;24
-42;-41;24
-41;-41;24
-41;-41;24
-41;-41;25
-41;-41;24
-41;-42;24
-41;-42;24
-41;-42;25
-41;-41;24
-41;-42;24
-41;-42;24
-41;-41;24
-41;-41;25
-41;-42;24
-41;-42;24
-41;-42;24
-41;-42;24
-41;-42;24
-41;-42;24
-40;-42;24
-40;-42;24
-40;-42;25
-40;-42;24
-41;-42;24
-41;-42;24
-41;-42;24
-41;-42;24
-42;-42;24
-41;-42;24
-41;-41;24
-41;-42;25
-41;-42;27
-41;-42;27
-42;-43;29
-44;-44;31
-51;-46;36
-53;-47;36
-48;-45;45
-47;-42;42
-46;-36;42
-54;-31;47
-80;-27;34
-97;-17;24
-79;-13;22
-89;-3;-3
-76;-1;0
-56;6;-3
-45;10;-3
-32;16;-1
-18;21;8
-28;22;5
-34;24;8
-33;23;7
-47;28;2
-42;31;8
-40;32;19
-50;36;15
-51;38;17
-46;40;20
-43;41;20
-48;41;20
-52;40;17
-47;40;18
-47;41;18
-53;40;16
-43;36;23
-47;36;21
-47;36;17
-50;37;19
-45;39;22
-43;39;21
-48;39;12
-45;37;11
-45;36;12
-41;32;12
-41;29;10
-39;25;9
-42;23;5
-45;22;2
-44;21;6
-56;21;10
-56;22;9
-58;18;12
-66;16;16
-70;13;15
-71;5;19
-77;4;24
-69;-1;34
-71;-2;34
-66;-7;26
-60;-11;40
-61;-14;35
-54;-15;30
-52;-16;26
-44;-17;27
-42;-20;32
-37;-26;37
-40;-29;35
-56;-39;28
-54;-46;32
-50;-48;33
-47;-51;41
-53;-45;36
-44;-39;32
-41;-35;31
-41;-35;30
-42;-35;29
-44;-35;27
-44;-37;27
-45;-37;28
-46;-38;28
-45;-37;27
-42;-37;28
-43;-38;29
-46;-38;29
-44;-36;28
-42;-36;28
-43;-36;26
-45;-36;26
-44;-36;26
-44;-36;25
-45;-36;25
-44;-36;25
-46;-36;25
-44;-36;25
-46;-37;27
-46;-36;26
-44;-36;27
-44;-37;26
-45;-37;26
-45;-37;26
-44;-37;26
-44;-37;25
-45;-37;26
-45;-37;26
-44;-38;26
-45;-37;26
-44;-37;26
-44;-37;26
-44;-38;27
-44;-37;27
-43;-37;26
-46;-37;27
-46;-37;27
-44;-36;25
-43;-36;25
-44;-37;25
-44;-38;26
-45;-37;26
-44;-38;26
-45;-37;26
-44;-36;26
-44;-36;26
-45;-37;26
-45;-37;26
-45;-37;26
-44;-37;26
-44;-37;25
-44;-37;26
-44;-37;26
-45;-37;27
-45;-37;26
-44;-37;26
-45;-37;26
-44;-37;26
-44;-37;27
-44;-37;26
-46;-37;25
-45;-36;26
-44;-37;26
-44;-37;26
-44;-37;27
-45;-37;26
-44;-37;26
-44;-37;26
-45;-37;27
-44;-36;26
-44;-36;26
-45;-37;27
-46;-37;27
-44;-36;26
-44;-36;26
-45;-36;26
-45;-36;26
-45;-36;26
-45;-37;26
-45;-37;26
-45;-36;26
-45;-37;26
-45;-37;26
-45;-37;26
-45;-37;26
-45;-37;26
-45;-37;26
-44;-36;26
-45;-37;26
-45;-37;27
-44;-37;26
-45;-37;26
-44;-37;26
-44;-37;26
-44;-37;26
-44;-37;26
-45;-36;26
-45;-37;26
-45;-37;26
-45;-37;26
-44;-37;26
-44;-37;26
-44;-37;26
-44;-37;26
-44;-37;26
-44;-37;26
-44;-37;26
-44;-37;26
-44;-37;26
-44;-38;26
-45;-37;26
-44;-37;26
-43;-37;26
-43;-37;26
-43;-38;27
-43;-38;27
-44;-38;27
-43;-38;28
-43;-38;28
-43;-38;27
-43;-38;28
-43;-39;28
-43;-38;27
-41;-38;26
-41;-38;26
-43;-39;28
-43;-38;27
-42;-38;27
-43;-38;28
-43;-38;27
-43;-38;27
-43;-38;27
-43;-39;28
-43;-38;27
-41;-38;27
-42;-39;27
-43;-39;27
-42;-38;27
-42;-38;27
-43;-38;27
-43;-38;27
-43;-38;27
-43;-38;27
-43;-38;27
-43;-38;27
-43;-38;27
-43;-38;27
-43;-38;27
-42;-38;27
-42;-38;27
-43;-38;27
-42;-38;27
-43;-38;27
-43;-38;27
-43;-38;27
-43;-38;27
-43;-38;27
-43;-38;27
-43;-38;27
-43;-38;27
-44;-38;27
-43;-38;27
-43;-38;27
-44;-38;28
-45;-38;28
-45;-37;28
-44;-37;27
-43;-37;27
-45;-37;27
-45;-38;28
-45;-38;27
-44;-37;29
-44;-37;29
-45;-36;28
-44;-36;29
-44;-34;29
-43;-33;29
-43;-32;29
-43;-32;29
-43;-32;29
-44;-32;30
-45;-32;30
-45;-33;31
-45;-33;31
-45;-34;31
-45;-34;30
-44;-34;30
-44;-34;30
-44;-34;30
-44;-34;30
-45;-34;30
-45;-34;30
-45;-34;30
-44;-34;31
-44;-33;31
-44;-34;31
-45;-34;31
-44;-34;31
-44;-34;30
-44;-34;30
-44;-34;30
-44;-34;30
-45;-34;30
-44;-34;30
-44;-34;30
-45;-34;30
-44;-34;30
-44;-34;30
-44;-35;30
-44;-35;30
-44;-34;30
-44;-34;30
-44;-34;30
-44;-34;31
-42;-35;34
-42;-35;33
-46;-36;36
-47;-37;41
-59;-43;52
-59;-42;67
-45;-41;64
-39;-35;46
-46;-22;56
-57;-3;55
-88;0;19
-115;8;-11
-67;5;9
-54;12;1
-44;15;-11
-29;14;-2
-34;16;7
-27;17;11
-30;15;4
-41;18;7
-40;23;22
-42;26;15
-43;34;20
-45;37;25
-47;39;19
-47;41;19
-50;40;23
-54;40;20
-52;41;17
-50;40;20
-51;38;20
-47;36;24
-48;36;16
-49;35;19
-46;35;19
-48;36;13
-48;35;11
-43;32;16
-40;27;13
-42;24;10
-41;24;11
-39;20;9
-50;19;3
-56;17;4
-57;18;6
-58;16;17
-59;13;18
-64;7;15
-73;1;24
-64;-4;31
-65;-9;40
-68;-9;37
-67;-12;38
-62;-13;38
-50;-14;36
-56;-18;35
-58;-27;37
-48;-30;37
-45;-32;36
-52;-38;38
-53;-38;39
-50;-34;37
-46;-32;37
-46;-28;32
-46;-27;31
-45;-27;31
-48;-28;32
-49;-28;32
-48;-28;32
-48;-28;32
-48;-28;32
-47;-27;31
-46;-28;31
-47;-28;32
-48;-29;32
-47;-28;32
-46;-28;32
-46;-29;32
-47;-29;33
-49;-28;33
-48;-28;32
-46;-28;31
-46;-28;32
-48;-28;32
-47;-28;32
-47;-28;32
-48;-28;32
-47;-28;32
-47;-28;32
-47;-29;32
-47;-29;32
-47;-29;32
-47;-28;32
-47;-28;32
-46;-28;32
-46;-29;33
-46;-29;33
-47;-29;33
-46;-29;33
-46;-29;33
-46;-29;33
-45;-29;34
-47;-29;33
-46;-29;33
-47;-29;33
-48;-28;33
-46;-27;33
-44;-28;31
-45;-29;32
-47;-29;33
-47;-29;33
-47;-29;33
-46;-29;33
-47;-28;34
-47;-28;34
-45;-28;34
-44;-28;36
-46;-27;35
-46;-28;35
-46;-28;35
-45;-28;35
-45;-28;35
-45;-28;35
-45;-28;35
-45;-28;35
-45;-28;35
-45;-28;35
-45;-28;35
-45;-28;35
-45;-29;35
-45;-28;35
-45;-28;35
-45;-28;35
-45;-28;35
-45;-28;35
-45;-28;35
-45;-28;35
-45;-28;35
-45;-28;35
-45;-29;35
-45;-29;35
-45;-29;35
-45;-29;35
-44;-28;35
-44;-29;35
-46;-28;35
-45;-29;35
-44;-28;35
-45;-28;35
-45;-29;35
-45;-28;35
-45;-29;35
-45;-29;35
-45;-29;35
-45;-28;35
-44;-28;35
-44;-29;35
-44;-29;35
-45;-29;35
-44;-29;35
-44;-29;35
-44;-28;35
-44;-29;36
-44;-29;35
-44;-29;35
-45;-29;35
-45;-29;36
-44;-29;36
-43;-29;37
-45;-29;37
-45;-29;40
-45;-30;42
-44;-30;50
-44;-30;55
-51;-29;56
-52;-27;47
-53;-22;47
-61;-13;49
-64;-13;46
-123;-11;0
-115;-6;4
-61;0;16
-58;8;-1
-50;11;1
-46;13;9
-48;16;9
-30;22;9
-29;22;6
-41;26;2
-50;30;8
-41;31;11
-42;39;22
-47;41;23
-44;45;29
-44;47;25
-46;46;25
-46;46;23
-41;46;20
-39;46;20
-36;44;23
-38;44;19
-37;45;20
-33;46;23
-33;46;23
-33;47;23
-32;47;23
-29;47;23
-29;47;24
-32;47;24
-30;49;24
-30;50;24
-31;50;22
-30;51;22
-32;52;24
-32;52;24
-32;52;23
-32;52;24
-32;52;24
-31;52;22
-32;52;22
-33;51;22
-33;51;22
-33;51;21
-32;51;22
-33;51;22
-32;52;23
-32;52;23
-33;51;23
-33;51;23
-33;52;22
-32;52;23
-31;51;24
-32;51;23
-30;52;25
-31;50;26
-31;50;28
-33;50;24
-33;50;22
-30;51;25
-32;52;27
-35;52;22
-28;51;25
-31;51;26
-32;51;25
-32;51;24
-31;51;25
-32;51;25
-31;51;24
-31;51;24
-31;51;25
-30;51;25
-30;51;25
-31;51;25
-31;52;24
-30;51;25
-32;51;25
-31;52;26
-32;52;25
-31;52;24
-31;52;23
-33;53;21
-35;51;22
-30;51;26
-27;51;29
-29;50;28
-30;50;22
-30;50;21
-27;49;25
-27;50;28
-29;49;28
-30;49;27
-31;50;27
-31;51;27
-32;52;25
-30;52;26
-34;52;24
-29;48;29
-31;48;29
-33;48;28
-31;50;27
-31;51;28
-33;51;25
-32;50;24
-31;49;27
-32;48;25
-34;47;24
-33;46;24
-34;47;23
-38;47;21
-37;48;24
-38;50;20
-34;49;21
-36;50;24
-35;51;20
-36;52;18
-37;49;20
-37;48;20
-35;52;19
-38;51;16
-34;50;21
-34;52;21
-36;55;19
-32;55;21
-33;56;20
-32;56;20
-32;54;20
-33;52;20
-33;51;19
-33;51;19
-33;51;19
-32;51;19
-32;52;20
-32;52;20
-33;52;20
-33;53;21
-32;52;21
-32;52;21
-33;52;20
-31;52;21
-32;52;21
-32;52;21
-31;52;21
-31;52;21
-31;53;21
-32;52;21
-32;52;21
-32;52;21
-31;52;22
-31;52;22
-32;52;21
-32;52;20
-32;51;21
-32;51;21
-36;52;21
-33;51;24
-30;52;26
-25;53;28
-25;53;27
-25;53;27
-25;53;28
-23;53;27
-23;53;27
-22;53;26
-23;54;26
-22;54;26
-20;54;27
-20;53;28
-24;54;27
-24;53;28
-23;53;29
-24;53;29
-23;53;28
-22;53;30
-23;53;30
-22;53;29
-22;53;28
-23;53;27
-23;53;27
-22;53;28
-24;53;31
-25;53;29
-24;53;28
-23;53;30
-23;53;31
-24;53;29
-22;53;30
-21;53;30
-23;53;28
-22;53;30
-23;53;29
-23;53;29
-23;53;29
-23;53;29
-23;53;29
-23;53;29
-22;52;29
-23;52;30
-24;52;29
-23;52;29
-23;52;30
-24;52;29
-23;52;29
-23;53;30
-25;53;30
-25;53;30
-23;52;31
-23;52;31
-23;52;30
-23;52;30
-23;52;30
-23;52;30
-24;52;30
-23;52;30
-23;52;30
-23;52;30
-23;52;31
-23;52;31
-23;52;31
-22;52;32
-22;52;30
-22;53;32
-23;52;30
-22;50;27
-22;50;28
-25;53;35
-25;54;33
-23;53;31
-22;52;31
-22;52;30
-22;52;31
-23;51;31
-22;52;30
-22;52;31
-22;52;31
-22;52;31
-22;52;31
-22;52;30
-23;52;31
-23;52;31
-23;51;31
-23;51;31
-23;51;31
-23;52;30
-23;53;30
-23;52;30
-22;52;30
-22;52;31
-23;51;29
-21;52;31
-24;52;31
-24;52;31
-25;53;29
-29;52;28
-24;53;35
-18;54;35
-37;57;34
-23;57;34
-24;56;30
-20;55;21
-18;55;19
-24;57;14
-22;54;12
-4;53;32
-7;54;37
-10;54;33
-14;54;29
-12;55;32
-11;52;35
-18;54;29
-13;56;27
-12;56;32
-12;56;29
-12;55;24
-12;57;31
-18;56;28
-18;58;26
-16;57;26
-14;58;28
-15;56;29
-13;56;31
-14;56;27
-12;55;30
-11;55;31
-12;55;28
-11;56;28
-12;57;29
-14;56;28
-13;56;28
-12;56;27
-13;57;29
-12;56;29
-13;57;29
-13;57;28
-13;57;28
-12;57;28
-14;57;27
-12;56;30
-14;56;29
-11;54;29
-13;55;28
-8;55;35
-8;55;31
-8;54;28
-11;54;26
-17;58;38
-14;57;28
-11;58;29
-9;56;28
-11;56;29
-12;56;29
-12;57;28
-12;57;29
-13;57;29
-13;56;29
-11;57;29
-16;55;28
-12;55;28
-5;52;29
-2;55;36
-20;55;28
-21;56;26
-10;55;33
-11;58;31
-13;57;28
-8;55;30
-12;56;29
-16;56;26
-15;57;26
-13;56;28
-14;57;27
-15;58;23
-15;57;25
-14;57;26
-15;57;24
-14;57;24
-15;57;26
-16;57;26
-16;57;24
-16;58;25
-17;58;25
-16;57;25
-16;57;25
-17;58;25
-16;57;25
-16;57;25
-16;57;25
-17;57;26
-17;56;26
-16;57;25
-17;56;25
-17;56;25
-17;56;25
-17;57;26
-17;57;27
-17;57;28
-17;57;27
-19;56;27
-18;56;27
-16;56;27
-17;56;26
-17;55;26
-17;55;26
-18;55;27
-18;56;27
-16;56;27
-9;56;27
-6;55;29
-15;52;38
-30;52;25
-57;56;-1
-50;58;2
-37;55;9
-30;52;9
-22;52;7
-18;52;11
-28;52;14
-38;54;14
-42;55;16
-14;60;34
-6;60;43
-15;57;36
-20;57;28
-1;55;31
-7;54;26
-8;52;26
-17;51;36
-19;51;35
-14;50;33
-15;50;37
-18;51;37
-16;52;33
-10;53;35
-12;53;34
-12;53;33
-8;50;37
-12;49;38
-22;48;40
-19;48;43
-10;51;42
-13;52;39
-13;51;37
-12;49;34
-13;49;31
-13;47;29
-12;46;28
-16;45;28
-18;45;29
-21;46;32
-25;46;37
-26;45;36
-30;45;39
-32;48;41
-37;48;34
-31;45;35
-38;44;36
-38;43;36
-39;41;29
-35;40;33
-34;39;35
-48;35;33
-49;35;30
-53;34;29
-55;34;31
-52;34;34
-50;33;33
-50;32;34
-53;32;32
-51;32;32
-51;32;32
-49;31;32
-50;31;30
-49;31;31
-47;31;34
-45;31;31
-46;32;31
-46;32;33
-46;32;32
-46;34;33
-47;34;33
-47;33;31
-46;33;30
-46;33;31
-45;33;30
-45;32;31
-45;33;32
-45;34;32
-44;35;31
-44;34;31
-45;34;31
-45;34;32
-44;34;31
-43;35;33
-43;35;34
-42;35;34
-42;35;34
-43;35;34
-44;35;34
-43;35;34
-43;35;34
-43;35;34
-40;34;36
-40;35;35
-42;36;34
-42;36;35
-44;35;34
-45;36;33
-44;36;32
-43;35;32
-41;35;32
-43;35;33
-42;35;33
-42;36;33
-41;35;34
-44;35;34
-47;36;33
-43;35;32
-41;34;34
-45;35;33
-43;35;34
-43;35;33
-43;35;34
-43;35;33
-43;36;33
-43;35;33
-43;35;33
-43;35;34
-43;35;34
-43;35;33
-43;35;33
-44;35;34
-44;35;34
-43;35;33
-44;36;33
-43;35;33
-42;36;33
-43;35;33
-43;36;34
-43;36;35
-43;35;33
-43;36;35
-40;36;37
-42;40;37
-38;35;35
-43;37;33
-41;37;36
-40;38;37
-37;40;39
-41;40;43
-40;42;47
-36;43;36
-24;41;44
-22;41;39
-14;39;40
-13;38;41
-22;39;44
-19;39;44
-19;37;40
-13;33;50
-13;30;51
-23;36;46
-13;38;53
-13;42;54
-13;41;51
-20;40;40
-20;39;40
-27;37;39
-28;39;37
-28;39;33
-33;37;34
-37;38;37
-35;40;37
-37;42;36
-45;41;33
-43;41;34
-47;42;32
-50;40;31
-47;39;32
-46;36;33
-47;35;32
-40;32;33
-44;29;36
-47;30;32
-43;32;34
-45;35;35
-55;36;22
-52;34;24
-47;31;30
-50;32;26
-50;32;24
-50;32;26
-51;33;29
-41;33;35
-42;34;35
-42;32;36
-44;32;34
-45;33;33
-44;34;35
-42;34;37
-42;34;37
-42;34;37
-37;33;40
-38;32;39
-46;34;35
-45;34;33
-45;33;31
-47;33;28
-44;35;33
-39;34;38
-32;32;48
-28;32;51
-28;32;49
-33;34;44
-33;33;44
-34;33;45
-36;33;44
-35;33;44
-37;33;42
-38;34;40
-34;32;42
-36;32;42
-39;34;41
-38;33;42
-37;33;43
-34;32;46
-29;32;49
-37;32;40
-40;32;39
-43;33;38
-43;34;37
-42;34;36
-41;33;37
-42;33;37
-42;33;37
-42;34;34
-41;33;36
-42;33;38
-44;33;34
-43;34;34
-45;34;32
-47;34;31
-46;34;30
-44;35;32
-44;34;32
-44;34;32
-43;34;32
-44;34;33
-44;34;33
-45;34;31
-44;34;29
-50;34;28
-40;33;37
-39;32;40
-41;32;40
-41;33;41
-36;34;40
-36;33;40
-41;33;38
-40;33;39
-38;34;40
-37;33;42
-40;33;40
-38;33;39
-39;33;39
-39;34;40
-37;33;42
-38;33;42
-38;34;36
-42;33;35
-45;34;34
-43;33;36
-42;33;37
-41;32;38
-40;32;37
-41;32;37
-42;34;37
-43;35;35
-45;35;33
-43;34;33
-41;34;36
-41;34;39
-42;33;37
-36;32;40
-39;33;39
-42;32;36
-44;34;35
-45;34;35
-42;34;37
-42;33;37
-43;33;37
-43;33;36
-43;33;36
-43;33;36
-42;33;36
-42;32;36
-42;32;37
-44;34;35
-44;34;35
-42;33;36
-43;33;36
-43;33;36
-43;33;36
-42;33;36
-43;33;35
-43;33;36
-43;33;35
-42;33;36
-43;33;36
-43;33;36
-43;33;36
-42;33;36
-43;33;36
-43;33;36
-42;33;36
-43;33;36
-43;33;36
-42;33;36
-43;33;36
-43;33;37
-43;33;36
-42;33;37
-42;33;36
-42;33;36
-43;33;36
-43;33;35
-42;33;36
-42;33;36
-42;33;36
-42;33;36
-43;33;36
-43;33;37
-42;33;36
-43;33;36
-43;33;36
-43;33;36
-42;33;36
-42;33;36
-43;33;36
-43;33;36
-43;34;36
-43;33;36
-42;33;36
-43;33;36
-42;34;36
-43;33;35
-42;33;36
-42;33;37
-42;33;36
-42;32;37
-42;33;37
-43;33;36
-42;33;36
-42;32;37
-43;32;37
-43;32;37
-43;33;35
-43;33;36
-41;34;38
-36;33;41
-39;33;41
-40;33;40
-42;33;39
-47;33;41
-43;32;41
-43;29;40
-43;31;39
-46;29;39
-45;28;39
-39;27;40
-41;30;37
-43;31;37
-44;33;39
-41;34;41
-39;32;41
-42;31;42
-38;27;41
-35;25;40
-38;25;39
-36;24;41
-36;24;41
-35;24;38
-35;26;36
-47;34;40
-45;31;43
-40;27;39
-38;28;35
-42;34;31
-46;38;33
-48;39;36
-52;36;40
-52;33;41
-47;29;37
-45;29;34
-44;31;31
-44;31;31
-43;30;34
-48;30;36
-48;31;36
-49;30;34
-48;30;33
-48;30;32
-48;30;32
-49;31;33
-48;30;33
-48;30;33
-47;31;31
-47;31;31
-47;31;32
-47;31;31
-47;32;32
-48;31;32
-47;31;33
-47;31;32
-47;31;32
-47;31;32
-47;30;32
-46;30;31
-46;31;32
-46;31;33
-47;30;33
-48;31;33
-48;31;33
-47;30;33
-47;31;33
-47;31;32
-48;31;31
-48;31;31
-48;30;30
-49;30;32
-49;30;33
-47;29;35
-47;28;34
-47;28;34
-47;28;35
-46;28;36
-47;28;36
-47;28;36
-46;28;36
-46;28;35
-46;28;35
-46;28;34
-47;28;34
-46;28;35
-46;28;35
-46;29;35
-46;28;35
-47;28;36
-46;28;36
-46;29;35
-47;28;35
-47;29;35
-46;29;35
-46;29;35
-47;29;34
-47;29;35
-46;30;34
-46;29;34
-47;29;34
-47;29;34
-47;29;34
-46;29;34
-47;29;34
-47;29;34
-47;29;34
-48;30;34
-47;30;34
-46;29;35
-47;29;34
-47;30;33
-48;29;34
-46;29;35
-44;29;35
-48;29;34
-45;29;37
-44;29;38
-45;29;36
-45;30;35
-46;29;35
-47;29;36
-46;29;36
-45;29;35
-46;29;35
-45;30;36
-45;30;36
-46;29;36
-47;28;36
-44;28;37
-47;27;34
-49;27;32
-51;29;31
-48;29;32
-46;29;35
-46;28;35
-45;29;34
-46;30;34
-46;30;34
-43;27;38
-46;29;38
-46;29;34
-46;29;33
-47;29;35
-46;30;35
-47;30;35
-46;29;35
-45;28;36
-45;28;37
-46;29;36
-46;28;36
-46;28;36
-46;28;36
-46;29;36
-46;28;35
-46;28;35
-46;28;35
-46;28;35
-47;28;35
-47;28;35
-47;28;35
-46;28;35
-47;28;35
-47;28;35
-47;29;35
-47;29;35
-48;28;35
-49;28;35
-47;26;35
-46;26;35
-45;25;35
-45;25;35
-45;26;35
-46;27;36
-47;27;36
-49;29;36
-49;29;35
-48;29;34
-48;29;33
-48;29;32
-49;29;32
-47;29;32
-48;29;33
-48;29;33
-48;29;34
-48;29;34
-48;29;33
-48;29;33
-48;29;33
-48;28;33
-48;28;33
-49;29;33
-48;29;33
-48;29;32
-48;29;32
-49;30;33
-49;30;32
-48;30;33
-48;29;33
-49;29;33
-48;29;33
-48;28;34
-48;28;33
-47;28;34
-47;27;33
-47;27;35
-49;27;34
-48;27;34
-48;27;35
-48;27;33
-47;27;35
-48;28;34
-47;28;35
-49;27;33
-50;27;33
-46;27;34
-47;27;35
-46;27;36
-42;27;41
-44;27;41
-44;27;39
-45;27;38
-46;27;37
-45;28;37
-45;28;37
-45;27;39
-44;28;39
-45;27;38
-44;26;40
-45;28;37
-45;26;36
-50;28;29
-48;28;35
-48;28;37
-45;26;37
-44;26;36
-44;26;35
-45;26;36
-47;27;37
-47;28;37
-47;28;37
-47;28;36
-47;28;36
-44;27;37
-46;27;36
-47;27;36
-47;27;36
-46;27;36
-46;27;36
-46;27;36
-46;27;36
-46;27;37
-46;27;36
-46;27;37
-46;27;36
-46;27;36
-46;28;36
-46;27;36
-47;27;36
-46;28;36
-46;28;36
-46;27;36
-46;27;36
-46;27;37
-47;28;37
-46;27;36
-46;27;36
-46;28;36
-46;28;37
-46;27;37
-46;27;37
-45;27;37
-46;27;37
-45;27;37
-46;27;36
-47;27;36
-47;28;35
-48;28;34
-48;28;34
-47;28;34
-47;28;34
-47;28;35
-47;27;35
-46;27;35
-47;28;36
-47;28;35
-46;28;36
-46;28;36
-46;28;36
-46;28;36
-47;28;36
-47;28;35
-47;28;35
-47;28;36
-46;27;36
-46;27;35
-47;27;36
-46;28;36
-46;28;35
-46;28;36
-46;27;36
-47;28;35
-47;28;36
-46;27;36
-46;27;36
-46;28;36
-47;28;35
-46;27;36
-45;27;37
-46;28;36
-47;27;35
-47;28;35
-46;28;35
-46;27;37
-47;27;37
-47;26;35
-47;26;36
-46;26;37
-47;27;36
-46;27;36
-46;27;38
-46;27;38
-46;27;37
-47;27;37
-48;27;35
-47;28;34
-49;28;31
-49;28;31
-49;27;33
-49;28;32
-47;27;33
-47;27;35
-47;27;35
-47;27;35
-48;27;35
-48;27;34
-50;28;34
-48;28;35
-47;28;35
-48;27;35
-48;27;34
-47;28;34
-46;27;35
-49;28;34
-48;28;34
-47;26;37
-48;27;36
-49;28;32
-50;28;33
-47;27;34
-48;28;33
-46;27;34
-50;27;35
-50;27;35
-47;26;33
-51;28;32
-46;27;34
-47;28;36
-53;28;30
-44;26;35
-47;27;37
-44;27;39
-38;27;43
-35;25;48
-36;25;47
-43;28;40
-46;27;36
-46;27;36
-49;28;35
-49;30;35
-44;27;39
-48;27;39
-44;27;36
-43;27;35
-48;28;38
-42;28;40
-35;27;45
-41;28;46
-44;27;43
-42;26;38
-41;26;39
-46;27;40
-49;28;36
-52;29;28
-53;28;27
-52;28;26
-48;27;31
-46;26;32
-51;26;32
-50;26;32
-50;27;32
-51;28;31
-51;28;31
-48;27;34
-47;27;35
-49;26;32
-49;26;34
-47;27;37
-47;27;35
-48;27;33
-45;27;36
-47;27;35
-48;27;35
-49;28;35
-45;27;37
-47;28;36
-46;27;34
-49;28;33
-47;26;36
-48;29;38
-46;28;35
-46;26;33
-49;28;33
-50;28;34
-46;26;37
-49;27;35
-48;26;34
-47;27;33
-49;28;35
-48;28;35
-48;27;35
-49;27;34
-50;27;34
-46;27;36
-46;27;37
-41;25;39
-44;26;37
-49;26;35
-48;26;36
-47;27;36
-47;27;36
-47;27;36
-47;27;36
-47;27;36
-47;26;36
-47;26;37
-46;26;36
-47;26;35
-47;26;36
-47;26;36
-47;26;36
-47;26;36
-48;26;36
-47;27;36
-47;26;36
-48;26;35
-48;26;36
-47;26;36
-47;26;36
-48;26;36
-47;26;35
-47;27;36
-47;26;35
-47;26;35
-47;26;36
-47;26;36
-48;26;35
-47;26;36
-47;26;36
-46;26;36
-48;26;35
-48;27;39
-44;26;39
-43;25;38
-46;26;36
-55;28;31
-53;28;30
-48;27;30
-50;27;32
-49;27;33
-48;27;35
-44;26;37
-49;27;35
-48;26;34
-52;27;33
-49;27;35
-47;27;37
-47;27;34
-47;27;32
-49;27;34
-49;27;34
-49;27;32
-46;26;35
-50;27;36
-46;26;34
-47;27;33
-48;27;36
-47;27;35
-48;27;34
-48;27;35
-48;27;35
-48;27;35
-53;29;30
-49;27;32
-46;26;36
-44;25;41
-44;26;42
-37;24;43
-45;27;38
-46;27;37
-44;26;37
-48;26;36
-44;26;40
-46;27;40
-45;27;38
-44;26;37
-48;27;35
-44;26;38
-47;26;40
-43;25;37
-42;25;37
-46;25;39
-48;26;39
-49;26;35
-51;26;31
-48;26;33
-48;26;35
-48;26;36
-47;26;37
-44;25;38
-49;26;38
-48;25;36
-49;25;35
-49;25;37
-48;27;35
-48;26;34
-48;26;36
-48;26;34
-46;26;35
-49;26;36
-49;25;36
-50;26;32
-49;25;36
-48;27;35
-50;26;32
-47;26;32
-47;26;39
-44;26;41
-41;26;44
-40;26;46
-39;26;46
-33;23;47
-42;25;42
-42;26;41
-42;25;42
-44;27;40
-42;26;41
-43;27;42
-39;26;44
-43;27;43
-42;27;41
-40;26;40
-44;26;42
-43;26;42
-41;26;42
-41;26;43
-40;25;45
-43;26;43
-40;26;41
-42;26;41
-44;27;41
-39;26;45
-41;27;43
-39;25;42
-40;25;43
-42;26;41
-41;26;43
-40;26;47
-39;26;43
-40;25;42
-41;23;42
-48;24;39
-54;27;29
-54;27;26
-55;27;25
-52;28;28
-54;28;27
-49;26;30
-46;24;32
-53;27;29
-52;27;29
-53;26;31
-50;26;32
-50;27;31
-50;26;31
-49;23;38
-47;27;37
-48;26;33
-48;26;34
-47;26;34
-49;26;34
-48;26;36
-42;24;41
-45;25;38
-49;26;36
-46;27;34
-49;26;36
-49;27;34
-48;27;34
-47;25;36
-47;25;36
-50;26;34
-48;26;33
-47;25;36
-48;26;37
-48;25;36
-49;27;33
-49;26;33
-51;27;32
-49;25;35
-42;25;40
-49;25;36
-51;25;34
-47;24;34
-52;25;36
-49;26;34
-48;26;34
-48;25;36
-47;25;37
-50;25;32
-49;25;34
-49;25;35
-49;25;34
-49;25;35
-50;25;34
-49;25;34
-49;25;34
-49;25;35
-49;25;35
-49;25;34
-49;25;34
-49;25;34
-49;25;34
-49;26;34
-50;25;34
-49;25;34
-49;25;35
-49;25;34
-49;25;34
-49;25;34
-49;25;34
-49;26;34
-49;25;33
-49;25;34
-49;25;34
-49;25;34
-49;25;34
-49;25;34
-49;25;35
-49;25;34
-50;26;33
-49;25;35
-47;25;36
-51;25;36
-47;25;33
-50;25;33
-49;25;34
-48;25;33
-50;25;34
-51;25;34
-50;26;33
-50;25;32
-50;26;34
-53;25;31
-52;25;29
-45;23;39
-43;24;41
-37;26;46
-25;25;52
-35;24;51
-42;25;43
-40;25;41
-42;24;43
-44;25;41
-44;26;41
-44;26;41
-44;26;41
-45;26;40
-44;25;40
-44;25;41
-44;25;41
-44;24;40
-44;24;40
-44;25;40
-44;25;40
-45;25;40
-45;25;39
-46;25;39
-45;25;39
-46;26;39
-45;25;39
-45;25;39
-45;25;39
-45;25;39
-45;25;39
-45;25;39
-45;25;39
-45;25;39
-45;25;39
-45;25;39
-46;25;39
-46;25;38
-47;25;38
-46;25;39
-45;26;39
-43;24;40
-47;25;40
-45;25;39
-45;25;38
-48;25;38
-46;26;37
-45;24;39
-47;24;38
-48;24;36
-49;24;36
-48;24;36
-48;24;36
-48;24;36
-48;25;36
-48;25;36
-48;25;36
-48;25;37
-48;24;36
-48;25;36
-48;24;37
-48;24;36
-44;23;38
-49;25;38
-49;25;38
-52;24;34
-52;24;29
-54;25;34
-56;23;38
-59;21;44
-56;20;47
-58;18;51
-46;21;53
-32;29;66
-45;34;22
-47;40;18
-11;37;8
-15;40;-1
-37;37;-11
-40;35;-9
-52;32;-21
-65;32;-15
-72;32;-14
-51;25;-1
-75;30;-7
-69;28;-8
-57;29;-12
-49;34;-9
-48;34;-12
-51;34;-14
-58;34;-13
-59;34;-14
-52;32;-9
-53;33;-12
-58;34;-16
-55;34;-12
-61;30;-6
-61;32;-11
-57;33;-11
-45;33;-12
-49;29;-12
-58;30;-15
-62;31;-18
-53;32;-14
-46;32;-9
-59;30;-19
-65;30;-30
-51;30;-29
-56;23;-20
-59;26;-20
-60;28;-22
-51;26;-11
-46;25;-12
-58;24;-20
-62;21;-15
-53;20;-13
-53;18;-16
-72;15;-6
-60;14;-5
-58;13;-5
-61;11;-8
-62;7;-2
-60;8;-2
-66;5;-5
-54;4;-5
-57;4;-5
-66;0;-5
-64;-1;-7
-63;-3;-7
-70;-4;-8
-69;-8;-4
-70;-8;-8
-60;-10;-6
-59;-12;-9
-61;-13;-9
-63;-16;-3
-67;-16;-2
-73;-19;-4
-70;-19;-1
-69;-20;2
-68;-22;4
-61;-24;5
-75;-28;4
-73;-24;5
-66;-24;11
-60;-26;12
-62;-32;13
-58;-31;17
-55;-24;14
-60;-21;8
-57;-19;10
-50;-17;11
-53;-17;9
-53;-18;6
-56;-19;4
-50;-20;6
-51;-20;4
-60;-22;3
-55;-20;3
-60;-22;4
-69;-23;1
-53;-25;8
-64;-29;13
-77;-20;3
-45;-20;10
-50;-20;17
-64;-18;4
-52;-17;9
-54;-22;20
-51;-28;18
-57;-33;9
-73;-31;12
-77;-28;8
-62;-27;11
-60;-28;17
-57;-31;17
-58;-35;15
-59;-32;12
-54;-30;3
-34;-35;1
-49;-33;-6
-54;-28;-20
-31;-27;-28
-63;-30;-31
-100;-34;-45
-50;-37;-47
-34;-32;-61
-27;-43;-20
-12;-45;-17
-4;-30;-58
-17;-27;-61
-8;-41;-36
-8;-30;-57
-3;-29;-58
-2;-32;-50
1;-35;-44
-1;-32;-58
-4;-33;-56
-5;-37;-51
-1;-34;-55
8;-31;-59
3;-35;-50
3;-34;-49
10;-28;-56
10;-31;-56
6;-35;-52
6;-33;-53
8;-25;-52
10;-29;-54
9;-37;-52
11;-28;-49
12;-30;-53
13;-38;-55
12;-36;-51
13;-27;-47
14;-28;-55
13;-40;-56
12;-37;-54
12;-33;-51
11;-28;-52
14;-33;-54
16;-34;-51
13;-30;-47
15;-27;-54
14;-34;-56
13;-41;-52
13;-36;-52
12;-35;-51
16;-31;-53
18;-31;-53
15;-33;-51
15;-31;-52
17;-31;-53
16;-32;-53
14;-31;-53
15;-31;-53
15;-30;-53
16;-31;-54
16;-31;-54
15;-30;-54
15;-30;-54
16;-31;-53
15;-31;-53
15;-31;-53
16;-30;-52
15;-30;-53
15;-31;-53
16;-30;-53
17;-30;-53
16;-30;-53
15;-30;-53
16;-30;-53
15;-30;-53
16;-31;-53
17;-29;-54
17;-29;-52
18;-30;-52
16;-30;-54
16;-28;-52
18;-27;-50
17;-32;-57
16;-33;-55
17;-32;-52
15;-30;-54
17;-28;-52
19;-27;-51
17;-27;-52
15;-30;-56
16;-32;-54
15;-31;-53
16;-30;-54
16;-29;-52
17;-30;-53
17;-30;-53
17;-29;-53
16;-30;-53
17;-30;-52
18;-29;-53
16;-29;-55
15;-30;-52
17;-30;-51
16;-29;-53
17;-29;-53
18;-30;-52
17;-29;-53
16;-30;-53
17;-30;-52
17;-29;-53
18;-28;-52
17;-31;-52
15;-30;-54
16;-29;-53
16;-29;-54
16;-29;-54
16;-29;-53
16;-29;-53
16;-28;-54
16;-28;-54
17;-29;-53
16;-29;-53
16;-29;-53
16;-29;-54
16;-29;-54
15;-28;-53
17;-28;-53
16;-29;-53
16;-28;-54
16;-29;-54
15;-28;-55
15;-28;-54
16;-28;-53
16;-28;-54
15;-28;-54
15;-28;-54
16;-27;-55
15;-27;-55
15;-28;-55
15;-28;-54
15;-28;-55
16;-28;-54
17;-28;-54
17;-28;-54
16;-28;-54
16;-28;-54
15;-27;-55
16;-27;-55
15;-27;-54
15;-27;-55
15;-28;-55
15;-28;-54
15;-27;-55
15;-28;-55
15;-28;-54
15;-28;-54
15;-28;-55
15;-28;-54
15;-28;-54
15;-27;-54
15;-27;-55
15;-27;-54
15;-28;-55
15;-28;-55
15;-28;-55
15;-28;-54
15;-28;-54
15;-27;-55
16;-28;-54
15;-28;-55
15;-28;-55
15;-28;-54
16;-28;-54
16;-28;-54
15;-28;-54
15;-28;-54
15;-27;-55
15;-28;-54
15;-28;-54
16;-27;-54
15;-27;-54
15;-27;-55
15;-28;-54
15;-28;-55
15;-27;-55
15;-27;-55
15;-27;-55
15;-27;-55
16;-27;-55
16;-27;-55
16;-28;-55
16;-27;-55
16;-26;-55
16;-27;-54
16;-27;-55
16;-27;-55
16;-27;-55
17;-27;-54
17;-27;-55
17;-28;-54
16;-28;-55
16;-28;-54
16;-28;-54
16;-27;-54
16;-28;-54
16;-28;-54
16;-28;-54
16;-28;-54
15;-28;-54
16;-27;-55
16;-28;-54
15;-28;-54
15;-28;-53
16;-28;-54
16;-28;-54
16;-28;-54
15;-28;-54
15;-28;-54
15;-28;-54
15;-28;-54
15;-28;-55
15;-28;-54
15;-28;-54
16;-28;-54
15;-28;-54
15;-28;-54
15;-28;-54
16;-28;-54
15;-28;-54
16;-28;-55
16;-28;-54
15;-28;-54
15;-28;-54
16;-28;-54
15;-28;-54
15;-28;-54
16;-27;-54
15;-27;-55
15;-27;-55
15;-27;-55
15;-27;-54
16;-27;-55
16;-27;-55
16;-27;-55
16;-27;-55
16;-27;-55
16;-27;-55
16;-27;-55
16;-27;-55
16;-26;-55
15;-27;-55
15;-27;-55
16;-27;-55
16;-27;-55
15;-26;-55
15;-26;-55
16;-27;-55
16;-26;-55
16;-27;-55
17;-26;-55
17;-27;-54
16;-27;-55
16;-27;-55
16;-27;-55
16;-27;-55
16;-27;-55
16;-27;-55
16;-27;-55
15;-27;-55
16;-26;-55
16;-27;-55
15;-27;-54
16;-26;-55
16;-26;-54
15;-27;-55
16;-27;-55
16;-27;-55
15;-27;-55
15;-27;-55
16;-26;-55
16;-27;-55
15;-27;-55
15;-27;-55
16;-27;-55
16;-27;-55
15;-27;-55
15;-27;-55
15;-27;-55
16;-27;-55
16;-27;-55
16;-26;-55
16;-26;-55
15;-27;-55
15;-27;-55
16;-27;-55
15;-27;-55
15;-27;-55
15;-27;-55
15;-27;-55
15;-27;-55
15;-27;-55
15;-27;-55
16;-27;-55
15;-27;-55
15;-27;-55
15;-27;-55
15;-27;-55
15;-27;-55
15;-27;-55
15;-27;-55
15;-27;-55
15;-27;-55
15;-27;-55
15;-26;-55
15;-27;-55
15;-27;-55
15;-26;-55
15;-27;-55
15;-27;-55
15;-27;-55
15;-27;-55
15;-27;-55
15;-27;-55
15;-27;-55
15;-26;-55
15;-27;-55
15;-27;-55
15;-27;-55
15;-27;-55
15;-27;-55
15;-27;-55
15;-27;-55
15;-27;-55
15;-27;-55
15;-27;-55
15;-27;-55
15;-27;-55
15;-27;-55
15;-27;-55
15;-27;-55
15;-28;-55
14;-29;-55
13;-29;-54
9;-35;-54
6;-38;-52
-3;-47;-45
-8;-53;-40
-31;-45;-16
-44;-42;-17
-31;-45;-10
-40;-38;-22
-65;-40;-79
-58;-27;-71
-66;-29;-36
-79;-39;-66
-46;-35;-64
-47;-39;-37
-54;-36;-26
-49;-30;-34
-50;-38;0
-51;-32;2
-59;-29;2
-57;-26;10
-68;-15;9
-65;-19;13
-56;-13;24
-60;-8;23
-70;5;15
-64;8;11
-66;8;15
-66;11;23
-66;12;17
-67;11;15
-69;11;18
-45;10;25
-49;9;25
-62;13;20
-62;14;21
-60;14;24
-60;17;25
-60;17;23
-57;18;27
