Mandatory;Pressed;Strength;BeginingTime;TimeSaved;EndTime;Comment;Emotion;
0;0;1;30000.0;591603600;30801.3745918;591604401.374592;30240.0;591603840;;2/1/none/Mood;
1;0;0;33922.8081141;591607522.808114;34115.5257158;591607715.525716;34162.8081388;591607762.808139;;neutral/no, nothing in particular/no emotion;
1;1;0;73347.7423968;591646947.742397;73521.520915;591647121.520915;73647.742424;591647247.742424;;neutral/no, nothing in particular/no emotion;
0;0;0;77700.0;591651300;78082.171088;591651682.171088;78000.0;591651600;;neutral/no, nothing in particular/no emotion;
