38597.7827301
0.0;1.10942578315735
102.895339966,0.687531471252441
118.536679983,0.515648603439331
118.97420001,0.437520027160645
149.944369793,1.26568293571472
158.116619825,1.39068865776062
252.011539936,1.28130865097046
253.417849779,1.40631437301636
254.777289867,1.35943722724915
404.112249851,0.640654325485229
469.521489859,1.39068865776062
589.683239937,1.20318007469177
604.465169907,0.531274318695068
605.043319941,0.57815146446228
682.640619993,0.625028610229492
741.612069845,0.437520027160645
1052.64193988,0.890665829181671
1053.43884993,0.796911478042603
1066.11129999,0.828162908554077
1067.18947983,1.07817435264587
1067.98638988,0.796911478042603
1199.92992997,0.328140020370483
1200.25806999,0.328140020370483
1383.75083995,0.640654325485229
1384.25086999,0.500022888183594
1574.99396992,0.453145742416382
1575.47836995,0.484397172927856
1575.90025997,0.421894311904907
1607.6673398,0.81253719329834
1824.83352995,0.531274318695068
1887.27388978,0.359391450881958
1967.57444,0.515648603439331
1968.0588398,0.484397172927856
2073.84492993,1.34381151199341
2444.83065987,0.718782901763916
2445.59631991,0.765660047531128
2446.33072996,0.734408617019653
2447.06514001,0.734408617019653
2447.81517982,0.750034332275391
2448.58083987,0.765660047531128
2449.36211991,0.781285762786865
2450.19027996,0.828162908554077
2451.00282001,0.81253719329834
2451.75285983,0.750034332275391
2452.48725986,0.734408617019653
2453.19041991,0.703157186508179
2453.89357996,0.703157186508179
2454.56547999,0.671905755996704
2455.28426981,0.718782901763916
2456.09679985,0.81253719329834
2456.89371991,0.796911478042603
2457.64374995,0.750034332275391
2458.33127999,0.687531471252441
2459.0344398,0.703157186508179
2459.65946984,0.625028610229492
2470.4568398,0.609402894973755
2471.06623983,0.609402894973755
2471.69126987,0.625028610229492
2472.37879992,0.687531471252441
2477.50402999,0.671905755996704
2478.19156981,0.687531471252441
2478.84784985,0.656280040740967
2479.53537989,0.687531471252441
2480.17602992,0.640654325485229
2480.91043997,0.734408617019653
2481.75422978,0.843788623809814
2482.51988983,0.765660047531128
2483.34804988,0.828162908554077
2484.14495993,0.796911478042603
2484.84811997,0.703157186508179
2485.55127978,0.703157186508179
2581.9150598,0.734408617019653
2582.50883985,0.593777179718018
2608.91629982,0.828162908554077
2609.65070987,0.734408617019653
2610.36948991,0.718782901763916
2610.99451995,0.625028610229492
2611.76018,0.765660047531128
2612.36957979,0.609402894973755
2613.08836985,0.718782901763916
2613.80714989,0.718782901763916
2614.57280993,0.765660047531128
2615.36971998,0.796911478042603
2616.16662979,0.796911478042603
2616.94791985,0.781285762786865
2617.65106988,0.703157186508179
2618.38547993,0.734408617019653
2619.02613997,0.640654325485229
2619.61991,0.593777179718018
2620.1668098,0.546900033950806
2620.79183984,0.625028610229492
2621.46374989,0.671905755996704
2622.19815993,0.734408617019653
2623.02631998,0.828162908554077
2623.82322979,0.796911478042603
2624.65138984,0.828162908554077
2625.4795599,0.828162908554077
2626.29208994,0.81253719329834
2627.04212999,0.750034332275391
2627.7765398,0.734408617019653
2628.47968984,0.703157186508179
2629.16722989,0.687531471252441
2629.91725993,0.750034332275391
2630.65166998,0.734408617019653
2635.71439981,0.781285762786865
2636.48005986,0.765660047531128
2637.15196991,0.671905755996704
2637.87074995,0.718782901763916
2638.60516,0.734408617019653
2639.3864398,0.781285762786865
2640.24585986,0.859414339065552
2641.07401991,0.828162908554077
2641.91780996,0.843788623809814
2642.73034978,0.81253719329834
2643.76163983,1.03129720687866
2647.13679981,0.671905755996704
2647.79307985,0.656280040740967
2648.43372989,0.640654325485229
2649.09000993,0.656280040740967
2653.27770996,0.81253719329834
2654.09024,0.81253719329834
2654.79339981,0.703157186508179
2655.49655986,0.703157186508179
2656.1840899,0.687531471252441
2656.96536994,0.781285762786865
2657.66852999,0.703157186508179
2658.4341898,0.765660047531128
2659.30922985,0.875040054321289
2660.09051991,0.781285762786865
2660.91867995,0.828162908554077
2661.69997001,0.781285762786865
2662.51249981,0.81253719329834
2663.27815986,0.765660047531128
2664.0750699,0.796911478042603
2664.77822995,0.703157186508179
2665.52827001,0.750034332275391
2666.2001698,0.671905755996704
2666.91894984,0.718782901763916
2667.7314899,0.81253719329834
2668.54402995,0.81253719329834
2669.38782001,0.843788623809814
2675.4037199,0.750034332275391
2676.12249994,0.718782901763916
2676.91940999,0.796911478042603
2677.79444981,0.875040054321289
2678.49760985,0.703157186508179
2679.27889991,0.781285762786865
2679.99767995,0.718782901763916
2680.79459,0.796911478042603
2681.46649981,0.671905755996704
2682.18527985,0.718782901763916
2682.85717988,0.671905755996704
2683.52908993,0.671905755996704
2684.26349998,0.734408617019653
2685.16978979,0.906291484832764
2688.41993999,0.671905755996704
2689.1387198,0.718782901763916
2689.85749984,0.718782901763916
2690.59190989,0.734408617019653
2691.32631993,0.734408617019653
2692.06072998,0.734408617019653
2692.76388979,0.703157186508179
2693.48266983,0.718782901763916
2694.23269987,0.750034332275391
2694.99835992,0.765660047531128
2695.81089997,0.81253719329834
2696.6703198,0.859414339065552
2697.45159984,0.781285762786865
2698.26413989,0.81253719329834
2699.07667994,0.81253719329834
2699.74857998,0.671905755996704
2700.45173979,0.703157186508179
2701.17051983,0.718782901763916
2701.87367988,0.703157186508179
2702.60808992,0.734408617019653
2703.37374997,0.765660047531128
2704.12378001,0.750034332275391
2704.87381983,0.750034332275391
2705.68634987,0.81253719329834
2706.48326993,0.796911478042603
2707.21766996,0.734408617019653
2707.98333001,0.765660047531128
2708.65523982,0.671905755996704
2709.40526986,0.750034332275391
2710.07717991,0.671905755996704
2710.85846996,0.781285762786865
2711.63975,0.781285762786865
2712.40540981,0.765660047531128
2713.37420988,0.968794345855713
2714.07735991,0.703157186508179
2714.81176996,0.734408617019653
2715.54618001,0.734408617019653
2716.32746983,0.781285762786865
2717.04624987,0.718782901763916
2717.79627991,0.750034332275391
2718.54631996,0.750034332275391
2757.46996999,0.640654325485229
2758.29813981,0.828162908554077
2759.06379986,0.765660047531128
2759.7825799,0.718782901763916
2768.59547997,0.81253719329834
2769.37676978,0.781285762786865
2770.15805984,0.781285762786865
2770.87683988,0.718782901763916
2771.56436992,0.687531471252441
2793.03409982,0.671905755996704
2793.69037986,0.656280040740967
2794.36228991,0.671905755996704
2794.95606995,0.593777179718018
2795.67484999,0.718782901763916
2796.31549978,0.640654325485229
2797.03428984,0.718782901763916
2797.70618987,0.671905755996704
2798.47184992,0.765660047531128
2799.08124995,0.609402894973755
2799.70627999,0.625028610229492
2800.42506981,0.718782901763916
2801.05008984,0.625028610229492
2801.76887989,0.718782901763916
2802.51890993,0.750034332275391
2803.22206998,0.703157186508179
2804.11272979,0.890665829181671
2808.59730983,0.796911478042603
2809.19108987,0.593777179718018
2809.83174992,0.640654325485229
2810.50364995,0.671905755996704
2811.19117999,0.687531471252441
2812.00371981,0.81253719329834
2812.72249985,0.718782901763916
2813.4725399,0.750034332275391
2814.20694995,0.734408617019653
2815.00386,0.796911478042603
2827.72318983,0.750034332275391
2828.48884988,0.765660047531128
2885.13206983,0.546900033950806
2885.74146986,0.609402894973755
2886.49150991,0.750034332275391
2887.13215995,0.640654325485229
2906.07052994,0.796911478042603
2906.82055998,0.750034332275391
2907.64871979,0.828162908554077
2908.46125984,0.81253719329834
2909.25816989,0.796911478042603
2910.02382994,0.765660047531128
2910.78948998,0.765660047531128
2911.49264979,0.703157186508179
2912.21142983,0.718782901763916
2924.22760987,0.828162908554077
2924.83700991,0.609402894973755
2929.25908995,0.687531471252441
2930.02474999,0.765660047531128
2930.83728981,0.81253719329834
2931.54043984,0.703157186508179
2932.2904799,0.750034332275391
2933.07175994,0.781285762786865
2938.69701982,0.687531471252441
2939.52517986,0.828162908554077
2944.86917996,0.671905755996704
2945.65046,0.781285762786865
2946.40049982,0.750034332275391
2947.22865987,0.828162908554077
2947.85368991,0.625028610229492
2952.35389996,0.796911478042603
2958.93231988,0.890665829181671
2976.55812979,0.750034332275391
2977.21440983,0.656280040740967
2977.96443987,0.750034332275391
2978.62071991,0.656280040740967
2987.26173997,0.609402894973755
2988.02739978,0.765660047531128
2988.65242982,0.625028610229492
2989.29308987,0.640654325485229
2990.0274899,0.734408617019653
2990.65251994,0.625028610229492
2994.40268993,0.703157186508179
2995.13709998,0.734408617019653
2995.8871398,0.750034332275391
2996.49653983,0.609402894973755
2997.29344988,0.796911478042603
2998.01223993,0.718782901763916
2998.69976997,0.687531471252441
2999.54355979,0.843788623809814
3000.46546984,0.921917259693146
3007.70017982,0.687531471252441
3008.55958986,0.859414339065552
3009.30962992,0.750034332275391
3010.09090996,0.781285762786865
3010.77844,0.687531471252441
3011.52847981,0.750034332275391
3012.32538986,0.796911478042603
3024.09154987,0.875040054321289
3024.77908993,0.687531471252441
3025.60724998,0.828162908554077
3026.40415978,0.796911478042603
3027.13856983,0.734408617019653
3027.91984987,0.781285762786865
3028.65425992,0.734408617019653
3029.32616997,0.671905755996704
3029.96682,0.640654325485229
3030.74810982,0.781285762786865
3047.98326993,0.828162908554077
3048.76455998,0.781285762786865
3049.48333979,0.718782901763916
3050.18649983,0.703157186508179
3050.90527987,0.718782901763916
3051.71781993,0.81253719329834
3052.45222998,0.734408617019653
3053.38976979,0.937542915344238
3054.18667984,0.796911478042603
3055.12421989,0.937542915344238
3055.93675995,0.81253719329834
3056.79618001,0.859414339065552
3057.56183982,0.765660047531128
3058.38999987,0.828162908554077
3059.04627991,0.656280040740967
3059.73380995,0.687531471252441
3060.45258999,0.718782901763916
3061.1557498,0.703157186508179
3061.89015985,0.734408617019653
3069.51550984,0.656280040740967
3070.14053988,0.625028610229492
3070.85931993,0.718782901763916
3071.49996996,0.640654325485229
3078.96906996,0.671905755996704
3079.6566,0.687531471252441
3080.3128798,0.656280040740967
3081.01602983,0.703157186508179
3089.06327987,0.718782901763916
3089.76643991,0.703157186508179
3090.56334996,0.796911478042603
3101.43883991,0.828162908554077
3106.95471978,0.609402894973755
3107.50161982,0.546900033950806
3108.15789986,0.656280040740967
3108.9548099,0.796911478042603
3112.92374992,0.734408617019653
3113.62689996,0.703157186508179
3114.28318,0.656280040740967
3114.9394598,0.656280040740967
3121.89291,0.750034332275391
3122.5335598,0.640654325485229
3123.20546985,0.671905755996704
3123.89299989,0.687531471252441
3124.58052993,0.687531471252441
3125.26805997,0.687531471252441
3126.15872979,0.890665829181671
3126.92438984,0.765660047531128
3141.94069982,0.734408617019653
3142.62822986,0.687531471252441
3143.3001399,0.671905755996704
3143.97203994,0.671905755996704
3144.72207999,0.750034332275391
3145.53460979,0.81253719329834
3146.39402986,0.859414339065552
3147.23781991,0.843788623809814
3148.12847996,0.890665829181671
3148.94102001,0.81253719329834
3149.73792982,0.796911478042603
3150.48795986,0.750034332275391
3151.31612992,0.828162908554077
3151.95677996,0.640654325485229
3152.69119,0.734408617019653
3329.01176,0.859414339065552
3357.74744987,0.859414339065552
3358.51310992,0.765660047531128
3359.21626997,0.703157186508179
3387.49880981,0.750034332275391
3388.26446986,0.765660047531128
3389.01450992,0.750034332275391
3389.79578996,0.781285762786865
3450.56419992,0.703157186508179
3610.88403988,0.687531471252441
3611.61844993,0.734408617019653
3612.29034996,0.671905755996704
3630.4161799,0.765660047531128
3631.13496995,0.718782901763916
3631.90063,0.765660047531128
3632.66628981,0.765660047531128
3738.31174994,0.687531471252441
3739.06177998,0.750034332275391
3867.95830989,0.796911478042603
3868.72396994,0.765660047531128
3886.50602984,0.859414339065552
3887.33418989,0.828162908554077
3888.14672995,0.81253719329834
3888.94363999,0.796911478042603
3889.7405498,0.796911478042603
3890.47495985,0.734408617019653
3891.2093699,0.734408617019653
3891.92814994,0.718782901763916
3892.66255999,0.734408617019653
3893.3969698,0.734408617019653
3894.17825985,0.781285762786865
3940.83663988,0.750034332275391
3941.58667994,0.750034332275391
3942.28982997,0.703157186508179
3943.07111979,0.781285762786865
3943.86802983,0.796911478042603
3944.61805987,0.750034332275391
3945.43059993,0.81253719329834
3946.21188998,0.781285762786865
3946.99316978,0.781285762786865
3947.79008985,0.796911478042603
3948.50886989,0.718782901763916
3949.19639993,0.687531471252441
3949.88392997,0.687531471252441
3950.58709002,0.703157186508179
3951.27461982,0.687531471252441
3951.99339986,0.718782901763916
3952.85281992,0.859414339065552
3953.66534996,0.81253719329834
3954.49351978,0.828162908554077
3962.86889982,0.765660047531128
3967.27534986,0.718782901763916
3972.93185997,0.718782901763916
3973.65064001,0.718782901763916
3974.54130983,0.890665829181671
3989.85450983,0.828162908554077
4002.04256988,0.765660047531128
4002.77697992,0.734408617019653
4003.48012996,0.703157186508179
4004.15204,0.671905755996704
4004.88644981,0.734408617019653
4031.71579981,0.625028610229492
4032.30957985,0.593777179718018
4032.95022988,0.640654325485229
4033.66901994,0.718782901763916
4034.46592999,0.796911478042603
4035.24720979,0.781285762786865
4036.13787985,0.890665829181671
4036.8410399,0.703157186508179
4037.63794994,0.796911478042603
4038.34110999,0.703157186508179
4058.4826498,0.687531471252441
4059.23268986,0.750034332275391
4059.9202199,0.687531471252441
4060.65462995,0.734408617019653
4061.38903999,0.734408617019653
4062.1078198,0.718782901763916
4062.81097984,0.703157186508179
4117.5634799,0.781285762786865
4118.39163995,0.828162908554077
4119.25106001,0.859414339065552
4120.07921982,0.828162908554077
4130.82971001,0.750034332275391
4131.70474982,0.875040054321289
4139.93950987,0.703157186508179
4140.6739099,0.734408617019653
4141.36144996,0.687531471252441
4142.03334999,0.671905755996704
4142.68962979,0.656280040740967
4143.37715983,0.687531471252441
4150.78374982,0.703157186508179
4151.50253987,0.718782901763916
4152.19006991,0.687531471252441
4152.89321995,0.703157186508179
4159.92479992,0.828162908554077
4160.72170997,0.796911478042603
4161.51862001,0.796911478042603
4162.33115983,0.81253719329834
4163.11243987,0.781285762786865
4163.84684992,0.734408617019653
4164.58125997,0.734408617019653
4165.30004001,0.718782901763916
4165.95631981,0.656280040740967
4166.64384985,0.687531471252441
4167.3470099,0.703157186508179
4168.05016994,0.703157186508179
4168.83144999,0.781285762786865
4169.6127398,0.781285762786865
4170.42527986,0.81253719329834
4171.1909399,0.765660047531128
4171.98784995,0.796911478042603
4172.70662999,0.718782901763916
4173.4097898,0.703157186508179
4174.12856984,0.718782901763916
4174.83172989,0.703157186508179
4175.51925993,0.687531471252441
4187.98857999,0.81253719329834
4188.8167398,0.828162908554077
4189.64490986,0.828162908554077
4190.4261899,0.781285762786865
4191.20747995,0.781285762786865
4191.91064,0.703157186508179
4192.6294198,0.718782901763916
4198.95782995,0.750034332275391
4199.70787001,0.750034332275391
4200.42664981,0.718782901763916
4201.16105986,0.734408617019653
4201.9267199,0.765660047531128
4202.64549994,0.718782901763916
4203.44240999,0.796911478042603
4204.22369981,0.781285762786865
4205.03623986,0.81253719329834
4205.7550199,0.718782901763916
4206.48942995,0.734408617019653
4207.28634,0.796911478042603
4208.0363698,0.750034332275391
4208.83327985,0.796911478042603
4209.6458199,0.81253719329834
4210.39585996,0.750034332275391
4211.16152,0.765660047531128
4211.95842981,0.796911478042603
4212.73970985,0.781285762786865
4213.52099991,0.781285762786865
4214.34915996,0.828162908554077
4215.17732978,0.828162908554077
4215.98985982,0.81253719329834
4216.81802988,0.828162908554077
4227.69351983,0.750034332275391
4228.41230989,0.718782901763916
4229.16233993,0.750034332275391
4229.89674997,0.734408617019653
4230.61553001,0.718782901763916
4231.34993982,0.734408617019653
4266.72655988,0.750034332275391
4267.42971992,0.703157186508179
4268.19537997,0.765660047531128
4268.92978978,0.734408617019653
4269.61731982,0.687531471252441
4270.35172987,0.734408617019653
4271.07050991,0.718782901763916
4271.83616996,0.765660047531128
4272.55495,0.718782901763916
4273.42998981,0.875040054321289
4274.22689986,0.796911478042603
4275.13318992,0.906291484832764
4275.88322997,0.750034332275391
4276.68013978,0.796911478042603
4277.41454983,0.734408617019653
4278.16457987,0.750034332275391
4278.85210991,0.687531471252441
4279.53964996,0.687531471252441
4280.2428,0.703157186508179
4280.96158981,0.718782901763916
4281.72724986,0.765660047531128
4282.58665991,0.859414339065552
4283.47732997,0.890665829181671
4393.6698699,0.906291484832764
4394.60740995,0.937542915344238
4395.48245001,0.875040054321289
4396.35748982,0.875040054321289
4397.23252988,0.875040054321289
4398.01381993,0.781285762786865
4398.81072998,0.796911478042603
4399.54513979,0.734408617019653
4400.24829984,0.703157186508179
4400.96707988,0.718782901763916
4401.67023993,0.703157186508179
4402.40464997,0.734408617019653
4403.20155978,0.796911478042603
4404.01408982,0.81253719329834
4404.84225988,0.828162908554077
4405.60791993,0.765660047531128
4406.42044997,0.81253719329834
4407.20173979,0.781285762786865
4407.96739984,0.765660047531128
4408.70180988,0.734408617019653
4409.43621993,0.734408617019653
4466.89196992,0.687531471252441
4467.59512997,0.703157186508179
4468.28266001,0.687531471252441
4468.97018981,0.687531471252441
4469.64209986,0.671905755996704
4470.3296299,0.687531471252441
4471.07965994,0.750034332275391
4471.87658,0.796911478042603
4472.70473981,0.828162908554077
4473.56414986,0.859414339065552
4474.45481992,0.890665829181671
4486.75225997,0.859414339065552
4487.61166978,0.859414339065552
4488.45545983,0.843788623809814
4489.28361988,0.828162908554077
4490.12740993,0.843788623809814
4490.90869999,0.781285762786865
4491.6743598,0.765660047531128
4492.44001985,0.765660047531128
4493.17441988,0.734408617019653
4493.94008994,0.765660047531128
4494.73699999,0.796911478042603
4495.5026598,0.765660047531128
4496.44019985,0.937542915344238
4497.2996099,0.859414339065552
4498.20590997,0.906291484832764
4499.09657001,0.890665829181671
4499.94035983,0.843788623809814
4500.76851988,0.828162908554077
4501.54980993,0.781285762786865
4502.25296998,0.703157186508179
4502.98737001,0.734408617019653
4503.70615983,0.718782901763916
4504.47181988,0.765660047531128
4512.84719992,0.718782901763916
4513.53472996,0.687531471252441
4514.20664001,0.671905755996704
4514.95666981,0.750034332275391
4515.73795986,0.781285762786865
4516.58174992,0.843788623809814
4517.45678997,0.875040054321289
4518.36307979,0.906291484832764
4540.17657995,0.859414339065552
4541.02037001,0.843788623809814
4541.81727982,0.796911478042603
4542.58293986,0.765660047531128
4546.94250989,0.765660047531128
4547.70816994,0.765660047531128
4548.47382998,0.765660047531128
4549.2551198,0.781285762786865
4550.06764984,0.81253719329834
4550.8489399,0.781285762786865
4551.63022995,0.781285762786865
4552.39589,0.765660047531128
4591.22578979,0.718782901763916
4592.03832984,0.81253719329834
4592.89773989,0.859414339065552
4811.7046299,0.796911478042603
4812.56403995,0.859414339065552
4825.3615098,0.828162908554077
4826.17403984,0.81253719329834
4826.93969989,0.765660047531128
4827.72098994,0.781285762786865
4828.47101998,0.750034332275391
4829.15854979,0.687531471252441
4829.83045983,0.671905755996704
4830.48673987,0.656280040740967
4831.17426991,0.687531471252441
4831.89304996,0.718782901763916
4832.73684001,0.843788623809814
4833.62750983,0.890665829181671
4834.48691988,0.859414339065552
4835.37758994,0.890665829181671
4836.25263,0.875040054321289
4837.0807898,0.828162908554077
4889.13004994,0.81253719329834
4889.89570999,0.765660047531128
4890.70824981,0.81253719329834
4923.92851996,0.796911478042603
4945.05447984,0.81253719329834
4945.86701989,0.81253719329834
4946.63267994,0.765660047531128
4947.38271999,0.750034332275391
4948.1639998,0.781285762786865
4948.91403985,0.750034332275391
4949.64843988,0.734408617019653
4950.46097994,0.81253719329834
4951.28913999,0.828162908554077
4952.08605981,0.796911478042603
4952.86733985,0.781285762786865
4953.6486299,0.781285762786865
4954.33615994,0.687531471252441
4955.07056999,0.734408617019653
4955.8049798,0.734408617019653
4997.27563,0.781285762786865
4998.07253981,0.796911478042603
4998.91632986,0.843788623809814
5059.90348983,0.81253719329834
5068.04448986,0.703157186508179
5098.92089987,0.859414339065552
5099.81156993,0.890665829181671
5100.68660998,0.875040054321289
5127.64096999,0.750034332275391
5128.34411979,0.703157186508179
5129.14103985,0.796911478042603
5129.81293988,0.671905755996704
5130.67235994,0.859414339065552
5205.50390983,0.781285762786865
5243.83378983,0.828162908554077
5244.61506987,0.781285762786865
5245.41197991,0.796911478042603
5246.16201997,0.750034332275391
5246.83392,0.671905755996704
5247.55270982,0.718782901763916
5620.19475985,0.796911478042603
5753.68524981,0.750034332275391
5754.48215985,0.796911478042603
5755.1853199,0.703157186508179
5774.07680988,0.500022888183594
5829.78248,0.531274318695068
6107.95145988,0.687531471252441
6142.5467999,0.57815146446228
6143.09369993,0.546900033950806
6168.96987987,0.859414339065552
6169.76678991,0.796911478042603
6170.45432997,0.687531471252441
6171.18873,0.734408617019653
6171.89188981,0.703157186508179
6172.50128984,0.609402894973755
6173.15756989,0.656280040740967
6196.65864992,0.57815146446228
6212.22185993,0.656280040740967
6212.89376998,0.671905755996704
6213.55004978,0.656280040740967
6344.85292983,0.656280040740967
6345.54046988,0.687531471252441
6346.25924993,0.718782901763916
6347.00927997,0.750034332275391
6347.74369001,0.734408617019653
6348.50934982,0.765660047531128
6349.22812986,0.718782901763916
6436.68525982,0.765660047531128
6449.88898993,0.500022888183594
6468.18669987,0.734408617019653
6558.28457999,0.671905755996704
6559.00335979,0.718782901763916
6559.62838984,0.625028610229492
6560.20653987,0.57815146446228
6560.86281991,0.656280040740967
6561.58159995,0.718782901763916
6562.36289001,0.781285762786865
6563.17542982,0.81253719329834
6563.95670986,0.781285762786865
6689.74371982,0.750034332275391
6897.23758984,0.718782901763916
6897.95637989,0.718782901763916
6898.50327992,0.546900033950806
6899.19080997,0.687531471252441
6899.90959001,0.718782901763916
6900.4877398,0.57815146446228
6901.14401984,0.656280040740967
6901.84717989,0.703157186508179
6902.44095993,0.593777179718018
6903.20661998,0.765660047531128
6904.00352979,0.796911478042603
6938.56760979,0.718782901763916
6939.27076983,0.703157186508179
6939.89579988,0.625028610229492
6995.91398978,0.750034332275391
6996.63276982,0.718782901763916
6997.36717987,0.734408617019653
7332.69502997,0.625028610229492
7391.2602098,0.671905755996704
7391.91648984,0.656280040740967
7392.55713987,0.640654325485229
7393.21341991,0.656280040740967
7550.93938994,0.593777179718018
7710.04041982,0.546900033950806
7710.75920987,0.718782901763916
7763.52724981,0.921917259693146
7764.26165986,0.734408617019653
7770.15254998,0.703157186508179
7771.0119698,0.859414339065552
7771.85574985,0.843788623809814
8238.00208998,0.765660047531128
8238.73649979,0.734408617019653
8239.50215983,0.765660047531128
8240.22093987,0.718782901763916
8241.00222993,0.781285762786865
8241.84601998,0.843788623809814
8242.7210598,0.875040054321289
8243.61171985,0.890665829181671
8244.43988991,0.828162908554077
8245.26804996,0.828162908554077
8246.09621,0.828162908554077
9251.22034979,0.40626859664917
9309.98865986,0.765660047531128
9341.02132988,0.81253719329834
9352.08433986,0.687531471252441
9352.6781199,0.593777179718018
9353.28751993,0.609402894973755
9353.95941997,0.671905755996704
9354.77195978,0.81253719329834
9360.3972199,0.593777179718018
9361.03786993,0.640654325485229
9361.64727998,0.609402894973755
9362.24105,0.593777179718018
9362.94420981,0.703157186508179
9363.61611986,0.671905755996704
9364.2723999,0.656280040740967
9364.94429994,0.671905755996704
9365.63182998,0.687531471252441
9424.0407598,0.57815146446228
9483.2153399,0.750034332275391
9484.05912995,0.843788623809814
9484.80915999,0.750034332275391
9501.84118986,0.640654325485229
9502.60684991,0.765660047531128
9503.32563996,0.718782901763916
9504.15380001,0.828162908554077
9504.91945982,0.765660047531128
9505.74761987,0.828162908554077
9510.1228199,0.703157186508179
9510.85722995,0.734408617019653
9511.49789,0.640654325485229
9512.1854198,0.687531471252441
9512.90419984,0.718782901763916
9513.73235989,0.828162908554077
9514.52927995,0.796911478042603
9515.27930999,0.750034332275391
9516.02933979,0.750034332275391
9516.79499984,0.765660047531128
9517.57628989,0.781285762786865
9520.73267984,0.671905755996704
9521.27957988,0.546900033950806
9521.96711993,0.687531471252441
9522.68589997,0.718782901763916
9523.45155978,0.765660047531128
9524.17033982,0.718782901763916
9524.84224987,0.671905755996704
9525.57665992,0.734408617019653
9526.24855995,0.671905755996704
9526.92047,0.671905755996704
9527.59236979,0.671905755996704
9528.27989984,0.687531471252441
9528.95180988,0.671905755996704
9529.57683992,0.625028610229492
9530.15498996,0.57815146446228
9530.81127,0.656280040740967
9531.38941979,0.57815146446228
9531.95194983,0.562525749206543
9532.48321986,0.531274318695068
9533.1394999,0.656280040740967
9533.78015995,0.640654325485229
9534.51455998,0.734408617019653
9535.2020998,0.687531471252441
9554.56235981,0.796911478042603
9555.18738985,0.625028610229492
9555.82803988,0.640654325485229
9556.49994993,0.671905755996704
9557.26560998,0.765660047531128
9570.18806982,0.500022888183594
9570.75059986,0.562525749206543
9573.50071979,0.625028610229492
9574.18825984,0.687531471252441
9581.89172983,0.734408617019653
9582.61051989,0.718782901763916
9583.45430994,0.843788623809814
9584.18870997,0.734408617019653
9585.0793798,0.890665829181671
9585.76690984,0.687531471252441
9604.31462979,0.921917259693146
9682.02131987,0.593777179718018
9682.55258989,0.531274318695068
9683.19324994,0.640654325485229
9683.92764997,0.734408617019653
9826.41855001,1.07817435264587
9830.26247978,0.81253719329834
9836.60651994,0.796911478042603
9837.43467999,0.828162908554077
9838.20033979,0.765660047531128
9985.17581987,0.671905755996704
9985.7070899,0.531274318695068
9986.39461994,0.687531471252441
10046.4754999,0.671905755996704
10098.02473,0.546900033950806
10098.7435198,0.718782901763916
