Mandatory;Pressed;Strength;BeginingTime;TimeSaved;EndTime;Comment;Emotion;
1;0;1;31232.9703369;585643232.970337;31380.947911;585643380.947911;31472.9703641;585643472.970364;;4/1/event/for me/Past/Yes/Confirmed/satisfaction;
0;0;1;34020.0;585646020;34219.5958149;585646219.595815;34196.839504;585646196.839504;;2/2/object/hate;
1;0;2;34675.9051199;585646675.90512;34806.4823089;585646806.482309;34915.9051208;585646915.905121;;2/2/object/hate;
0;0;2;34920.0;585646920;35024.3306389;585647024.330639;34980.0;585646980;;2/3/object/hate;
1;0;0;38235.107275;585650235.107275;38350.4185009;585650350.418501;38475.107301;585650475.107301;;neutral/no, nothing in particular/no emotion;
1;0;0;42435.2306871;585654435.230687;42546.7661381;585654546.766138;42675.230689;585654675.230689;;neutral/no, nothing in particular/no emotion;
1;0;1;50650.139883;585662650.139883;50782.904042;585662782.904042;50890.139899;585662890.139899;;4/1/none/Mood;
0;0;1;57300.0;585669300;57408.980782;585669408.980782;57360.0;585669360;;4/1/self agent/Yes/Gratification;
1;0;2;58810.1301479;585670810.130148;58934.293879;585670934.293879;59050.1301489;585671050.130149;;1/3/object/hate;
0;0;2;64200.0;585676200;64243.0288429;585676243.028843;64200.0;585676200;;5/3/other agent/No/admiration;
1;0;0;65860.1223211;585677860.122321;67365.980994;585679365.980994;66100.1223221;585678100.122322;;neutral/no, nothing in particular/no emotion;
0;0;2;67740.0;585679740;67929.6696579;585679929.669658;67900.9023271;585679900.902327;;5/2/other agent/No/admiration;
0;0;1;73401.152667;585685401.152667;73432.4835949;585685432.483595;73401.147049;585685401.147049;;2/2/other agent/No/reproach;
