84384.9298501
32.000000; 32.000000; 32.000000
60;-9;14
60;-9;14
61;-8;14
60;-9;14
60;-9;14
61;-9;15
62;-9;16
60;-9;15
60;-8;15
60;-8;15
61;-8;15
61;-8;15
60;-8;15
59;-8;14
60;-8;14
60;-8;14
61;-8;14
61;-9;15
61;-8;15
60;-9;15
61;-9;15
62;-10;17
63;-11;17
64;-12;16
65;-12;15
64;-14;15
63;-12;14
62;-11;14
57;-9;16
55;-7;18
50;-3;19
49;-2;21
51;2;22
50;3;23
53;5;24
53;6;26
54;5;27
53;3;28
52;4;30
53;2;31
52;1;32
53;1;34
54;-1;35
54;-2;36
53;-3;37
53;-3;37
52;-3;37
51;-3;39
51;-3;39
50;-3;40
49;-4;40
48;-3;41
51;-3;40
48;-4;40
49;-4;41
48;-5;41
49;-5;40
51;-6;39
48;-7;40
49;-7;40
49;-7;39
48;-7;39
46;-7;40
47;-8;40
58;-13;41
44;-13;39
55;-11;39
53;-12;39
44;-11;42
47;-9;39
48;-8;37
47;-7;36
48;-7;35
48;-7;36
47;-6;37
51;-7;36
52;-7;36
51;-8;37
51;-9;38
52;-8;38
51;-9;38
49;-9;38
49;-9;37
50;-9;37
49;-9;37
49;-9;37
49;-9;36
49;-9;37
50;-9;37
49;-9;37
50;-9;37
51;-9;36
50;-9;36
50;-9;37
51;-9;36
49;-9;36
51;-9;36
51;-9;35
51;-9;37
51;-9;36
50;-9;36
51;-9;36
50;-9;36
51;-9;36
51;-9;36
50;-9;36
50;-9;36
50;-9;36
50;-9;35
50;-9;36
50;-9;36
50;-9;35
50;-9;35
50;-9;35
50;-10;36
50;-10;36
51;-9;35
52;-10;35
51;-10;35
52;-10;35
51;-11;36
51;-11;35
50;-11;35
50;-11;35
49;-11;35
49;-10;35
48;-10;35
47;-11;35
45;-11;36
45;-12;36
44;-12;38
45;-12;39
46;-14;41
48;-14;42
50;-15;42
50;-16;42
49;-17;41
49;-18;39
51;-18;37
51;-19;34
60;-19;18
78;-15;11
46;-18;16
54;-18;40
44;-17;36
44;-14;35
49;-14;32
53;-16;32
53;-17;32
52;-17;33
52;-17;32
51;-16;32
51;-15;33
50;-15;31
51;-15;31
51;-16;31
52;-15;31
52;-15;33
52;-15;33
52;-16;32
51;-16;32
50;-16;33
50;-16;35
48;-16;37
52;-15;34
52;-16;32
49;-15;31
50;-15;32
50;-14;34
46;-16;34
45;-17;36
30;-19;40
34;-17;39
58;-19;35
56;-18;34
50;-21;38
54;-21;39
53;-20;34
53;-20;32
49;-18;34
50;-17;31
48;-17;31
48;-18;33
50;-18;31
49;-19;32
50;-19;31
50;-20;33
49;-20;34
49;-19;33
49;-20;33
49;-19;33
49;-20;33
48;-20;33
49;-20;32
49;-21;33
48;-21;33
48;-21;33
49;-21;33
48;-21;33
48;-21;34
49;-21;33
50;-21;32
49;-22;32
49;-22;34
48;-23;34
48;-22;34
48;-22;34
48;-22;34
48;-22;34
48;-22;34
47;-22;34
47;-22;34
48;-22;34
48;-22;34
47;-22;34
47;-22;34
46;-22;34
47;-21;34
48;-22;34
48;-22;35
47;-21;36
48;-21;35
48;-20;36
47;-20;36
47;-20;36
48;-20;35
48;-20;35
47;-20;36
48;-20;35
45;-20;35
47;-20;35
47;-20;35
47;-20;36
47;-20;36
48;-19;35
47;-20;36
47;-20;36
48;-20;36
46;-20;36
48;-20;36
47;-20;36
48;-20;36
47;-20;35
48;-20;36
48;-20;36
47;-19;36
47;-20;36
49;-20;39
46;-20;37
45;-20;37
44;-19;36
43;-18;35
46;-18;38
47;-19;39
46;-18;39
43;-18;38
46;-17;38
46;-18;39
45;-17;39
46;-17;38
46;-18;39
47;-17;37
49;-18;38
48;-18;38
45;-17;38
47;-17;37
47;-17;37
46;-17;37
46;-17;37
47;-17;38
48;-17;37
47;-18;37
48;-17;37
46;-17;37
46;-17;37
47;-17;37
47;-17;38
49;-17;37
50;-17;38
49;-18;40
53;-17;40
58;-23;42
39;-21;49
33;-20;49
26;-17;49
28;-13;49
34;-5;49
36;-2;49
35;4;50
30;11;48
28;12;46
26;18;44
26;20;44
29;23;46
29;25;44
27;31;44
28;31;43
27;39;44
27;41;46
25;41;46
22;42;43
21;44;40
21;43;39
19;46;38
16;49;37
15;52;38
12;56;38
11;57;37
10;58;36
9;55;37
9;53;39
11;52;39
12;51;37
12;50;35
13;52;33
13;52;33
13;53;34
13;53;34
12;53;35
12;52;34
12;52;35
12;52;36
12;51;36
11;52;33
11;52;33
11;52;34
11;53;33
12;55;31
12;55;31
11;56;31
11;56;30
11;56;30
11;56;29
10;56;30
10;55;30
10;54;31
9;52;31
10;54;31
8;52;32
9;55;31
9;55;31
9;55;28
9;55;27
8;55;25
8;54;25
7;56;22
6;56;21
5;59;21
5;58;20
4;57;22
2;58;21
2;57;20
1;57;19
1;57;20
1;56;26
1;55;29
-1;55;33
-6;54;37
-11;56;35
-16;57;38
-12;60;37
-17;66;32
-19;65;33
-22;57;28
-21;51;26
-22;46;29
-17;49;24
-18;52;26
-15;54;29
-13;58;34
-9;54;41
-17;53;44
-16;53;38
-11;51;39
-15;52;42
-11;48;41
-12;48;39
-15;48;44
-12;50;41
-2;50;31
-7;50;29
-3;54;32
-14;53;35
-11;51;40
-10;53;35
-3;51;37
-10;51;39
-22;50;44
-20;53;39
-22;55;32
-14;52;36
-16;52;39
-13;50;38
-15;50;35
-15;50;36
-19;51;34
-20;51;32
-18;52;28
-24;49;35
-18;48;42
-21;50;36
-21;49;40
-19;48;33
-16;48;33
-26;47;40
-24;48;38
-27;46;35
-25;48;34
-23;46;41
-25;46;39
-27;44;40
-27;43;42
-30;43;43
-24;45;40
-27;43;39
-27;44;39
-35;41;40
-36;42;38
-28;42;42
-25;43;43
-30;41;40
-32;40;39
-28;39;42
-28;39;43
-31;41;41
-24;42;42
-28;43;40
-29;44;41
-26;43;40
-25;43;40
-23;43;39
-28;44;39
-28;45;39
-25;45;41
-29;45;39
-28;45;39
-22;45;40
-20;45;41
-19;44;41
-18;44;41
-18;44;42
-17;44;43
-18;44;42
-19;44;42
-16;45;43
-16;45;43
-14;45;43
-16;45;43
-17;44;43
-15;45;44
-14;46;44
-13;45;43
-17;46;43
-15;45;43
-14;46;43
-17;45;43
-14;45;44
-15;45;44
-16;45;43
-16;45;44
-15;45;44
-16;45;43
-15;45;44
-14;45;44
-15;45;43
-14;46;44
-13;46;44
-13;44;44
-13;45;44
-14;45;44
-14;45;43
-15;43;43
-14;45;44
-13;44;44
-15;46;43
-14;45;43
-14;45;43
-14;46;44
-14;45;43
-13;45;44
-13;45;44
-14;45;44
-14;45;43
-14;46;44
-13;45;43
-13;45;44
-11;45;45
-12;45;44
-12;45;45
-12;45;44
-15;46;44
-15;45;44
-15;45;43
-15;46;44
-14;45;44
-14;45;44
-13;45;44
-14;45;43
-14;45;44
-14;45;44
-14;45;44
-14;46;43
-15;45;43
-14;45;44
-14;45;43
-15;45;43
-14;45;44
-14;45;44
-14;45;44
-14;45;44
-14;45;44
-14;45;44
-14;45;43
-14;45;43
-15;45;43
-14;45;44
-13;45;44
-15;45;43
-13;45;44
-13;45;44
-16;45;43
-14;45;44
-15;45;43
-13;45;44
-17;45;43
-15;44;44
-15;45;43
-16;45;43
-17;45;43
-15;45;43
-16;45;43
-16;45;43
-15;45;43
-15;45;43
-17;45;43
-16;45;43
-15;45;43
-16;45;43
-14;45;43
-16;45;43
-15;45;43
-15;45;43
-16;45;43
-13;45;44
-17;45;43
-14;45;43
-16;45;43
-16;45;43
-15;45;43
-14;45;43
-13;45;43
-16;45;43
-15;46;43
-16;46;44
-14;45;43
-15;44;43
-15;45;42
-17;45;42
-16;45;43
-16;46;43
-16;45;43
-16;45;43
-15;45;43
-14;45;43
-14;45;43
-18;45;43
-17;45;43
-16;45;43
-16;45;43
-16;45;43
-16;45;43
-16;45;43
-16;45;43
-16;45;43
-17;45;42
-15;45;43
-16;45;44
-15;45;43
-16;45;43
-16;45;43
-16;45;43
-16;45;43
-16;45;44
-15;45;43
-15;45;44
-14;45;43
-16;45;43
-15;45;43
-16;45;44
-16;45;43
-16;45;43
-16;45;43
-15;45;43
-15;45;43
-15;45;43
-16;45;43
-16;45;43
-14;45;43
-16;45;43
-16;45;44
-15;45;44
-15;45;43
-15;45;44
-17;45;43
-16;45;43
-16;45;43
-14;45;44
-16;45;43
-16;45;44
-16;45;43
-17;45;43
-17;45;43
-16;45;43
-16;45;43
-15;45;43
-17;46;43
-17;45;43
-16;45;43
-16;45;43
-16;45;43
-16;45;43
-16;45;43
-16;45;43
-17;45;43
-16;45;43
-16;45;43
-16;45;43
-16;45;44
-17;45;43
-16;45;43
-16;45;43
-17;45;44
-18;45;43
-17;45;43
-16;45;43
-16;45;43
-17;45;43
-17;45;44
-17;45;43
-16;45;43
-16;45;43
-17;45;43
-17;45;43
-17;45;43
-17;45;43
-16;45;43
-16;45;43
-17;45;43
-17;45;43
-16;45;43
-16;45;43
-16;45;43
-16;45;43
-16;45;43
-16;45;43
-16;45;43
-16;45;43
-16;45;43
-16;45;43
-16;45;43
-16;45;43
-16;45;43
-16;45;43
-16;45;43
-16;45;43
-16;45;43
-16;45;43
-16;45;43
-16;45;43
-17;45;43
-16;45;43
-17;45;43
-17;45;43
-17;45;43
-16;45;43
-16;45;43
-17;45;43
-16;45;43
-16;45;43
-17;45;43
-16;45;43
-17;45;43
-17;45;43
-16;45;43
-17;45;43
-16;45;43
-15;45;43
-17;44;42
-16;45;44
-16;45;44
-17;45;43
-16;45;43
-16;45;43
-17;45;43
-16;45;43
-17;45;43
-16;45;43
-17;45;43
-16;45;43
-17;45;43
-17;45;43
-17;45;43
-16;45;43
-17;45;43
-16;45;43
-16;45;43
-17;45;43
-17;45;44
-17;45;43
-17;44;43
-16;45;43
-16;45;43
-16;45;43
-17;45;43
-16;45;43
-17;45;43
-17;45;43
-16;45;44
-17;45;43
-16;45;43
-17;45;43
-16;44;43
-17;45;43
-17;45;43
-17;45;43
-17;45;43
-16;45;43
-17;45;43
-17;45;43
-17;45;43
-17;45;43
-16;44;43
-16;45;43
-17;45;43
-16;45;43
-17;45;43
-17;45;43
-16;45;44
-16;45;43
-16;45;43
-17;45;43
-17;45;43
-16;45;43
-17;45;43
-16;45;44
-17;44;43
-16;45;43
-17;45;43
-17;45;43
-17;45;43
-17;45;43
-17;45;43
-16;45;43
-16;45;43
-17;45;43
-16;45;43
-17;45;43
-17;45;43
-16;45;43
-17;45;43
-15;45;43
-16;45;43
-16;45;43
-17;45;43
-17;45;43
-17;45;43
-16;45;43
-16;45;43
-16;45;43
-16;45;43
-16;45;43
-16;45;43
-16;45;43
-16;45;43
-16;45;43
-17;45;43
-16;45;43
-17;45;44
-16;45;43
-16;45;43
-16;45;43
-17;45;43
-15;45;43
-19;45;42
-16;45;43
-17;45;44
-16;45;43
-16;44;43
-15;45;44
-17;45;43
-14;45;43
-16;44;43
-16;45;43
-16;45;43
-16;45;43
-16;46;44
-17;45;43
-16;45;43
-17;45;43
-15;45;44
-19;45;43
-15;45;44
-12;45;44
-18;45;42
-18;45;43
-17;45;43
-16;45;43
-16;45;43
-17;45;43
-16;45;43
-16;45;43
-16;45;43
-16;45;43
-16;45;43
-18;46;43
-15;45;43
-15;45;43
-16;45;42
-15;44;44
-16;45;43
-14;45;43
-17;44;43
-15;45;43
-16;45;43
-16;45;43
-17;45;43
-16;45;43
-16;45;43
-16;45;43
-16;45;43
-16;45;43
-16;45;43
-16;45;43
-16;45;43
-16;45;43
-16;45;43
-16;45;43
-16;45;43
-16;45;43
-16;45;43
-16;45;43
-16;45;43
-16;45;43
-16;45;43
-16;45;43
-16;45;43
-16;45;43
-16;45;43
-16;45;43
-16;45;43
-16;45;43
-16;45;43
-16;45;43
-17;45;43
-16;44;43
-16;45;43
-16;45;43
-17;45;43
-16;45;44
-16;45;43
-16;45;44
-15;45;44
-16;45;43
-16;45;44
-17;45;43
-16;45;43
-15;45;43
-17;45;43
-17;45;43
-16;44;44
-15;45;43
-16;45;43
-17;45;43
-17;45;43
-16;45;44
-16;45;44
-16;45;43
-16;45;43
-16;45;43
-15;45;43
-17;45;43
-18;45;43
-16;45;43
-15;45;43
-16;44;43
-17;45;43
-17;45;43
-16;45;43
-16;45;44
-16;45;43
-16;45;43
-17;45;43
-17;45;43
-17;45;43
-16;45;43
-16;45;43
-16;45;43
-16;45;44
-17;45;43
-16;45;43
-16;45;43
-16;45;43
-17;45;43
-16;45;43
-16;45;43
-16;45;43
-17;45;43
-16;45;43
-16;45;43
-16;45;43
-17;45;43
-17;45;43
-16;45;43
-16;45;43
-16;45;43
-16;45;43
-15;45;43
-16;45;43
-16;45;43
-17;45;43
-16;45;43
-15;45;43
-16;45;43
-16;45;43
-15;45;43
-19;45;42
-15;45;43
-16;45;43
-16;45;43
-17;45;43
-16;45;43
-17;45;42
-16;45;44
-16;45;43
-16;45;43
-16;45;43
-15;45;43
-17;45;43
-17;45;43
-17;45;43
-15;45;44
-17;45;43
-16;44;44
-18;45;43
-16;45;44
-16;45;44
-15;45;43
-13;44;43
-17;45;42
-17;44;43
-17;45;44
-16;45;43
-17;45;43
-15;44;44
-17;45;43
-16;45;44
-18;45;43
-15;45;43
-16;45;43
-16;45;43
-17;45;43
-17;45;43
-16;45;44
-14;45;44
-17;44;44
-18;44;43
-17;44;43
-19;45;43
-17;45;43
-17;44;43
-15;44;43
-16;45;43
-17;45;43
-18;44;43
-19;45;43
-14;46;44
-17;44;42
-19;44;43
-17;45;44
-15;45;44
-16;45;43
-16;46;43
-18;45;43
-18;44;42
-16;45;42
-17;45;43
-16;45;43
-16;45;43
-17;45;43
-16;45;43
-17;45;43
-16;45;43
-16;45;43
-16;45;43
-17;45;43
-16;45;43
-16;45;43
-16;45;43
-16;45;43
-16;45;43
-16;45;43
-16;45;43
-16;45;43
-16;45;43
-16;45;43
-16;45;43
-16;45;43
-16;45;43
-16;45;43
-17;45;43
-16;45;43
-16;45;43
-17;45;43
-16;45;43
-16;45;43
-16;45;43
-16;45;43
-16;45;43
-16;45;43
-17;45;43
-16;45;43
-16;45;43
-16;45;43
-16;45;43
-17;46;44
-16;45;44
-16;45;43
-16;45;43
-15;45;44
-16;45;44
-13;45;43
-15;45;43
-18;45;44
-15;45;44
-16;45;43
-16;45;44
-17;45;43
-16;45;44
-16;45;43
-16;45;43
-16;45;43
-16;45;43
-16;45;43
-16;45;44
-17;45;43
-16;45;43
-16;45;43
-16;45;43
-16;45;43
-16;45;43
-16;45;43
-16;45;43
-16;45;43
-17;45;43
-16;45;43
-15;45;43
-16;45;44
-17;45;43
-14;45;44
-16;45;43
-16;45;44
-16;45;43
-16;45;43
-19;45;43
-16;45;44
-16;45;44
-14;44;43
-14;46;43
-14;45;43
-14;45;43
-13;45;44
-15;45;43
-15;45;43
-17;45;43
-17;45;43
-17;45;43
-16;45;44
-16;45;43
-17;45;43
-14;45;44
-14;45;43
-17;45;42
-16;45;43
-16;45;43
-16;45;43
-16;45;43
-16;45;43
-16;45;43
-16;45;43
-16;45;43
-17;45;43
-16;46;43
-16;45;42
-14;45;43
-16;45;43
-15;45;43
-15;45;43
-16;45;43
-15;45;43
-16;45;43
-16;45;43
-16;45;43
-15;45;43
-17;45;43
-16;45;43
-16;45;43
-16;45;43
-16;45;43
-16;45;43
-16;45;43
-16;45;43
-16;45;43
-16;45;43
-16;45;43
-16;45;43
-16;45;43
-16;45;43
-16;45;43
-16;45;43
-16;45;43
-16;45;43
-16;45;43
-16;45;43
-16;45;43
-16;45;43
-16;45;43
-17;45;43
-15;45;43
-18;45;43
-16;45;44
-17;44;43
-18;45;43
-16;45;43
-16;45;43
-14;45;44
-16;45;43
-16;45;44
-15;45;43
-16;45;43
-14;45;44
-11;44;44
-18;45;42
-18;45;43
-15;45;44
-15;45;44
-17;45;43
-15;45;43
-15;45;43
-16;45;43
-17;45;43
-16;45;43
-16;45;43
-15;45;43
-16;45;43
-16;45;43
-16;45;43
-16;45;43
-17;45;43
-16;45;43
-15;45;43
-15;45;43
-16;45;43
-16;45;43
-16;45;43
-16;45;43
-16;45;43
-16;45;43
-16;45;43
-15;45;43
-16;45;43
-16;45;43
-15;45;43
-15;45;43
-16;45;43
-16;45;43
-15;45;43
-16;45;43
-15;45;43
-15;45;43
-15;45;43
-16;45;43
-16;45;43
-15;45;43
-16;45;43
-16;45;43
-15;45;43
-16;45;43
-16;45;43
-15;45;43
-15;45;43
-16;45;43
-15;45;43
-15;45;43
-16;45;43
-15;45;43
-16;45;43
-15;45;44
-17;45;43
-16;45;43
-16;45;43
-14;45;43
-15;45;43
-14;45;43
-13;44;43
-19;45;43
-17;45;44
-16;45;43
-15;45;43
-16;44;43
-16;45;43
-15;45;43
-19;44;43
-17;45;43
-14;45;43
-17;45;43
-15;45;43
-16;45;43
-17;45;43
-16;45;43
-16;45;43
-16;45;43
-16;45;43
-16;45;43
-16;45;43
-16;45;44
-16;45;43
-15;45;43
-16;45;43
-16;45;43
-16;45;43
-16;45;43
-15;46;44
-16;44;44
-14;45;44
-15;45;43
-15;45;43
-18;45;42
-14;46;44
-17;45;44
-16;45;43
-13;45;44
-19;44;43
-16;46;43
-15;45;43
-16;45;43
-16;45;43
-16;45;43
-16;45;43
-16;45;43
-16;45;43
-16;45;43
-16;45;43
-15;46;43
-15;45;43
-16;45;43
-16;45;43
-15;45;43
-16;45;43
-16;45;43
-16;45;43
-16;45;43
-16;45;43
-16;46;43
-15;45;42
-16;45;43
-16;45;43
-16;45;43
-15;45;43
-16;45;43
-15;45;43
-16;45;43
-16;45;43
-16;45;43
-16;45;43
-15;45;43
-16;45;43
-15;45;43
-15;45;43
-15;45;43
-16;45;43
-15;45;43
-16;45;43
-16;45;43
-16;45;43
-16;45;43
-15;45;43
-16;45;43
-16;45;43
-16;45;43
-15;45;43
-16;45;43
-15;45;43
-16;45;43
-16;45;44
-16;45;43
-15;45;43
-15;45;43
-15;45;44
-16;45;43
-16;45;43
-16;45;43
-16;45;43
-15;45;43
-17;45;43
-15;46;44
-17;45;43
-16;45;43
-16;45;43
-16;45;43
-16;45;43
-16;45;43
-15;45;43
-16;45;43
-16;45;43
-15;45;44
-15;45;43
-16;45;43
-15;45;43
-16;45;43
-17;45;43
-16;46;43
-14;45;43
-14;45;43
-15;45;43
-16;46;43
-16;45;43
-16;45;44
-14;45;44
-13;45;43
-15;45;43
-15;45;43
-16;46;43
-15;46;43
-15;45;43
-15;45;44
-15;45;43
-16;45;42
-16;46;42
-16;46;43
-16;45;43
-15;45;43
-15;45;42
-16;46;43
-15;45;43
-15;46;43
-15;45;43
-15;45;43
-15;46;43
-14;46;43
-14;46;43
-16;46;43
-18;45;42
-17;44;42
-17;45;43
-18;46;43
-15;45;43
-16;45;43
-15;45;43
-16;46;43
-16;45;43
-16;45;43
-17;45;44
-14;46;44
-19;46;42
-18;44;41
-18;45;43
-19;45;43
-18;45;43
-17;45;42
-16;45;43
-17;45;43
-18;45;42
-17;45;43
-17;45;43
-18;45;42
-17;45;43
-17;45;42
-17;45;43
-17;45;43
-17;45;43
-17;45;42
-17;45;42
-17;45;42
-17;45;43
-16;45;43
-16;45;42
-18;45;42
-16;45;43
-17;45;43
-17;45;43
-17;45;43
-16;45;43
-17;45;42
-16;45;43
-17;45;43
-16;45;43
-17;45;43
-16;45;43
-17;45;43
-17;45;43
-16;45;43
-17;45;43
-16;45;43
-17;45;43
-16;45;43
-16;45;43
-17;46;42
-16;45;43
-16;45;43
-16;46;43
-15;45;43
-17;45;42
-17;46;42
-17;45;43
-17;46;43
-16;45;42
-16;46;42
-16;45;42
-17;45;42
-18;46;42
-16;46;43
-16;45;42
-15;45;42
-17;46;42
-17;45;42
-16;46;43
-16;46;43
-16;45;42
-20;45;42
-16;46;43
-16;46;42
-16;45;42
-17;46;42
-16;45;42
-17;45;43
-17;46;43
-17;45;42
-17;45;42
-17;45;42
-17;45;43
-17;45;43
-17;45;42
-17;45;43
-17;45;43
-17;45;43
-18;45;43
-17;45;43
-16;45;42
-17;45;42
-18;45;43
-17;45;43
-17;45;43
-17;45;43
-17;45;43
-17;45;43
-17;45;43
-17;45;43
-17;45;43
-17;45;43
-17;45;42
-17;45;42
-17;45;43
-17;45;43
-19;45;42
-18;45;42
-16;45;43
-17;45;43
-18;45;42
-18;45;43
-17;45;43
-17;45;43
-16;45;43
-15;44;42
-20;45;42
-18;45;43
-17;45;42
-17;45;43
-18;45;42
-18;45;42
-18;45;43
-18;45;43
-17;45;43
-18;45;42
-18;45;42
-17;45;42
-17;45;42
-19;45;42
-17;45;43
-17;45;43
-16;45;42
-18;45;42
-18;46;42
-16;45;43
-18;45;42
-18;45;42
-17;46;42
-17;46;42
-17;45;42
-18;45;42
-18;46;42
-17;45;42
-17;45;42
-17;46;42
-17;45;42
-18;45;42
-17;45;42
-18;45;42
-17;46;42
-17;46;42
-17;46;42
-17;46;42
-17;46;42
-17;46;42
-17;45;42
-17;45;42
-17;45;42
-16;46;42
-15;46;42
-13;45;42
-16;44;42
-24;45;42
-25;46;42
-22;46;42
-21;45;41
-21;45;41
-20;45;42
-19;45;41
-20;45;42
-20;45;42
-19;45;42
-19;45;42
-18;45;42
-18;45;42
-19;45;42
-18;45;42
-19;45;42
-19;45;42
-18;45;42
-18;45;43
-18;45;43
-18;45;42
-18;45;42
-18;45;42
-18;45;42
-18;45;42
-18;45;43
-18;45;42
-18;45;43
-18;45;42
-18;45;42
-18;45;42
-18;45;42
-18;45;42
-18;45;42
-18;45;43
-18;45;42
-18;45;42
-18;45;42
-18;45;42
-18;45;42
-18;45;42
-18;45;42
-19;45;42
-18;45;43
-18;45;42
-17;45;42
-18;45;42
-18;45;42
-18;45;42
-18;45;42
-18;45;42
-18;45;42
-18;45;42
-18;45;42
-18;45;42
-18;45;42
-18;45;42
-18;45;42
-18;45;42
-18;45;42
-18;45;42
-18;45;42
-18;45;42
-18;45;42
-18;45;42
-18;46;42
-18;45;42
-18;46;42
-18;45;42
-18;45;42
-18;45;42
-17;45;42
-17;46;42
-18;45;42
-18;45;42
-17;45;42
-17;45;42
-18;45;42
-18;45;42
-17;46;42
-17;45;42
-18;45;42
-18;45;42
-18;45;42
-18;45;42
-17;45;42
-18;45;42
-18;45;42
-18;45;43
-18;45;42
-18;45;42
-17;45;42
-18;45;42
-18;45;42
-18;45;42
-18;45;42
-18;45;43
-18;45;42
-18;45;42
-18;45;43
-18;45;42
-19;45;42
-18;45;43
-17;45;42
-18;45;43
-18;45;42
-17;45;42
-18;45;43
-18;45;42
-18;45;42
-17;45;42
-18;45;43
-18;45;42
-18;45;43
-18;45;43
-18;45;42
-18;45;42
-18;45;42
-17;45;42
-18;45;42
-18;45;43
-18;45;43
-18;45;43
-18;45;42
-17;45;42
-18;45;42
-18;45;43
-17;45;43
-18;45;42
-18;45;42
-18;45;43
-18;45;43
-18;45;42
-18;45;42
-18;45;42
-18;45;42
-17;45;42
-18;45;42
-18;45;42
-18;45;42
-18;45;42
-18;45;42
-18;45;42
-17;45;43
-18;45;42
-17;45;42
-17;45;42
-18;45;42
-18;45;42
-17;45;43
-18;45;42
-18;45;42
-17;45;42
-17;45;42
-18;45;42
-17;46;43
-17;45;42
-17;45;42
-18;45;42
-17;46;43
-17;45;41
-20;44;42
-17;45;42
-17;46;43
-17;45;43
-17;45;42
-17;45;42
-18;45;43
-17;45;43
-18;45;42
-18;45;42
-17;45;42
-17;45;42
-17;45;43
-17;45;43
-18;45;43
-17;45;43
-17;45;42
-18;45;42
-18;45;42
-17;45;43
-17;45;43
-17;45;43
-18;45;43
-17;45;43
-17;45;43
-17;45;42
-17;45;42
-17;45;43
-18;45;43
-19;45;43
-18;45;42
-17;45;43
-17;45;43
-18;45;42
-18;45;42
-18;45;43
-17;45;43
-18;45;43
-17;45;43
-17;45;43
-17;45;43
-17;45;44
-14;45;46
-18;45;43
-18;44;43
-17;46;43
-19;46;42
-21;47;41
-25;47;38
-18;48;47
-27;46;46
-50;52;41
-38;49;30
-26;47;33
-15;48;36
-14;45;32
-12;44;31
-46;48;18
-50;48;18
-69;9;-32
-53;120;30
-31;33;-7
-34;55;10
-21;52;18
-24;56;19
-20;58;23
-15;52;28
-18;52;29
-18;56;29
-14;55;27
-23;52;18
-26;54;17
-29;53;13
-30;51;10
-39;48;9
-44;45;18
-44;43;24
-45;44;24
-48;44;24
-47;46;21
-47;46;25
-38;45;30
-33;40;35
-42;49;30
-49;46;30
-43;45;28
-35;46;28
-37;45;27
-41;43;25
-40;44;26
-35;43;27
-35;38;24
-39;46;25
-46;44;27
-45;43;29
-34;45;29
-34;44;27
-41;45;25
-41;45;25
-36;46;26
-37;46;26
-40;45;26
-40;46;26
-37;45;27
-37;44;27
-37;44;27
-41;45;27
-39;47;27
-40;47;27
-35;49;28
-40;46;27
-35;49;26
-37;47;25
-39;47;23
-37;47;23
-37;47;20
-36;48;19
-36;48;17
-37;48;16
-39;49;17
-40;47;22
-39;48;23
-38;48;23
-39;48;22
-39;48;21
-35;48;24
-35;47;24
-37;47;23
-39;47;22
-37;48;22
-37;48;22
-38;47;22
-37;47;22
-38;48;22
-37;48;23
-38;47;22
-38;47;22
-38;48;22
-38;47;22
-38;47;22
-37;47;22
-37;48;23
-38;47;22
-37;48;22
-37;47;22
-37;47;22
-37;47;22
-38;47;22
-38;48;22
-37;47;23
-38;48;22
-38;47;22
-37;47;22
-38;47;22
-37;47;22
-39;47;22
-38;48;22
-37;47;22
-38;48;22
-38;48;22
-37;47;22
-37;48;22
-38;47;22
-38;47;22
-37;47;22
-37;47;22
-38;47;22
-38;48;22
-38;47;22
-38;47;22
-38;48;22
-38;48;22
-38;47;22
-37;47;22
-37;48;22
-38;47;22
-38;48;22
-38;48;22
-38;48;22
-37;48;22
-37;48;22
-38;48;22
-38;48;22
-37;48;21
-38;48;22
-38;48;22
-38;48;22
-38;48;22
-37;47;22
-37;48;21
-38;48;22
-38;48;22
-37;48;22
-37;48;21
-37;48;21
-38;48;21
-39;48;21
-39;49;20
-38;47;20
-36;48;21
-39;48;20
-39;48;20
-38;48;22
-38;48;22
-38;47;22
-38;47;22
-38;48;21
-38;47;21
-38;48;21
-38;48;21
-39;48;21
-38;48;22
-39;48;22
-38;47;21
-37;48;21
-38;48;21
-38;48;21
-37;48;22
-38;49;22
-37;48;24
-38;48;22
-37;47;23
-39;46;22
-38;47;23
-36;47;23
-38;47;22
-37;47;23
-37;47;24
-38;48;25
-36;47;24
-37;47;24
-38;47;24
-37;47;24
-37;47;24
-37;47;24
-37;47;24
-37;47;24
-38;47;24
-38;48;24
-39;47;24
-35;48;28
-40;46;26
-37;47;26
-40;48;24
-41;47;22
-46;48;22
-50;48;21
-54;49;19
-48;49;19
-32;50;21
-23;51;22
-16;52;21
-9;53;25
-4;53;27
-15;53;24
-17;55;27
-6;55;33
-8;55;34
-10;53;36
-11;55;35
-18;55;32
-13;54;32
-10;55;32
-12;55;31
-10;55;31
-13;55;30
-14;54;31
-7;55;32
-7;55;30
-5;56;31
-6;57;31
-2;58;34
-4;57;35
-13;56;32
-22;55;25
-26;55;24
-20;56;25
-29;49;23
-31;50;21
-21;50;28
-19;51;29
-39;49;24
-43;48;26
-28;51;35
-20;50;35
-28;52;26
-25;48;35
-22;47;37
-24;47;36
-23;47;38
-29;48;35
-26;48;36
-19;47;40
-23;47;38
-23;47;37
-20;46;39
-24;46;37
-23;47;41
-21;46;40
-21;45;42
-22;46;41
-21;45;40
-23;45;43
-23;45;43
-25;45;39
-30;44;38
-34;44;37
-33;45;36
-23;48;37
-17;50;40
-41;57;23
-15;59;24
-12;60;22
-6;58;21
-6;56;22
-4;54;23
-4;55;26
-2;57;30
-4;57;29
-8;56;30
-10;55;32
-14;55;31
-11;55;33
-9;55;33
-12;55;31
-14;55;31
-12;55;32
-11;55;32
-10;55;32
-13;55;30
-9;55;32
-10;55;32
-11;55;34
