50694.4100001
0.0;0.734408617019653
0.734410047531,0.734408617019653
1.46881985664,0.734408617019653
2.23447990417,0.765660047531128
2.96888995171,0.734408617019653
3.67203998566,0.703157186508179
8.54727005959,0.671905755996704
9.15666985512,0.609402894973755
9.81294989586,0.656280040740967
10.4535999298,0.640654325485229
11.0942599773,0.640654325485229
11.7349100113,0.640654325485229
12.422440052,0.687531471252441
13.0787198544,0.656280040740967
13.7662498951,0.687531471252441
14.4537899494,0.687531471252441
15.1413199902,0.687531471252441
15.8444700241,0.703157186508179
16.56325984,0.718782901763916
17.2820398808,0.718782901763916
18.0008199215,0.718782901763916
18.703979969,0.703157186508179
19.4227600098,0.718782901763916
20.1571700573,0.734408617019653
20.8603298664,0.703157186508179
21.5634899139,0.703157186508179
22.2822699547,0.718782901763916
23.0010499954,0.718782901763916
23.704210043,0.703157186508179
24.4386198521,0.734408617019653
25.1730298996,0.734408617019653
25.9386899471,0.765660047531128
26.6730999947,0.734408617019653
27.4387600422,0.765660047531128
28.1731598377,0.734408617019653
28.9075698853,0.734408617019653
29.6263599396,0.718782901763916
30.3138899803,0.687531471252441
31.0170400143,0.703157186508179
31.6889500618,0.671905755996704
32.3764798641,0.687531471252441
33.0796399117,0.703157186508179
33.7671699524,0.687531471252441
34.4703299999,0.703157186508179
35.1578600407,0.687531471252441
35.8610198498,0.703157186508179
36.5797998905,0.718782901763916
37.2673299313,0.687531471252441
37.986109972,0.718782901763916
38.7049000263,0.718782901763916
39.4236798286,0.718782901763916
40.1580898762,0.734408617019653
40.8768699169,0.718782901763916
41.5800299644,0.703157186508179
42.283190012,0.703157186508179
42.9707200527,0.687531471252441
43.658249855,0.687531471252441
44.3457798958,0.687531471252441
45.0333099365,0.687531471252441
45.7208399773,0.687531471252441
46.408370018,0.687531471252441
47.1115300655,0.703157186508179
47.8303098679,0.718782901763916
48.5490999222,0.718782901763916
49.2678799629,0.718782901763916
50.0179100037,0.750034332275391
50.767950058,0.750034332275391
51.5179798603,0.750034332275391
52.2680199146,0.750034332275391
53.0180499554,0.750034332275391
53.7368299961,0.718782901763916
54.4868700504,0.750034332275391
55.1900298595,0.703157186508179
55.9088099003,0.718782901763916
56.596339941,0.687531471252441
57.2994999886,0.703157186508179
58.0182800293,0.718782901763916
58.7058098316,0.687531471252441
59.3933398724,0.687531471252441
60.1121299267,0.718782901763916
60.8152799606,0.703157186508179
61.534070015,0.718782901763916
62.2684700489,0.734408617019653
63.002879858,0.734408617019653
63.7529199123,0.750034332275391
64.4716999531,0.718782901763916
65.2373600006,0.765660047531128
65.9874000549,0.750034332275391
66.7061798573,0.718782901763916
67.424959898,0.718782901763916
68.1437399387,0.718782901763916
68.8468999863,0.703157186508179
69.5500600338,0.703157186508179
70.2844698429,0.734408617019653
70.9876198769,0.703157186508179
71.7220299244,0.734408617019653
72.4564399719,0.734408617019653
73.1596000195,0.703157186508179
73.9252598286,0.765660047531128
74.6440398693,0.718782901763916
75.3784499168,0.734408617019653
76.0972299576,0.718782901763916
76.7847599983,0.687531471252441
77.5348000526,0.750034332275391
78.2066998482,0.671905755996704
78.8629798889,0.656280040740967
103.004709959,0.625028610229492
107.036149979,0.671905755996704
107.801810026,0.765660047531128
108.47371006,0.671905755996704
109.192499876,0.718782901763916
109.83314991,0.640654325485229
114.598999977,0.671905755996704
118.599179983,0.765660047531128
119.396090031,0.796911478042603
120.22424984,0.828162908554077
120.974289894,0.750034332275391
127.396460056,0.656280040740967
139.365749836,0.718782901763916
140.006409883,0.640654325485229
140.647059917,0.640654325485229
141.334589958,0.687531471252441
142.006500006,0.671905755996704
142.725280046,0.718782901763916
143.412809849,0.687531471252441
144.147219896,0.734408617019653
149.678730011,0.656280040740967
150.350630045,0.671905755996704
151.022539854,0.671905755996704
151.725689888,0.703157186508179
152.460099936,0.734408617019653
153.21013999,0.750034332275391
154.069550037,0.859414339065552
154.75707984,0.687531471252441
155.569619894,0.81253719329834
156.319649935,0.750034332275391
157.069689989,0.750034332275391
157.75722003,0.687531471252441
158.460379839,0.703157186508179
159.132279873,0.671905755996704
159.819819927,0.687531471252441
160.460469961,0.640654325485229
161.116750002,0.656280040740967
161.773030043,0.656280040740967
162.460559845,0.687531471252441
163.148089886,0.687531471252441
163.819999933,0.671905755996704
164.507529974,0.687531471252441
165.226310015,0.718782901763916
165.960720062,0.734408617019653
166.679499865,0.718782901763916
167.382659912,0.703157186508179
168.05456996,0.671905755996704
168.7421,0.687531471252441
169.398380041,0.656280040740967
170.007779837,0.609402894973755
170.695309877,0.687531471252441
171.351589918,0.656280040740967
171.929739952,0.57815146446228
172.554769993,0.625028610229492
173.19543004,0.640654325485229
173.804829836,0.609402894973755
174.398609877,0.593777179718018
175.023639917,0.625028610229492
175.617409945,0.593777179718018
176.258069992,0.640654325485229
176.867470026,0.609402894973755
177.492499828,0.625028610229492
178.070649862,0.57815146446228
178.695679903,0.625028610229492
179.289459944,0.593777179718018
179.883229971,0.593777179718018
180.477010012,0.593777179718018
181.070790052,0.593777179718018
181.680189848,0.609402894973755
182.289589882,0.609402894973755
182.914619923,0.625028610229492
183.55527997,0.640654325485229
191.102499962,0.656280040740967
191.821280003,0.718782901763916
192.55569005,0.734408617019653
193.352599859,0.796911478042603
194.055759907,0.703157186508179
197.634049892,0.734408617019653
198.368449926,0.734408617019653
199.087239981,0.718782901763916
199.774770021,0.687531471252441
200.477929831,0.703157186508179
201.165459871,0.687531471252441
201.899869919,0.734408617019653
202.52489996,0.625028610229492
203.196799994,0.671905755996704
203.837460041,0.640654325485229
204.587489843,0.750034332275391
205.243769884,0.656280040740967
205.915679932,0.671905755996704
206.603209972,0.687531471252441
207.290740013,0.687531471252441
207.947020054,0.656280040740967
208.634549856,0.687531471252441
209.322079897,0.687531471252441
209.993989944,0.671905755996704
210.665889978,0.671905755996704
211.322170019,0.656280040740967
212.00970006,0.687531471252441
222.791450024,0.609402894973755
223.353970051,0.562525749206543
224.02587986,0.671905755996704
224.619659901,0.593777179718018
225.213429928,0.593777179718018
225.854089975,0.640654325485229
226.385360003,0.531274318695068
226.99477005,0.609402894973755
227.619789839,0.625028610229492
228.229199886,0.609402894973755
228.791719913,0.562525749206543
229.401129961,0.609402894973755
230.010529995,0.609402894973755
230.588680029,0.57815146446228
231.166830063,0.57815146446228
231.744979858,0.57815146446228
232.338759899,0.593777179718018
232.948159933,0.609402894973755
233.541939974,0.593777179718018
234.120090008,0.57815146446228
234.698240042,0.57815146446228
235.292019844,0.593777179718018
235.901419878,0.609402894973755
236.542079926,0.640654325485229
237.167109966,0.625028610229492
237.87026,0.703157186508179
238.714050055,0.843788623809814
239.542209864,0.828162908554077
240.417249918,0.875040054321289
241.307919979,0.890665829181671
242.167330027,0.859414339065552
242.932989836,0.765660047531128
243.68302989,0.750034332275391
244.479939938,0.796911478042603
245.229969978,0.750034332275391
245.980010033,0.750034332275391
246.714419842,0.734408617019653
247.495699883,0.781285762786865
248.214489937,0.718782901763916
248.948899984,0.734408617019653
249.683300018,0.734408617019653
250.464589834,0.781285762786865
251.277129889,0.81253719329834
251.995909929,0.718782901763916
252.730319977,0.734408617019653
253.495980024,0.765660047531128
254.199139833,0.703157186508179
254.886669874,0.687531471252441
255.605449915,0.718782901763916
256.277359962,0.671905755996704
256.949259996,0.671905755996704
257.668040037,0.718782901763916
258.293069839,0.625028610229492
258.996229887,0.703157186508179
259.715009928,0.718782901763916
260.418169975,0.703157186508179
261.105700016,0.687531471252441
261.824480057,0.718782901763916
262.558889866,0.734408617019653
263.262049913,0.703157186508179
263.980829954,0.718782901763916
264.683990002,0.703157186508179
265.418400049,0.734408617019653
266.105929852,0.687531471252441
266.793459892,0.687531471252441
267.480989933,0.687531471252441
268.168519974,0.687531471252441
268.871680021,0.703157186508179
269.527960062,0.656280040740967
270.231119871,0.703157186508179
270.918649912,0.687531471252441
271.606179953,0.687531471252441
272.27809,0.671905755996704
272.981250048,0.703157186508179
273.684399843,0.703157186508179
274.371929884,0.687531471252441
275.059469938,0.687531471252441
275.762619972,0.703157186508179
276.49703002,0.734408617019653
277.231439829,0.734408617019653
277.91896987,0.687531471252441
278.653379917,0.734408617019653
279.325289965,0.671905755996704
280.044070005,0.718782901763916
280.731600046,0.687531471252441
281.434759855,0.703157186508179
282.153539896,0.718782901763916
282.841069937,0.687531471252441
283.575479984,0.734408617019653
284.231760025,0.656280040740967
284.919290066,0.687531471252441
285.638069868,0.718782901763916
286.325609922,0.687531471252441
287.044389963,0.718782901763916
287.747550011,0.703157186508179
288.466330051,0.718782901763916
289.185109854,0.718782901763916
289.919519901,0.734408617019653
290.653929949,0.734408617019653
291.357089996,0.703157186508179
292.122750044,0.765660047531128
292.825899839,0.703157186508179
293.529059887,0.703157186508179
294.247839928,0.718782901763916
294.935379982,0.687531471252441
295.622910023,0.687531471252441
296.326060057,0.703157186508179
297.013599873,0.687531471252441
297.747999907,0.734408617019653
298.435539961,0.687531471252441
299.138689995,0.703157186508179
299.841850042,0.703157186508179
300.529379845,0.687531471252441
301.248159885,0.718782901763916
301.93569994,0.687531471252441
302.638849974,0.703157186508179
303.342010021,0.703157186508179
303.935790062,0.593777179718018
304.592069864,0.656280040740967
305.279599905,0.687531471252441
305.935879946,0.656280040740967
306.623409986,0.687531471252441
307.279690027,0.656280040740967
307.93596983,0.656280040740967
308.607879877,0.671905755996704
309.248529911,0.640654325485229
309.920439959,0.671905755996704
310.607969999,0.687531471252441
311.248620033,0.640654325485229
311.920529842,0.671905755996704
312.592429876,0.671905755996704
313.279959917,0.687531471252441
313.951869965,0.671905755996704
314.639400005,0.687531471252441
315.326930046,0.687531471252441
320.639679909,0.671905755996704
321.295959949,0.656280040740967
321.98348999,0.687531471252441
322.671020031,0.687531471252441
323.37417984,0.703157186508179
324.139839888,0.765660047531128
324.889869928,0.750034332275391
325.671159983,0.781285762786865
326.49932003,0.828162908554077
327.249349833,0.750034332275391
327.999389887,0.750034332275391
328.765049934,0.765660047531128
329.468209982,0.703157186508179
330.171360016,0.703157186508179
330.858890057,0.687531471252441
331.562049866,0.703157186508179
332.233959913,0.671905755996704
332.858989954,0.625028610229492
333.515269995,0.656280040740967
334.171550035,0.656280040740967
334.843449831,0.671905755996704
335.484109879,0.640654325485229
336.156009912,0.671905755996704
336.82791996,0.671905755996704
337.499819994,0.671905755996704
338.140480042,0.640654325485229
338.828009844,0.687531471252441
339.499909878,0.671905755996704
340.171819925,0.671905755996704
340.859349966,0.687531471252441
341.531260014,0.671905755996704
342.234420061,0.703157186508179
342.953199863,0.718782901763916
343.640729904,0.687531471252441
344.312639952,0.671905755996704
345.000169992,0.687531471252441
345.703320026,0.703157186508179
346.297099829,0.593777179718018
347.047139883,0.750034332275391
347.703419924,0.656280040740967
348.328439951,0.625028610229492
348.953469992,0.625028610229492
349.594130039,0.640654325485229
350.250409842,0.656280040740967
350.969189882,0.718782901763916
351.562969923,0.593777179718018
352.250499964,0.687531471252441
352.953660011,0.703157186508179
353.578680038,0.625028610229492
354.297469854,0.718782901763916
354.953749895,0.656280040740967
355.656899929,0.703157186508179
356.328809977,0.671905755996704
357.016340017,0.687531471252441
357.735120058,0.718782901763916
358.39139986,0.656280040740967
359.141439915,0.750034332275391
359.828969955,0.687531471252441
360.532130003,0.703157186508179
361.204030037,0.671905755996704
361.969689846,0.765660047531128
362.625969887,0.656280040740967
363.329129934,0.703157186508179
364.032289982,0.703157186508179
364.735450029,0.703157186508179
365.407350063,0.671905755996704
366.141759872,0.734408617019653
366.81366992,0.671905755996704
367.485569954,0.671905755996704
368.110599995,0.625028610229492
368.876260042,0.765660047531128
394.096159935,0.734408617019653
394.736819983,0.640654325485229
407.893669844,0.671905755996704
408.581199884,0.687531471252441
409.221859932,0.640654325485229
409.893759966,0.671905755996704
410.581290007,0.687531471252441
411.253200054,0.671905755996704
424.347549915,0.687531471252441
425.050709963,0.703157186508179
465.396299839,0.437520027160645
477.615609884,0.625028610229492
491.819390059,0.703157186508179
492.522539854,0.703157186508179
493.225699902,0.703157186508179
493.913229942,0.687531471252441
494.61638999,0.703157186508179
511.523409843,0.687531471252441
512.304699898,0.781285762786865
513.070359945,0.765660047531128
513.773519993,0.703157186508179
514.414170027,0.640654325485229
515.164209843,0.750034332275391
521.461369991,0.750034332275391
522.305160046,0.843788623809814
523.039569855,0.734408617019653
523.758349895,0.718782901763916
524.477129936,0.718782901763916
525.195919991,0.718782901763916
525.883450031,0.687531471252441
526.539729834,0.656280040740967
527.196009874,0.656280040740967
527.852289915,0.656280040740967
528.524189949,0.671905755996704
529.18046999,0.656280040740967
546.306259871,0.750034332275391
547.056289911,0.750034332275391
547.806329966,0.750034332275391
548.525110006,0.718782901763916
564.666470051,0.687531471252441
565.36962986,0.703157186508179
576.557639837,0.703157186508179
577.260799885,0.703157186508179
577.948329926,0.687531471252441
578.635859966,0.687531471252441
579.339020014,0.703157186508179
604.77767992,0.718782901763916
605.433959961,0.656280040740967
606.058990002,0.625028610229492
606.746520042,0.687531471252441
609.887290001,0.609402894973755
610.496690035,0.609402894973755
611.106099844,0.609402894973755
611.746749878,0.640654325485229
612.418659925,0.671905755996704
635.310329914,0.640654325485229
635.982239962,0.671905755996704
650.436019897,0.57815146446228
651.029799938,0.593777179718018
651.607949972,0.57815146446228
652.217350006,0.609402894973755
652.826760054,0.609402894973755
653.420529842,0.593777179718018
654.014309883,0.593777179718018
654.701839924,0.687531471252441
655.420629978,0.718782901763916
656.092530012,0.671905755996704
656.88944006,0.796911478042603
657.717609882,0.828162908554077
658.623899937,0.906291484832764
659.452059984,0.828162908554077
660.295850039,0.843788623809814
661.186509848,0.890665829181671
662.030299902,0.843788623809814
662.905339956,0.875040054321289
663.764760017,0.859414339065552
664.624170065,0.859414339065552
665.405459881,0.781285762786865
666.202369928,0.796911478042603
666.999279976,0.796911478042603
667.78057003,0.781285762786865
668.499349833,0.718782901763916
669.280639887,0.781285762786865
670.046299934,0.765660047531128
670.765079975,0.718782901763916
671.468240023,0.703157186508179
672.171390057,0.703157186508179
672.843299866,0.671905755996704
673.562079906,0.718782901763916
674.327739954,0.765660047531128
675.155900002,0.828162908554077
675.952820063,0.796911478042603
676.702849865,0.750034332275391
677.421629906,0.718782901763916
678.156039953,0.734408617019653
678.859200001,0.703157186508179
679.546730042,0.687531471252441
680.218639851,0.671905755996704
686.000149965,0.750034332275391
686.797060013,0.796911478042603
687.547099829,0.750034332275391
688.281509876,0.734408617019653
689.000289917,0.718782901763916
689.703449965,0.703157186508179
690.406599998,0.703157186508179
691.109760046,0.703157186508179
691.781669855,0.671905755996704
692.437949896,0.656280040740967
693.14109993,0.703157186508179
693.844259977,0.703157186508179
694.516170025,0.671905755996704
701.813369989,0.687531471252441
702.454030037,0.640654325485229
703.141559839,0.687531471252441
703.782209873,0.640654325485229
704.422869921,0.640654325485229
705.110399961,0.687531471252441
705.766680002,0.656280040740967
706.454210043,0.687531471252441
707.141739845,0.687531471252441
707.9230299,0.781285762786865
708.751189947,0.828162908554077
709.407469988,0.656280040740967
710.251260042,0.843788623809814
711.001299858,0.750034332275391
711.782579899,0.781285762786865
712.532619953,0.750034332275391
713.220149994,0.687531471252441
713.985810041,0.765660047531128
714.673339844,0.687531471252441
715.345239878,0.671905755996704
716.017149925,0.671905755996704
726.408249855,0.687531471252441
727.080159903,0.671905755996704
727.736439943,0.656280040740967
728.377089977,0.640654325485229
729.033370018,0.656280040740967
729.674020052,0.640654325485229
730.314679861,0.640654325485229
730.970959902,0.656280040740967
731.611609936,0.640654325485229
732.267889977,0.656280040740967
732.924170017,0.656280040740967
733.596080065,0.671905755996704
734.299239874,0.703157186508179
734.955519915,0.656280040740967
735.643049955,0.687531471252441
736.299329996,0.656280040740967
737.049360037,0.750034332275391
737.705639839,0.656280040740967
738.39316988,0.687531471252441
739.002579927,0.609402894973755
739.752609968,0.750034332275391
740.408890009,0.656280040740967
741.049550056,0.640654325485229
741.690199852,0.640654325485229
742.346479893,0.656280040740967
749.128039837,0.687531471252441
749.784319878,0.656280040740967
750.471849918,0.687531471252441
751.143759966,0.671905755996704
751.800040007,0.656280040740967
752.456320047,0.656280040740967
753.11259985,0.656280040740967
753.76887989,0.656280040740967
754.440779924,0.671905755996704
755.097059965,0.656280040740967
755.737720013,0.640654325485229
756.456500053,0.718782901763916
757.159659863,0.703157186508179
757.878439903,0.718782901763916
758.581599951,0.703157186508179
759.331629992,0.750034332275391
760.019160032,0.687531471252441
760.722319841,0.703157186508179
761.394229889,0.671905755996704
762.128639936,0.734408617019653
762.784919977,0.656280040740967
763.456820011,0.671905755996704
764.128730059,0.671905755996704
764.847509861,0.718782901763916
765.488159895,0.640654325485229
766.175699949,0.687531471252441
766.878849983,0.703157186508179
767.566380024,0.687531471252441
768.238289833,0.671905755996704
768.941449881,0.703157186508179
769.660229921,0.718782901763916
770.379009962,0.718782901763916
771.08217001,0.703157186508179
771.80095005,0.718782901763916
772.504109859,0.703157186508179
773.176019907,0.671905755996704
773.879169941,0.703157186508179
774.566699982,0.687531471252441
775.238610029,0.671905755996704
775.879260063,0.640654325485229
776.598049879,0.718782901763916
777.25432992,0.656280040740967
777.973109961,0.718782901763916
778.551259995,0.57815146446228
779.176290035,0.625028610229492
779.832569838,0.656280040740967
780.504479885,0.671905755996704
781.176379919,0.671905755996704
781.86390996,0.687531471252441
782.551450014,0.687531471252441
783.238980055,0.687531471252441
783.94212985,0.703157186508179
784.614039898,0.671905755996704
785.285949945,0.671905755996704
785.942229986,0.656280040740967
786.598510027,0.656280040740967
787.254789829,0.656280040740967
787.91106987,0.656280040740967
788.551719904,0.640654325485229
789.207999945,0.656280040740967
789.864279985,0.656280040740967
790.520560026,0.656280040740967
791.16121006,0.640654325485229
791.848749876,0.687531471252441
792.52064991,0.671905755996704
793.192559958,0.671905755996704
793.880089998,0.687531471252441
794.551990032,0.671905755996704
795.208269835,0.656280040740967
795.880179882,0.671905755996704
796.536459923,0.656280040740967
799.755359888,0.640654325485229
800.427259922,0.671905755996704
801.114799976,0.687531471252441
801.739820004,0.625028610229492
802.411730051,0.671905755996704
803.08363986,0.671905755996704
803.755539894,0.671905755996704
804.396199942,0.640654325485229
805.036849976,0.640654325485229
805.693130016,0.656280040740967
806.318160057,0.625028610229492
806.958809853,0.640654325485229
807.5994699,0.640654325485229
808.255749941,0.656280040740967
808.912029982,0.656280040740967
809.568310022,0.656280040740967
810.271460056,0.703157186508179
810.974619865,0.703157186508179
811.662149906,0.687531471252441
812.349679947,0.687531471252441
813.037220001,0.687531471252441
813.709120035,0.671905755996704
814.381029844,0.671905755996704
827.31911993,0.609402894973755
828.053529978,0.734408617019653
833.038130045,0.718782901763916
833.694409847,0.656280040740967
834.397569895,0.703157186508179
862.570729971,0.765660047531128
863.320770025,0.750034332275391
864.039550066,0.718782901763916
864.836459875,0.796911478042603
884.884249926,0.718782901763916
885.63428998,0.750034332275391
886.415570021,0.781285762786865
887.228109837,0.81253719329834
888.040649891,0.81253719329834
888.837559938,0.796911478042603
898.009860039,0.625028610229492
898.634880066,0.625028610229492
899.322419882,0.687531471252441
900.088079929,0.765660047531128
900.884989977,0.796911478042603
901.713150024,0.828162908554077
902.541309834,0.828162908554077
903.338219881,0.796911478042603
904.072629929,0.734408617019653
904.728909969,0.656280040740967
957.231319904,0.562525749206543
969.90376997,0.703157186508179
970.591300011,0.687531471252441
971.294460058,0.703157186508179
971.966369867,0.671905755996704
972.653899908,0.687531471252441
973.325799942,0.671905755996704
973.950829983,0.625028610229492
974.65399003,0.703157186508179
975.404019833,0.750034332275391
978.51354003,0.640654325485229
979.169819832,0.656280040740967
979.763599873,0.593777179718018
980.451129913,0.687531471252441
981.091779947,0.640654325485229
988.201479912,0.625028610229492
988.842139959,0.640654325485229
989.451539993,0.609402894973755
990.060940027,0.609402894973755
990.639099836,0.57815146446228
991.232869864,0.593777179718018
991.811019897,0.57815146446228
992.404799938,0.593777179718018
993.014199972,0.609402894973755
993.670480013,0.656280040740967
994.34239006,0.671905755996704
995.01429987,0.671905755996704
995.67057991,0.656280040740967
996.311229944,0.640654325485229
996.967509985,0.656280040740967
997.592540026,0.625028610229492
998.217570066,0.625028610229492
998.826969862,0.609402894973755
999.451999903,0.625028610229492
1000.03014994,0.57815146446228
1000.62392998,0.593777179718018
1001.20208001,0.57815146446228
1001.79586005,0.593777179718018
1002.42087984,0.625028610229492
1003.09278989,0.671905755996704
1003.79594994,0.703157186508179
1004.54597998,0.750034332275391
1005.32727003,0.781285762786865
1006.12417984,0.796911478042603
1006.88983989,0.765660047531128
1007.67111993,0.781285762786865
1008.42115998,0.750034332275391
1009.18682003,0.765660047531128
1009.90559983,0.718782901763916
1010.62438989,0.718782901763916
1011.34316993,0.718782901763916
1049.61053991,0.671905755996704
