79087.77
0.0;0.57815146446228
2.70324993134,0.531274318695068
3.28139996529,0.57815146446228
3.84393000603,0.562525749206543
6.67217993736,0.656280040740967
99.9889500141,1.14067721366882
104.739170074,0.625028610229492
105.28606987,0.546900033950806
105.848589897,0.562525749206543
106.442369938,0.593777179718018
204.024960041,0.640654325485229
204.618740082,0.593777179718018
205.243769884,0.625028610229492
249.417670012,0.593777179718018
249.964570045,0.546900033950806
250.573970079,0.609402894973755
251.120869875,0.546900033950806
251.714649916,0.593777179718018
252.26154995,0.546900033950806
266.793459892,0.593777179718018
267.340359926,0.546900033950806
267.88725996,0.546900033950806
268.449790001,0.562525749206543
269.027940035,0.57815146446228
271.840569973,0.609402894973755
272.418720007,0.57815146446228
272.981250048,0.562525749206543
273.528150082,0.546900033950806
274.106299877,0.57815146446228
274.668819904,0.562525749206543
275.231349945,0.562525749206543
275.778249979,0.546900033950806
278.54399991,0.546900033950806
279.090899944,0.546900033950806
279.637799978,0.546900033950806
280.200330019,0.562525749206543
280.747230053,0.546900033950806
281.325380087,0.57815146446228
281.856649876,0.531274318695068
284.684910059,0.57815146446228
285.247430086,0.562525749206543
285.809959888,0.562525749206543
286.403729916,0.593777179718018
290.903939962,0.593777179718018
291.450839996,0.546900033950806
291.982120037,0.531274318695068
445.692280054,0.671905755996704
613.55934,0.546900033950806
614.028110027,0.468771457672119
620.497149944,0.57815146446228
621.059679985,0.562525749206543
646.076449871,0.546900033950806
646.732729912,0.656280040740967
647.232749939,0.500022888183594
647.904659986,0.671905755996704
650.811039925,0.593777179718018
651.373569965,0.562525749206543
651.982969999,0.609402894973755
652.561120033,0.57815146446228
653.108020067,0.546900033950806
653.82679987,0.718782901763916
662.499079943,0.562525749206543
663.045979977,0.546900033950806
665.842979908,0.515648603439331
666.514879942,0.671905755996704
667.077409983,0.562525749206543
667.702440023,0.625028610229492
723.892509937,0.593777179718018
724.517539978,0.625028610229492
728.220829964,0.640654325485229
728.814610004,0.593777179718018
736.81498003,0.57815146446228
737.502510071,0.687531471252441
738.080659866,0.57815146446228
738.6900599,0.609402894973755
739.330719948,0.640654325485229
757.065900087,0.593777179718018
757.69092989,0.625028610229492
758.300339937,0.609402894973755
758.894109964,0.593777179718018
759.519140005,0.625028610229492
760.128540039,0.609402894973755
775.582380056,0.593777179718018
778.520009995,0.593777179718018
779.129410028,0.609402894973755
779.738820076,0.609402894973755
780.332590103,0.593777179718018
780.957619905,0.625028610229492
781.535769939,0.57815146446228
782.12954998,0.593777179718018
782.738950014,0.609402894973755
788.051699877,0.593777179718018
788.692349911,0.640654325485229
789.317379951,0.625028610229492
789.926779985,0.609402894973755
790.551810026,0.625028610229492
791.176840067,0.625028610229492
791.801869869,0.625028610229492
792.42689991,0.625028610229492
793.020669937,0.593777179718018
793.630079985,0.609402894973755
810.599600077,0.609402894973755
811.193379879,0.593777179718018
811.78715992,0.593777179718018
812.38093996,0.593777179718018
813.005959988,0.625028610229492
813.552860022,0.546900033950806
814.177890062,0.625028610229492
814.818549871,0.640654325485229
815.443579912,0.625028610229492
816.084229946,0.640654325485229
816.709259987,0.625028610229492
817.412420034,0.703157186508179
817.974940062,0.562525749206543
818.568720102,0.593777179718018
819.303129911,0.734408617019653
884.540489912,0.640654325485229
885.056139946,0.515648603439331
905.275810003,0.531274318695068
905.916470051,0.640654325485229
906.541500092,0.625028610229492
907.10401988,0.562525749206543
907.791549921,0.687531471252441
908.400959969,0.609402894973755
990.764100075,0.656280040740967
991.34224987,0.57815146446228
1051.23562002,0.640654325485229
1051.84502006,0.609402894973755
1052.5013001,0.656280040740967
1053.14195991,0.640654325485229
1053.81385994,0.671905755996704
1057.0015099,0.656280040740967
1063.32992005,0.671905755996704
1064.01745009,0.687531471252441
1064.6893599,0.671905755996704
1065.36126995,0.671905755996704
1066.04879999,0.687531471252441
1066.75196004,0.703157186508179
1070.75214005,0.671905755996704
1071.43967009,0.687531471252441
1072.1115799,0.671905755996704
1072.79910994,0.687531471252441
1073.50225997,0.703157186508179
1074.17417002,0.671905755996704
1074.86170006,0.687531471252441
1075.5492301,0.687531471252441
1076.2055099,0.656280040740967
1076.83053994,0.625028610229492
1077.48681998,0.656280040740967
1078.12748003,0.640654325485229
1078.78376007,0.656280040740967
1084.65901995,0.640654325485229
1085.31529999,0.656280040740967
1085.95596004,0.640654325485229
1086.64349008,0.687531471252441
1087.31539989,0.671905755996704
1087.90916991,0.593777179718018
1088.56544995,0.656280040740967
1089.20611,0.640654325485229
1089.86239004,0.656280040740967
1090.53429008,0.671905755996704
1091.19056988,0.656280040740967
1097.69087005,0.640654325485229
1098.33153009,0.640654325485229
1098.9878099,0.656280040740967
1099.61282992,0.625028610229492
1100.26910996,0.656280040740967
1100.89414001,0.625028610229492
1101.55042005,0.656280040740967
1102.19108009,0.640654325485229
1102.8161099,0.625028610229492
1103.45675993,0.640654325485229
1104.06615996,0.609402894973755
1104.70682001,0.640654325485229
1105.31622005,0.609402894973755
1105.95687008,0.640654325485229
1106.58189988,0.625028610229492
1107.22255993,0.640654325485229
1107.86320996,0.640654325485229
1108.51949,0.656280040740967
1109.16015005,0.640654325485229
1109.83205009,0.671905755996704
1110.50395989,0.671905755996704
1111.14460993,0.640654325485229
1111.80088997,0.656280040740967
1112.37904,0.57815146446228
1113.11345005,0.734408617019653
1113.80098009,0.687531471252441
1116.78550005,0.640654325485229
1117.44178009,0.656280040740967
1118.06679988,0.625028610229492
1118.72307992,0.656280040740967
1119.36373997,0.640654325485229
1120.03564,0.671905755996704
1120.69192004,0.656280040740967
1121.34820008,0.656280040740967
1122.02010989,0.671905755996704
1122.67638993,0.656280040740967
1123.31703997,0.640654325485229
1123.97332001,0.656280040740967
1124.61398005,0.640654325485229
1125.2702601,0.656280040740967
1125.8952899,0.625028610229492
1126.55156994,0.656280040740967
1127.19221997,0.640654325485229
1127.81725001,0.625028610229492
1128.48916006,0.671905755996704
1129.12981009,0.640654325485229
1129.7860899,0.656280040740967
1130.42673993,0.640654325485229
1131.08301997,0.656280040740967
1138.80212998,0.625028610229492
1139.42716002,0.625028610229492
1140.08344007,0.656280040740967
1140.77096987,0.687531471252441
1141.4428699,0.671905755996704
1142.11477995,0.671905755996704
1142.80230999,0.687531471252441
1143.48984003,0.687531471252441
1144.14612007,0.656280040740967
1144.83364987,0.687531471252441
1145.52118993,0.687531471252441
1146.19308996,0.671905755996704
1146.83375001,0.640654325485229
1147.50565004,0.671905755996704
1148.17756009,0.671905755996704
1148.83383989,0.656280040740967
1149.50573993,0.671905755996704
1150.14639997,0.640654325485229
1150.80268002,0.656280040740967
1151.47458005,0.671905755996704
1152.1152401,0.640654325485229
1152.7715199,0.656280040740967
1153.39654994,0.625028610229492
1154.03719997,0.640654325485229
1154.69348001,0.656280040740967
1155.33413005,0.640654325485229
1155.99041009,0.656280040740967
1156.6310699,0.640654325485229
1157.30296993,0.671905755996704
1157.97487998,0.671905755996704
1158.61554003,0.640654325485229
1159.27182007,0.656280040740967
1159.9124701,0.640654325485229
1160.5531199,0.640654325485229
1161.20939994,0.656280040740967
1161.86567998,0.656280040740967
1162.53759003,0.671905755996704
1163.19387007,0.656280040740967
1163.86577988,0.671905755996704
1164.53767991,0.671905755996704
1165.22520995,0.687531471252441
1165.89712,0.671905755996704
1166.55340004,0.656280040740967
1167.22530007,0.671905755996704
1167.86595988,0.640654325485229
1168.52223992,0.656280040740967
1169.17851996,0.656280040740967
1169.81917,0.640654325485229
1170.47545004,0.656280040740967
1171.10048008,0.625028610229492
1171.77238989,0.671905755996704
1172.42866993,0.656280040740967
1173.08494997,0.656280040740967
1173.74123001,0.656280040740967
1174.38188004,0.640654325485229
1175.03816009,0.656280040740967
1175.71006989,0.671905755996704
1176.35071993,0.640654325485229
1177.02262998,0.671905755996704
1177.67891002,0.656280040740967
1178.33519006,0.656280040740967
1178.9914701,0.656280040740967
1179.6164999,0.625028610229492
1180.28839993,0.671905755996704
1180.92905998,0.640654325485229
1181.56971002,0.640654325485229
1182.22599006,0.656280040740967
1182.8510201,0.625028610229492
1183.5072999,0.656280040740967
1184.13232994,0.625028610229492
1184.77297997,0.640654325485229
1185.42926002,0.656280040740967
1186.08554006,0.656280040740967
1186.7418201,0.656280040740967
1187.3668499,0.625028610229492
1188.02312994,0.656280040740967
1188.66378999,0.640654325485229
1189.30444002,0.640654325485229
1189.97635007,0.671905755996704
1190.5701201,0.593777179718018
1191.2576499,0.687531471252441
1191.85142994,0.593777179718018
1192.50770998,0.656280040740967
1193.13274002,0.625028610229492
1193.77339005,0.640654325485229
1194.4140501,0.640654325485229
1195.0546999,0.640654325485229
1195.71097994,0.656280040740967
1196.33600998,0.625028610229492
1196.99229002,0.656280040740967
1197.61732006,0.625028610229492
1198.25797009,0.640654325485229
1198.8829999,0.625028610229492
1199.53927994,0.656280040740967
1200.14868999,0.609402894973755
1200.77371001,0.625028610229492
1201.38312006,0.609402894973755
1202.02377009,0.640654325485229
1202.6487999,0.625028610229492
1203.28944993,0.640654325485229
1203.89885998,0.609402894973755
1204.55514002,0.656280040740967
1205.18017006,0.625028610229492
1205.85207009,0.671905755996704
1206.5083499,0.656280040740967
1207.13337994,0.625028610229492
1207.80528998,0.671905755996704
1208.44594002,0.640654325485229
1209.08660007,0.640654325485229
1209.7585001,0.671905755996704
1210.39915991,0.640654325485229
1211.03980994,0.640654325485229
1211.68045998,0.640654325485229
1212.32112002,0.640654325485229
1212.96177006,0.640654325485229
1213.5868001,0.625028610229492
1214.22745991,0.640654325485229
1214.85247993,0.625028610229492
1215.49313998,0.640654325485229
1216.13379002,0.640654325485229
1216.79007006,0.656280040740967
1217.43072987,0.640654325485229
1218.08700991,0.656280040740967
1218.75890994,0.671905755996704
1219.39956999,0.640654325485229
1220.07147002,0.671905755996704
1220.74338007,0.671905755996704
1221.38402987,0.640654325485229
1222.04030991,0.656280040740967
1222.68096995,0.640654325485229
1223.33724999,0.656280040740967
1223.97790003,0.640654325485229
1224.61856008,0.640654325485229
1225.27483988,0.656280040740967
1225.91548991,0.640654325485229
1226.57176995,0.656280040740967
1227.21243,0.640654325485229
1227.85308003,0.640654325485229
1228.52499008,0.671905755996704
1229.16563988,0.640654325485229
1229.83754992,0.671905755996704
1230.49382997,0.656280040740967
1231.13448,0.640654325485229
1231.79076004,0.656280040740967
1232.43141007,0.640654325485229
1233.08768988,0.656280040740967
1233.74396992,0.656280040740967
1234.36899996,0.625028610229492
1235.04091001,0.671905755996704
1235.68156004,0.640654325485229
1236.32222009,0.640654325485229
1236.99411988,0.671905755996704
1237.63477993,0.640654325485229
1238.30667996,0.671905755996704
1238.97859001,0.671905755996704
1239.58799005,0.609402894973755
1240.11927009,0.531274318695068
1240.85366988,0.734408617019653
1241.46307993,0.609402894973755
1242.05684996,0.593777179718018
1242.65063,0.593777179718018
1243.26003003,0.609402894973755
1243.85381007,0.593777179718018
1244.47883987,0.625028610229492
1245.08823991,0.609402894973755
1245.72889996,0.640654325485229
1246.35393,0.625028610229492
1246.97895002,0.625028610229492
1247.61961007,0.640654325485229
1248.24463987,0.625028610229492
1248.86966991,0.625028610229492
1249.51031995,0.640654325485229
1250.10409999,0.593777179718018
1250.72913003,0.625028610229492
1251.32290006,0.593777179718018
1251.9479301,0.625028610229492
1252.55733991,0.609402894973755
1253.16673994,0.609402894973755
1253.77613997,0.609402894973755
1254.40117002,0.625028610229492
1255.04182005,0.640654325485229
1255.66685009,0.625028610229492
1360.79665995,0.609402894973755
1438.12832999,0.656280040740967
1438.80024004,0.671905755996704
1522.31967998,0.703157186508179
1557.74318004,0.625028610229492
1644.96591997,0.359391450881958
1645.32530999,0.359391450881958
1645.66908002,0.343765735626221
1645.98159003,0.312514305114746
1671.10773993,0.312514305114746
1671.42025995,0.312514305114746
1708.40632987,0.640654325485229
1709.14073992,0.734408617019653
1709.76575994,0.625028610229492
1719.34433007,0.375017166137695
1730.42296004,0.343765735626221
1730.75110006,0.328140020370483
1731.07924008,0.328140020370483
1731.40737987,0.328140020370483
1901.10264993,0.703157186508179
1930.29148006,0.687531471252441
1930.96338987,0.671905755996704
1931.57278991,0.609402894973755
1932.27594995,0.703157186508179
1935.41671991,0.656280040740967
1943.99523997,0.656280040740967
1944.63589001,0.640654325485229
1945.32342005,0.687531471252441
1945.97970009,0.656280040740967
1946.63597989,0.656280040740967
1947.30788994,0.671905755996704
1947.99541998,0.687531471252441
1948.74545002,0.750034332275391
1949.44861007,0.703157186508179
1962.27731991,0.718782901763916
1962.93359995,0.656280040740967
1963.57426,0.640654325485229
2002.40416002,0.750034332275391
2019.24867988,0.671905755996704
2019.99870992,0.750034332275391
2044.92173004,0.609402894973755
2045.49988008,0.57815146446228
2046.04677987,0.546900033950806
2046.5467999,0.500022888183594
2068.8759501,0.57815146446228
2069.54785991,0.671905755996704
2087.61118007,0.656280040740967
2088.26745987,0.656280040740967
2088.86123991,0.593777179718018
2215.77329993,0.640654325485229
2216.49207997,0.718782901763916
2217.11711001,0.625028610229492
2217.83590007,0.718782901763916
2218.4609201,0.625028610229492
2219.0703299,0.609402894973755
2219.82035995,0.750034332275391
2220.47663999,0.656280040740967
2221.10167003,0.625028610229492
2221.74232006,0.640654325485229
2222.32047987,0.57815146446228
2223.03925991,0.718782901763916
2226.28940988,0.703157186508179
2226.96130991,0.671905755996704
2227.55508995,0.593777179718018
2228.21136999,0.656280040740967
2228.88328004,0.671905755996704
2229.50830007,0.625028610229492
2230.22708988,0.718782901763916
2230.85211992,0.625028610229492
2231.55526996,0.703157186508179
2345.31047988,0.750034332275391
2345.93550992,0.625028610229492
2346.60740995,0.671905755996704
2347.31057,0.703157186508179
2350.34195995,0.546900033950806
2372.92111993,0.625028610229492
2373.59301996,0.671905755996704
2374.24931002,0.656280040740967
2374.87433004,0.625028610229492
2375.54624009,0.671905755996704
2409.42279005,0.671905755996704
2469.84742999,0.625028610229492
2470.55059004,0.703157186508179
2471.30062008,0.750034332275391
2471.87876987,0.57815146446228
2472.55067992,0.671905755996704
2473.22258997,0.671905755996704
2477.41027999,0.671905755996704
2478.09781003,0.687531471252441
2478.76971006,0.671905755996704
2479.48849988,0.718782901763916
2480.11352992,0.625028610229492
2480.76980996,0.656280040740967
2481.45734,0.687531471252441
2482.25425005,0.796911478042603
2485.56690001,0.703157186508179
2486.25443006,0.687531471252441
2486.9732101,0.718782901763916
2487.6294899,0.656280040740967
2488.36389995,0.734408617019653
2489.05144,0.687531471252441
2489.73897004,0.687531471252441
2490.37962008,0.640654325485229
2491.05152988,0.671905755996704
2491.72342992,0.671905755996704
2492.37970996,0.656280040740967
2493.05162001,0.671905755996704
2493.72352004,0.671905755996704
2494.39543009,0.671905755996704
2495.08295989,0.687531471252441
2495.78611994,0.703157186508179
2496.48927999,0.703157186508179
2497.34869003,0.859414339065552
2506.23971987,0.703157186508179
2513.91194987,0.609402894973755
2514.56822991,0.656280040740967
2515.22450995,0.656280040740967
2515.88079,0.656280040740967
2516.53707004,0.656280040740967
2517.17772007,0.640654325485229
2517.83399987,0.656280040740967
2518.47465992,0.640654325485229
2519.09968996,0.625028610229492
2531.55338001,0.656280040740967
2532.25654006,0.703157186508179
2532.86594009,0.609402894973755
2533.5534699,0.687531471252441
2534.17849994,0.625028610229492
2534.77227998,0.593777179718018
2535.50669003,0.734408617019653
2536.19422007,0.687531471252441
2536.8661201,0.671905755996704
2537.58490992,0.718782901763916
2538.30368996,0.718782901763916
2538.99122,0.687531471252441
2539.72563004,0.734408617019653
2540.44441009,0.718782901763916
2541.14756989,0.703157186508179
2541.85072994,0.703157186508179
2542.52262998,0.671905755996704
2543.21016002,0.687531471252441
2543.85082006,0.640654325485229
2544.60084987,0.750034332275391
2547.88225007,0.671905755996704
2548.58540988,0.703157186508179
2549.27293992,0.687531471252441
2549.99171996,0.718782901763916
2550.67926002,0.687531471252441
2551.38241005,0.703157186508179
2552.06994009,0.687531471252441
2552.75747991,0.687531471252441
2553.46062994,0.703157186508179
2554.13253999,0.671905755996704
2554.83570004,0.703157186508179
2555.52323008,0.687531471252441
2556.21075988,0.687531471252441
2556.91391993,0.703157186508179
2557.58581996,0.671905755996704
2558.27335,0.687531471252441
2563.7423501,0.718782901763916
2642.46471,0.750034332275391
2643.02723002,0.562525749206543
2643.71476007,0.687531471252441
2674.57555008,0.656280040740967
2675.23182988,0.656280040740967
2675.88810992,0.656280040740967
2676.52876997,0.640654325485229
2677.18505001,0.656280040740967
2683.56033993,0.609402894973755
2684.18536997,0.625028610229492
2684.79477,0.609402894973755
2685.45105004,0.656280040740967
2686.12296009,0.671905755996704
2686.81048989,0.687531471252441
2687.51363993,0.703157186508179
2688.21679997,0.703157186508179
2688.88871002,0.671905755996704
2689.57624006,0.687531471252441
2690.2637701,0.687531471252441
2690.93567991,0.671905755996704
2713.24919987,0.671905755996704
2713.93672991,0.687531471252441
2714.56175995,0.625028610229492
2715.21803999,0.656280040740967
2715.85869002,0.640654325485229
