27073.6166301
0.0;0.656280040740967
0.640650033951,0.640654325485229
1.26567983627,0.625028610229492
1.89070987701,0.625028610229492
2.48448991776,0.593777179718018
3.1095199585,0.625028610229492
3.73454999924,0.625028610229492
52.1586399078,0.828162908554077
52.9399199486,0.781285762786865
65.8311400414,0.718782901763916
66.4717898369,0.640654325485229
67.1124498844,0.640654325485229
67.7530999184,0.640654325485229
68.4406299591,0.687531471252441
69.0656599998,0.625028610229492
69.7219400406,0.656280040740967
70.3938498497,0.671905755996704
71.0188698769,0.625028610229492
71.7220299244,0.703157186508179
72.3626899719,0.640654325485229
73.0033400059,0.640654325485229
73.7533798218,0.750034332275391
74.4096598625,0.656280040740967
75.0503098965,0.640654325485229
75.722219944,0.671905755996704
76.394119978,0.671905755996704
77.0347800255,0.640654325485229
113.395809889,0.765660047531128
114.098969936,0.703157186508179
114.864629984,0.765660047531128
124.818209887,0.687531471252441
287.528789997,0.625028610229492
288.153810024,0.625028610229492
360.141479969,0.609402894973755
366.313639879,0.703157186508179
367.00116992,0.687531471252441
367.704329967,0.703157186508179
368.407490015,0.703157186508179
703.954099894,0.546900033950806
704.563499928,0.609402894973755
705.172899961,0.609402894973755
714.51707983,0.593777179718018
715.142109871,0.625028610229492
715.798389912,0.656280040740967
716.439039946,0.640654325485229
914.198099852,0.718782901763916
914.885629892,0.687531471252441
915.65128994,0.765660047531128
916.354439974,0.703157186508179
917.010720015,0.656280040740967
917.72950983,0.718782901763916
918.432659864,0.703157186508179
919.057689905,0.625028610229492
919.698349953,0.640654325485229
920.29211998,0.593777179718018
921.010910034,0.718782901763916
921.667189837,0.656280040740967
922.401599884,0.734408617019653
922.948499918,0.546900033950806
1033.9848299,0.687531471252441
1049.62616992,0.640654325485229
1164.20953989,0.687531471252441
1164.85018992,0.640654325485229
1170.38170004,0.687531471252441
1171.02234983,0.640654325485229
1171.66300988,0.640654325485229
1172.28802991,0.625028610229492
1172.91305995,0.625028610229492
1173.47558999,0.562525749206543
1174.14749002,0.671905755996704
1174.74126983,0.593777179718018
1175.46004987,0.718782901763916
1176.11632991,0.656280040740967
1385.45403981,0.687531471252441
1386.14156985,0.687531471252441
1386.79784989,0.656280040740967
1387.43850994,0.640654325485229
1388.03228998,0.593777179718018
1388.70419002,0.671905755996704
1389.28233981,0.57815146446228
1389.92299986,0.640654325485229
1710.85956001,0.625028610229492
1780.14398003,0.671905755996704
1780.72212982,0.57815146446228
1796.37909985,0.671905755996704
2098.08041,0.703157186508179
2098.73668981,0.656280040740967
2099.28358984,0.546900033950806
2329.52850986,0.781285762786865
2330.12227988,0.593777179718018
2330.79418993,0.671905755996704
2331.43483996,0.640654325485229
2332.05987,0.625028610229492
2332.68489981,0.625028610229492
2333.34117985,0.656280040740967
2333.98182988,0.640654325485229
2334.71623993,0.734408617019653
2335.46627998,0.750034332275391
2336.29444003,0.828162908554077
2337.09134984,0.796911478042603
2337.90388989,0.81253719329834
2338.70079994,0.796911478042603
2339.46645999,0.765660047531128
2340.16962004,0.703157186508179
2340.91964984,0.750034332275391
2341.59155989,0.671905755996704
2342.29471993,0.703157186508179
2342.96661997,0.671905755996704
2343.63853002,0.671905755996704
2344.35730982,0.718782901763916
2351.02948999,0.671905755996704
2351.73265004,0.703157186508179
2357.38915992,0.734408617019653
2358.17043996,0.781285762786865
2358.87360001,0.703157186508179
2359.59237981,0.718782901763916
2360.21740985,0.625028610229492
2360.9518199,0.734408617019653
2361.63934994,0.687531471252441
2362.34250998,0.703157186508179
2363.03004003,0.687531471252441
2363.71756983,0.687531471252441
2364.43634987,0.718782901763916
2365.21763992,0.781285762786865
2365.95204997,0.734408617019653
2366.67083001,0.718782901763916
2367.40523982,0.734408617019653
2368.15526986,0.750034332275391
2368.88967991,0.734408617019653
2413.65735984,0.656280040740967
2445.3463099,0.640654325485229
2446.03383994,0.687531471252441
2446.69011998,0.656280040740967
2447.33077002,0.640654325485229
2454.04982996,0.703157186508179
2454.70611,0.656280040740967
2455.36239004,0.656280040740967
2456.00304985,0.640654325485229
2456.67494988,0.671905755996704
2457.33122993,0.656280040740967
2458.01875997,0.687531471252441
2458.70629001,0.687531471252441
2459.42507982,0.718782901763916
2460.20635986,0.781285762786865
2460.8938899,0.687531471252441
2461.58142996,0.687531471252441
2462.30021,0.718782901763916
2463.01899004,0.718782901763916
2463.67526984,0.656280040740967
2494.06728983,0.625028610229492
2494.69231987,0.625028610229492
2495.3642199,0.671905755996704
2576.38355994,0.609402894973755
2577.00857997,0.625028610229492
2577.60236001,0.593777179718018
2578.24301982,0.640654325485229
2602.94726992,0.625028610229492
2606.5255599,0.593777179718018
2607.10370994,0.57815146446228
2607.68185997,0.57815146446228
2626.83898997,0.593777179718018
2627.49527001,0.656280040740967
2628.05779982,0.562525749206543
2628.71407986,0.656280040740967
2629.30784988,0.593777179718018
2629.90162992,0.593777179718018
2649.02750993,0.750034332275391
2651.74637985,0.500022888183594
2652.38702989,0.640654325485229
2652.96518993,0.57815146446228
2653.60583997,0.640654325485229
2654.29337001,0.687531471252441
2658.40294003,0.671905755996704
2659.09046984,0.687531471252441
2659.73111987,0.640654325485229
2660.41864991,0.687531471252441
2661.07492995,0.656280040740967
2661.69995999,0.625028610229492
2662.34062004,0.640654325485229
2663.01251984,0.671905755996704
2663.62191987,0.609402894973755
2664.27819991,0.656280040740967
2664.93447995,0.656280040740967
2665.57514,0.640654325485229
2666.21579003,0.640654325485229
2666.90331984,0.687531471252441
2676.81002998,0.718782901763916
2679.90391994,0.671905755996704
2686.93548989,0.57815146446228
2687.57614994,0.640654325485229
2727.82798982,0.687531471252441
2728.48426986,0.656280040740967
2729.15616989,0.671905755996704
2741.98488998,0.671905755996704
2742.67242002,0.687531471252441
2743.34431982,0.671905755996704
2744.00059986,0.656280040740967
2744.6568799,0.656280040740967
2745.32878995,0.671905755996704
2745.96943998,0.640654325485229
2746.57885003,0.609402894973755
2747.23512983,0.656280040740967
2747.89140987,0.656280040740967
2748.56330991,0.671905755996704
2749.20396996,0.640654325485229
2749.8915,0.687531471252441
2750.57903004,0.687531471252441
2751.26655984,0.687531471252441
2751.96971989,0.703157186508179
2752.65724993,0.687531471252441
2753.34477997,0.687531471252441
2754.04794002,0.703157186508179
2754.67296982,0.625028610229492
2755.34486985,0.671905755996704
2756.00114989,0.656280040740967
2756.65742993,0.656280040740967
2757.25120997,0.593777179718018
2757.87624002,0.625028610229492
2764.07964993,0.734408617019653
2764.81405997,0.734408617019653
2765.57972002,0.765660047531128
2766.28286982,0.703157186508179
2786.06502986,0.656280040740967
2786.61192989,0.546900033950806
2787.31508994,0.703157186508179
2787.90885997,0.593777179718018
2802.95642996,0.625028610229492
2803.56582999,0.609402894973755
2804.23774004,0.671905755996704
2822.39481997,0.640654325485229
2823.06672001,0.671905755996704
2823.75424981,0.687531471252441
2824.36365986,0.609402894973755
2825.0199399,0.656280040740967
2825.67621994,0.656280040740967
2826.37936997,0.703157186508179
2827.08253002,0.703157186508179
2869.16258001,0.718782901763916
2944.11913991,0.703157186508179
2944.75978994,0.640654325485229
2945.41606998,0.656280040740967
2946.08798003,0.671905755996704
2956.79158998,0.609402894973755
2957.43225002,0.640654325485229
2958.18227983,0.750034332275391
3001.60614991,0.640654325485229
3002.26242995,0.656280040740967
3002.94995999,0.687531471252441
3003.57499003,0.625028610229492
3004.26251984,0.687531471252441
3004.91879988,0.656280040740967
3005.54382992,0.625028610229492
3006.18447995,0.640654325485229
3006.79387999,0.609402894973755
3011.99724984,0.656280040740967
3012.65352988,0.656280040740967
3013.30980992,0.656280040740967
