29457.9717
32.000000; 32.000000; 32.000000
-14;61;-11
-14;61;-11
-14;61;-11
-13;61;-11
-13;61;-11
-13;61;-11
-13;61;-11
-13;61;-11
-14;61;-11
-14;61;-11
-14;61;-11
-14;61;-11
-14;61;-11
-14;61;-11
-14;61;-11
-14;61;-11
-13;61;-11
-14;61;-11
-13;61;-12
-13;61;-11
-13;61;-11
-13;61;-11
-13;61;-12
-13;61;-12
-13;61;-11
-13;61;-11
-13;62;-11
-13;61;-11
-13;61;-11
-13;61;-11
-13;61;-11
-13;61;-11
-13;61;-11
-13;61;-11
-13;62;-11
-13;61;-11
-13;61;-11
-13;61;-11
-13;62;-11
-13;61;-12
-13;61;-11
-13;62;-11
-13;61;-11
-13;61;-11
-13;61;-11
-13;61;-12
-14;61;-11
-14;61;-11
-13;61;-12
-13;61;-11
-13;61;-11
-13;61;-11
-13;61;-11
-13;61;-11
-13;61;-11
-13;61;-11
-13;61;-11
-13;61;-11
-13;61;-11
-13;61;-11
-13;61;-11
-13;61;-11
-13;61;-11
-13;61;-11
-13;61;-11
-13;61;-11
-13;61;-11
-13;61;-11
-13;61;-11
-14;61;-11
-13;61;-11
-13;61;-11
-13;61;-11
-13;61;-11
-13;61;-11
-13;61;-11
-13;61;-11
-13;61;-11
-13;62;-11
-13;61;-11
-13;61;-11
-13;61;-11
-13;61;-11
-13;61;-11
-13;61;-11
-13;61;-11
-13;61;-11
-13;61;-11
-13;61;-11
-13;61;-11
-13;61;-11
-13;61;-11
-13;61;-11
-13;61;-11
-13;61;-11
-13;61;-11
-13;61;-11
-13;61;-11
-13;61;-11
-13;61;-11
-13;61;-11
-13;61;-11
-13;61;-11
-13;61;-11
-13;61;-11
-13;61;-11
-13;61;-11
-13;61;-11
-13;61;-11
-13;61;-11
-13;61;-11
-13;61;-11
-13;61;-11
-13;61;-11
-13;61;-10
-13;61;-11
-13;61;-11
-13;61;-11
-13;61;-11
-13;61;-11
-13;61;-11
-13;61;-11
-13;61;-11
-13;62;-11
-13;61;-11
-13;61;-11
-13;61;-11
-13;61;-11
-13;61;-11
-13;61;-11
-13;61;-11
-13;62;-11
-13;61;-11
-13;61;-11
-13;61;-11
-13;61;-11
-13;61;-11
-13;61;-11
-13;61;-11
-13;62;-11
-13;61;-11
-13;61;-11
-13;61;-11
-13;62;-11
-13;62;-11
-13;61;-10
-13;61;-11
-13;61;-11
-13;61;-11
-13;61;-10
-13;62;-11
-13;61;-11
-13;61;-10
-13;61;-10
-13;61;-11
-13;61;-11
-13;62;-11
-13;61;-11
-13;61;-11
-13;62;-11
-13;61;-11
-13;61;-10
-13;61;-10
-13;62;-10
-13;61;-11
-13;61;-11
-13;61;-11
-13;62;-10
-14;61;-10
-13;62;-10
-13;61;-10
-13;62;-10
-13;62;-10
-13;61;-10
-13;61;-10
-13;62;-10
-13;62;-10
-13;61;-10
-13;61;-10
-13;61;-10
-13;62;-10
-13;62;-10
-13;61;-10
-13;61;-10
-13;61;-10
-13;62;-10
-13;62;-10
-13;61;-10
-13;61;-10
-13;61;-10
-14;62;-10
-13;62;-11
-13;61;-10
-13;62;-10
-13;62;-10
-13;61;-10
-13;62;-10
-13;62;-9
-13;62;-9
-13;62;-9
-13;61;-9
-13;62;-10
-13;62;-9
-13;62;-9
-13;62;-10
-13;61;-10
-13;62;-10
-13;62;-10
-13;62;-10
-13;61;-10
-13;62;-10
-13;61;-10
-13;62;-10
-13;61;-10
-13;62;-10
-13;62;-10
-13;61;-10
-13;61;-10
-13;61;-10
-13;62;-10
-13;62;-10
-14;61;-10
-13;61;-10
-13;62;-10
-13;62;-10
-13;62;-10
-13;61;-10
-13;61;-10
-13;62;-10
-13;62;-9
-13;61;-10
-13;62;-10
-13;62;-10
-13;62;-10
-13;61;-10
-13;61;-10
-13;61;-10
-13;62;-10
-13;62;-10
-13;62;-10
-13;62;-10
-13;62;-10
-13;62;-10
-13;62;-10
-13;62;-10
-14;61;-10
-13;61;-10
-13;62;-10
-13;61;-10
-13;61;-10
-13;62;-10
-13;62;-10
-13;61;-9
-13;61;-9
-13;62;-10
-13;62;-9
-13;62;-9
-13;61;-9
-13;62;-9
-13;62;-9
-13;62;-9
-13;62;-9
-13;62;-9
-13;62;-10
-13;62;-10
-13;62;-10
-13;62;-9
-13;62;-10
-13;62;-10
-13;62;-10
-13;61;-10
-13;62;-10
-13;62;-10
-13;62;-10
-14;61;-10
-13;62;-10
-13;62;-10
-13;61;-10
-13;61;-10
-13;61;-10
-13;62;-10
-13;62;-9
-13;61;-10
-13;62;-10
-13;62;-10
-13;62;-10
-13;62;-10
-13;61;-10
-13;62;-10
-13;62;-10
-13;62;-10
-13;62;-10
-13;62;-10
-13;62;-9
-13;62;-10
-13;61;-9
-13;62;-10
-13;62;-10
-13;62;-10
-13;62;-10
-14;61;-10
-14;62;-10
-13;62;-10
-13;62;-10
-13;61;-9
-13;61;-10
-13;62;-10
-13;62;-9
-14;61;-10
-13;62;-9
-13;62;-10
-13;61;-9
-13;61;-5
-17;64;-4
-15;62;-6
-18;60;-10
-16;61;-13
-17;63;-11
-34;64;-3
-30;64;4
-28;76;-3
-39;76;-17
-7;79;-16
-11;81;-26
5;81;-27
7;73;-20
1;70;-18
11;56;3
14;49;21
13;41;41
13;45;32
16;49;26
18;49;16
16;49;19
22;53;19
24;57;15
22;59;8
17;57;7
20;53;7
18;52;8
17;52;11
14;52;13
12;54;11
6;59;11
13;62;12
11;57;2
10;64;-3
12;67;0
9;66;-8
9;66;-7
11;66;-5
10;61;-9
18;63;-6
23;60;-7
15;60;-7
20;57;-4
20;57;-5
23;56;-6
18;59;-10
18;58;-11
19;57;-13
18;59;-18
19;48;-12
19;59;-15
18;56;-12
14;58;-12
13;61;-11
10;64;-13
15;68;-11
17;66;-12
10;56;-22
11;62;-21
10;61;-22
17;58;-24
21;57;-25
21;54;-26
22;52;-24
28;47;-22
34;51;-17
25;49;-10
46;38;-22
55;45;-24
39;40;-32
37;40;-30
44;30;-27
47;35;-21
45;36;-27
52;31;-29
52;34;-29
53;29;-25
54;29;-24
49;29;-27
49;30;-27
49;28;-24
47;30;-25
47;31;-27
47;31;-26
47;33;-30
46;33;-26
51;31;-23
39;36;-23
45;31;-20
49;31;-19
48;30;-19
42;30;-19
50;30;-18
52;30;-17
53;29;-13
56;29;-11
59;28;-6
58;26;-4
56;22;2
59;19;4
59;16;8
59;12;15
54;10;16
50;7;27
42;7;30
30;-1;40
28;-5;46
23;-9;51
14;-12;53
24;-17;66
10;-19;65
5;-24;64
5;-31;61
0;-33;55
-22;-41;38
-29;-43;37
-8;-47;48
-19;-52;45
1;-57;60
19;-81;90
19;-69;95
22;-54;54
20;-52;52
-1;-40;37
1;-32;26
35;-19;0
58;-11;-13
89;-8;-14
95;-23;1
73;-27;5
55;-16;7
51;-14;1
47;-5;-14
58;-5;-17
59;-5;-18
63;-12;-15
62;-12;-15
63;-14;-14
67;-14;-12
64;-11;-19
61;-9;-23
51;-12;-16
52;-12;-23
57;-4;-29
48;-6;-26
39;0;-33
56;-3;-33
55;0;-31
52;2;-23
49;4;-20
50;6;-26
48;6;-28
46;4;-32
46;6;-37
45;7;-38
46;10;-42
46;11;-44
40;14;-37
49;12;-32
48;-1;-34
48;-11;-21
54;-15;-13
53;-30;-11
47;-37;-10
41;-51;-11
40;-56;-15
27;-55;-15
44;-57;-4
50;-58;-7
48;-54;-13
48;-55;-13
48;-56;-12
45;-55;-11
42;-54;-12
43;-54;-11
41;-53;-9
40;-52;-8
42;-50;-7
42;-49;-13
40;-48;-16
42;-47;-13
42;-47;-13
39;-46;-14
39;-45;-13
44;-44;-13
40;-42;-14
41;-41;-12
44;-40;-11
42;-42;-14
38;-40;-17
42;-41;-17
40;-41;-14
42;-40;-14
44;-41;-15
45;-43;-16
45;-43;-17
38;-45;-23
40;-45;-18
48;-46;-9
46;-46;-10
38;-46;-22
41;-45;-15
40;-42;-12
43;-44;-18
43;-45;-24
40;-42;-21
42;-41;-18
41;-42;-16
41;-42;-18
42;-44;-21
40;-44;-21
39;-43;-20
40;-43;-22
41;-43;-23
43;-43;-23
42;-43;-24
42;-44;-27
43;-43;-27
41;-43;-29
41;-41;-26
40;-39;-26
40;-38;-26
38;-36;-27
41;-35;-29
42;-34;-30
46;-34;-36
48;-34;-40
53;-34;-44
52;-33;-43
53;-33;-43
50;-32;-38
47;-30;-37
44;-24;-35
42;-21;-35
39;-17;-35
37;-14;-34
37;-10;-38
38;-5;-40
37;-5;-40
39;-4;-46
39;-3;-46
38;-3;-48
39;-3;-48
38;-2;-49
40;-3;-50
40;0;-46
60;1;-36
42;-1;-41
45;0;-32
41;1;-41
40;6;-42
41;5;-42
42;7;-41
48;5;-44
46;3;-43
47;4;-44
46;4;-45
40;5;-46
42;5;-46
43;5;-49
42;6;-47
44;5;-48
39;6;-45
41;5;-44
42;5;-44
45;4;-45
45;6;-47
44;5;-45
48;6;-40
47;1;-44
48;4;-40
47;3;-41
45;4;-41
46;4;-41
47;4;-41
47;4;-42
45;3;-41
45;2;-43
47;2;-43
45;1;-44
44;2;-45
43;2;-45
43;2;-47
44;2;-47
44;2;-47
44;2;-46
43;1;-45
45;2;-44
45;2;-44
44;2;-43
44;2;-43
44;3;-44
44;3;-44
44;3;-44
44;3;-44
46;3;-44
45;2;-43
44;2;-43
45;3;-43
