29520.1400001
0.0;0.750034332275391
0.734410047531,0.734408617019653
1.46882009506,0.734408617019653
2.21885991096,0.750034332275391
2.9532699585,0.734408617019653
3.70329999924,0.750034332275391
35.1422400475,0.796911478042603
35.907900095,0.765660047531128
42.4238200188,0.781285762786865
43.2519800663,0.828162908554077
44.0645201206,0.81253719329834
44.8458099365,0.781285762786865
45.6583399773,0.81253719329834
46.5177600384,0.859414339065552
47.3459200859,0.828162908554077
48.1584599018,0.81253719329834
48.9866199493,0.828162908554077
49.7679100037,0.781285762786865
50.5960700512,0.828162908554077
51.4398601055,0.843788623809814
52.2523999214,0.81253719329834
53.1118099689,0.859414339065552
53.9712300301,0.859414339065552
54.7993900776,0.828162908554077
55.6119301319,0.81253719329834
56.502589941,0.890665829181671
57.3307499886,0.828162908554077
58.1432900429,0.81253719329834
58.9714500904,0.828162908554077
59.8308699131,0.859414339065552
60.6121499538,0.781285762786865
61.440320015,0.828162908554077
62.2684800625,0.828162908554077
63.03414011,0.765660047531128
63.8622999191,0.828162908554077
64.6748399734,0.81253719329834
65.4561300278,0.781285762786865
66.2842900753,0.828162908554077
67.0968301296,0.81253719329834
67.8781099319,0.781285762786865
68.6906499863,0.81253719329834
69.5188100338,0.828162908554077
70.3782300949,0.859414339065552
71.1907598972,0.81253719329834
72.0032999516,0.81253719329834
72.8470900059,0.843788623809814
73.6596300602,0.81253719329834
74.5034201145,0.843788623809814
75.3628299236,0.859414339065552
76.1597399712,0.796911478042603
77.0191600323,0.859414339065552
77.8473200798,0.828162908554077
78.6442301273,0.796911478042603
79.4723899364,0.828162908554077
80.3161799908,0.843788623809814
81.1443400383,0.828162908554077
81.9412600994,0.796911478042603
82.7850399017,0.843788623809814
83.6600799561,0.875040054321289
84.4413700104,0.781285762786865
85.2851600647,0.843788623809814
86.128950119,0.843788623809814
86.9258599281,0.796911478042603
87.7383999825,0.81253719329834
88.5509300232,0.81253719329834
89.3947200775,0.843788623809814
90.2697601318,0.875040054321289
91.2698099613,1.00004577636719
92.1292200089,0.859414339065552
93.0355100632,0.906291484832764
93.9261801243,0.890665829181671
94.7699699402,0.843788623809814
104.317280054,0.750034332275391
105.098570108,0.781285762786865
105.911099911,0.81253719329834
106.723639965,0.81253719329834
107.520550013,0.796911478042603
108.364340067,0.843788623809814
109.192500114,0.828162908554077
110.00503993,0.81253719329834
110.848829985,0.843788623809814
111.692620039,0.843788623809814
112.489530087,0.796911478042603
113.286440134,0.796911478042603
114.06772995,0.781285762786865
114.895889997,0.828162908554077
115.739680052,0.843788623809814
116.505340099,0.765660047531128
117.333499908,0.828162908554077
118.146039963,0.81253719329834
119.00545001,0.859414339065552
119.755490065,0.750034332275391
120.521150112,0.765660047531128
121.302429914,0.781285762786865
122.068089962,0.765660047531128
122.80250001,0.734408617019653
123.583790064,0.781285762786865
124.318200111,0.734408617019653
125.115109921,0.796911478042603
125.958899975,0.843788623809814
126.771430016,0.81253719329834
127.55272007,0.781285762786865
128.287130117,0.734408617019653
134.615540028,0.81253719329834
135.428080082,0.81253719329834
155.225860119,0.734408617019653
155.975889921,0.750034332275391
156.741549969,0.765660047531128
163.210599899,0.687531471252441
163.976259947,0.765660047531128
164.804419994,0.828162908554077
165.695090055,0.890665829181671
166.648260117,0.953168630599976
167.617049932,0.968794345855713
168.492089987,0.875040054321289
169.304630041,0.81253719329834
170.164040089,0.859414339065552
171.039079905,0.875040054321289
171.804739952,0.765660047531128
172.757910013,0.953168630599976
173.679830074,0.921917259693146
174.570499897,0.890665829181671
175.523659945,0.953168630599976
176.476830006,0.953168630599976
177.38312006,0.906291484832764
178.242540121,0.859414339065552
179.055079937,0.81253719329834
179.898859978,0.843788623809814
180.695780039,0.796911478042603
181.523940086,0.828162908554077
182.336479902,0.81253719329834
183.16463995,0.828162908554077
183.961549997,0.796911478042603
196.85277009,0.890665829181671
197.696550131,0.843788623809814
198.477839947,0.781285762786865
199.415380001,0.937542915344238
200.306050062,0.890665829181671
213.681659937,0.890665829181671
214.587949991,0.906291484832764
215.416120052,0.828162908554077
240.042239904,0.828162908554077
283.747370005,1.03129720687866
284.653660059,0.906291484832764
285.513070107,0.859414339065552
286.356859922,0.843788623809814
287.216279984,0.859414339065552
288.075690031,0.859414339065552
288.935110092,0.859414339065552
289.841399908,0.906291484832764
290.794569969,0.953168630599976
291.685230017,0.890665829181671
292.497770071,0.81253719329834
293.388430119,0.890665829181671
294.357229948,0.968794345855713
295.247889996,0.890665829181671
296.12293005,0.875040054321289
296.919850111,0.796911478042603
297.763629913,0.843788623809814
298.654299974,0.890665829181671
299.498090029,0.843788623809814
300.388750076,0.890665829181671
301.185669899,0.796911478042603
301.982579947,0.796911478042603
302.826370001,0.843788623809814
303.607650042,0.781285762786865
304.373310089,0.765660047531128
305.185849905,0.81253719329834
306.045259953,0.859414339065552
306.873430014,0.828162908554077
307.670340061,0.796911478042603
308.529750109,0.859414339065552
309.420419931,0.890665829181671
310.248579979,0.828162908554077
311.123620033,0.875040054321289
312.029910088,0.906291484832764
312.936199903,0.906291484832764
313.748739958,0.81253719329834
314.608160019,0.859414339065552
315.514450073,0.906291484832764
316.326980114,0.81253719329834
317.20201993,0.875040054321289
318.077059984,0.875040054321289
318.952100039,0.875040054321289
319.795890093,0.843788623809814
320.655309916,0.859414339065552
321.56159997,0.906291484832764
322.405390024,0.843788623809814
323.264800072,0.859414339065552
324.124220133,0.859414339065552
329.358829975,0.859414339065552
330.202620029,0.843788623809814
331.015160084,0.81253719329834
331.780820131,0.765660047531128
332.57772994,0.796911478042603
333.374639988,0.796911478042603
340.812479973,0.687531471252441
364.563570023,0.828162908554077
365.376100063,0.81253719329834
366.219890118,0.843788623809814
367.04805994,0.828162908554077
367.876219988,0.828162908554077
368.673130035,0.796911478042603
369.51692009,0.843788623809814
370.360709906,0.843788623809814
371.188869953,0.828162908554077
372.017030001,0.828162908554077
372.860820055,0.843788623809814
373.642110109,0.781285762786865
374.439019918,0.796911478042603
375.267179966,0.828162908554077
379.267369986,0.81253719329834
380.095530033,0.828162908554077
380.986190081,0.890665829181671
381.798730135,0.81253719329834
382.658149958,0.859414339065552
383.533190012,0.875040054321289
384.36135006,0.828162908554077
385.205140114,0.843788623809814
386.033299923,0.828162908554077
386.845839977,0.81253719329834
387.595870018,0.750034332275391
388.345910072,0.750034332275391
389.095940113,0.750034332275391
389.908479929,0.81253719329834
390.611629963,0.703157186508179
391.392920017,0.781285762786865
392.189830065,0.796911478042603
393.018000126,0.828162908554077
393.783659935,0.765660047531128
394.596189976,0.81253719329834
395.40873003,0.81253719329834
396.205640078,0.796911478042603
396.986930132,0.781285762786865
397.768209934,0.781285762786865
398.611999989,0.843788623809814
418.331650019,0.828162908554077
419.144190073,0.81253719329834
419.972350121,0.828162908554077
420.753639936,0.781285762786865
470.834059954,0.843788623809814
471.677850008,0.843788623809814
472.506010056,0.828162908554077
473.302920103,0.796911478042603
474.037329912,0.734408617019653
474.80298996,0.765660047531128
475.615530014,0.81253719329834
476.459310055,0.843788623809814
477.287480116,0.828162908554077
478.084389925,0.796911478042603
478.912549973,0.828162908554077
479.756340027,0.843788623809814
480.600130081,0.843788623809814
481.428290129,0.828162908554077
482.287709951,0.859414339065552
483.115869999,0.828162908554077
483.975280046,0.859414339065552
484.850320101,0.875040054321289
485.694109917,0.843788623809814
486.506649971,0.81253719329834
487.381690025,0.875040054321289
488.272360086,0.890665829181671
489.131770134,0.859414339065552
489.991179943,0.859414339065552
490.897480011,0.906291484832764
491.772520065,0.875040054321289
492.694430113,0.921917259693146
493.600719929,0.906291484832764
494.444509983,0.843788623809814
495.303930044,0.859414339065552
496.163340092,0.859414339065552
496.991499901,0.828162908554077
497.866539955,0.875040054321289
498.741580009,0.875040054321289
499.569750071,0.828162908554077
500.444790125,0.875040054321289
501.319829941,0.875040054321289
502.116739988,0.796911478042603
502.976150036,0.859414339065552
503.81994009,0.843788623809814
504.632479906,0.81253719329834
505.44501996,0.81253719329834
506.320060015,0.875040054321289
507.195100069,0.875040054321289
508.023260117,0.828162908554077
508.898299932,0.875040054321289
509.804589987,0.906291484832764
510.632750034,0.828162908554077
511.507790089,0.875040054321289
512.367209911,0.859414339065552
513.210999966,0.843788623809814
514.070410013,0.859414339065552
514.929830074,0.859414339065552
515.773610115,0.843788623809814
516.633029938,0.859414339065552
517.523689985,0.890665829181671
518.351860046,0.828162908554077
519.211270094,0.859414339065552
520.070689917,0.859414339065552
520.898849964,0.828162908554077
521.742640018,0.843788623809814
522.586430073,0.843788623809814
523.38334012,0.796911478042603
524.211499929,0.828162908554077
525.055289984,0.843788623809814
525.883450031,0.828162908554077
526.711610079,0.828162908554077
527.571029902,0.859414339065552
528.367939949,0.796911478042603
529.133599997,0.765660047531128
529.868010044,0.734408617019653
530.649300098,0.781285762786865
531.430579901,0.781285762786865
532.196239948,0.765660047531128
533.024399996,0.828162908554077
533.852570057,0.828162908554077
534.649480104,0.796911478042603
535.477639914,0.828162908554077
536.305799961,0.828162908554077
537.118340015,0.81253719329834
537.93088007,0.81253719329834
538.759040117,0.828162908554077
539.571579933,0.81253719329834
540.415369987,0.843788623809814
541.290410042,0.875040054321289
542.149820089,0.859414339065552
542.977979898,0.828162908554077
543.83739996,0.859414339065552
544.649940014,0.81253719329834
545.446850061,0.796911478042603
546.275010109,0.828162908554077
547.134419918,0.859414339065552
547.962589979,0.828162908554077
548.806380033,0.843788623809814
549.681420088,0.875040054321289
550.509579897,0.828162908554077
551.337739944,0.828162908554077
552.197160006,0.859414339065552
553.04095006,0.843788623809814
553.837860107,0.796911478042603
554.681649923,0.843788623809814
555.525429964,0.843788623809814
556.353600025,0.828162908554077
557.181760073,0.828162908554077
558.00992012,0.828162908554077
558.838089943,0.828162908554077
559.619369984,0.781285762786865
560.431910038,0.81253719329834
561.275700092,0.843788623809814
562.088230133,0.81253719329834
562.963269949,0.875040054321289
563.838310003,0.875040054321289
564.666480064,0.828162908554077
565.510270119,0.843788623809814
566.385309935,0.875040054321289
574.620059967,0.828162908554077
575.463850021,0.843788623809814
576.323260069,0.859414339065552
577.135800123,0.81253719329834
577.948339939,0.81253719329834
578.79211998,0.843788623809814
579.589040041,0.796911478042603
580.432820082,0.843788623809814
581.260989904,0.828162908554077
582.057899952,0.796911478042603
582.870440006,0.81253719329834
583.682970047,0.81253719329834
584.464260101,0.781285762786865
585.29241991,0.828162908554077
586.136209965,0.843788623809814
586.933120012,0.796911478042603
587.792540073,0.859414339065552
588.589450121,0.796911478042603
589.38635993,0.796911478042603
590.245769978,0.859414339065552
591.089560032,0.843788623809814
591.886470079,0.796911478042603
592.730260134,0.843788623809814
593.60529995,0.875040054321289
594.417840004,0.81253719329834
595.261630058,0.843788623809814
596.121040106,0.859414339065552
596.964829922,0.843788623809814
597.808619976,0.843788623809814
598.65241003,0.843788623809814
599.480570078,0.828162908554077
600.308730125,0.828162908554077
601.199399948,0.890665829181671
602.058809996,0.859414339065552
602.87135005,0.81253719329834
603.699510098,0.828162908554077
604.52767992,0.828162908554077
605.387089968,0.859414339065552
606.199630022,0.81253719329834
607.074670076,0.875040054321289
607.949710131,0.875040054321289
608.77786994,0.828162908554077
609.637290001,0.859414339065552
610.496700048,0.859414339065552
611.324860096,0.828162908554077
612.184279919,0.859414339065552
613.028069973,0.843788623809814
613.887480021,0.859414339065552
614.715640068,0.828162908554077
615.543810129,0.828162908554077
616.371969938,0.828162908554077
617.121999979,0.750034332275391
617.872040033,0.750034332275391
618.653320074,0.781285762786865
619.465860128,0.81253719329834
620.278399944,0.81253719329834
621.075309992,0.796911478042603
621.903470039,0.828162908554077
622.7316401,0.828162908554077
623.544169903,0.81253719329834
624.356709957,0.81253719329834
625.169250011,0.81253719329834
625.966160059,0.796911478042603
626.731820107,0.765660047531128
627.513099909,0.781285762786865
628.31001997,0.796911478042603
629.106930017,0.796911478042603
629.888210058,0.781285762786865
630.669500113,0.781285762786865
631.482039928,0.81253719329834
632.294569969,0.81253719329834
633.12274003,0.828162908554077
633.888400078,0.765660047531128
634.685310125,0.796911478042603
635.513469934,0.828162908554077
636.310379982,0.796911478042603
637.10729003,0.796911478042603
637.982330084,0.875040054321289
638.904249907,0.921917259693146
639.779289961,0.875040054321289
640.623080015,0.843788623809814
641.49812007,0.875040054321289
642.388780117,0.890665829181671
643.201319933,0.81253719329834
643.99822998,0.796911478042603
644.826400042,0.828162908554077
645.685810089,0.859414339065552
646.482719898,0.796911478042603
692.656709909,0.828162908554077
693.469249964,0.81253719329834
694.281790018,0.81253719329834
695.125570059,0.843788623809814
695.938110113,0.81253719329834
696.797529936,0.859414339065552
697.67256999,0.875040054321289
698.516350031,0.843788623809814
699.375770092,0.859414339065552
700.266429901,0.890665829181671
701.078969955,0.81253719329834
701.89151001,0.81253719329834
702.719670057,0.828162908554077
703.547830105,0.828162908554077
704.360369921,0.81253719329834
705.235409975,0.875040054321289
706.141700029,0.906291484832764
707.00112009,0.859414339065552
707.813650131,0.81253719329834
708.657439947,0.843788623809814
709.532480001,0.875040054321289
710.376270056,0.843788623809814
711.22006011,0.843788623809814
712.063849926,0.843788623809814
712.892009974,0.828162908554077
713.720180035,0.828162908554077
714.610840082,0.890665829181671
715.501509905,0.890665829181671
716.329669952,0.828162908554077
717.220340014,0.890665829181671
718.157880068,0.937542915344238
718.986040115,0.828162908554077
719.861079931,0.875040054321289
720.736119986,0.875040054321289
721.564280033,0.828162908554077
722.454950094,0.890665829181671
723.39248991,0.937542915344238
724.267529964,0.875040054321289
725.189450026,0.921917259693146
726.06449008,0.875040054321289
726.908280134,0.843788623809814
727.78331995,0.875040054321289
728.673979998,0.890665829181671
729.517770052,0.843788623809814
730.377190113,0.859414339065552
731.283479929,0.906291484832764
732.142889977,0.859414339065552
733.017930031,0.875040054321289
733.924220085,0.906291484832764
734.768009901,0.843788623809814
735.643049955,0.875040054321289
736.502470016,0.859414339065552
737.346260071,0.843788623809814
738.236920118,0.890665829181671
739.143209934,0.906291484832764
740.033879995,0.890665829181671
740.90892005,0.875040054321289
741.799590111,0.890665829181671
742.705879927,0.906291484832764
743.565289974,0.859414339065552
744.424710035,0.859414339065552
745.268490076,0.843788623809814
746.11228013,0.843788623809814
746.893569946,0.781285762786865
747.721729994,0.828162908554077
748.565520048,0.843788623809814
749.362430096,0.796911478042603
750.221849918,0.859414339065552
751.128139973,0.906291484832764
751.940670013,0.81253719329834
752.784460068,0.843788623809814
753.643880129,0.859414339065552
754.518919945,0.875040054321289
755.315829992,0.796911478042603
756.190870047,0.875040054321289
757.081530094,0.890665829181671
763.769340038,0.875040054321289
764.613130093,0.843788623809814
765.550669909,0.937542915344238
766.519469976,0.968794345855713
767.441380024,0.921917259693146
768.378930092,0.937542915344238
769.316469908,0.937542915344238
770.175879955,0.859414339065552
771.01967001,0.843788623809814
771.894710064,0.875040054321289
772.722880125,0.828162908554077
773.535409927,0.81253719329834
774.394829988,0.859414339065552
775.269870043,0.875040054321289
776.144910097,0.875040054321289
776.988699913,0.843788623809814
777.910609961,0.921917259693146
778.832530022,0.921917259693146
779.707570076,0.875040054321289
780.598239899,0.890665829181671
781.410769939,0.81253719329834
782.160809994,0.750034332275391
782.926470041,0.765660047531128
783.692130089,0.765660047531128
784.489039898,0.796911478042603
785.317199945,0.828162908554077
786.16099,0.843788623809814
786.989150047,0.828162908554077
787.817320108,0.828162908554077
788.629849911,0.81253719329834
789.458019972,0.828162908554077
790.286180019,0.828162908554077
791.098720074,0.81253719329834
792.067510128,0.968794345855713
799.817869902,0.781285762786865
800.646029949,0.828162908554077
801.489820004,0.843788623809814
802.317980051,0.828162908554077
803.177390099,0.859414339065552
804.005559921,0.828162908554077
804.802469969,0.796911478042603
805.646260023,0.843788623809814
806.521300077,0.875040054321289
807.333840132,0.81253719329834
808.161999941,0.828162908554077
809.037039995,0.875040054321289
809.896450043,0.859414339065552
810.740240097,0.843788623809814
811.59965992,0.859414339065552
812.427819967,0.828162908554077
813.271610022,0.843788623809814
814.068520069,0.796911478042603
814.927930117,0.859414339065552
822.990799904,0.859414339065552
823.959599972,0.968794345855713
824.975270033,1.01567149162292
825.928440094,0.953168630599976
827.006609917,1.07817435264587
828.053529978,1.0469229221344
829.069210052,1.01567149162292
830.0223701,0.953168630599976
831.02241993,1.00004577636719
831.991209984,0.968794345855713
832.881880045,0.890665829181671
833.710040092,0.828162908554077
834.491329908,0.781285762786865
835.225739956,0.734408617019653
836.022650003,0.796911478042603
836.803930044,0.781285762786865
837.600850105,0.796911478042603
838.382129908,0.781285762786865
839.241549969,0.859414339065552
840.069710016,0.828162908554077
840.897870064,0.828162908554077
841.726030111,0.828162908554077
842.585449934,0.859414339065552
843.413609982,0.828162908554077
844.226150036,0.81253719329834
845.06994009,0.843788623809814
845.913729906,0.843788623809814
846.710639954,0.796911478042603
847.491919994,0.781285762786865
848.351340055,0.859414339065552
849.210750103,0.859414339065552
850.085789919,0.875040054321289
850.898329973,0.81253719329834
851.757740021,0.859414339065552
858.570559978,0.828162908554077
863.664540052,0.843788623809814
864.5239501,0.859414339065552
865.398989916,0.875040054321289
866.258409977,0.859414339065552
875.14944005,0.796911478042603
875.930730104,0.781285762786865
876.774509907,0.843788623809814
877.618299961,0.843788623809814
878.430840015,0.81253719329834
879.259000063,0.828162908554077
880.149670124,0.890665829181671
880.99345994,0.843788623809814
881.821619987,0.828162908554077
882.665410042,0.843788623809814
883.524820089,0.859414339065552
884.321729898,0.796911478042603
885.165519953,0.843788623809814
886.024940014,0.859414339065552
886.853100061,0.828162908554077
887.743770123,0.890665829181671
888.509429932,0.765660047531128
889.306339979,0.796911478042603
890.103250027,0.796911478042603
890.931410074,0.828162908554077
891.759570122,0.828162908554077
892.572109938,0.81253719329834
893.369019985,0.796911478042603
894.21281004,0.843788623809814
895.025350094,0.81253719329834
895.822259903,0.796911478042603
896.697299957,0.875040054321289
897.634840012,0.937542915344238
898.478630066,0.843788623809814
899.338050127,0.859414339065552
900.29121995,0.953168630599976
901.088129997,0.796911478042603
901.978790045,0.890665829181671
902.900710106,0.921917259693146
903.697619915,0.796911478042603
904.588289976,0.890665829181671
905.46333003,0.875040054321289
906.307120085,0.843788623809814
907.135280132,0.828162908554077
908.057199955,0.921917259693146
908.947860003,0.890665829181671
909.807280064,0.859414339065552
910.682320118,0.875040054321289
911.557359934,0.875040054321289
912.416769981,0.859414339065552
913.244930029,0.828162908554077
914.07310009,0.828162908554077
914.916880131,0.843788623809814
915.745049953,0.828162908554077
916.588840008,0.843788623809814
917.432620049,0.843788623809814
918.245160103,0.81253719329834
919.057699919,0.81253719329834
919.917109966,0.859414339065552
920.714030027,0.796911478042603
921.510940075,0.796911478042603
922.323470116,0.81253719329834
923.214139938,0.890665829181671
924.026679993,0.81253719329834
924.839210033,0.81253719329834
925.698630095,0.859414339065552
926.57366991,0.875040054321289
927.433079958,0.859414339065552
928.308120012,0.875040054321289
929.167540073,0.859414339065552
929.964450121,0.796911478042603
930.776989937,0.81253719329834
931.573899984,0.796911478042603
932.417690039,0.843788623809814
933.230220079,0.81253719329834
934.027130127,0.796911478042603
934.88654995,0.859414339065552
935.777209997,0.890665829181671
936.621000051,0.843788623809814
937.480420113,0.859414339065552
938.339829922,0.859414339065552
939.152369976,0.81253719329834
939.96491003,0.81253719329834
940.777440071,0.81253719329834
941.621230125,0.843788623809814
942.402519941,0.781285762786865
943.183799982,0.781285762786865
944.011970043,0.828162908554077
944.793250084,0.781285762786865
945.6057899,0.81253719329834
946.465199947,0.859414339065552
947.293370008,0.828162908554077
948.137160063,0.843788623809814
949.012200117,0.875040054321289
949.887239933,0.875040054321289
950.731019974,0.843788623809814
951.606060028,0.875040054321289
952.512360096,0.906291484832764
953.356139898,0.843788623809814
954.246809959,0.890665829181671
955.074970007,0.828162908554077
955.934390068,0.859414339065552
956.746920109,0.81253719329834
957.637589931,0.890665829181671
958.496999979,0.859414339065552
959.32517004,0.828162908554077
960.200210094,0.875040054321289
961.059619904,0.859414339065552
961.950289965,0.890665829181671
962.731570005,0.781285762786865
963.54411006,0.81253719329834
964.341020107,0.796911478042603
965.05979991,0.718782901763916
965.825459957,0.765660047531128
966.575500011,0.750034332275391
967.341160059,0.765660047531128
968.106820107,0.765660047531128
968.856849909,0.750034332275391
969.622509956,0.765660047531128
970.403800011,0.781285762786865
971.185090065,0.781285762786865
971.982000113,0.796911478042603
972.763279915,0.781285762786865
973.591449976,0.828162908554077
974.46649003,0.875040054321289
975.310270071,0.843788623809814
976.154060125,0.843788623809814
976.966599941,0.81253719329834
977.794759989,0.828162908554077
978.576050043,0.781285762786865
979.372960091,0.796911478042603
980.2011199,0.828162908554077
980.966779947,0.765660047531128
981.794950008,0.828162908554077
982.513730049,0.718782901763916
983.216890097,0.703157186508179
983.966919899,0.750034332275391
984.779459953,0.81253719329834
985.529489994,0.750034332275391
986.326400042,0.796911478042603
987.107690096,0.781285762786865
987.888969898,0.781285762786865
988.670259953,0.781285762786865
989.514050007,0.843788623809814
990.326590061,0.81253719329834
991.139120102,0.81253719329834
991.904779911,0.765660047531128
992.607939959,0.703157186508179
1000.54579997,0.81253719329834
1001.31146002,0.765660047531128
1001.99900007,0.687531471252441
1007.34298992,0.734408617019653
1008.06176996,0.718782901763916
1008.82743001,0.765660047531128
1009.65560007,0.828162908554077
1010.57751012,0.921917259693146
1011.56192994,0.98442006111145
1012.56198001,1.00004577636719
1013.51515007,0.953168630599976
1014.49957013,0.98442006111145
1015.29647994,0.796911478042603
1016.14026999,0.843788623809814
1016.90593004,0.765660047531128
1017.67159009,0.765660047531128
1018.57787991,0.906291484832764
1019.45291996,0.875040054321289
1020.37484002,0.921917259693146
1021.18737006,0.81253719329834
1022.04679012,0.859414339065552
1022.92182994,0.875040054321289
1023.79686999,0.875040054321289
1024.53128004,0.734408617019653
1030.48466992,0.859414339065552
1031.23470998,0.750034332275391
1032.10975003,0.875040054321289
1032.96916008,0.859414339065552
1033.78170013,0.81253719329834
1034.65673995,0.875040054321289
1035.51615,0.859414339065552
1036.32869005,0.81253719329834
1037.14123011,0.81253719329834
1038.01626992,0.875040054321289
1038.84442997,0.828162908554077
1039.62572002,0.781285762786865
1040.53201008,0.906291484832764
1041.40705013,0.875040054321289
1042.23520994,0.828162908554077
1043.09463,0.859414339065552
1043.96967006,0.875040054321289
1044.7822001,0.81253719329834
1045.67286992,0.890665829181671
1046.54790998,0.875040054321289
1047.43858004,0.890665829181671
1048.29799008,0.859414339065552
1049.1417799,0.843788623809814
1049.98556995,0.843788623809814
1050.78248,0.796911478042603
1051.62627006,0.843788623809814
1052.50131011,0.875040054321289
1053.32946992,0.828162908554077
1054.14200997,0.81253719329834
1054.95454001,0.81253719329834
1055.81396008,0.859414339065552
1056.65775013,0.843788623809814
1057.53278995,0.875040054321289
1058.59534001,1.06254863739014
1065.26751995,0.828162908554077
1066.12693,0.859414339065552
1066.97072005,0.843788623809814
1089.89364004,0.859414339065552
1090.6905601,0.796911478042603
1091.54996991,0.859414339065552
1092.29999995,0.750034332275391
1093.11254001,0.81253719329834
1093.92508006,0.81253719329834
1094.76887012,0.843788623809814
1095.59702992,0.828162908554077
1096.40956998,0.81253719329834
1097.26898003,0.859414339065552
1098.12840009,0.859414339065552
1098.97218013,0.843788623809814
1099.80034995,0.828162908554077
1100.67539001,0.875040054321289
1101.53480005,0.859414339065552
1102.3317101,0.796911478042603
1103.12861991,0.796911478042603
1103.92553997,0.796911478042603
1104.76933002,0.843788623809814
1105.59749007,0.828162908554077
1106.39440012,0.796911478042603
1107.23818994,0.843788623809814
1108.11322999,0.875040054321289
1122.44200993,0.921917259693146
1123.28579998,0.843788623809814
1124.16084003,0.875040054321289
1124.94212008,0.781285762786865
1125.8796699,0.937542915344238
1126.73907995,0.859414339065552
1127.55162001,0.81253719329834
1128.39541006,0.843788623809814
1129.25482011,0.859414339065552
1130.16110992,0.906291484832764
1131.03614998,0.875040054321289
1139.75530005,0.859414339065552
1152.52151012,0.859414339065552
1153.38092995,0.859414339065552
1154.28722,0.906291484832764
1155.09975004,0.81253719329834
1155.9747901,0.875040054321289
1156.86545992,0.890665829181671
1157.69361997,0.828162908554077
1158.55304003,0.859414339065552
1159.47495008,0.921917259693146
1160.3656199,0.890665829181671
1161.20940995,0.843788623809814
1162.03757,0.828162908554077
1162.92824006,0.890665829181671
1163.7407701,0.81253719329834
1164.58455992,0.843788623809814
1165.44397998,0.859414339065552
1166.28777003,0.843788623809814
1167.13155007,0.843788623809814
1168.02222013,0.890665829181671
1168.89725995,0.875040054321289
1169.69417,0.796911478042603
1170.47546005,0.781285762786865
1171.2723701,0.796911478042603
1172.14740992,0.875040054321289
1172.99119997,0.843788623809814
1184.88237,0.921917259693146
1185.71053004,0.828162908554077
1186.6324501,0.921917259693146
1187.53873992,0.906291484832764
1188.38252997,0.843788623809814
1189.22632003,0.843788623809814
1190.03885007,0.81253719329834
1190.86702013,0.828162908554077
1191.69517994,0.828162908554077
1192.52333999,0.828162908554077
1193.36713004,0.843788623809814
1194.2421701,0.875040054321289
1195.0078299,0.765660047531128
1210.21165013,0.750034332275391
1211.02418995,0.81253719329834
1211.86798,0.843788623809814
1212.68051004,0.81253719329834
1213.50868011,0.828162908554077
1214.32120991,0.81253719329834
1215.13374996,0.81253719329834
1215.94629002,0.81253719329834
1216.74320006,0.796911478042603
1217.58699012,0.843788623809814
1218.39952993,0.81253719329834
1219.16518998,0.765660047531128
1219.99335003,0.828162908554077
1220.82151008,0.828162908554077
1221.63405013,0.81253719329834
1222.41533995,0.781285762786865
1223.22786999,0.81253719329834
1224.05604005,0.828162908554077
1224.8529501,0.796911478042603
1225.6654799,0.81253719329834
1232.19703007,0.828162908554077
1233.04082012,0.843788623809814
1233.83772993,0.796911478042603
1234.68151999,0.843788623809814
1235.54094005,0.859414339065552
1236.36910009,0.828162908554077
1237.18163991,0.81253719329834
1238.02541995,0.843788623809814
1238.86921,0.843788623809814
1239.69738007,0.828162908554077
1240.54116011,0.843788623809814
1241.38494992,0.843788623809814
1242.21311998,0.828162908554077
1243.05691004,0.843788623809814
1243.86944008,0.81253719329834
1244.7288599,0.859414339065552
1245.54138994,0.81253719329834
1246.41643,0.875040054321289
1247.35398006,0.937542915344238
1254.96370006,0.890665829181671
1255.80749011,0.843788623809814
1256.65127993,0.843788623809814
1257.55756998,0.906291484832764
1258.44823003,0.890665829181671
1259.27640009,0.828162908554077
1260.12018991,0.843788623809814
1260.97959995,0.859414339065552
1261.80776,0.828162908554077
1262.66718006,0.859414339065552
1263.51097012,0.843788623809814
1264.33912992,0.828162908554077
1270.79255009,0.718782901763916
1276.30842996,0.890665829181671
1277.21472001,0.906291484832764
1278.10538006,0.890665829181671
1278.98042011,0.875040054321289
1279.83983994,0.859414339065552
1280.63674998,0.796911478042603
1281.43366003,0.796911478042603
1282.21495008,0.781285762786865
1282.99623013,0.781285762786865
1283.82439995,0.828162908554077
1284.63692999,0.81253719329834
1285.41822004,0.781285762786865
1286.2307601,0.81253719329834
1287.09016991,0.859414339065552
1287.93395996,0.843788623809814
1288.69962001,0.765660047531128
1289.54341006,0.843788623809814
1290.38720012,0.843788623809814
1291.21535993,0.828162908554077
1292.01226997,0.796911478042603
1292.84043002,0.828162908554077
1293.66860008,0.828162908554077
1294.44988012,0.781285762786865
1295.27804995,0.828162908554077
1296.09057999,0.81253719329834
1296.93437004,0.843788623809814
1297.73128009,0.796911478042603
1298.5281899,0.796911478042603
1299.37197995,0.843788623809814
1300.20015001,0.828162908554077
1301.01268005,0.81253719329834
1301.82522011,0.81253719329834
1302.68462992,0.859414339065552
1303.48154998,0.796911478042603
1304.30971003,0.828162908554077
1305.12225008,0.81253719329834
1305.96603012,0.843788623809814
1306.77856994,0.81253719329834
1307.59110999,0.81253719329834
1308.41927004,0.828162908554077
1309.32556009,0.906291484832764
1310.10684991,0.781285762786865
1310.95063996,0.843788623809814
1311.79443002,0.843788623809814
1312.65384007,0.859414339065552
1313.45075011,0.796911478042603
1314.29453993,0.843788623809814
1315.13832998,0.843788623809814
1315.99774003,0.859414339065552
1316.84153008,0.843788623809814
1317.70094991,0.859414339065552
1318.54473996,0.843788623809814
1319.37290001,0.828162908554077
1320.16981006,0.796911478042603
1320.9667201,0.796911478042603
1321.79487991,0.828162908554077
1322.57616997,0.781285762786865
1323.45121002,0.875040054321289
1324.26375008,0.81253719329834
1325.10754013,0.843788623809814
1325.88881993,0.781285762786865
1326.70135999,0.81253719329834
1327.49827003,0.796911478042603
1328.34206009,0.843788623809814
1329.1077199,0.765660047531128
1329.93587995,0.828162908554077
1330.79530001,0.859414339065552
1331.56096005,0.765660047531128
1332.3734901,0.81253719329834
1333.18602991,0.81253719329834
1334.04543996,0.859414339065552
1334.82673001,0.781285762786865
1335.62364006,0.796911478042603
1336.43618011,0.81253719329834
1337.26433992,0.828162908554077
1338.09249997,0.828162908554077
1338.90504003,0.81253719329834
1339.76446009,0.859414339065552
1340.57699013,0.81253719329834
1341.37390995,0.796911478042603
1342.18643999,0.81253719329834
1343.04586005,0.859414339065552
1343.92090011,0.875040054321289
1344.74905992,0.828162908554077
1345.57721996,0.828162908554077
1346.43664002,0.859414339065552
1347.29605007,0.859414339065552
1348.12421012,0.828162908554077
1348.95237994,0.828162908554077
1349.82742,0.875040054321289
1350.60870004,0.781285762786865
1351.45249009,0.843788623809814
1352.2493999,0.796911478042603
1353.09318995,0.843788623809814
1353.87448001,0.781285762786865
1354.73389006,0.859414339065552
1385.14153004,0.859414339065552
1386.0009501,0.859414339065552
1386.84473991,0.843788623809814
1387.67289996,0.828162908554077
1388.54794002,0.875040054321289
1389.40735006,0.859414339065552
1390.21989012,0.81253719329834
1391.01679993,0.796911478042603
1391.84496999,0.828162908554077
1392.68875003,0.843788623809814
1393.50129008,0.81253719329834
1394.3450799,0.843788623809814
1395.15761995,0.81253719329834
1395.98578,0.828162908554077
1396.75144005,0.765660047531128
1397.64211011,0.890665829181671
1398.45463991,0.81253719329834
1399.28280997,0.828162908554077
1400.14222002,0.859414339065552
1400.95476007,0.81253719329834
1401.76729012,0.81253719329834
1402.56420994,0.796911478042603
1403.47049999,0.906291484832764
1404.28303003,0.81253719329834
1405.04869008,0.765660047531128
1405.89248013,0.843788623809814
1406.70501995,0.81253719329834
1407.53318,0.828162908554077
1408.34572005,0.81253719329834
1409.15826011,0.81253719329834
1410.01766992,0.859414339065552
1410.87708998,0.859414339065552
1411.70525002,0.828162908554077
1412.54904008,0.843788623809814
1413.40845013,0.859414339065552
1414.23661995,0.828162908554077
1415.06478,0.828162908554077
1415.90857005,0.843788623809814
1416.84611011,0.937542915344238
1429.08103991,0.718782901763916
1429.86232996,0.781285762786865
1430.59674001,0.734408617019653
1431.31552005,0.718782901763916
1435.84698009,0.750034332275391
1436.62826991,0.781285762786865
1446.80061007,0.796911478042603
1447.59752011,0.796911478042603
1448.36317992,0.765660047531128
1449.16008997,0.796911478042603
1449.97263002,0.81253719329834
1450.78516006,0.81253719329834
1451.55082011,0.765660047531128
1452.36335993,0.81253719329834
1453.20714998,0.843788623809814
1454.00406003,0.796911478042603
1454.83222008,0.828162908554077
1455.7541399,0.921917259693146
1456.53542995,0.781285762786865
1457.34796,0.81253719329834
1458.16050005,0.81253719329834
1466.20774007,0.828162908554077
1467.00466013,0.796911478042603
1467.80156994,0.796911478042603
1468.62972999,0.828162908554077
1469.50477004,0.875040054321289
1470.33293009,0.828162908554077
1471.22359991,0.890665829181671
1480.34902,0.828162908554077
1481.17718005,0.828162908554077
1488.69315004,0.859414339065552
1489.55256009,0.859414339065552
1490.36509991,0.81253719329834
1491.24013996,0.875040054321289
1492.11518002,0.875040054321289
1492.97459006,0.859414339065552
1493.80276012,0.828162908554077
1494.67779994,0.875040054321289
1495.52158999,0.843788623809814
1496.36537004,0.843788623809814
1497.20916009,0.843788623809814
1498.06857991,0.859414339065552
1498.94361997,0.875040054321289
1499.75615001,0.81253719329834
1500.56869006,0.81253719329834
1501.41248012,0.843788623809814
1502.20938993,0.796911478042603
1503.03755999,0.828162908554077
1503.88134003,0.843788623809814
1504.72513008,0.843788623809814
1505.6157999,0.890665829181671
1506.41270995,0.796911478042603
1507.25650001,0.843788623809814
1508.13154006,0.875040054321289
1508.94408011,0.81253719329834
1509.75660992,0.81253719329834
1517.17882991,0.81253719329834
1517.94448996,0.765660047531128
1518.72577,0.781285762786865
1519.47581005,0.750034332275391
1520.2414701,0.765660047531128
1520.9914999,0.750034332275391
1527.9762001,0.81253719329834
1528.78872991,0.81253719329834
1529.57001996,0.781285762786865
1530.35131001,0.781285762786865
1531.17947006,0.828162908554077
1531.99201012,0.81253719329834
1532.78891993,0.796911478042603
1533.58582997,0.796911478042603
1534.42962003,0.843788623809814
1542.03934002,1.01567149162292
1542.82063007,0.781285762786865
1543.55503011,0.734408617019653
1544.35194993,0.796911478042603
1545.18010998,0.828162908554077
1546.02390003,0.843788623809814
1546.80518007,0.781285762786865
1547.63335013,0.828162908554077
1548.47713995,0.843788623809814
1549.32091999,0.843788623809814
1550.13346004,0.81253719329834
1550.83662009,0.703157186508179
1551.80540991,0.968794345855713
1552.61794996,0.81253719329834
1557.58693004,0.859414339065552
1558.43072009,0.843788623809814
1559.24325013,0.81253719329834
1560.05578995,0.81253719329834
1560.89958,0.843788623809814
1561.69649005,0.796911478042603
1565.61854005,0.781285762786865
1566.41546011,0.796911478042603
1567.21236992,0.796911478042603
1567.97802997,0.765660047531128
1568.79056001,0.81253719329834
1569.60310006,0.81253719329834
1570.40001011,0.796911478042603
1571.21254992,0.81253719329834
1572.07196999,0.859414339065552
1572.90013003,0.828162908554077
1573.66579008,0.765660047531128
1574.49395013,0.828162908554077
1575.35336995,0.859414339065552
1576.21278,0.859414339065552
1577.00969005,0.796911478042603
1578.02536011,1.01567149162292
1578.74414992,0.718782901763916
1579.52542996,0.781285762786865
1580.33797002,0.81253719329834
1581.19738007,0.859414339065552
1582.04117012,0.843788623809814
1582.88495994,0.843788623809814
1583.69749999,0.81253719329834
1584.52566004,0.828162908554077
1585.35382009,0.828162908554077
1586.15073013,0.796911478042603
1586.96326995,0.81253719329834
1587.82269001,0.859414339065552
1588.63522005,0.81253719329834
1589.4321301,0.796911478042603
1590.27591991,0.843788623809814
1591.11970997,0.843788623809814
1591.94788003,0.828162908554077
1592.74479008,0.796911478042603
1593.60420012,0.859414339065552
1594.46361995,0.859414339065552
1595.30739999,0.843788623809814
1596.18244004,0.875040054321289
1596.94810009,0.765660047531128
1597.79188991,0.843788623809814
1598.60442996,0.81253719329834
1599.44822001,0.843788623809814
1600.32326007,0.875040054321289
1601.15142012,0.828162908554077
1601.96395993,0.81253719329834
1602.85461998,0.890665829181671
1603.69841003,0.843788623809814
1604.51095009,0.81253719329834
1605.3547399,0.843788623809814
1606.19852996,0.843788623809814
1607.02669001,0.828162908554077
1607.83923006,0.81253719329834
1608.68302011,0.843788623809814
1609.51117992,0.828162908554077
1610.35496998,0.843788623809814
1611.15188003,0.796911478042603
1611.98004007,0.828162908554077
1612.88633013,0.906291484832764
1613.69886994,0.81253719329834
1614.51141,0.81253719329834
1615.37082005,0.859414339065552
1616.23024011,0.859414339065552
1617.04276991,0.81253719329834
1617.83968997,0.796911478042603
1618.66785002,0.828162908554077
1619.52726007,0.859414339065552
1620.33980012,0.81253719329834
1621.19920993,0.859414339065552
1622.04299998,0.843788623809814
1622.90242004,0.859414339065552
1623.71495008,0.81253719329834
1624.5587399,0.843788623809814
1625.41815996,0.859414339065552
1626.26195002,0.843788623809814
1627.05886006,0.796911478042603
1627.91827011,0.859414339065552
1628.79330993,0.875040054321289
1629.62146997,0.828162908554077
1630.44964004,0.828162908554077
1631.30905008,0.859414339065552
1632.1528399,0.843788623809814
1632.98099995,0.828162908554077
1633.82479,0.843788623809814
1634.69983006,0.875040054321289
1635.55925012,0.859414339065552
1636.37177992,0.81253719329834
1637.24681997,0.875040054321289
1638.10624003,0.859414339065552
1638.93440008,0.828162908554077
1639.7469399,0.81253719329834
1640.62197995,0.875040054321289
1641.51264,0.890665829181671
1642.32518005,0.81253719329834
1643.16897011,0.843788623809814
1644.02837992,0.859414339065552
1644.90341997,0.875040054321289
1645.74721003,0.843788623809814
1646.57538009,0.828162908554077
1647.43479013,0.859414339065552
1648.26294994,0.828162908554077
1649.04424,0.781285762786865
1649.84115005,0.796911478042603
1650.63806009,0.796911478042603
1651.4349699,0.796911478042603
1652.20062995,0.765660047531128
1653.01317,0.81253719329834
1653.84133005,0.828162908554077
1654.6382401,0.796911478042603
1655.45077991,0.81253719329834
1656.26331997,0.81253719329834
1657.12273002,0.859414339065552
1657.91964006,0.796911478042603
1658.73218012,0.81253719329834
1659.56033993,0.828162908554077
1660.37287998,0.81253719329834
1661.16979003,0.796911478042603
1661.95108008,0.781285762786865
1662.77924013,0.828162908554077
1663.62302995,0.843788623809814
1664.40432,0.781285762786865
1665.23248005,0.828162908554077
1666.0762701,0.843788623809814
1666.92005992,0.843788623809814
1667.70133996,0.781285762786865
1668.56076002,0.859414339065552
1669.37329006,0.81253719329834
1670.20146012,0.828162908554077
1671.01398993,0.81253719329834
1671.84215999,0.828162908554077
1672.67032003,0.828162908554077
1673.49848008,0.828162908554077
1674.3110199,0.81253719329834
1675.12355995,0.81253719329834
1675.93608999,0.81253719329834
1676.73301005,0.796911478042603
1677.5611701,0.828162908554077
1678.38932991,0.828162908554077
1679.18623996,0.796911478042603
1679.96753001,0.781285762786865
1680.78007007,0.81253719329834
1681.63948011,0.859414339065552
1682.46763992,0.828162908554077
1683.24892998,0.781285762786865
1684.09272003,0.843788623809814
1684.90526009,0.81253719329834
1685.8115499,0.906291484832764
1686.56157994,0.750034332275391
1687.421,0.859414339065552
1688.21791005,0.796911478042603
1688.99919009,0.781285762786865
1689.7960999,0.796911478042603
1690.60863996,0.81253719329834
1691.42118001,0.81253719329834
1692.21809006,0.796911478042603
1693.03063011,0.81253719329834
1693.85878992,0.828162908554077
1694.67132998,0.81253719329834
1695.42136002,0.750034332275391
1696.32765007,0.906291484832764
1703.64049006,0.828162908554077
1704.48428011,0.843788623809814
1705.35931993,0.875040054321289
1706.20309997,0.843788623809814
1707.06252003,0.859414339065552
1707.92193007,0.859414339065552
1708.8125999,0.890665829181671
1715.59416008,0.859414339065552
1716.45357013,0.859414339065552
1717.23485994,0.781285762786865
1718.07865,0.843788623809814
1718.92244005,0.843788623809814
1719.70372009,0.781285762786865
1720.51625991,0.81253719329834
1721.50067997,0.98442006111145
1722.20384002,0.703157186508179
1723.14138007,0.937542915344238
