69080.79
0.0;0.98442006111145
1.21881008148,1.21880578994751
2.25009989738,1.03129720687866
3.25014996529,1.00004577636719
11.7974200249,1.09380006790161
12.906840086,1.10942578315735
14.094399929,1.18755435943604
15.0163099766,0.921917259693146
16.2351200581,1.21880578994751
17.3757998943,1.14067721366882
37.1579499245,1.00004577636719
38.501760006,1.34381151199341
47.9865701199,1.09380006790161
48.9553699493,0.968794345855713
49.9085299969,0.953168630599976
51.0179600716,1.10942578315735
52.205509901,1.18755435943604
53.4555699825,1.25005722045898
54.5024900436,1.0469229221344
55.5337901115,1.03129720687866
80.4411799908,1.1719286441803
81.6912400723,1.25005722045898
356.172549963,0.890665829181671
356.953840017,0.781285762786865
357.844510078,0.890665829181671
358.703920126,0.859414339065552
359.657089949,0.953168630599976
360.57901001,0.921917259693146
361.532170057,0.953168630599976
362.360340118,0.828162908554077
363.250999928,0.890665829181671
364.219799995,0.968794345855713
365.25109005,1.03129720687866
366.173010111,0.921917259693146
367.110549927,0.937542915344238
709.735610008,1.00004577636719
710.813790083,1.07817435264587
711.845079899,1.03129720687866
790.411180019,0.828162908554077
818.068700075,0.609402894973755
818.818730116,0.750034332275391
819.521889925,0.703157186508179
820.240669966,0.718782901763916
820.99071002,0.750034332275391
821.756370068,0.765660047531128
822.537650108,0.781285762786865
823.381439924,0.843788623809814
824.209599972,0.828162908554077
825.115890026,0.906291484832764
825.99093008,0.875040054321289
1163.99078012,0.718782901763916
1164.77206993,0.781285762786865
1165.56897998,0.796911478042603
1166.31901002,0.750034332275391
1167.06905007,0.750034332275391
1167.95971012,0.890665829181671
1168.81912994,0.859414339065552
1169.70978999,0.890665829181671
1211.69608998,0.718782901763916
1212.57113004,0.875040054321289
1213.39929008,0.828162908554077
1230.52507997,0.937542915344238
1231.44699001,0.921917259693146
1314.77892995,0.734408617019653
1326.37320995,0.828162908554077
1327.20138001,0.828162908554077
1328.01391006,0.81253719329834
1328.82645011,0.81253719329834
1329.63898993,0.81253719329834
1330.45152998,0.81253719329834
1331.23281002,0.781285762786865
1332.01410007,0.781285762786865
1332.79538012,0.781285762786865
1333.59228992,0.796911478042603
1452.84774995,0.765660047531128
1453.61341,0.765660047531128
1558.18070006,0.796911478042603
1562.13401008,0.796911478042603
1563.02467012,0.890665829181671
1563.91533995,0.890665829181671
1702.28104997,0.781285762786865
1703.20296001,0.921917259693146
1703.98425007,0.781285762786865
1704.74991012,0.765660047531128
1705.48431993,0.734408617019653
1706.29685998,0.81253719329834
1753.67402005,0.875040054321289
1754.50219011,0.828162908554077
1758.84613991,0.843788623809814
1759.75242996,0.906291484832764
1760.56496,0.81253719329834
1761.48688006,0.921917259693146
1762.58067989,1.09380006790161
1763.61197996,1.03129720687866
1782.81597996,0.796911478042603
1783.64415002,0.828162908554077
1784.62857008,0.98442006111145
1825.70857,0.890665829181671
1826.56799006,0.859414339065552
1827.41177011,0.843788623809814
1828.25555992,0.843788623809814
1829.13059998,0.875040054321289
1830.02127004,0.890665829181671
1830.84943008,0.828162908554077
1831.70884991,0.859414339065552
1832.59950995,0.890665829181671
1833.55268002,0.953168630599976
1834.44335008,0.890665829181671
1835.33401012,0.890665829181671
1852.91294003,0.828162908554077
1853.81923008,0.906291484832764
1871.6013,0.968794345855713
1892.5085001,1.00004577636719
1893.52417994,1.01567149162292
1898.24313998,0.953168630599976
1899.19631004,0.953168630599976
1933.22912002,0.843788623809814
1934.04166007,0.81253719329834
1934.91670012,0.875040054321289
1935.71360993,0.796911478042603
1936.60426998,0.890665829181671
1937.52619004,0.921917259693146
1938.4012301,0.875040054321289
2157.89564991,0.671905755996704
2158.73943996,0.843788623809814
2182.67804003,0.906291484832764
2183.56870008,0.890665829181671
2184.3968699,0.828162908554077
2203.03834009,0.906291484832764
2203.94463992,0.906291484832764
2204.88217998,0.937542915344238
2205.77284002,0.890665829181671
2206.77289009,1.00004577636719
2207.67917991,0.906291484832764
2208.66359997,0.98442006111145
2209.69490004,1.03129720687866
2219.52346992,0.968794345855713
2220.42975998,0.906291484832764
2273.07279992,0.671905755996704
2273.90095997,0.828162908554077
2274.60412002,0.703157186508179
2275.47916007,0.875040054321289
2327.41903996,1.06254863739014
2328.40346003,0.98442006111145
2329.45038009,1.0469229221344
2330.49729991,1.0469229221344
2331.48171997,0.98442006111145
2332.62240005,1.14067721366882
2380.24957991,0.734408617019653
2380.95273995,0.703157186508179
2494.59856009,0.781285762786865
2558.22648001,0.953168630599976
2576.11791992,0.765660047531128
2577.03983998,0.921917259693146
2578.07114005,1.03129720687866
2578.8680501,0.796911478042603
2638.02700996,0.81253719329834
2712.35853004,0.98442006111145
2719.81200004,1.06254863739014
2720.9058001,1.09380006790161
2721.81208992,0.906291484832764
2722.84338999,1.03129720687866
2724.15595007,1.31256008148193
2728.90617013,0.953168630599976
2735.06270003,1.09380006790161
2736.1252501,1.06254863739014
2737.07840991,0.953168630599976
2738.37535,1.2969343662262
2739.42227006,1.0469229221344
2758.40752006,0.937542915344238
2759.3606801,0.953168630599976
2760.25134993,0.890665829181671
2761.25139999,1.00004577636719
2762.14206004,0.890665829181671
2763.20461011,1.06254863739014
2764.12652993,0.921917259693146
2765.22033,1.09380006790161
2766.23600006,1.01567149162292
2767.32980013,1.09380006790161
2768.54859996,1.21880578994751
2769.54865003,1.00004577636719
2781.37732005,1.07817435264587
2782.42424011,1.0469229221344
2783.56491995,1.14067721366882
2784.50246,0.937542915344238
2785.47125006,0.968794345855713
2786.47130013,1.00004577636719
2787.45571995,0.98442006111145
2788.37764001,0.921917259693146
2789.40893006,1.03129720687866
2790.5183599,1.10942578315735
2791.48714995,0.968794345855713
2792.64346004,1.15630292892456
2793.6278801,0.98442006111145
2794.59666991,0.968794345855713
2795.59671998,1.00004577636719
2796.59676003,1.00004577636719
2797.5655601,0.968794345855713
2798.61247993,1.0469229221344
2799.67502999,1.06254863739014
2912.41457009,1.15630292892456
2913.38335991,0.968794345855713
2914.49278998,1.10942578315735
2915.55533004,1.06254863739014
2916.57101011,1.01567149162292
2917.61792994,1.0469229221344
2918.68048,1.06254863739014
2919.66490006,0.98442006111145
2920.69619012,1.03129720687866
2932.68111992,1.01567149162292
2933.82179999,1.14067721366882
2934.88434005,1.06254863739014
2935.90002012,1.01567149162292
2936.94693995,1.0469229221344
2938.02511001,1.07817435264587
2939.10329008,1.07817435264587
2940.27521992,1.1719286441803
2941.35338998,1.07817435264587
2942.50969005,1.15630292892456
2943.61912012,1.10942578315735
2944.80666995,1.18755435943604
2945.86922002,1.06254863739014
2946.91614008,1.0469229221344
2948.08806992,1.1719286441803
2949.19749999,1.10942578315735
2950.26005006,1.06254863739014
2951.32260013,1.06254863739014
2952.43201995,1.10942578315735
2953.47895002,1.0469229221344
2954.60400009,1.12505149841309
2955.68216991,1.07817435264587
3130.09640002,1.0469229221344
3131.1433301,1.0469229221344
3132.12774992,0.98442006111145
3133.22154999,1.09380006790161
3134.28410006,1.06254863739014
3135.23727012,0.953168630599976
3183.23945999,1.01567149162292
3184.36451006,1.12505149841309
3185.5051899,1.14067721366882
3186.50523996,1.00004577636719
3192.95866013,0.953168630599976
3194.03682995,1.07817435264587
3195.17751002,1.14067721366882
3196.22443008,1.0469229221344
3197.31822991,1.09380006790161
3198.42765999,1.10942578315735
3243.58596992,0.937542915344238
3244.57038999,0.98442006111145
3245.55481005,0.98442006111145
3246.49236012,0.937542915344238
3260.0086,0.953168630599976
3261.05552006,1.0469229221344
3336.15270996,1.06254863739014
3337.24651003,1.09380006790161
3338.29343009,1.0469229221344
3339.38722992,1.09380006790161
3340.52790999,1.14067721366882
3341.55921006,1.03129720687866
3342.60613012,1.0469229221344
3343.74680996,1.14067721366882
3344.82498002,1.07817435264587
3345.9500401,1.12505149841309
3347.09070992,1.14067721366882
3348.21575999,1.12505149841309
3349.27831006,1.06254863739014
3350.37211013,1.09380006790161
3351.41903996,1.0469229221344
3352.48158002,1.06254863739014
3353.6066401,1.12505149841309
3354.60667992,1.00004577636719
3355.65359998,1.0469229221344
3356.73178005,1.07817435264587
3357.74745011,1.01567149162292
3358.79436994,1.0469229221344
3359.90380001,1.10942578315735
3360.95072007,1.0469229221344
3362.0132699,1.06254863739014
3363.15394998,1.14067721366882
3364.20087004,1.0469229221344
3365.27905011,1.07817435264587
3373.18566012,1.28130865097046
3379.13905001,1.07817435264587
3380.35786009,1.21880578994751
3381.27977991,0.921917259693146
3382.31106997,1.03129720687866
3383.35800004,1.0469229221344
3384.3736701,1.01567149162292
3385.45183992,1.07817435264587
3386.59252,1.14067721366882
3387.59257007,1.00004577636719
3388.7176199,1.12505149841309
3390.03017998,1.31256008148193
3395.26479006,1.09380006790161
3423.3754499,1.09380006790161
3424.48487997,1.10942578315735
3425.54743004,1.06254863739014
3426.57873011,1.03129720687866
3427.40688992,0.828162908554077
3431.68832994,0.968794345855713
3432.70401001,1.01567149162292
3433.68843007,0.98442006111145
3434.68847013,1.00004577636719
3435.75101995,1.06254863739014
3436.82920003,1.07817435264587
3437.87612009,1.0469229221344
3438.95428991,1.07817435264587
3440.06371999,1.10942578315735
3441.09502006,1.03129720687866
3442.11069012,1.01567149162292
3443.11072993,1.00004577636719
3444.09514999,0.98442006111145
3445.12645006,1.03129720687866
3446.3296299,1.20318007469177
3447.53280997,1.20318007469177
3448.67349005,1.14067721366882
3449.78291011,1.10942578315735
3450.81420994,1.03129720687866
3451.86113,1.0469229221344
3452.97056007,1.10942578315735
3454.0331099,1.06254863739014
3455.09565997,1.06254863739014
3456.12695003,1.03129720687866
3457.18950009,1.06254863739014
3458.28329992,1.09380006790161
3459.33023,1.0469229221344
3460.34590006,1.01567149162292
3461.39282012,1.0469229221344
3462.40848994,1.01567149162292
3463.43979001,1.03129720687866
3464.51796007,1.07817435264587
3465.5492599,1.03129720687866
3466.64305997,1.09380006790161
3467.72123003,1.07817435264587
3468.7525301,1.03129720687866
3469.76819992,1.01567149162292
3470.86199999,1.09380006790161
3471.89330006,1.03129720687866
3472.92460012,1.03129720687866
3473.95588994,1.03129720687866
3474.97157001,1.01567149162292
3475.98724008,1.01567149162292
3477.0341599,1.0469229221344
3478.08107996,1.0469229221344
3479.09676003,1.01567149162292
3480.1905601,1.09380006790161
3481.25309992,1.06254863739014
3482.30002999,1.0469229221344
3483.39383006,1.09380006790161
3484.47200012,1.07817435264587
3485.47204995,1.00004577636719
3486.51897001,1.0469229221344
3487.59714007,1.07817435264587
3488.6596899,1.06254863739014
3489.78473997,1.12505149841309
3490.87854004,1.09380006790161
3491.90984011,1.03129720687866
3492.98801994,1.07817435264587
3494.00369,1.01567149162292
3495.01936007,1.01567149162292
3496.09753013,1.07817435264587
3497.11319995,1.01567149162292
3498.16013002,1.0469229221344
3499.23830009,1.07817435264587
3500.26959991,1.03129720687866
3501.26963997,1.00004577636719
3502.30094004,1.03129720687866
3503.3166101,1.01567149162292
3504.33228993,1.01567149162292
3505.37921,1.0469229221344
3506.41051006,1.03129720687866
3507.42618012,1.01567149162292
3508.50434995,1.07817435264587
3509.50440001,1.00004577636719
3510.52007008,1.01567149162292
3511.5669899,1.0469229221344
3512.58265996,1.01567149162292
3513.62959003,1.0469229221344
3514.7077601,1.07817435264587
3515.73905993,1.03129720687866
3516.75472999,1.01567149162292
3517.84853005,1.09380006790161
3518.89545012,1.0469229221344
3519.89549994,1.00004577636719
3520.97367001,1.07817435264587
3522.03622007,1.06254863739014
3523.0518899,1.01567149162292
3524.16131997,1.10942578315735
3525.27074003,1.10942578315735
3526.3020401,1.03129720687866
3527.39583993,1.09380006790161
3528.47402,1.07817435264587
3529.47406006,1.00004577636719
3530.50536013,1.03129720687866
3531.55227995,1.0469229221344
3532.52108002,0.968794345855713
3533.55237007,1.03129720687866
3534.6149199,1.06254863739014
3535.63058996,1.01567149162292
3536.69314003,1.06254863739014
3537.7713201,1.07817435264587
3538.80260992,1.03129720687866
3539.83390999,1.03129720687866
3540.88083005,1.0469229221344
3541.86525011,0.98442006111145
3542.91217995,1.0469229221344
3543.95910001,1.0469229221344
3544.99040008,1.03129720687866
3546.0373199,1.0469229221344
3547.09986997,1.06254863739014
3548.14679003,1.0469229221344
3549.1468401,1.00004577636719
3550.19375992,1.0469229221344
3551.20942998,1.01567149162292
3552.20948005,1.00004577636719
3553.22515011,1.01567149162292
3554.27206993,1.0469229221344
3555.25648999,0.98442006111145
3556.28779006,1.03129720687866
3557.33471012,1.0469229221344
3558.33475995,1.00004577636719
3559.36605,1.03129720687866
3560.41298008,1.0469229221344
3561.4442699,1.03129720687866
3562.44431996,1.00004577636719
3563.47562003,1.03129720687866
3564.47566009,1.00004577636719
3565.46007991,0.98442006111145
3566.46012998,1.00004577636719
3567.44455004,0.98442006111145
3568.4289701,0.98442006111145
3569.49151993,1.06254863739014
3570.50718999,1.01567149162292
3571.47598004,0.968794345855713
3572.50728011,1.03129720687866
3573.50732994,1.00004577636719
3574.49175,0.98442006111145
3575.49179006,1.00004577636719
3576.49184012,1.00004577636719
3577.49187994,1.00004577636719
3578.53881001,1.0469229221344
3579.57010007,1.03129720687866
3580.58577991,1.01567149162292
3581.66394997,1.07817435264587
3582.71087003,1.0469229221344
3583.6796701,0.968794345855713
3584.72658992,1.0469229221344
3585.74225998,1.01567149162292
3586.75793004,1.01567149162292
3587.78923011,1.03129720687866
3588.89865994,1.10942578315735
3589.94558001,1.0469229221344
3591.00813007,1.06254863739014
3592.1175499,1.10942578315735
3593.21134996,1.09380006790161
3594.25828004,1.0469229221344
3595.3364501,1.07817435264587
3596.36774993,1.03129720687866
3597.4303,1.06254863739014
3598.53972006,1.10942578315735
3599.57102013,1.03129720687866
3600.60231996,1.03129720687866
3601.72737002,1.12505149841309
3602.75867009,1.03129720687866
3603.78995991,1.03129720687866
3604.82125998,1.03129720687866
3605.79005003,0.968794345855713
3606.74322009,0.953168630599976
3607.66513991,0.921917259693146
3608.60267997,0.937542915344238
3646.68254995,0.968794345855713
3647.69822001,1.01567149162292
3648.69827008,1.00004577636719
3649.74518991,1.0469229221344
3650.85461998,1.10942578315735
3651.90154004,1.0469229221344
3652.93284011,1.03129720687866
3654.01100993,1.07817435264587
3655.04231,1.03129720687866
3659.08937001,1.00004577636719
3660.35505009,1.26568293571472
3661.49572992,1.14067721366882
3662.65202999,1.15630292892456
3663.80834007,1.15630292892456
3664.83963013,1.03129720687866
3665.94905996,1.10942578315735
3667.08974004,1.14067721366882
3668.15228009,1.06254863739014
3669.18357992,1.03129720687866
3670.26176,1.07817435264587
3671.27743006,1.01567149162292
3672.33998013,1.06254863739014
3673.40251994,1.06254863739014
3674.43382001,1.03129720687866
3675.51200008,1.07817435264587
3676.60579991,1.09380006790161
3677.65271997,1.0469229221344
3678.73089004,1.07817435264587
3679.80907011,1.07817435264587
3680.84035993,1.03129720687866
3681.85604,1.01567149162292
3682.93421006,1.07817435264587
3683.99676013,1.06254863739014
3685.05930996,1.06254863739014
3686.12186003,1.06254863739014
3687.16878009,1.0469229221344
3688.18444991,1.01567149162292
3695.26290011,0.98442006111145
3696.30981994,1.0469229221344
3697.34112,1.03129720687866
3698.37242007,1.03129720687866
3713.29498005,0.921917259693146
3721.01408005,1.00004577636719
3722.02975011,1.01567149162292
3723.01416993,0.98442006111145
3724.02983999,1.01567149162292
3724.98301005,0.953168630599976
3732.12396002,0.98442006111145
3733.18651009,1.06254863739014
3740.40559006,1.09380006790161
3741.42126012,1.01567149162292
3742.39005995,0.968794345855713
3743.48386002,1.09380006790161
3744.43703008,0.953168630599976
3745.4214499,0.98442006111145
3746.43711996,1.01567149162292
3747.43716002,1.00004577636719
3748.39033008,0.953168630599976
3749.45287991,1.06254863739014
3750.48417997,1.03129720687866
3751.45297003,0.968794345855713
3752.49989009,1.0469229221344
3753.53118992,1.03129720687866
3754.53123999,1.00004577636719
3755.54691005,1.01567149162292
3756.57821012,1.03129720687866
3757.53137994,0.953168630599976
3758.54705,1.01567149162292
3759.56272006,1.01567149162292
3760.56276011,1.00004577636719
3761.51592994,0.953168630599976
3762.56286001,1.0469229221344
3763.59415007,1.03129720687866
3764.57857013,0.98442006111145
3765.64111996,1.06254863739014
3766.70367002,1.06254863739014
3767.67246008,0.968794345855713
3768.76625991,1.09380006790161
3769.76630998,1.00004577636719
3770.73510003,0.968794345855713
3771.7976501,1.06254863739014
3772.87582994,1.07817435264587
3773.86025,0.98442006111145
3774.89154005,1.03129720687866
3775.95409012,1.06254863739014
3776.95413995,1.00004577636719
3777.93856001,0.98442006111145
3778.96986008,1.03129720687866
3779.96989989,1.00004577636719
3780.96994996,1.00004577636719
3787.0483501,0.98442006111145
3788.06401992,1.01567149162292
3789.04843998,0.98442006111145
3790.07974005,1.03129720687866
3791.12666011,1.0469229221344
3792.22045994,1.09380006790161
3793.28301001,1.06254863739014
3794.28306007,1.00004577636719
3795.3456099,1.06254863739014
3796.39252996,1.0469229221344
3797.36132002,0.968794345855713
3798.40825009,1.0469229221344
3799.43953991,1.03129720687866
3800.39270997,0.953168630599976
3801.34588003,0.953168630599976
3802.3771801,1.03129720687866
3803.33034992,0.953168630599976
3804.28351998,0.953168630599976
3805.28356004,1.00004577636719
3806.2992301,1.01567149162292
3807.29927993,1.00004577636719
3808.36183,1.06254863739014
3809.44000006,1.07817435264587
3810.47130013,1.03129720687866
3811.51821995,1.0469229221344
3812.56514001,1.0469229221344
3813.61207008,1.0469229221344
3814.59648991,0.98442006111145
3815.64340997,1.0469229221344
3816.54970002,0.906291484832764
3879.44321012,0.703157186508179
3963.21267009,0.859414339065552
3978.29148006,0.921917259693146
3978.97901011,0.687531471252441
3979.68216991,0.703157186508179
3980.57282996,0.890665829181671
3981.55725002,0.98442006111145
3982.30729008,0.750034332275391
4026.49680996,0.625028610229492
4027.29372001,0.796911478042603
4037.52856994,0.671905755996704
4057.71698999,0.750034332275391
4058.57641006,0.859414339065552
4103.70346999,0.57815146446228
4346.19895005,0.718782901763916
4347.16774011,0.968794345855713
4348.19903994,1.03129720687866
4421.85865998,1.01567149162292
4429.31212997,0.98442006111145
4430.39030004,1.07817435264587
4431.4059701,1.01567149162292
4432.37476993,0.968794345855713
4433.43730998,1.06254863739014
4434.56237006,1.12505149841309
4443.23464012,0.98442006111145
4477.48621011,0.859414339065552
4537.81709003,1.0469229221344
4538.9421401,1.12505149841309
4550.9426899,1.00004577636719
4551.98961997,1.0469229221344
4553.06779003,1.07817435264587
4554.05221009,0.98442006111145
4555.02100992,0.968794345855713
4556.02104998,1.00004577636719
4556.94297004,0.921917259693146
4558.0211401,1.07817435264587
4559.06806993,1.0469229221344
4566.64653993,0.98442006111145
4567.58407998,0.937542915344238
4568.52162004,0.937542915344238
4569.36541009,0.843788623809814
4570.20919991,0.843788623809814
4571.02173996,0.81253719329834
4571.80302,0.781285762786865
4572.45930004,0.656280040740967
4573.22496009,0.765660047531128
4573.9437499,0.718782901763916
4574.70940995,0.765660047531128
4580.42842007,1.09380006790161
4581.47534013,1.0469229221344
4582.47538996,1.00004577636719
4583.49106002,1.01567149162292
4584.53798008,1.0469229221344
4585.5223999,0.98442006111145
4586.49119997,0.968794345855713
4587.47562003,0.98442006111145
4588.52254009,1.0469229221344
4589.58508992,1.06254863739014
4590.61637998,1.03129720687866
4591.64768004,1.03129720687866
4592.56960011,0.921917259693146
4593.52276993,0.953168630599976
4594.49155998,0.968794345855713
4595.53849006,1.0469229221344
4596.58541012,1.0469229221344
4597.56982994,0.98442006111145
4598.50737,0.937542915344238
4599.39804006,0.890665829181671
4600.3199501,0.921917259693146
4601.31999993,1.00004577636719
4602.30441999,0.98442006111145
4603.28884006,0.98442006111145
4604.17951012,0.890665829181671
4605.08579993,0.906291484832764
4606.05458999,0.968794345855713
4607.08589005,1.03129720687866
4608.13281012,1.0469229221344
4609.10160995,0.968794345855713
4610.05476999,0.953168630599976
4611.02357006,0.968794345855713
4612.00799012,0.98442006111145
4612.91427994,0.906291484832764
4613.85181999,0.937542915344238
4614.82062006,0.968794345855713
4615.71128011,0.890665829181671
4616.60194993,0.890665829181671
4617.55511999,0.953168630599976
4618.49266005,0.937542915344238
4619.49271011,1.00004577636719
4620.43024993,0.937542915344238
4621.39903998,0.968794345855713
4622.33659005,0.937542915344238
4623.30538011,0.968794345855713
4624.24291992,0.937542915344238
4625.19608998,0.953168630599976
4626.10238004,0.906291484832764
4627.0555501,0.953168630599976
4627.93058991,0.875040054321289
4628.79000998,0.859414339065552
4629.61817002,0.828162908554077
4630.44633007,0.828162908554077
4631.4776299,1.03129720687866
4632.46204996,0.98442006111145
4633.47772002,1.01567149162292
4634.38401008,0.906291484832764
4635.22779989,0.843788623809814
4636.05595994,0.828162908554077
4636.75911999,0.703157186508179
4637.50916004,0.750034332275391
4638.25919008,0.750034332275391
4639.1967299,0.937542915344238
4643.91569996,0.828162908554077
4644.79074001,0.875040054321289
4645.57203007,0.781285762786865
4646.52519011,0.953168630599976
4647.66586995,1.14067721366882
4648.72842002,1.06254863739014
4649.68159008,0.953168630599976
4650.74413991,1.06254863739014
4651.83793998,1.09380006790161
4652.80673003,0.968794345855713
4653.8380301,1.03129720687866
4654.94744992,1.10942578315735
4656.02563,1.07817435264587
4656.93192005,0.906291484832764
4657.94759011,1.01567149162292
4658.97888994,1.03129720687866
4660.01019001,1.03129720687866
4660.96335006,0.953168630599976
4662.0884099,1.12505149841309
4663.32283998,1.23443150520325
4664.43226004,1.10942578315735
4665.54169011,1.10942578315735
4666.58860993,1.0469229221344
4667.51052999,0.921917259693146
4668.51058006,1.00004577636719
4669.58875012,1.07817435264587
4670.54191995,0.953168630599976
4671.58884001,1.0469229221344
4672.62014008,1.03129720687866
4673.6670599,1.0469229221344
4674.79210997,1.12505149841309
4675.90154004,1.10942578315735
4676.96409011,1.06254863739014
4677.96412992,1.00004577636719
4678.99542999,1.03129720687866
4680.08923006,1.09380006790161
4681.15178013,1.06254863739014
4682.30807996,1.15630292892456
4683.37063003,1.06254863739014
4684.33942008,0.968794345855713
4685.3238399,0.98442006111145
4686.32388997,1.00004577636719
4687.24581003,0.921917259693146
4688.23023009,0.98442006111145
4689.26152992,1.03129720687866
4690.18343997,0.921917259693146
4691.13661003,0.953168630599976
4692.1054101,0.968794345855713
4693.10544991,1.00004577636719
4694.04298997,0.937542915344238
4695.05867004,1.01567149162292
4696.07434011,1.01567149162292
4697.01187992,0.937542915344238
4697.99629998,0.98442006111145
4698.91822004,0.921917259693146
4699.8557601,0.937542915344238
4700.80892992,0.953168630599976
4701.79334998,0.98442006111145
4702.79339004,1.00004577636719
4703.7153101,0.921917259693146
4704.66847992,0.953168630599976
4705.66852999,1.00004577636719
4706.73107004,1.06254863739014
4707.69987011,0.968794345855713
4708.66865993,0.968794345855713
4709.66870999,1.00004577636719
4710.63750005,0.968794345855713
4711.52817011,0.890665829181671
4712.45008993,0.921917259693146
4713.41887999,0.968794345855713
4714.41893005,1.00004577636719
4715.38772011,0.968794345855713
4716.32525992,0.937542915344238
4717.24717999,0.921917259693146
4718.18472004,0.937542915344238
4719.0753901,0.890665829181671
4720.02855992,0.953168630599976
4721.05985999,1.03129720687866
4721.99740005,0.937542915344238
4723.04432011,1.0469229221344
4724.05998993,1.01567149162292
4725.01315999,0.953168630599976
4725.96633005,0.953168630599976
4726.95075011,0.98442006111145
4727.99766994,1.0469229221344
4729.06022,1.06254863739014
4730.10714006,1.0469229221344
4731.09156013,0.98442006111145
4731.98222995,0.890665829181671
4732.93540001,0.953168630599976
4733.87294006,0.937542915344238
4734.81048989,0.937542915344238
4735.73239994,0.921917259693146
4736.84183002,1.10942578315735
4737.87313008,1.03129720687866
4738.9356699,1.06254863739014
4739.98259997,1.0469229221344
4740.92014003,0.937542915344238
4741.87331009,0.953168630599976
4742.81084991,0.937542915344238
4743.77964997,0.968794345855713
4744.70156002,0.921917259693146
4745.68598008,0.98442006111145
4746.62352991,0.937542915344238
4747.62356997,1.00004577636719
4748.60799003,0.98442006111145
4749.59241009,0.98442006111145
4750.56120992,0.968794345855713
4751.49874997,0.937542915344238
4752.51442003,1.01567149162292
4753.43634009,0.921917259693146
4754.37387991,0.937542915344238
4755.34266996,0.968794345855713
4756.26459002,0.921917259693146
4757.24901009,0.98442006111145
4758.24905992,1.00004577636719
4759.23347998,0.98442006111145
4760.15540004,0.921917259693146
4761.10856009,0.953168630599976
4762.07735991,0.968794345855713
4825.29900002,0.875040054321289
4826.26780009,0.968794345855713
4827.23658991,0.968794345855713
4828.26788998,1.03129720687866
4839.29963994,0.968794345855713
4840.20592999,0.906291484832764
4841.14348006,0.937542915344238
4842.03414011,0.890665829181671
4842.95605993,0.921917259693146
4843.86234999,0.906291484832764
4844.65926003,0.796911478042603
4845.6593101,1.00004577636719
4846.58122993,0.921917259693146
4847.45626998,0.875040054321289
4848.37818003,0.921917259693146
4849.28448009,0.906291484832764
4850.19076991,0.906291484832764
4851.01892996,0.828162908554077
4851.94085002,0.921917259693146
4852.95652008,1.01567149162292
4854.05031991,1.09380006790161
4854.98785996,0.937542915344238
4855.81602001,0.828162908554077
4856.75357008,0.937542915344238
4857.7536099,1.00004577636719
4858.67552996,0.921917259693146
4859.87871003,1.20318007469177
4860.98814011,1.10942578315735
4861.95692992,0.968794345855713
4862.94134998,0.98442006111145
4863.95702004,1.01567149162292
4864.95707011,1.00004577636719
4865.94148993,0.98442006111145
4866.84777999,0.906291484832764
4867.81657004,0.968794345855713
4868.75412011,0.937542915344238
4869.66040993,0.906291484832764
4870.64482999,0.98442006111145
4871.64487004,1.00004577636719
4872.61367011,0.968794345855713
4873.61370993,1.00004577636719
4874.56687999,0.953168630599976
4889.33317995,0.875040054321289
4890.27073002,0.937542915344238
4891.23952007,0.968794345855713
4892.1926899,0.953168630599976
4893.08334994,0.890665829181671
4894.05215001,0.968794345855713
4895.00532007,0.953168630599976
4895.97411013,0.968794345855713
4896.91165996,0.937542915344238
4897.86482,0.953168630599976
4898.84924006,0.98442006111145
4899.84928989,1.00004577636719
4900.89620996,1.0469229221344
4901.97439003,1.07817435264587
4903.02131009,1.0469229221344
4904.02135992,1.00004577636719
4918.38139009,1.06254863739014
4919.38142991,1.00004577636719
4920.45960999,1.07817435264587
4921.52216005,1.06254863739014
4922.61596012,1.09380006790161
4928.86624002,0.968794345855713
4929.85066009,0.98442006111145
4930.88195992,1.03129720687866
4942.56999993,1.01567149162292
4943.61691999,1.0469229221344
4944.72634006,1.10942578315735
4945.57013011,0.843788623809814
4946.69517994,1.12505149841309
5027.52700996,1.15630292892456
5028.52706003,1.00004577636719
5029.52710009,1.00004577636719
5038.29312992,1.07817435264587
5039.34004998,1.0469229221344
5040.43385005,1.09380006790161
5041.41827011,0.98442006111145
5042.46518993,1.0469229221344
5049.43426013,1.03129720687866
5050.49680996,1.06254863739014
5051.55936003,1.06254863739014
5052.5594101,1.00004577636719
5053.57507992,1.01567149162292
5054.60636997,1.03129720687866
5055.66892004,1.06254863739014
5056.6220901,0.953168630599976
5057.63775992,1.01567149162292
5058.63780999,1.00004577636719
5059.60660005,0.968794345855713
5060.60665011,1.00004577636719
5061.55981994,0.953168630599976
5062.48172998,0.921917259693146
5063.38803005,0.906291484832764
5064.29432011,0.906291484832764
5065.20060992,0.906291484832764
5109.89015007,0.906291484832764
5110.90582991,1.01567149162292
5111.98399997,1.07817435264587
5112.92154002,0.937542915344238
5113.89034009,0.968794345855713
5114.87475991,0.98442006111145
5115.78104997,0.906291484832764
5116.71859002,0.937542915344238
5117.70301008,0.98442006111145
5158.28298998,0.98442006111145
5159.29867005,1.01567149162292
5160.2518301,0.953168630599976
5161.22062993,0.968794345855713
5162.23629999,1.01567149162292
5163.23635006,1.00004577636719
5174.98688006,1.00004577636719
5175.90880013,0.921917259693146
5177.03384995,1.12505149841309
5178.08078003,1.0469229221344
5178.94019008,0.859414339065552
5186.28428006,1.0469229221344
5187.36245012,1.07817435264587
5188.42499995,1.06254863739014
5198.89423013,1.01567149162292
5199.83176994,0.937542915344238
5200.83182001,1.00004577636719
5201.90999007,1.07817435264587
5202.9100399,1.00004577636719
5203.87882996,0.968794345855713
5204.86325002,0.98442006111145
5205.91017008,1.0469229221344
5206.91021991,1.00004577636719
5207.91026998,1.00004577636719
5208.83218002,0.921917259693146
5209.78535008,0.953168630599976
5210.76976991,0.98442006111145
5211.76981997,1.00004577636719
5222.77031994,1.23443150520325
5223.95788002,1.18755435943604
5225.12980008,1.1719286441803
5226.0829699,0.953168630599976
5227.06738997,0.98442006111145
5228.02056003,0.953168630599976
5228.91123009,0.890665829181671
5229.9425199,1.03129720687866
5235.72404003,1.06254863739014
5236.7865901,1.06254863739014
5237.75537992,0.968794345855713
5238.72417998,0.968794345855713
5239.64609003,0.921917259693146
5240.48988008,0.843788623809814
5241.19303989,0.703157186508179
5242.08370996,0.890665829181671
5243.06813002,0.98442006111145
5243.99004006,0.921917259693146
5244.88071012,0.890665829181671
5245.92762995,1.0469229221344
5247.00581002,1.07817435264587
5247.94335008,0.937542915344238
5248.8652699,0.921917259693146
5249.83405995,0.968794345855713
5250.74035001,0.906291484832764
5251.70915008,0.968794345855713
5252.70918989,1.00004577636719
5253.67798996,0.968794345855713
5254.58428001,0.906291484832764
5255.69370008,1.10942578315735
5256.86562991,1.1719286441803
5257.80316997,0.937542915344238
5258.78760004,0.98442006111145
5259.74076009,0.953168630599976
5260.67830992,0.937542915344238
5261.72522998,1.0469229221344
5262.86591005,1.14067721366882
5264.03784013,1.1719286441803
5264.94412994,0.906291484832764
5265.83478999,0.890665829181671
5266.97547007,1.14067721366882
5268.1005199,1.12505149841309
5269.27244997,1.1719286441803
5270.38188004,1.10942578315735
5271.52255011,1.14067721366882
5272.71010995,1.18755435943604
5273.85078001,1.14067721366882
5274.91333008,1.06254863739014
5276.00712991,1.09380006790161
5277.10092998,1.09380006790161
5278.24161005,1.14067721366882
5279.30416012,1.06254863739014
5280.46045995,1.15630292892456
5281.60114002,1.14067721366882
5282.75744009,1.15630292892456
5283.75748992,1.00004577636719
5284.83565998,1.07817435264587
5285.91384006,1.07817435264587
5286.89826012,0.98442006111145
5287.91392994,1.01567149162292
5288.88271999,0.968794345855713
5289.88277006,1.00004577636719
5290.94532013,1.06254863739014
5292.02348995,1.07817435264587
5293.00791001,0.98442006111145
5299.28944993,1.03129720687866
5300.28948998,1.00004577636719
5301.30517006,1.01567149162292
5302.33646011,1.03129720687866
5303.27400994,0.937542915344238
5304.1803,0.906291484832764
5305.14909005,0.968794345855713
5309.83681011,1.0469229221344
5310.85247993,1.01567149162292
5311.79001999,0.937542915344238
5312.77444005,0.98442006111145
5313.74324012,0.968794345855713
5314.69639993,0.953168630599976
5315.58706999,0.890665829181671
5316.52461004,0.937542915344238
5317.46216011,0.937542915344238
5318.44657993,0.98442006111145
5319.49349999,1.0469229221344
5320.49354005,1.00004577636719
5321.47796011,0.98442006111145
5322.49363995,1.01567149162292
5323.46243,0.968794345855713
5324.36872005,0.906291484832764
5325.33752012,0.968794345855713
5326.33755994,1.00004577636719
5327.33761001,1.00004577636719
5328.35328007,1.01567149162292
5329.36895013,1.01567149162292
5330.38461995,1.01567149162292
