40766.6956601
0.0;0.390642881393433
0.437519788742,0.437520027160645
0.968789815903,0.531274318695068
3.09388995171,0.421894311904907
3.48452997208,0.390642881393433
3.96892976761,0.484397172927856
4.37519979477,0.40626859664917
4.85959982872,0.484397172927856
5.28148984909,0.421894311904907
10.0785899162,0.390642881393433
12.3599398136,0.515648603439331
12.7974598408,0.437520027160645
13.1724798679,0.375017166137695
13.5943698883,0.421894311904907
14.0631399155,0.468771457672119
14.5631699562,0.500022888183594
14.9694299698,0.40626859664917
15.3444499969,0.375017166137695
15.8288497925,0.484397172927856
16.2976198196,0.468771457672119
16.71950984,0.421894311904907
17.1570298672,0.437520027160645
17.5945498943,0.437520027160645
18.0320699215,0.437520027160645
18.4852199554,0.453145742416382
18.9227399826,0.437520027160645
19.3758897781,0.453145742416382
19.7821497917,0.40626859664917
20.2509298325,0.468771457672119
20.657189846,0.40626859664917
21.14158988,0.484397172927856
21.5322399139,0.390642881393433
22.0166299343,0.484397172927856
22.4541499615,0.437520027160645
22.8916699886,0.437520027160645
23.3291897774,0.437520027160645
23.7823398113,0.453145742416382
24.2198598385,0.437520027160645
24.7042598724,0.484397172927856
25.0636498928,0.359391450881958
25.4542899132,0.390642881393433
27.7356398106,0.500022888183594
28.2044198513,0.468771457672119
28.5638098717,0.359391450881958
28.985699892,0.421894311904907
29.4544699192,0.468771457672119
29.9544999599,0.500022888183594
30.3607599735,0.40626859664917
30.7357800007,0.375017166137695
31.2514297962,0.515648603439331
31.6420698166,0.390642881393433
32.0952198505,0.453145742416382
32.5327398777,0.437520027160645
32.9858798981,0.453145742416382
33.4233999252,0.437520027160645
33.892179966,0.468771457672119
34.2828199863,0.390642881393433
34.7828397751,0.500022888183594
35.1578598022,0.375017166137695
35.6266298294,0.468771457672119
36.0641498566,0.437520027160645
36.5329198837,0.468771457672119
36.9391899109,0.40626859664917
37.407959938,0.468771457672119
37.8454799652,0.437520027160645
38.3454999924,0.500022888183594
43.0800998211,0.468771457672119
43.5644898415,0.484397172927856
43.9863898754,0.421894311904907
44.3614099026,0.375017166137695
44.8614299297,0.500022888183594
45.3926999569,0.531274318695068
47.5021698475,0.437520027160645
47.9396898746,0.437520027160645
48.4084699154,0.468771457672119
48.7991099358,0.390642881393433
49.2522499561,0.453145742416382
49.7053999901,0.453145742416382
50.1429197788,0.437520027160645
50.5648097992,0.421894311904907
51.0335898399,0.468771457672119
51.4867298603,0.453145742416382
51.9398798943,0.453145742416382
54.0962297916,0.40626859664917
54.486869812,0.390642881393433
56.7057199478,0.468771457672119
57.174489975,0.468771457672119
57.6120100021,0.437520027160645
58.0026497841,0.390642881393433
58.5026798248,0.500022888183594
58.9870698452,0.484397172927856
61.143419981,0.468771457672119
61.5496897697,0.40626859664917
62.0340898037,0.484397172927856
62.4247298241,0.390642881393433
62.8934998512,0.468771457672119
63.3153998852,0.421894311904907
63.7685399055,0.453145742416382
64.1904399395,0.421894311904907
64.6592099667,0.468771457672119
65.081099987,0.421894311904907
65.5654997826,0.484397172927856
65.9561398029,0.390642881393433
66.4249098301,0.468771457672119
66.878059864,0.453145742416382
67.299959898,0.421894311904907
67.7218499184,0.421894311904907
68.1124899387,0.390642881393433
68.6437699795,0.531274318695068
69.0812897682,0.437520027160645
69.4719297886,0.390642881393433
69.8781998158,0.40626859664917
70.3782198429,0.500022888183594
70.7532398701,0.375017166137695
71.2220098972,0.468771457672119
71.6126499176,0.390642881393433
72.1282999516,0.515648603439331
72.6283199787,0.500022888183594
74.7690498829,0.421894311904907
75.1596899033,0.390642881393433
75.6597099304,0.500022888183594
76.0503599644,0.390642881393433
76.5191299915,0.468771457672119
76.9566497803,0.437520027160645
77.3941698074,0.437520027160645
77.8316898346,0.437520027160645
78.284829855,0.453145742416382
78.6754798889,0.390642881393433
79.1911199093,0.515648603439331
79.5817699432,0.390642881393433
80.0349099636,0.453145742416382
80.4880599976,0.453145742416382
80.9255797863,0.437520027160645
81.3787198067,0.453145742416382
81.7849898338,0.40626859664917
82.2693898678,0.484397172927856
82.7381598949,0.468771457672119
83.0975499153,0.359391450881958
83.4881999493,0.390642881393433
85.7695498466,0.515648603439331
86.2226998806,0.453145742416382
86.5977098942,0.375017166137695
87.0196099281,0.421894311904907
87.5039999485,0.484397172927856
87.9727799892,0.468771457672119
88.3946697712,0.421894311904907
88.7696897984,0.375017166137695
89.2853398323,0.515648603439331
89.6759798527,0.390642881393433
90.129119873,0.453145742416382
90.5666499138,0.437520027160645
91.0354199409,0.468771457672119
91.4573099613,0.421894311904907
91.9260799885,0.468771457672119
92.3323497772,0.40626859664917
92.8323698044,0.500022888183594
94.9574699402,0.390642881393433
95.4418699741,0.484397172927856
95.8793900013,0.437520027160645
96.37940979,0.500022888183594
103.379729986,0.468771457672119
105.567329884,0.484397172927856
106.051729918,0.484397172927856
106.442369938,0.390642881393433
106.801759958,0.359391450881958
107.286159992,0.484397172927856
114.770879984,0.515648603439331
115.239649773,0.468771457672119
115.661539793,0.421894311904907
116.00530982,0.343765735626221
119.177329779,0.453145742416382
119.552349806,0.375017166137695
120.083619833,0.531274318695068
122.224339962,0.390642881393433
122.693120003,0.468771457672119
123.099379778,0.40626859664917
123.615029812,0.515648603439331
125.755759954,0.390642881393433
126.130769968,0.375017166137695
130.162209988,0.515648603439331
130.630979776,0.468771457672119
131.005999804,0.375017166137695
131.396639824,0.390642881393433
135.865589857,0.40626859664917
136.318739891,0.453145742416382
136.725009918,0.40626859664917
137.240659952,0.515648603439331
139.412629843,0.421894311904907
139.75639987,0.343765735626221
142.912789822,0.421894311904907
143.287809849,0.375017166137695
