76248.04
0.0;0.906291484832764
7.45346999168,0.781285762786865
8.39101004601,0.937542915344238
16.6101300716,0.718782901763916
17.5320501328,0.921917259693146
18.4227201939,0.890665829181671
19.4071400166,0.98442006111145
65.3779900074,0.968794345855713
66.3624100685,0.98442006111145
82.8475401402,0.953168630599976
147.991150141,0.921917259693146
148.897440195,0.906291484832764
149.819360018,0.921917259693146
150.678770065,0.859414339065552
157.382200003,0.921917259693146
158.194740057,0.81253719329834
159.054160118,0.859414339065552
159.913570166,0.859414339065552
160.819859982,0.906291484832764
169.117120028,0.750034332275391
169.960900068,0.843788623809814
170.820320129,0.859414339065552
171.695360184,0.875040054321289
172.586019993,0.890665829181671
173.398560047,0.81253719329834
174.320480108,0.921917259693146
175.226770163,0.906291484832764
176.008059978,0.781285762786865
176.820590019,0.81253719329834
219.322540045,0.718782901763916
220.181950092,0.859414339065552
221.103870153,0.921917259693146
221.822650194,0.718782901763916
222.822700024,1.00004577636719
245.558120012,1.1719286441803
304.170170069,1.09380006790161
305.09209013,0.921917259693146
305.982760191,0.890665829181671
306.889050007,0.906291484832764
307.826590061,0.937542915344238
308.670380116,0.843788623809814
309.498540163,0.828162908554077
310.498589993,1.00004577636719
311.42050004,0.921917259693146
312.389300108,0.968794345855713
313.404970169,1.01567149162292
314.358139992,0.953168630599976
315.217550039,0.859414339065552
316.1707201,0.953168630599976
317.186390162,1.01567149162292
318.139559984,0.953168630599976
318.920850039,0.781285762786865
319.8740201,0.953168630599976
325.968050003,0.875040054321289
326.780580044,0.81253719329834
353.406800032,0.937542915344238
354.391220093,0.98442006111145
355.313140154,0.921917259693146
356.172550201,0.859414339065552
357.156970024,0.98442006111145
358.078890085,0.921917259693146
509.601450205,0.843788623809814
510.476490021,0.875040054321289
511.382780075,0.906291484832764
512.179690123,0.796911478042603
512.992230177,0.81253719329834
513.836019993,0.843788623809814
514.69543004,0.859414339065552
515.523600101,0.828162908554077
516.414260149,0.890665829181671
517.273679972,0.859414339065552
518.054960012,0.781285762786865
522.742680073,0.640654325485229
523.398960114,0.656280040740967
524.070860147,0.671905755996704
531.149310112,0.859414339065552
532.11811018,0.968794345855713
533.133780003,1.01567149162292
534.071320057,0.937542915344238
534.993240118,0.921917259693146
535.930780172,0.937542915344238
536.852699995,0.921917259693146
537.758990049,0.906291484832764
541.524790049,0.781285762786865
589.464480162,0.734408617019653
590.245769978,0.781285762786865
591.214560032,0.968794345855713
916.541949987,0.765660047531128
917.307610035,0.765660047531128
918.245160103,0.937542915344238
922.198460102,0.671905755996704
923.089130163,0.890665829181671
923.886039972,0.796911478042603
924.729830027,0.843788623809814
925.464240074,0.734408617019653
926.198650122,0.734408617019653
931.026990175,0.703157186508179
931.855149984,0.828162908554077
932.667690039,0.81253719329834
933.417730093,0.750034332275391
934.214640141,0.796911478042603
935.058430195,0.843788623809814
935.870959997,0.81253719329834
936.667870045,0.796911478042603
937.511660099,0.843788623809814
938.33983016,0.828162908554077
939.136739969,0.796911478042603
939.94927001,0.81253719329834
940.714930058,0.765660047531128
941.496220112,0.781285762786865
942.261880159,0.765660047531128
943.043169975,0.781285762786865
943.824450016,0.781285762786865
944.60574007,0.781285762786865
945.324520111,0.718782901763916
946.168310165,0.843788623809814
952.512350082,0.718782901763916
953.24676013,0.734408617019653
1005.53040004,0.859414339065552
1006.4210701,0.890665829181671
1007.10860014,0.687531471252441
1007.90551019,0.796911478042603
1008.67117,0.765660047531128
1009.56184006,0.890665829181671
1010.5150001,0.953168630599976
1018.09348011,0.859414339065552
1018.89039016,0.796911478042603
1019.70292997,0.81253719329834
1041.28204012,0.796911478042603
1042.11020017,0.828162908554077
1042.87585998,0.765660047531128
1043.68840003,0.81253719329834
1044.48531008,0.796911478042603
1045.23534012,0.750034332275391
1046.03226018,0.796911478042603
1046.82916999,0.796911478042603
1047.54795003,0.718782901763916
1048.45424008,0.906291484832764
1054.73578,0.906291484832764
1055.51706004,0.781285762786865
1056.25147009,0.734408617019653
1057.01713014,0.765660047531128
1057.92342019,0.906291484832764
1058.67346001,0.750034332275391
1059.36099005,0.687531471252441
1060.2047801,0.843788623809814
1061.01732016,0.81253719329834
1061.8298502,0.81253719329834
1062.61114001,0.781285762786865
1063.37680006,0.765660047531128
1064.20496011,0.828162908554077
1064.93937016,0.734408617019653
1065.83003998,0.890665829181671
1066.67383003,0.843788623809814
1067.47074008,0.796911478042603
1078.54937005,0.765660047531128
1079.3775301,0.828162908554077
1080.14319015,0.765660047531128
1080.9244802,0.781285762786865
1081.67451,0.750034332275391
1082.37767005,0.703157186508179
1083.26834011,0.890665829181671
1084.00274014,0.734408617019653
1084.73715019,0.734408617019653
1094.50322008,0.81253719329834
1095.28451014,0.781285762786865
1197.03917003,0.796911478042603
1197.85170007,0.81253719329834
1198.66424012,0.81253719329834
1199.52366018,0.859414339065552
1200.28931999,0.765660047531128
1201.03935003,0.750034332275391
1202.02377009,0.98442006111145
1205.94583011,0.906291484832764
1237.46289015,0.765660047531128
1238.2754302,0.81253719329834
1239.08797002,0.81253719329834
1239.86925006,0.781285762786865
1240.57241011,0.703157186508179
1241.38495016,0.81253719329834
1242.18185997,0.796911478042603
1242.90064001,0.718782901763916
1249.21343017,0.843788623809814
1249.93220997,0.718782901763916
1250.69787002,0.765660047531128
1251.44791007,0.750034332275391
1252.15107012,0.703157186508179
1267.12050009,0.937542915344238
1267.93304014,0.81253719329834
1271.55820012,0.796911478042603
1278.40227008,0.703157186508179
1418.5649302,0.953168630599976
1419.28372002,0.718782901763916
1428.98729014,0.781285762786865
1597.55750012,0.781285762786865
1598.41692019,0.859414339065552
1632.38722014,0.796911478042603
1798.64482999,0.765660047531128
1799.37924004,0.734408617019653
1800.14490008,0.765660047531128
1800.91056013,0.765660047531128
1801.66059017,0.750034332275391
1802.42624998,0.765660047531128
1803.17629004,0.750034332275391
1803.80132008,0.625028610229492
1807.09834003,0.765660047531128
1807.87963009,0.781285762786865
1808.67654014,0.796911478042603
1813.4736402,0.796911478042603
1814.20804,0.734408617019653
1814.98933005,0.781285762786865
1815.7549901,0.765660047531128
1824.81790018,0.765660047531128
1830.25565004,0.718782901763916
1831.0369401,0.781285762786865
1831.88073015,0.843788623809814
1832.63076019,0.750034332275391
1837.97476006,0.81253719329834
1935.54172015,0.468771457672119
1940.35443997,0.796911478042603
1941.13573003,0.781285762786865
1941.96389008,0.828162908554077
1942.71393013,0.750034332275391
1963.33986998,0.750034332275391
1968.13696003,0.765660047531128
1976.91862011,0.828162908554077
1977.74678016,0.828162908554077
1978.52806997,0.781285762786865
1979.30935001,0.781285762786865
1980.10626006,0.796911478042603
1980.96568012,0.859414339065552
1981.74696016,0.781285762786865
1982.54386997,0.796911478042603
1983.37204003,0.828162908554077
1984.21583009,0.843788623809814
1985.02836013,0.81253719329834
1985.79402018,0.765660047531128
1986.59092999,0.796911478042603
1987.43472004,0.843788623809814
1988.30976009,0.875040054321289
1989.10667014,0.796911478042603
1989.87233019,0.765660047531128
1990.79425001,0.921917259693146
1991.62241006,0.828162908554077
1992.45058012,0.828162908554077
1993.26311016,0.81253719329834
1994.10689998,0.843788623809814
1995.07570004,0.968794345855713
2171.42752004,0.437520027160645
2171.78691006,0.359391450881958
2202.71020007,0.81253719329834
2203.53837013,0.828162908554077
2204.46028018,0.921917259693146
2220.44538999,0.828162908554077
2221.16417003,0.718782901763916
2222.00796008,0.843788623809814
2222.82050014,0.81253719329834
2223.55491018,0.734408617019653
2224.35181999,0.796911478042603
2225.17998004,0.828162908554077
2225.93002009,0.750034332275391
2226.69568014,0.765660047531128
2227.47696018,0.781285762786865
2228.352,0.875040054321289
2229.11766005,0.765660047531128
2229.91457009,0.796911478042603
2230.74274015,0.828162908554077
2231.5865202,0.843788623809814
2232.39906001,0.81253719329834
2233.32098007,0.921917259693146
2262.66606998,0.968794345855713
2263.52549005,0.859414339065552
2264.44740009,0.921917259693146
2265.27557015,0.828162908554077
2266.1349802,0.859414339065552
2266.94752002,0.81253719329834
2332.99742007,0.734408617019653
2541.75697017,0.859414339065552
2542.60075998,0.843788623809814
2543.47580004,0.875040054321289
2544.3352201,0.859414339065552
2545.16338015,0.828162908554077
2546.0071702,0.843788623809814
2546.91346002,0.906291484832764
2547.74162006,0.828162908554077
2548.58541012,0.843788623809814
2549.50733018,0.921917259693146
2550.39798999,0.890665829181671
2551.27303004,0.875040054321289
2552.0543201,0.781285762786865
2552.88248014,0.828162908554077
2553.7575202,0.875040054321289
2554.58568001,0.828162908554077
2555.44510007,0.859414339065552
2556.30451012,0.859414339065552
2557.19518018,0.890665829181671
2558.03896999,0.843788623809814
2558.88276005,0.843788623809814
2559.7578001,0.875040054321289
2560.64846015,0.890665829181671
2561.4610002,0.81253719329834
2562.22666001,0.765660047531128
2563.02357006,0.796911478042603
2563.89861012,0.875040054321289
2580.10248017,0.921917259693146
2580.94626999,0.843788623809814
2581.75880003,0.81253719329834
2582.61822009,0.859414339065552
2583.38388014,0.765660047531128
2584.25892019,0.875040054321289
2585.14958,0.890665829181671
2586.24338007,1.09380006790161
2590.5092001,0.843788623809814
2591.35299015,0.843788623809814
2592.21240997,0.859414339065552
2593.08745003,0.875040054321289
2593.89998007,0.81253719329834
2607.24435019,0.859414339065552
2608.07251,0.828162908554077
2608.91630006,0.843788623809814
2609.82259011,0.906291484832764
2610.69763017,0.875040054321289
2611.57266998,0.875040054321289
2612.46333003,0.890665829181671
2613.3696301,0.906291484832764
2614.52593017,1.15630292892456
2618.32298017,0.765660047531128
2619.21363997,0.890665829181671
2643.85540009,0.828162908554077
2644.71481013,0.859414339065552
2645.57422018,0.859414339065552
2656.02783012,0.98442006111145
2656.96537018,0.937542915344238
2658.13730001,1.1719286441803
2669.54407001,1.0469229221344
2670.54412007,1.00004577636719
2671.41916013,0.875040054321289
2672.37233019,0.953168630599976
2673.29424,0.921917259693146
2674.13803005,0.843788623809814
2674.95057011,0.81253719329834
2675.82561016,0.875040054321289
2676.70064998,0.875040054321289
2677.54444003,0.843788623809814
2678.29447007,0.750034332275391
2679.10701013,0.81253719329834
2679.91955018,0.81253719329834
2680.79459,0.875040054321289
2681.70088005,0.906291484832764
2682.5602901,0.859414339065552
2683.40408015,0.843788623809814
2684.29474998,0.890665829181671
2685.21666002,0.921917259693146
2686.07608008,0.859414339065552
2691.7638402,0.859414339065552
2692.56075001,0.796911478042603
2693.38891006,0.828162908554077
2694.21708012,0.828162908554077
2695.07649016,0.859414339065552
2695.92027998,0.843788623809814
2696.81095004,0.890665829181671
2697.7172401,0.906291484832764
2698.54540014,0.828162908554077
2699.40481019,0.859414339065552
2700.31111002,0.906291484832764
2701.04551005,0.734408617019653
2701.87368011,0.828162908554077
2702.67059016,0.796911478042603
2703.52999997,0.859414339065552
2704.46755004,0.937542915344238
2705.32696009,0.859414339065552
2706.15512013,0.828162908554077
2707.03016019,0.875040054321289
2707.98333001,0.953168630599976
2708.84275007,0.859414339065552
2709.68653011,0.843788623809814
2710.56157017,0.875040054321289
2711.43660998,0.875040054321289
2712.24915004,0.81253719329834
2713.09294009,0.843788623809814
2713.99923015,0.906291484832764
2714.85864997,0.859414339065552
2715.70243001,0.843788623809814
2716.56185007,0.859414339065552
2717.45252013,0.890665829181671
2718.21818018,0.765660047531128
2718.98383999,0.765660047531128
2719.70262003,0.718782901763916
2720.46828008,0.765660047531128
2721.28082013,0.81253719329834
2722.09335017,0.81253719329834
2722.93713999,0.843788623809814
2723.79656005,0.859414339065552
2724.64034009,0.843788623809814
2725.46851015,0.828162908554077
2726.34355021,0.875040054321289
2727.20296001,0.859414339065552
2727.99987006,0.796911478042603
2728.81241012,0.81253719329834
2729.64057016,0.828162908554077
2730.43747997,0.796911478042603
2735.23458004,0.875040054321289
2736.1565001,0.921917259693146
2737.00028014,0.843788623809814
2740.29731011,0.687531471252441
2741.09422016,0.796911478042603
2741.85987997,0.765660047531128
2742.64117002,0.781285762786865
2743.50058007,0.859414339065552
2744.31312013,0.81253719329834
2745.11003017,0.796911478042603
2749.98525,0.796911478042603
2750.79779005,0.81253719329834
2751.65721011,0.859414339065552
2752.50099015,0.843788623809814
2753.46978998,0.968794345855713
2754.43858004,0.968794345855713
2755.2980001,0.859414339065552
2756.26679015,0.968794345855713
2757.18870997,0.921917259693146
2758.06375003,0.875040054321289
2758.86066008,0.796911478042603
2759.73570013,0.875040054321289
2760.67324018,0.937542915344238
2770.09555006,0.953168630599976
2771.07997012,0.98442006111145
2772.14252019,1.06254863739014
2775.92394018,0.81253719329834
2776.78336,0.859414339065552
2777.70527005,0.921917259693146
2778.54906011,0.843788623809814
2779.47098017,0.921917259693146
2780.37726998,0.906291484832764
2781.26794004,0.890665829181671
2782.09610009,0.828162908554077
2782.93989015,0.843788623809814
2783.8149302,0.875040054321289
2784.64309001,0.828162908554077
2785.44000006,0.796911478042603
2786.28379011,0.843788623809814
2787.23696017,0.953168630599976
2788.03386998,0.796911478042603
2788.81516004,0.781285762786865
2789.69020009,0.875040054321289
2790.56524014,0.875040054321289
2791.42465019,0.859414339065552
2792.19031,0.765660047531128
2798.50310016,0.859414339065552
2799.34688997,0.843788623809814
2800.19068003,0.843788623809814
2801.08134007,0.890665829181671
2801.92513013,0.843788623809814
2802.76892018,0.843788623809814
2803.59707999,0.828162908554077
2804.37837005,0.781285762786865
2805.15965009,0.781285762786865
2805.98782015,0.828162908554077
2806.8628602,0.875040054321289
2807.67539001,0.81253719329834
2823.14485002,0.81253719329834
2823.97302008,0.828162908554077
2824.83243012,0.859414339065552
2825.69184017,0.859414339065552
2826.50437999,0.81253719329834
2827.33254004,0.828162908554077
2828.2544601,0.921917259693146
2829.12950015,0.875040054321289
2829.97329021,0.843788623809814
2830.75458002,0.781285762786865
2831.62962008,0.875040054321289
2832.44215012,0.81253719329834
2833.20781016,0.765660047531128
2834.00472999,0.796911478042603
2834.84851003,0.843788623809814
2835.72355008,0.875040054321289
2836.53609014,0.81253719329834
2841.3800602,0.828162908554077
2842.33323002,0.953168630599976
2843.23952007,0.906291484832764
2844.09894013,0.859414339065552
2845.02085018,0.921917259693146
2846.16153002,1.14067721366882
2847.11470008,0.953168630599976
2848.03662014,0.921917259693146
2848.91166019,0.875040054321289
2849.80232,0.890665829181671
2850.59923005,0.796911478042603
2851.39615011,0.796911478042603
2852.25556016,0.859414339065552
2853.13059998,0.875040054321289
2853.95876002,0.828162908554077
2854.77130008,0.81253719329834
2855.67759013,0.906291484832764
2856.56826019,0.890665829181671
2857.39642,0.828162908554077
2858.22458005,0.828162908554077
2859.08400011,0.859414339065552
2859.94341016,0.859414339065552
2860.74032021,0.796911478042603
2861.53724003,0.796911478042603
2862.36540008,0.828162908554077
2863.14668012,0.781285762786865
2863.92797017,0.781285762786865
2864.72487998,0.796911478042603
2865.55304003,0.828162908554077
2866.44371009,0.890665829181671
2867.24062014,0.796911478042603
2868.00628018,0.765660047531128
2868.85007,0.843788623809814
2869.55323005,0.703157186508179
2870.31889009,0.765660047531128
2871.13142014,0.81253719329834
2880.33497,0.843788623809814
2881.17876005,0.843788623809814
2881.96005011,0.781285762786865
2882.81946015,0.859414339065552
2883.75699997,0.937542915344238
2884.60079002,0.843788623809814
2885.42895007,0.828162908554077
2886.35087013,0.921917259693146
2887.30404019,0.953168630599976
2888.16345,0.859414339065552
2889.00724006,0.843788623809814
2889.88228011,0.875040054321289
2890.72607017,0.843788623809814
2891.49172997,0.765660047531128
2975.54245019,0.875040054321289
2976.35499001,0.81253719329834
2977.18315005,0.828162908554077
2996.40278006,0.81253719329834
2997.29345012,0.890665829181671
3044.12372017,1.0469229221344
3221.0224402,0.437520027160645
3459.08020997,0.921917259693146
3460.12714005,1.0469229221344
3501.95718002,0.98442006111145
3502.89472008,0.937542915344238
3503.91039014,1.01567149162292
3504.94168997,1.03129720687866
3563.39749002,0.890665829181671
3564.28815007,0.890665829181671
3565.19445014,0.906291484832764
3566.14761019,0.953168630599976
3567.10078001,0.953168630599976
3568.00707006,0.906291484832764
3569.00712013,1.00004577636719
3569.94466019,0.937542915344238
3590.27372003,0.968794345855713
3591.32064009,1.0469229221344
3592.19568014,0.875040054321289
3593.2426002,1.0469229221344
3594.24265003,1.00004577636719
3595.18019009,0.937542915344238
3596.27399015,1.09380006790161
3597.32091999,1.0469229221344
3598.28971004,0.968794345855713
3651.38589001,0.968794345855713
3674.41819,0.953168630599976
3675.27761006,0.859414339065552
3676.18390012,0.906291484832764
3677.12144017,0.937542915344238
3678.21524,1.09380006790161
3679.12154007,0.906291484832764
3680.04345012,0.921917259693146
3681.02787018,0.98442006111145
3681.96542001,0.937542915344238
3682.82483006,0.859414339065552
3683.82488012,1.00004577636719
3692.7940402,1.06254863739014
3693.66908002,0.875040054321289
3694.54412007,0.875040054321289
3695.49728012,0.953168630599976
3696.46608019,0.968794345855713
3697.35674,0.890665829181671
3698.34116006,0.98442006111145
3707.40408015,0.781285762786865
3734.12405014,1.03129720687866
3735.03034019,0.906291484832764
3740.9681201,0.968794345855713
3741.89003015,0.921917259693146
3742.84319997,0.953168630599976
3743.89012003,1.0469229221344
3744.8589201,0.968794345855713
3745.76521015,0.906291484832764
3746.67149997,0.906291484832764
3747.68717003,1.01567149162292
3761.20342016,0.953168630599976
3777.75105,0.875040054321289
3778.62609005,0.875040054321289
3779.54801011,0.921917259693146
3785.15763998,0.906291484832764
3786.18894005,1.03129720687866
3787.2202301,1.03129720687866
3788.18903017,0.968794345855713
3800.54896998,0.968794345855713
3801.45526004,0.906291484832764
3802.33030009,0.875040054321289
3803.28347015,0.953168630599976
3804.23663998,0.953168630599976
3805.15855002,0.921917259693146
3806.09610009,0.937542915344238
3807.26803017,1.1719286441803
3808.22118998,0.953168630599976
3809.11186004,0.890665829181671
3810.04940009,0.937542915344238
3811.03382015,0.98442006111145
3811.98698997,0.953168630599976
3812.95579004,0.968794345855713
3813.9870801,1.03129720687866
3815.01838017,1.03129720687866
3815.98717999,0.968794345855713
3816.90909004,0.921917259693146
3817.87789011,0.968794345855713
3818.78418016,0.906291484832764
3819.65921998,0.875040054321289
3820.56551003,0.906291484832764
3821.5811801,1.01567149162292
3822.45622015,0.875040054321289
3823.34688997,0.890665829181671
3837.33190012,0.828162908554077
3838.31632018,0.98442006111145
3847.01985002,1.0469229221344
3847.92614007,0.906291484832764
3848.89493012,0.968794345855713
3849.92623019,1.03129720687866
3850.91065001,0.98442006111145
3851.83257008,0.921917259693146
3852.78573012,0.953168630599976
3853.8014102,1.01567149162292
3854.73895001,0.937542915344238
3855.62961006,0.890665829181671
3871.64597011,1.06254863739014
3872.61477017,0.968794345855713
3873.53667998,0.921917259693146
3874.42735004,0.890665829181671
3875.42740011,1.00004577636719
3876.25556016,0.828162908554077
3877.13059998,0.875040054321289
3878.03689003,0.906291484832764
3879.05256009,1.01567149162292
3879.99010015,0.937542915344238
3880.94326997,0.953168630599976
3881.91207004,0.968794345855713
3887.28731012,0.81253719329834
3888.20923018,0.921917259693146
3906.63195014,0.859414339065552
3907.56949019,0.937542915344238
3937.55524015,1.14067721366882
3956.89988017,1.01567149162292
3957.77491999,0.875040054321289
3958.82184005,1.0469229221344
3959.94689012,1.12505149841309
3961.02506018,1.07817435264587
3961.97823,0.953168630599976
3963.16579008,1.18755435943604
3964.15021014,0.98442006111145
3965.0252502,0.875040054321289
3965.85341001,0.828162908554077
3966.74408007,0.890665829181671
3967.85350013,1.10942578315735
3968.9160502,1.06254863739014
3969.77546,0.859414339065552
3970.86926007,1.09380006790161
3971.93181014,1.06254863739014
3972.8537302,0.921917259693146
3973.79127002,0.937542915344238
3974.82257009,1.03129720687866
3986.93250012,0.890665829181671
3987.94817019,1.01567149162292
3988.93259001,0.98442006111145
3989.76075006,0.828162908554077
3990.68267012,0.921917259693146
3991.63584018,0.953168630599976
4010.18356013,0.98442006111145
4011.0898602,0.906291484832764
4024.01232004,0.843788623809814
4024.9186101,0.906291484832764
4025.88741016,0.968794345855713
4035.79411006,0.937542915344238
4036.90354013,1.10942578315735
4040.66934013,0.953168630599976
4041.59125018,0.921917259693146
4042.46629,0.875040054321289
4043.45071006,0.98442006111145
4044.46638012,1.01567149162292
4071.70201015,0.859414339065552
4072.6551702,0.953168630599976
4073.74897003,1.09380006790161
4074.73339009,0.98442006111145
4075.70219016,0.968794345855713
4076.76473999,1.06254863739014
4077.81166005,1.0469229221344
4078.76483011,0.953168630599976
4079.74925017,0.98442006111145
4080.74928999,1.00004577636719
4081.71809006,0.968794345855713
4082.6087501,0.890665829181671
4083.57755017,0.968794345855713
4084.59322,1.01567149162292
4085.48389006,0.890665829181671
4086.4058001,0.921917259693146
4087.51523018,1.10942578315735
4088.43715,0.921917259693146
4089.31219006,0.875040054321289
4090.24973011,0.937542915344238
4091.26540017,1.01567149162292
4092.21856999,0.953168630599976
4093.09361005,0.875040054321289
4094.04678011,0.953168630599976
4094.99995017,0.953168630599976
4095.87498999,0.875040054321289
4096.71878004,0.843788623809814
4097.64069009,0.921917259693146
4098.70324016,1.06254863739014
4099.64077997,0.937542915344238
4100.53145003,0.890665829181671
4101.48462009,0.953168630599976
4102.43779016,0.953168630599976
4103.31282997,0.875040054321289
4104.20349002,0.890665829181671
4105.12541008,0.921917259693146
4106.06295013,0.937542915344238
4107.0161202,0.953168630599976
4108.03179002,1.01567149162292
4109.06309009,1.03129720687866
4109.95376015,0.890665829181671
4110.81317019,0.859414339065552
4111.76634002,0.953168630599976
4112.73513007,0.968794345855713
4113.64143014,0.906291484832764
4114.50084019,0.859414339065552
4115.45401001,0.953168630599976
4116.51656008,1.06254863739014
4117.45410013,0.937542915344238
4118.5166502,1.06254863739014
4119.59482002,1.07817435264587
4120.57924008,0.98442006111145
4121.45428014,0.875040054321289
4122.39182997,0.937542915344238
4123.32937002,0.937542915344238
4124.25129008,0.921917259693146
4125.23571014,0.98442006111145
4126.31388021,1.07817435264587
4127.28267002,0.968794345855713
4128.28272009,1.00004577636719
4129.28277016,1.00004577636719
4130.2046802,0.921917259693146
4131.04847002,0.843788623809814
4132.00164008,0.953168630599976
4133.01731014,1.01567149162292
4133.9392302,0.921917259693146
4134.82990003,0.890665829181671
4135.86119008,1.03129720687866
4136.93937016,1.07817435264587
4137.7987802,0.859414339065552
4138.67382002,0.875040054321289
4139.59574008,0.921917259693146
4140.45515013,0.859414339065552
4141.28332019,0.828162908554077
4142.18961,0.906291484832764
4175.94115019,1.06254863739014
4176.98807001,1.0469229221344
4177.89437008,0.906291484832764
4178.94129014,1.0469229221344
4179.91008019,0.968794345855713
4195.31704021,0.890665829181671
4196.31708002,1.00004577636719
4197.28588009,0.968794345855713
4204.31745005,1.0469229221344
4209.70832014,0.890665829181671
4210.75524998,1.0469229221344
4301.69691014,0.859414339065552
4340.26117015,0.859414339065552
4352.13672018,1.10942578315735
4352.99612999,0.859414339065552
4371.51260018,0.937542915344238
4372.51265001,1.00004577636719
4373.55957007,1.0469229221344
4374.48149014,0.921917259693146
4752.20191002,0.625028610229492
4753.01444006,0.81253719329834
5486.67302012,0.750034332275391
5487.6887002,1.01567149162292
5500.09551001,0.734408617019653
5500.87680006,0.781285762786865
5501.79872012,0.921917259693146
5502.61125016,0.81253719329834
5517.95571017,0.781285762786865
5518.83074999,0.875040054321289
5519.78392005,0.953168630599976
5520.6745801,0.890665829181671
5531.50320005,0.781285762786865
5532.31574011,0.81253719329834
5533.11265016,0.796911478042603
5544.87881017,0.859414339065552
5545.69134998,0.81253719329834
5546.53514004,0.843788623809814
5547.39455009,0.859414339065552
5548.25397015,0.859414339065552
5549.01963019,0.765660047531128
5558.05129004,0.875040054321289
5558.78570008,0.734408617019653
